ARR 2 0 0.082831
CrS GaussianBlur GaussianBlur medianblur_0 0.082872
CrL M 2 0 0 0.082954
S /home/xilinx/Bitstreams-axi_firewall/MedianBlur-GaussianBlur_pblock_medianblur_0_partial.bit 0.083543
L MedianBlur 0 0.401691
ARR 0 1 0.442913
CrS MedianBlur GaussianBlur gaussianblur_0 0.442943
CrL M 0 1 1 0.443012
S /home/xilinx/Bitstreams-axi_firewall/MedianBlur-MedianBlur_pblock_gaussianblur_0_partial.bit 0.460603
L MedianBlur 1 0.754488
F 0 0.759926
ARR 4 2 0.804821
CrS GaussianBlur MedianBlur medianblur_0 0.804848
CrL G 4 2 0 0.804909
S /home/xilinx/Bitstreams-axi_firewall/GaussianBlur-MedianBlur_pblock_medianblur_0_partial.bit 0.820311
L GaussianBlur 0 1.142272
ARR 2 3 1.160494
EQ 2 3
ARR 3 4 1.188354
EQ 3 4
ARR 1 5 1.199716
EQ 1 5
ARR 1 6 1.200837
EQ 1 6
ARR 4 7 1.203271
EQ 4 7
ARR 2 8 1.227683
EQ 2 8
ARR 0 9 1.231834
EQ 0 9
ARR 2 10 1.255542
EQ 2 10
F 1 1.259243
DQ 0 9
CrL M 0 9 1 1.259294
ARR 2 11 1.266527
EQ 2 11
ARR 1 12 1.278562
EQ 1 12
L MedianBlur 1 1.279763
ARR 3 13 1.300378
EQ 3 13
ARR 4 14 1.308605
EQ 4 14
ARR 4 15 1.311736
EQ 4 15
ARR 3 16 1.357165
EQ 3 16
ARR 0 17 1.374628
EQ 0 17
ARR 2 18 1.375949
EQ 2 18
F 0 1.436730
DQ 0 17
CrS GaussianBlur MedianBlur medianblur_0 1.436757
CrL M 0 17 0 1.436815
S /home/xilinx/Bitstreams-axi_firewall/MedianBlur-MedianBlur_pblock_medianblur_0_partial.bit 1.450361
L MedianBlur 0 1.780834
F 1 1.784794
DQ 1 5
CrL M 1 5 1 1.784860
ARR 1 19 1.794242
EQ 1 19
ARR 4 20 1.799263
EQ 4 20
ARR 0 21 1.823177
EQ 0 21
L MedianBlur 1 1.839762
ARR 3 22 1.842228
EQ 3 22
ARR 0 23 1.873893
EQ 0 23
ARR 4 24 1.886181
EQ 4 24
ARR 4 25 1.898508
EQ 4 25
ARR 2 26 1.909218
EQ 2 26
ARR 3 27 1.922216
EQ 3 27
ARR 3 28 1.923718
EQ 3 28
ARR 4 29 1.939623
EQ 4 29
F 1 2.008944
DQ 0 21
CrL M 0 21 1 2.009005
L MedianBlur 1 2.039794
F 0 2.288307
DQ 0 23
CrL M 0 23 0 2.288386
L MedianBlur 0 2.289771
F 1 2.379617
DQ 1 6
CrS MedianBlur GaussianBlur gaussianblur_0 2.379643
CrL G 1 6 1 2.379700
S /home/xilinx/Bitstreams-axi_firewall/MedianBlur-GaussianBlur_pblock_gaussianblur_0_partial.bit 2.390383
L GaussianBlur 1 2.710377
F 0 2.719873
DQ 1 12
CrL M 1 12 0 2.719941
L MedianBlur 0 2.739770
F 1 3.004743
DQ 1 19
CrS MedianBlur GaussianBlur gaussianblur_0 3.004773
CrL M 1 19 1 3.004839
S /home/xilinx/Bitstreams-axi_firewall/MedianBlur-MedianBlur_pblock_gaussianblur_0_partial.bit 3.005355
L MedianBlur 1 3.298296
F 0 3.309833
DQ 2 3
CrS GaussianBlur MedianBlur medianblur_0 3.309860
CrL G 2 3 0 3.309928
S /home/xilinx/Bitstreams-axi_firewall/GaussianBlur-MedianBlur_pblock_medianblur_0_partial.bit 3.310403
L GaussianBlur 0 3.624515
F 1 3.803424
DQ 2 8
CrS MedianBlur GaussianBlur gaussianblur_0 3.803452
CrL G 2 8 1 3.803518
S /home/xilinx/Bitstreams-axi_firewall/GaussianBlur-GaussianBlur_pblock_gaussianblur_0_partial.bit 3.810372
L GaussianBlur 1 4.113611
F 0 4.120645
DQ 2 10
CrS GaussianBlur MedianBlur medianblur_0 4.120677
CrL M 2 10 0 4.121297
S /home/xilinx/Bitstreams-axi_firewall/MedianBlur-GaussianBlur_pblock_medianblur_0_partial.bit 4.131351
L MedianBlur 0 4.453677
F 1 4.459888
DQ 2 11
CrS MedianBlur GaussianBlur gaussianblur_0 4.459915
CrL M 2 11 1 4.459981
S /home/xilinx/Bitstreams-axi_firewall/MedianBlur-MedianBlur_pblock_gaussianblur_0_partial.bit 4.470366
L MedianBlur 1 4.790040
F 0 4.799871
DQ 2 18
CrL M 2 18 0 4.799936
L MedianBlur 0 4.809784
F 1 5.294827
DQ 2 26
CrS MedianBlur GaussianBlur gaussianblur_0 5.294857
CrL G 2 26 1 5.294921
S /home/xilinx/Bitstreams-axi_firewall/MedianBlur-GaussianBlur_pblock_gaussianblur_0_partial.bit 5.310323
L GaussianBlur 1 5.597649
F 0 5.609833
DQ 3 4
CrL M 3 4 0 5.609901
L MedianBlur 0 5.649761
F 0 5.818216
DQ 3 13
CrL M 3 13 0 5.818274
L MedianBlur 0 5.849761
F 1 5.891826
DQ 3 16
CrS MedianBlur GaussianBlur gaussianblur_0 5.891852
CrL M 3 16 1 5.891906
S /home/xilinx/Bitstreams-axi_firewall/MedianBlur-MedianBlur_pblock_gaussianblur_0_partial.bit 5.910308
L MedianBlur 1 6.230605
F 0 6.355287
DQ 3 22
CrL M 3 22 0 6.355355
L MedianBlur 0 6.399758
F 1 6.400003
DQ 3 27
CrL M 3 27 1 6.400060
L MedianBlur 1 6.426715
F 0 6.736289
DQ 3 28
CrL M 3 28 0 6.736347
L MedianBlur 0 6.759774
F 1 6.763149
DQ 4 7
CrS MedianBlur GaussianBlur gaussianblur_0 6.763264
CrL G 4 7 1 6.763323
S /home/xilinx/Bitstreams-axi_firewall/MedianBlur-GaussianBlur_pblock_gaussianblur_0_partial.bit 6.790314
L GaussianBlur 1 7.089627
F 0 7.096426
DQ 4 14
CrL M 4 14 0 7.096493
L MedianBlur 0 7.109773
F 1 7.384020
DQ 4 15
CrS MedianBlur GaussianBlur gaussianblur_0 7.384047
CrL M 4 15 1 7.384107
S /home/xilinx/Bitstreams-axi_firewall/MedianBlur-MedianBlur_pblock_gaussianblur_0_partial.bit 7.400335
L MedianBlur 1 7.688944
F 0 7.699753
DQ 4 20
CrL M 4 20 0 7.700368
L MedianBlur 0 7.719771
F 1 8.029826
DQ 4 24
CrS MedianBlur GaussianBlur gaussianblur_0 8.029860
CrL G 4 24 1 8.029921
S /home/xilinx/Bitstreams-axi_firewall/MedianBlur-GaussianBlur_pblock_gaussianblur_0_partial.bit 8.050353
L GaussianBlur 1 8.362000
F 0 8.369884
DQ 4 25
CrL M 4 25 0 8.369953
L MedianBlur 0 8.389775
F 1 8.656358
DQ 4 29
CrL G 4 29 1 8.656423
L GaussianBlur 1 8.689758
F 0 8.894694
F 1 8.983890
END 8.983906
