ARR 2 0 0.082820
CrS GaussianBlur GaussianBlur medianblur_0 0.082868
CrL M 2 0 0 0.082949
S /home/xilinx/Bitstreams-axi_firewall/MedianBlur-GaussianBlur_pblock_medianblur_0_partial.bit 0.084122
L MedianBlur 0 0.396294
ARR 0 1 0.432935
CrS MedianBlur GaussianBlur gaussianblur_0 0.432962
CrL M 0 1 1 0.433027
S /home/xilinx/Bitstreams-axi_firewall/MedianBlur-MedianBlur_pblock_gaussianblur_0_partial.bit 0.460585
L MedianBlur 1 0.757749
F 0 0.759824
ARR 4 2 0.804717
CrS GaussianBlur MedianBlur medianblur_0 0.804748
CrL G 4 2 0 0.804816
S /home/xilinx/Bitstreams-axi_firewall/GaussianBlur-MedianBlur_pblock_medianblur_0_partial.bit 0.830311
L GaussianBlur 0 1.151136
ARR 2 3 1.161865
R 1 1.162145
EQ 0 1
EV 1 3 1 1.162393
CrS MedianBlur MedianBlur gaussianblur_0 1.162411
CrL G 2 3 1 1.162447
S /home/xilinx/Bitstreams-axi_firewall/GaussianBlur-GaussianBlur_pblock_gaussianblur_0_partial.bit 1.170425
L GaussianBlur 1 1.489836
F 0 1.499916
DQ 0 1
CrS GaussianBlur MedianBlur medianblur_0 1.499946
CrL M 0 1 0 1.500010
S /home/xilinx/Bitstreams-axi_firewall/MedianBlur-GaussianBlur_pblock_medianblur_0_partial.bit 1.520349
L MedianBlur 0 1.825890
F 1 1.829824
ARR 3 4 1.858216
CrS MedianBlur GaussianBlur gaussianblur_0 1.858247
CrL M 3 4 1 1.858305
S /home/xilinx/Bitstreams-axi_firewall/MedianBlur-MedianBlur_pblock_gaussianblur_0_partial.bit 1.880354
L MedianBlur 1 2.191331
ARR 1 5 2.211084
R 0 2.211349
EQ 0 1
EV 1 5 0 2.211540
CrL M 1 5 0 2.211565
ARR 1 6 2.212722
EQ 1 6
ARR 4 7 2.215174
R 0 2.215455
EQ 1 5
EV 5 7 0 2.215634
CrS MedianBlur MedianBlur medianblur_0 2.215649
CrL G 4 7 0 2.215682
S /home/xilinx/Bitstreams-axi_firewall/GaussianBlur-MedianBlur_pblock_medianblur_0_partial.bit 2.240407
L GaussianBlur 0 2.581289
F 1 2.589788
DQ 0 1
CrL M 0 1 1 2.590406
L MedianBlur 1 2.590483
ARR 2 8 2.615323
R 1 2.615622
EQ 0 1
EV 1 8 1 2.615805
CrS MedianBlur MedianBlur gaussianblur_0 2.615820
CrL G 2 8 1 2.615852
S /home/xilinx/Bitstreams-axi_firewall/GaussianBlur-GaussianBlur_pblock_gaussianblur_0_partial.bit 2.630336
L GaussianBlur 1 2.953212
F 0 2.959929
DQ 0 1
CrS GaussianBlur MedianBlur medianblur_0 2.959962
CrL M 0 1 0 2.960569
S /home/xilinx/Bitstreams-axi_firewall/MedianBlur-GaussianBlur_pblock_medianblur_0_partial.bit 2.970357
L MedianBlur 0 3.277852
F 1 3.279927
DQ 1 6
CrL G 1 6 1 3.280532
ARR 0 9 3.285101
EQ 0 9
L GaussianBlur 1 3.289819
ARR 2 10 3.308818
R 0 3.309113
EQ 0 1
EV 1 10 0 3.309298
CrL M 2 10 0 3.309324
ARR 2 11 3.320130
R 1 3.320403
EQ 1 6
EV 6 11 1 3.320583
CrS MedianBlur MedianBlur gaussianblur_0 3.320598
CrL M 2 11 1 3.320630
S /home/xilinx/Bitstreams-axi_firewall/MedianBlur-MedianBlur_pblock_gaussianblur_0_partial.bit 3.330370
L MedianBlur 0 3.349845
L MedianBlur 1 3.627711
F 0 3.629825
DQ 0 9
CrL M 0 9 0 3.630436
L MedianBlur 0 3.649822
ARR 1 12 3.651790
R 0 3.652079
EQ 0 9
EV 9 12 0 3.652257
CrL M 1 12 0 3.652283
ARR 3 13 3.674103
R 0 3.674370
EQ 1 12
EV 12 13 0 3.674546
CrL M 3 13 0 3.674571
ARR 4 14 3.682793
R 0 3.683055
EQ 3 13
EV 13 14 0 3.683229
CrL M 4 14 0 3.683254
ARR 4 15 3.686428
R 1 3.686689
EQ 2 11
EV 11 15 1 3.686867
CrL M 4 15 1 3.686892
L MedianBlur 0 3.689813
L MedianBlur 1 3.689863
ARR 3 16 3.732346
EQ 3 16
ARR 0 17 3.749790
EQ 0 17
ARR 2 18 3.751120
EQ 2 18
ARR 1 19 3.824978
EQ 1 19
ARR 4 20 3.829982
EQ 4 20
ARR 0 21 3.853895
EQ 0 21
ARR 3 22 3.872945
EQ 3 22
ARR 0 23 3.904614
EQ 0 23
ARR 4 24 3.916901
EQ 4 24
ARR 4 25 3.929228
EQ 4 25
ARR 2 26 3.939934
EQ 2 26
ARR 3 27 3.952933
EQ 3 27
ARR 3 28 3.954438
EQ 3 28
F 1 3.961446
DQ 0 1
CrL M 0 1 1 3.961502
L MedianBlur 1 3.961540
ARR 4 29 3.970544
R 1 3.970831
EQ 0 1
EV 1 29 1 3.971013
CrS MedianBlur MedianBlur gaussianblur_0 3.971028
CrL G 4 29 1 3.971059
S /home/xilinx/Bitstreams-axi_firewall/MedianBlur-GaussianBlur_pblock_gaussianblur_0_partial.bit 3.990319
L GaussianBlur 1 4.222446
F 0 4.230032
DQ 0 9
CrL M 0 9 0 4.230345
L MedianBlur 0 4.230386
F 1 4.483868
DQ 0 17
CrS MedianBlur GaussianBlur gaussianblur_0 4.483905
CrL M 0 17 1 4.483973
S /home/xilinx/Bitstreams-axi_firewall/MedianBlur-MedianBlur_pblock_gaussianblur_0_partial.bit 4.484489
L MedianBlur 1 4.768778
F 0 4.779788
DQ 0 21
CrL M 0 21 0 4.780402
L MedianBlur 0 4.829824
F 0 5.167880
DQ 0 23
CrL M 0 23 0 5.167966
F 1 5.175946
DQ 0 1
CrL M 0 1 1 5.176013
L MedianBlur 0 5.189800
L MedianBlur 1 5.199799
F 0 5.527661
DQ 1 5
CrL M 1 5 0 5.527725
L MedianBlur 0 5.549806
F 1 5.572756
DQ 1 6
CrS MedianBlur GaussianBlur gaussianblur_0 5.572784
CrL G 1 6 1 5.572840
S /home/xilinx/Bitstreams-axi_firewall/MedianBlur-GaussianBlur_pblock_gaussianblur_0_partial.bit 5.600364
L GaussianBlur 1 5.906843
F 0 5.909920
DQ 1 12
CrL M 1 12 0 5.909989
L MedianBlur 0 5.919819
F 1 6.168271
DQ 1 19
CrS MedianBlur GaussianBlur gaussianblur_0 6.168311
CrL M 1 19 1 6.168377
S /home/xilinx/Bitstreams-axi_firewall/MedianBlur-MedianBlur_pblock_gaussianblur_0_partial.bit 6.170350
L MedianBlur 1 6.490578
F 0 6.490655
DQ 2 11
CrL M 2 11 0 6.491269
L MedianBlur 0 6.519834
F 1 6.897814
DQ 2 18
CrL M 2 18 1 6.897898
L MedianBlur 1 6.939820
F 0 6.953214
DQ 2 26
CrS GaussianBlur MedianBlur medianblur_0 6.953245
CrL G 2 26 0 6.953312
S /home/xilinx/Bitstreams-axi_firewall/GaussianBlur-MedianBlur_pblock_medianblur_0_partial.bit 6.970382
L GaussianBlur 0 7.274887
F 1 7.346638
DQ 3 13
CrL M 3 13 1 7.346709
L MedianBlur 1 7.379796
F 0 7.569391
DQ 3 16
CrS GaussianBlur MedianBlur medianblur_0 7.569426
CrL M 3 16 0 7.569485
S /home/xilinx/Bitstreams-axi_firewall/MedianBlur-MedianBlur_pblock_medianblur_0_partial.bit 7.590352
L MedianBlur 0 7.912081
F 1 7.912157
DQ 3 22
CrL M 3 22 1 7.912768
L MedianBlur 1 7.969800
F 0 8.080776
DQ 3 27
CrL M 3 27 0 8.080846
L MedianBlur 0 8.119793
F 1 8.241237
DQ 3 28
CrL M 3 28 1 8.241306
L MedianBlur 1 8.279795
F 0 8.457463
DQ 4 20
CrL M 4 20 0 8.457527
L MedianBlur 0 8.459807
F 1 8.551388
DQ 4 24
CrS MedianBlur GaussianBlur gaussianblur_0 8.551419
CrL G 4 24 1 8.551472
S /home/xilinx/Bitstreams-axi_firewall/MedianBlur-GaussianBlur_pblock_gaussianblur_0_partial.bit 8.560403
L GaussianBlur 1 8.848779
F 0 8.965592
DQ 4 25
CrL M 4 25 0 8.965684
L MedianBlur 0 9.019796
F 1 9.110210
F 0 9.523070
END 9.523091
