ARR 2 0 4.016127
CrS GaussianBlur GaussianBlur medianblur_0 4.016176
CrL M 2 0 0 4.016253
S /home/xilinx/Bitstreams-axi_firewall/MedianBlur-GaussianBlur_pblock_medianblur_0_partial.bit 4.050252
L MedianBlur 0 4.360595
F 0 4.528334
ARR 0 1 5.435937
CrL M 0 1 0 5.435996
L MedianBlur 0 5.449794
F 0 5.952528
ARR 4 2 7.459876
CrS GaussianBlur GaussianBlur medianblur_0 7.459908
CrL G 4 2 0 7.459996
S /home/xilinx/Bitstreams-axi_firewall/GaussianBlur-GaussianBlur_pblock_medianblur_0_partial.bit 7.490372
L GaussianBlur 0 7.795134
ARR 2 3 7.852851
CrL G 2 3 1 7.852917
L GaussianBlur 1 7.889782
F 0 8.090433
F 1 8.185093
ARR 3 4 8.892286
CrS GaussianBlur GaussianBlur medianblur_0 8.892320
CrL M 3 4 0 8.892389
S /home/xilinx/Bitstreams-axi_firewall/MedianBlur-GaussianBlur_pblock_medianblur_0_partial.bit 8.910362
L MedianBlur 0 9.208563
ARR 1 5 9.265641
CrS MedianBlur GaussianBlur gaussianblur_0 9.265666
CrL M 1 5 1 9.265732
S /home/xilinx/Bitstreams-axi_firewall/MedianBlur-MedianBlur_pblock_gaussianblur_0_partial.bit 9.270629
L MedianBlur 1 9.569164
F 0 9.579779
ARR 1 6 9.584966
CrS GaussianBlur MedianBlur medianblur_0 9.584993
CrL G 1 6 0 9.585053
S /home/xilinx/Bitstreams-axi_firewall/GaussianBlur-MedianBlur_pblock_medianblur_0_partial.bit 9.610332
L GaussianBlur 0 9.918955
F 1 9.929780
ARR 4 7 9.941623
CrS MedianBlur GaussianBlur gaussianblur_0 9.941650
CrL G 4 7 1 9.941710
S /home/xilinx/Bitstreams-axi_firewall/GaussianBlur-GaussianBlur_pblock_gaussianblur_0_partial.bit 9.960348
L GaussianBlur 1 10.259020
F 0 10.259926
F 1 10.552590
ARR 2 8 11.282556
CrL G 2 8 0 11.282620
ARR 0 9 11.302534
CrS MedianBlur GaussianBlur gaussianblur_0 11.302561
CrL M 0 9 1 11.302634
S /home/xilinx/Bitstreams-axi_firewall/GaussianBlur-MedianBlur_pblock_gaussianblur_0_partial.bit 11.320338
L GaussianBlur 0 11.339815
L MedianBlur 1 11.632226
F 0 11.649795
F 1 12.135107
ARR 2 10 12.668755
CrS GaussianBlur GaussianBlur medianblur_0 12.668794
CrL M 2 10 0 12.668866
S /home/xilinx/Bitstreams-axi_firewall/MedianBlur-MedianBlur_pblock_medianblur_0_partial.bit 12.680483
L MedianBlur 0 12.985180
ARR 2 11 13.042738
CrL M 2 11 1 13.042808
L MedianBlur 1 13.069781
ARR 1 12 13.102134
EQ 1 12
F 0 13.154067
DQ 1 12
CrL M 1 12 0 13.154132
L MedianBlur 0 13.179785
F 0 13.516377
F 1 13.574708
ARR 3 13 14.111408
CrL M 3 13 0 14.111466
L MedianBlur 0 14.139799
ARR 4 14 14.151738
CrL M 4 14 1 14.151804
ARR 4 15 14.166619
EQ 4 15
L MedianBlur 1 14.189779
F 0 14.644380
DQ 4 15
CrL M 4 15 0 14.644455
L MedianBlur 0 14.659787
F 1 14.694702
F 0 14.995214
ARR 3 16 16.194702
CrL M 3 16 0 16.194783
L MedianBlur 0 16.229788
ARR 0 17 16.281325
CrL M 0 17 1 16.281392
ARR 2 18 16.287152
EQ 2 18
L MedianBlur 1 16.299784
F 0 16.398638
DQ 2 18
CrL M 2 18 0 16.398722
L MedianBlur 0 16.419788
F 1 16.805098
F 0 16.925248
ARR 1 19 19.358448
CrL M 1 19 0 19.358528
L MedianBlur 0 19.379782
ARR 4 20 19.382706
CrL M 4 20 1 19.382765
L MedianBlur 1 19.429776
F 0 19.884428
F 1 19.934528
ARR 0 21 20.402271
CrL M 0 21 0 20.402353
L MedianBlur 0 20.409800
ARR 3 22 20.496795
CrL M 3 22 1 20.496856
L MedianBlur 1 20.519781
F 0 20.745923
F 1 20.855960
ARR 0 23 21.555301
CrL M 0 23 0 21.555373
L MedianBlur 0 21.609777
ARR 4 24 21.616000
CrS MedianBlur GaussianBlur gaussianblur_0 21.616026
CrL G 4 24 1 21.616087
S /home/xilinx/Bitstreams-axi_firewall/MedianBlur-GaussianBlur_pblock_gaussianblur_0_partial.bit 21.640379
L GaussianBlur 1 21.919049
F 0 21.946524
ARR 4 25 21.980704
CrL M 4 25 0 21.980770
L MedianBlur 0 22.009781
ARR 2 26 22.033478
EQ 2 26
ARR 3 27 22.097637
EQ 3 27
ARR 3 28 22.104285
EQ 3 28
ARR 4 29 22.182999
EQ 4 29
F 1 22.213350
DQ 2 26
CrL G 2 26 1 22.213435
L GaussianBlur 1 22.229806
F 0 22.514853
DQ 3 27
CrL M 3 27 0 22.514918
F 1 22.524214
DQ 3 28
CrS MedianBlur GaussianBlur gaussianblur_0 22.524244
CrL M 3 28 1 22.524302
S /home/xilinx/Bitstreams-axi_firewall/MedianBlur-MedianBlur_pblock_gaussianblur_0_partial.bit 22.550353
L MedianBlur 0 22.569802
L MedianBlur 1 22.865127
F 0 22.906354
DQ 4 29
CrS GaussianBlur MedianBlur medianblur_0 22.906387
CrL G 4 29 0 22.906457
S /home/xilinx/Bitstreams-axi_firewall/GaussianBlur-MedianBlur_pblock_medianblur_0_partial.bit 22.920333
L GaussianBlur 0 23.234513
F 1 23.239885
F 0 23.528062
END 23.528085
