ARR 2 0 6.059909
CrS GaussianBlur  medianblur_0 6.059961
CrL M 2 0 0 6.060040
S /home/xilinx/Bitstreams-axi_firewall/MedianBlur-GaussianBlur_pblock_medianblur_0_partial.bit 6.070644
L MedianBlur 0 6.383399
F 0 6.551130
ARR 0 1 8.449493
CrL M 0 1 0 8.449570
L MedianBlur 0 8.469802
F 0 8.972600
ARR 4 2 11.509868
CrS GaussianBlur  medianblur_0 11.509908
CrL G 4 2 0 11.509995
S /home/xilinx/Bitstreams-axi_firewall/GaussianBlur-GaussianBlur_pblock_medianblur_0_partial.bit 11.510532
L GaussianBlur 0 11.830953
ARR 2 3 11.915751
EQ 2 3
F 0 12.124531
DQ 2 3
CrL G 2 3 0 12.124603
L GaussianBlur 0 12.159794
F 0 12.453346
ARR 3 4 13.938875
CrS GaussianBlur  medianblur_0 13.938913
CrL M 3 4 0 13.938986
S /home/xilinx/Bitstreams-axi_firewall/MedianBlur-GaussianBlur_pblock_medianblur_0_partial.bit 13.960206
L MedianBlur 0 14.273236
ARR 1 5 14.369059
EQ 1 5
ARR 1 6 14.376346
EQ 1 6
ARR 4 7 14.394283
EQ 4 7
F 0 14.440984
DQ 1 5
CrL M 1 5 0 14.441043
L MedianBlur 0 14.469796
F 0 14.637530
DQ 1 6
CrS GaussianBlur  medianblur_0 14.637562
CrL G 1 6 0 14.637624
S /home/xilinx/Bitstreams-axi_firewall/GaussianBlur-GaussianBlur_pblock_medianblur_0_partial.bit 14.660380
L GaussianBlur 0 14.974144
F 0 15.267720
DQ 4 7
CrL G 4 7 0 15.267801
L GaussianBlur 0 15.289796
F 0 15.583347
ARR 2 8 15.831329
CrL G 2 8 0 15.831387
L GaussianBlur 0 15.849795
ARR 0 9 15.863105
EQ 0 9
F 0 16.143351
DQ 0 9
CrS GaussianBlur  medianblur_0 16.143382
CrL M 0 9 0 16.143451
S /home/xilinx/Bitstreams-axi_firewall/MedianBlur-GaussianBlur_pblock_medianblur_0_partial.bit 16.143974
L MedianBlur 0 16.482709
F 0 16.985629
ARR 2 10 17.291199
CrL M 2 10 0 17.291276
L MedianBlur 0 17.329806
ARR 2 11 17.376060
EQ 2 11
ARR 1 12 17.470872
EQ 1 12
F 0 17.497560
DQ 1 12
CrL M 1 12 0 17.497619
L MedianBlur 0 17.519822
F 0 17.855041
DQ 2 11
CrL M 2 11 0 17.855100
L MedianBlur 0 17.879794
F 0 18.382664
ARR 3 13 18.544610
CrL M 3 13 0 18.544667
L MedianBlur 0 18.589791
ARR 4 14 18.608953
EQ 4 14
ARR 4 15 18.632507
EQ 4 15
F 0 19.092654
DQ 4 14
CrL M 4 14 0 19.092732
L MedianBlur 0 19.149794
F 0 19.652740
DQ 4 15
CrL M 4 15 0 19.652801
L MedianBlur 0 19.709792
F 0 20.045061
ARR 3 16 21.696764
CrL M 3 16 0 21.696846
L MedianBlur 0 21.729822
F 0 21.897562
ARR 0 17 22.736004
CrL M 0 17 0 22.736067
ARR 2 18 22.745131
EQ 2 18
L MedianBlur 0 22.759797
F 0 23.262814
DQ 2 18
CrL M 2 18 0 23.262896
L MedianBlur 0 23.289799
F 0 23.792718
ARR 1 19 27.838760
CrL M 1 19 0 27.838847
L MedianBlur 0 27.849810
ARR 4 20 27.877397
EQ 4 20
F 0 28.352698
DQ 4 20
CrL M 4 20 0 28.352758
L MedianBlur 0 28.369802
F 0 28.872774
ARR 0 21 28.967664
CrL M 0 21 0 28.967738
L MedianBlur 0 28.989796
F 0 29.325140
ARR 3 22 30.019487
CrL M 3 22 0 30.019553
L MedianBlur 0 30.029821
F 0 30.365142
ARR 0 23 32.073220
CrL M 0 23 0 32.073305
L MedianBlur 0 32.109794
ARR 4 24 32.170154
EQ 4 24
ARR 4 25 32.267329
EQ 4 25
ARR 2 26 32.351547
EQ 2 26
F 0 32.445078
DQ 2 26
CrS GaussianBlur  medianblur_0 32.445106
CrL G 2 26 0 32.445163
S /home/xilinx/Bitstreams-axi_firewall/GaussianBlur-GaussianBlur_pblock_medianblur_0_partial.bit 32.470431
L GaussianBlur 0 32.779477
F 0 33.073093
DQ 4 24
CrL G 4 24 0 33.073180
L GaussianBlur 0 33.109798
F 0 33.403349
DQ 4 25
CrS GaussianBlur  medianblur_0 33.403380
CrL M 4 25 0 33.403449
S /home/xilinx/Bitstreams-axi_firewall/MedianBlur-GaussianBlur_pblock_medianblur_0_partial.bit 33.403982
L MedianBlur 0 33.708411
ARR 3 27 33.994209
EQ 3 27
ARR 3 28 34.004735
EQ 3 28
F 0 34.211229
DQ 3 27
CrL M 3 27 0 34.211292
L MedianBlur 0 34.249795
F 0 34.585019
DQ 3 28
CrL M 3 28 0 34.585076
L MedianBlur 0 34.609799
F 0 34.945138
ARR 4 29 35.031176
CrS GaussianBlur  medianblur_0 35.031210
CrL G 4 29 0 35.031278
S /home/xilinx/Bitstreams-axi_firewall/GaussianBlur-GaussianBlur_pblock_medianblur_0_partial.bit 35.050372
L GaussianBlur 0 35.362365
F 0 35.655912
END 35.655934
