ARR 2 0 0.082825
CrS GaussianBlur  medianblur_0 0.082867
CrL M 2 0 0 0.082947
S /home/xilinx/Bitstreams-axi_firewall/MedianBlur-GaussianBlur_pblock_medianblur_0_partial.bit 0.110426
L MedianBlur 0 0.413449
ARR 0 1 0.446569
EQ 0 1
ARR 4 2 0.491481
EQ 4 2
ARR 2 3 0.502289
EQ 2 3
ARR 3 4 0.530133
EQ 3 4
ARR 1 5 0.541486
EQ 1 5
ARR 1 6 0.542586
EQ 1 6
ARR 4 7 0.545020
EQ 4 7
ARR 2 8 0.569434
EQ 2 8
ARR 0 9 0.573588
EQ 0 9
F 0 0.581214
DQ 0 1
CrL M 0 1 0 0.581268
ARR 2 10 0.597525
EQ 2 10
ARR 2 11 0.608303
EQ 2 11
L MedianBlur 0 0.609799
ARR 1 12 0.620334
EQ 1 12
ARR 3 13 0.642153
EQ 3 13
ARR 4 14 0.650375
EQ 4 14
ARR 4 15 0.653517
EQ 4 15
ARR 3 16 0.698949
EQ 3 16
ARR 0 17 0.716411
EQ 0 17
ARR 2 18 0.717740
EQ 2 18
ARR 1 19 0.791612
EQ 1 19
ARR 4 20 0.796658
EQ 4 20
ARR 0 21 0.820581
EQ 0 21
ARR 3 22 0.839634
EQ 3 22
ARR 0 23 0.871302
EQ 0 23
ARR 4 24 0.883590
EQ 4 24
ARR 4 25 0.895921
EQ 4 25
ARR 2 26 0.906631
EQ 2 26
ARR 3 27 0.919632
EQ 3 27
ARR 3 28 0.921142
EQ 3 28
ARR 4 29 0.937047
EQ 4 29
F 0 1.112633
DQ 0 9
CrL M 0 9 0 1.112692
L MedianBlur 0 1.139790
F 0 1.642674
DQ 0 17
CrL M 0 17 0 1.642753
L MedianBlur 0 1.659795
F 0 2.162751
DQ 0 21
CrL M 0 21 0 2.162811
L MedianBlur 0 2.179794
F 0 2.515069
DQ 0 23
CrL M 0 23 0 2.515124
L MedianBlur 0 2.539817
F 0 2.875076
DQ 1 5
CrL M 1 5 0 2.875132
L MedianBlur 0 2.899788
F 0 3.067476
DQ 1 6
CrS GaussianBlur  medianblur_0 3.067499
CrL G 1 6 0 3.067560
S /home/xilinx/Bitstreams-axi_firewall/GaussianBlur-GaussianBlur_pblock_medianblur_0_partial.bit 3.068101
L GaussianBlur 0 3.410158
F 0 3.703739
DQ 1 12
CrS GaussianBlur  medianblur_0 3.703775
CrL M 1 12 0 3.703847
S /home/xilinx/Bitstreams-axi_firewall/MedianBlur-GaussianBlur_pblock_medianblur_0_partial.bit 3.730352
L MedianBlur 0 4.034723
F 0 4.369961
DQ 1 19
CrL M 1 19 0 4.370033
L MedianBlur 0 4.389795
F 0 4.892655
DQ 2 3
CrS GaussianBlur  medianblur_0 4.892682
CrL G 2 3 0 4.892744
S /home/xilinx/Bitstreams-axi_firewall/GaussianBlur-GaussianBlur_pblock_medianblur_0_partial.bit 4.910345
L GaussianBlur 0 5.218742
F 0 5.512311
DQ 2 8
CrL G 2 8 0 5.512387
L GaussianBlur 0 5.529849
F 0 5.823402
DQ 2 10
CrS GaussianBlur  medianblur_0 5.823428
CrL M 2 10 0 5.823495
S /home/xilinx/Bitstreams-axi_firewall/MedianBlur-GaussianBlur_pblock_medianblur_0_partial.bit 5.850361
L MedianBlur 0 6.165126
F 0 6.332858
DQ 2 11
CrL M 2 11 0 6.332928
L MedianBlur 0 6.359791
F 0 6.862661
DQ 2 18
CrL M 2 18 0 6.862725
L MedianBlur 0 6.919787
F 0 7.422711
DQ 2 26
CrS GaussianBlur  medianblur_0 7.422735
CrL G 2 26 0 7.422792
S /home/xilinx/Bitstreams-axi_firewall/GaussianBlur-GaussianBlur_pblock_medianblur_0_partial.bit 7.440442
L GaussianBlur 0 7.745619
F 0 8.039163
DQ 3 4
CrS GaussianBlur  medianblur_0 8.039195
CrL M 3 4 0 8.039267
S /home/xilinx/Bitstreams-axi_firewall/MedianBlur-GaussianBlur_pblock_medianblur_0_partial.bit 8.060333
L MedianBlur 0 8.358710
F 0 8.526447
DQ 3 13
CrL M 3 13 0 8.526521
L MedianBlur 0 8.549792
F 0 9.052679
DQ 3 16
CrL M 3 16 0 9.052761
L MedianBlur 0 9.089791
F 0 9.257508
DQ 3 22
CrL M 3 22 0 9.257566
L MedianBlur 0 9.289793
F 0 9.625131
DQ 3 27
CrL M 3 27 0 9.625210
L MedianBlur 0 9.649793
F 0 9.985039
DQ 3 28
CrL M 3 28 0 9.985097
L MedianBlur 0 10.009796
F 0 10.345089
DQ 4 2
CrS GaussianBlur  medianblur_0 10.345117
CrL G 4 2 0 10.345178
S /home/xilinx/Bitstreams-axi_firewall/GaussianBlur-GaussianBlur_pblock_medianblur_0_partial.bit 10.380357
L GaussianBlur 0 10.683502
F 0 10.977044
DQ 4 7
CrL G 4 7 0 10.977118
L GaussianBlur 0 10.999798
F 0 11.293346
DQ 4 14
CrS GaussianBlur  medianblur_0 11.293379
CrL M 4 14 0 11.293443
S /home/xilinx/Bitstreams-axi_firewall/MedianBlur-GaussianBlur_pblock_medianblur_0_partial.bit 11.330328
L MedianBlur 0 11.628152
F 0 12.131190
DQ 4 15
CrL M 4 15 0 12.131272
L MedianBlur 0 12.139808
F 0 12.475083
DQ 4 20
CrL M 4 20 0 12.475146
L MedianBlur 0 12.489796
F 0 12.992791
DQ 4 24
CrS GaussianBlur  medianblur_0 12.992820
CrL G 4 24 0 12.992881
S /home/xilinx/Bitstreams-axi_firewall/GaussianBlur-GaussianBlur_pblock_medianblur_0_partial.bit 13.010350
L GaussianBlur 0 13.327479
F 0 13.621082
DQ 4 25
CrS GaussianBlur  medianblur_0 13.621197
CrL M 4 25 0 13.621276
S /home/xilinx/Bitstreams-axi_firewall/MedianBlur-GaussianBlur_pblock_medianblur_0_partial.bit 13.640368
L MedianBlur 0 13.935686
F 0 14.438509
DQ 4 29
CrS GaussianBlur  medianblur_0 14.438546
CrL G 4 29 0 14.438617
S /home/xilinx/Bitstreams-axi_firewall/GaussianBlur-GaussianBlur_pblock_medianblur_0_partial.bit 14.450391
L GaussianBlur 0 14.771959
F 0 15.065503
END 15.065526
