ARR 2 0 6.059961
CrS GaussianBlur GaussianBlur medianblur_0 6.060018
CrL M 2 0 0 6.060099
S /home/xilinx/Bitstreams-axi_firewall/MedianBlur-GaussianBlur_pblock_medianblur_0_partial.bit 6.070865
L MedianBlur 0 6.404397
F 0 6.572132
ARR 0 1 8.469939
CrL M 0 1 0 8.470028
L MedianBlur 0 8.509845
F 0 9.012590
ARR 4 2 11.529933
CrS GaussianBlur GaussianBlur medianblur_0 11.529978
CrL G 4 2 0 11.530050
S /home/xilinx/Bitstreams-axi_firewall/GaussianBlur-GaussianBlur_pblock_medianblur_0_partial.bit 11.550427
L GaussianBlur 0 11.862326
ARR 2 3 11.954648
CrL G 2 3 1 11.954726
L GaussianBlur 1 11.969863
F 0 12.158256
F 1 12.265762
ARR 3 4 13.977963
CrS GaussianBlur GaussianBlur medianblur_0 13.978007
CrL M 3 4 0 13.978080
S /home/xilinx/Bitstreams-axi_firewall/MedianBlur-GaussianBlur_pblock_medianblur_0_partial.bit 13.980406
L MedianBlur 0 14.288388
ARR 1 5 14.377642
CrS MedianBlur GaussianBlur gaussianblur_0 14.377676
CrL M 1 5 1 14.377747
S /home/xilinx/Bitstreams-axi_firewall/MedianBlur-MedianBlur_pblock_gaussianblur_0_partial.bit 14.380598
L MedianBlur 1 14.668495
F 0 14.679839
ARR 1 6 14.687662
CrS GaussianBlur MedianBlur medianblur_0 14.687698
CrL G 1 6 0 14.687760
S /home/xilinx/Bitstreams-axi_firewall/GaussianBlur-MedianBlur_pblock_medianblur_0_partial.bit 14.690465
L GaussianBlur 0 14.989418
F 1 14.989988
ARR 4 7 15.007924
CrS MedianBlur GaussianBlur gaussianblur_0 15.007960
CrL G 4 7 1 15.008025
S /home/xilinx/Bitstreams-axi_firewall/GaussianBlur-GaussianBlur_pblock_gaussianblur_0_partial.bit 15.025125
L GaussianBlur 1 15.360313
F 0 15.369945
F 1 15.653942
ARR 2 8 16.465297
CrL G 2 8 0 16.465372
L GaussianBlur 0 16.479880
ARR 0 9 16.497101
CrS MedianBlur GaussianBlur gaussianblur_0 16.497132
CrL M 0 9 1 16.497198
S /home/xilinx/Bitstreams-axi_firewall/GaussianBlur-MedianBlur_pblock_gaussianblur_0_partial.bit 16.497741
L MedianBlur 1 16.841446
F 0 16.849836
F 1 17.344288
ARR 2 10 17.939335
CrS GaussianBlur GaussianBlur medianblur_0 17.939378
CrL M 2 10 0 17.939451
S /home/xilinx/Bitstreams-axi_firewall/MedianBlur-MedianBlur_pblock_medianblur_0_partial.bit 17.950548
L MedianBlur 0 18.258766
ARR 2 11 18.344499
CrL M 2 11 1 18.344575
L MedianBlur 1 18.359850
F 0 18.426777
ARR 1 12 18.439506
CrL M 1 12 0 18.439570
L MedianBlur 0 18.489844
F 0 18.830992
F 1 18.868965
ARR 3 13 19.513537
CrL M 3 13 0 19.513604
L MedianBlur 0 19.559843
ARR 4 14 19.577922
CrL M 4 14 1 19.578005
L MedianBlur 1 19.589853
ARR 4 15 19.601574
R 0 19.601939
EQ 3 13
EV 13 15 0 19.602141
CrL M 4 15 0 19.602172
L MedianBlur 0 19.639848
F 0 19.976471
DQ 3 13
CrL M 3 13 0 19.976556
L MedianBlur 0 19.999852
F 1 20.095764
F 0 20.461843
ARR 3 16 22.666932
CrL M 3 16 0 22.667027
L MedianBlur 0 22.699846
F 0 22.867581
ARR 0 17 23.706196
CrL M 0 17 0 23.706285
ARR 2 18 23.715356
CrL M 2 18 1 23.715427
L MedianBlur 0 23.729850
L MedianBlur 1 23.749844
F 0 24.234592
F 1 24.254606
ARR 1 19 28.809420
CrL M 1 19 0 28.809514
ARR 4 20 28.848058
CrL M 4 20 1 28.848129
L MedianBlur 0 28.849862
L MedianBlur 1 28.879846
F 0 29.361376
F 1 29.391768
ARR 0 21 29.938797
CrL M 0 21 0 29.938884
L MedianBlur 0 29.999877
F 0 30.335190
ARR 3 22 30.990575
CrL M 3 22 0 30.990640
L MedianBlur 0 31.029844
F 0 31.365145
ARR 0 23 33.044260
CrL M 0 23 0 33.044345
L MedianBlur 0 33.069863
ARR 4 24 33.141193
CrS MedianBlur GaussianBlur gaussianblur_0 33.141224
CrL G 4 24 1 33.141287
S /home/xilinx/Bitstreams-axi_firewall/MedianBlur-GaussianBlur_pblock_gaussianblur_0_partial.bit 33.160452
L GaussianBlur 1 33.446425
F 0 33.449879
ARR 4 25 33.547593
CrL M 4 25 0 33.547664
L MedianBlur 0 33.549859
ARR 2 26 33.631900
EQ 2 26
F 1 33.740608
DQ 2 26
CrL G 2 26 1 33.740692
L GaussianBlur 1 33.769892
F 0 34.054878
F 1 34.064323
ARR 3 27 34.635563
CrL M 3 27 0 34.635628
ARR 3 28 34.646156
CrS MedianBlur GaussianBlur gaussianblur_0 34.646190
CrL M 3 28 1 34.646255
S /home/xilinx/Bitstreams-axi_firewall/MedianBlur-MedianBlur_pblock_gaussianblur_0_partial.bit 34.646789
L MedianBlur 0 34.669882
L MedianBlur 1 34.990842
F 0 35.006676
F 1 35.326365
ARR 4 29 36.017510
CrS GaussianBlur GaussianBlur medianblur_0 36.017557
CrL G 4 29 0 36.017717
S /home/xilinx/Bitstreams-axi_firewall/GaussianBlur-MedianBlur_pblock_medianblur_0_partial.bit 36.018250
L GaussianBlur 0 36.372632
F 0 36.666185
END 36.666209
