ARR 2 0 0.082818
CrS GaussianBlur GaussianBlur medianblur_0 0.082860
CrL M 2 0 0 0.082937
S /home/xilinx/Bitstreams-axi_firewall/MedianBlur-GaussianBlur_pblock_medianblur_0_partial.bit 0.090511
L MedianBlur 0 0.388690
ARR 0 1 0.422938
CrS MedianBlur GaussianBlur gaussianblur_0 0.422970
CrL M 0 1 1 0.423057
S /home/xilinx/Bitstreams-axi_firewall/MedianBlur-MedianBlur_pblock_gaussianblur_0_partial.bit 0.440577
L MedianBlur 1 0.757493
F 0 0.759915
ARR 4 2 0.804814
CrS GaussianBlur MedianBlur medianblur_0 0.804842
CrL G 4 2 0 0.804904
S /home/xilinx/Bitstreams-axi_firewall/GaussianBlur-MedianBlur_pblock_medianblur_0_partial.bit 0.820318
L GaussianBlur 0 1.153679
ARR 2 3 1.164411
EQ 2 3
ARR 3 4 1.192274
EQ 3 4
ARR 1 5 1.203637
EQ 1 5
ARR 1 6 1.204745
EQ 1 6
ARR 4 7 1.207183
EQ 4 7
ARR 2 8 1.231601
EQ 2 8
ARR 0 9 1.235755
EQ 0 9
ARR 2 10 1.259464
EQ 2 10
F 1 1.262281
DQ 0 9
CrL M 0 9 1 1.262334
ARR 2 11 1.270443
EQ 2 11
ARR 1 12 1.282476
EQ 1 12
L MedianBlur 1 1.299772
ARR 3 13 1.304294
EQ 3 13
ARR 4 14 1.312515
EQ 4 14
ARR 4 15 1.315652
EQ 4 15
ARR 3 16 1.361081
EQ 3 16
ARR 0 17 1.378540
EQ 0 17
ARR 2 18 1.379850
EQ 2 18
F 0 1.448049
DQ 0 17
CrS GaussianBlur MedianBlur medianblur_0 1.448074
CrL M 0 17 0 1.448126
S /home/xilinx/Bitstreams-axi_firewall/MedianBlur-MedianBlur_pblock_medianblur_0_partial.bit 1.450310
L MedianBlur 0 1.784800
ARR 1 19 1.790519
EQ 1 19
ARR 4 20 1.796101
EQ 4 20
F 1 1.804886
DQ 1 5
CrL M 1 5 1 1.804942
ARR 0 21 1.820277
EQ 0 21
L MedianBlur 1 1.829787
ARR 3 22 1.839329
EQ 3 22
ARR 0 23 1.870993
EQ 0 23
ARR 4 24 1.883278
EQ 4 24
ARR 4 25 1.895604
EQ 4 25
ARR 2 26 1.906315
EQ 2 26
ARR 3 27 1.919313
EQ 3 27
ARR 3 28 1.920813
EQ 3 28
ARR 4 29 1.936715
EQ 4 29
F 1 2.000325
DQ 0 21
CrL M 0 21 1 2.000390
L MedianBlur 1 2.025713
F 0 2.291536
DQ 0 23
CrL M 0 23 0 2.291599
L MedianBlur 0 2.329793
F 1 2.362376
DQ 1 6
CrS MedianBlur GaussianBlur gaussianblur_0 2.362400
CrL G 1 6 1 2.362454
S /home/xilinx/Bitstreams-axi_firewall/MedianBlur-GaussianBlur_pblock_gaussianblur_0_partial.bit 2.380334
L GaussianBlur 1 2.688798
F 0 2.699848
DQ 1 12
CrL M 1 12 0 2.699918
L MedianBlur 0 2.739777
F 1 2.983073
DQ 1 19
CrS MedianBlur GaussianBlur gaussianblur_0 2.983102
CrL M 1 19 1 2.983165
S /home/xilinx/Bitstreams-axi_firewall/MedianBlur-MedianBlur_pblock_gaussianblur_0_partial.bit 3.000330
L MedianBlur 1 3.298650
F 0 3.299889
DQ 2 3
CrS GaussianBlur MedianBlur medianblur_0 3.299917
CrL G 2 3 0 3.299985
S /home/xilinx/Bitstreams-axi_firewall/GaussianBlur-MedianBlur_pblock_medianblur_0_partial.bit 3.310373
L GaussianBlur 0 3.629683
F 1 3.803771
DQ 2 8
CrS MedianBlur GaussianBlur gaussianblur_0 3.803800
CrL G 2 8 1 3.803869
S /home/xilinx/Bitstreams-axi_firewall/GaussianBlur-GaussianBlur_pblock_gaussianblur_0_partial.bit 3.830310
L GaussianBlur 1 4.171291
F 0 4.189757
DQ 2 10
CrS GaussianBlur MedianBlur medianblur_0 4.189785
CrL M 2 10 0 4.190397
S /home/xilinx/Bitstreams-axi_firewall/MedianBlur-GaussianBlur_pblock_medianblur_0_partial.bit 4.220313
L MedianBlur 0 4.570495
F 1 4.579880
DQ 2 11
CrS MedianBlur GaussianBlur gaussianblur_0 4.579907
CrL M 2 11 1 4.579973
S /home/xilinx/Bitstreams-axi_firewall/MedianBlur-MedianBlur_pblock_gaussianblur_0_partial.bit 4.600337
L MedianBlur 1 4.930127
F 0 4.949758
DQ 2 18
CrL M 2 18 0 4.950381
L MedianBlur 0 4.969778
F 1 5.440153
DQ 2 26
CrS MedianBlur GaussianBlur gaussianblur_0 5.440182
CrL G 2 26 1 5.440240
S /home/xilinx/Bitstreams-axi_firewall/MedianBlur-GaussianBlur_pblock_gaussianblur_0_partial.bit 5.470327
L GaussianBlur 1 5.785969
F 0 5.789809
DQ 3 4
CrL M 3 4 0 5.790423
L MedianBlur 0 5.839796
F 0 6.008280
DQ 3 13
CrL M 3 13 0 6.008343
L MedianBlur 0 6.039761
F 1 6.080202
DQ 3 16
CrS MedianBlur GaussianBlur gaussianblur_0 6.080226
CrL M 3 16 1 6.080298
S /home/xilinx/Bitstreams-axi_firewall/MedianBlur-MedianBlur_pblock_gaussianblur_0_partial.bit 6.100363
L MedianBlur 1 6.439807
F 0 6.544594
DQ 3 22
CrL M 3 22 0 6.544670
L MedianBlur 0 6.569768
F 1 6.608609
DQ 3 27
CrL M 3 27 1 6.608667
L MedianBlur 1 6.639763
F 0 6.909861
DQ 3 28
CrL M 3 28 0 6.909926
L MedianBlur 0 6.929767
F 1 6.978643
DQ 4 7
CrS MedianBlur GaussianBlur gaussianblur_0 6.978735
CrL G 4 7 1 6.978792
S /home/xilinx/Bitstreams-axi_firewall/MedianBlur-GaussianBlur_pblock_gaussianblur_0_partial.bit 6.990399
L GaussianBlur 1 7.298147
F 0 7.299896
DQ 4 14
CrL M 4 14 0 7.300501
L MedianBlur 0 7.339796
F 1 7.592465
DQ 4 15
CrS MedianBlur GaussianBlur gaussianblur_0 7.592497
CrL M 4 15 1 7.592559
S /home/xilinx/Bitstreams-axi_firewall/MedianBlur-MedianBlur_pblock_gaussianblur_0_partial.bit 7.610333
L MedianBlur 1 7.917825
F 0 7.929838
DQ 4 20
CrL M 4 20 0 7.929907
L MedianBlur 0 7.979764
F 1 8.257450
DQ 4 24
CrS MedianBlur GaussianBlur gaussianblur_0 8.257482
CrL G 4 24 1 8.257544
S /home/xilinx/Bitstreams-axi_firewall/MedianBlur-GaussianBlur_pblock_gaussianblur_0_partial.bit 8.270368
L GaussianBlur 1 8.583711
F 0 8.599776
DQ 4 25
CrL M 4 25 0 8.600386
L MedianBlur 0 8.649764
F 1 8.877941
DQ 4 29
CrL G 4 29 1 8.878007
L GaussianBlur 1 8.899770
F 0 9.154789
F 1 9.194075
END 9.194091
