ARR 2 0 0.082819
CrS GaussianBlur  medianblur_0 0.082866
CrL M 2 0 0 0.082952
S /home/xilinx/Bitstreams-axi_firewall/MedianBlur-GaussianBlur_pblock_medianblur_0_partial.bit 0.083534
L MedianBlur 0 0.420716
ARR 0 1 0.453839
EQ 0 1
ARR 4 2 0.498750
R 0 0.499077
EQ 2 0
EV 0 2 0 0.499275
CrS MedianBlur  medianblur_0 0.499293
CrL G 4 2 0 0.499329
S /home/xilinx/Bitstreams-axi_firewall/GaussianBlur-GaussianBlur_pblock_medianblur_0_partial.bit 0.529885
L GaussianBlur 0 0.843142
ARR 2 3 0.853874
EQ 2 3
ARR 3 4 0.881749
EQ 3 4
ARR 1 5 0.893134
EQ 1 5
ARR 1 6 0.894250
EQ 1 6
ARR 4 7 0.896687
EQ 4 7
ARR 2 8 0.921105
EQ 2 8
ARR 0 9 0.925267
EQ 0 9
ARR 2 10 0.949000
EQ 2 10
ARR 2 11 0.959794
EQ 2 11
ARR 1 12 0.971841
EQ 1 12
ARR 3 13 0.993663
EQ 3 13
ARR 4 14 1.001886
EQ 4 14
ARR 4 15 1.005023
EQ 4 15
ARR 3 16 1.050457
EQ 3 16
ARR 0 17 1.067921
EQ 0 17
ARR 2 18 1.069246
EQ 2 18
F 0 1.136799
DQ 0 1
CrS GaussianBlur  medianblur_0 1.136829
CrL M 0 1 0 1.136886
S /home/xilinx/Bitstreams-axi_firewall/MedianBlur-GaussianBlur_pblock_medianblur_0_partial.bit 1.150412
L MedianBlur 0 1.470871
ARR 1 19 1.486190
R 0 1.486452
EQ 0 1
EV 1 19 0 1.486640
CrL M 1 19 0 1.486666
ARR 4 20 1.491715
R 0 1.491992
EQ 1 19
EV 19 20 0 1.492173
CrL M 4 20 0 1.492199
ARR 0 21 1.516119
EQ 0 21
ARR 3 22 1.535174
EQ 3 22
L MedianBlur 0 1.549831
ARR 0 23 1.566839
EQ 0 23
ARR 4 24 1.579126
EQ 4 24
ARR 4 25 1.591456
EQ 4 25
ARR 2 26 1.602165
EQ 2 26
ARR 3 27 1.615165
EQ 3 27
ARR 3 28 1.616668
EQ 3 28
ARR 4 29 1.632571
EQ 4 29
F 0 2.052851
DQ 0 9
CrL M 0 9 0 2.052920
L MedianBlur 0 2.089797
F 0 2.592586
DQ 0 17
CrL M 0 17 0 2.592648
L MedianBlur 0 2.639794
F 0 3.142831
DQ 0 1
CrL M 0 1 0 3.142917
L MedianBlur 0 3.169800
F 0 3.657171
DQ 0 21
CrL M 0 21 0 3.657248
L MedianBlur 0 3.679796
F 0 4.015100
DQ 0 23
CrL M 0 23 0 4.015165
L MedianBlur 0 4.039797
F 0 4.375048
DQ 1 5
CrL M 1 5 0 4.375108
L MedianBlur 0 4.409824
F 0 4.577521
DQ 1 6
CrS GaussianBlur  medianblur_0 4.577550
CrL G 1 6 0 4.577611
S /home/xilinx/Bitstreams-axi_firewall/GaussianBlur-GaussianBlur_pblock_medianblur_0_partial.bit 4.578157
L GaussianBlur 0 4.898756
F 0 5.192337
DQ 1 12
CrS GaussianBlur  medianblur_0 5.192380
CrL M 1 12 0 5.192453
S /home/xilinx/Bitstreams-axi_firewall/MedianBlur-GaussianBlur_pblock_medianblur_0_partial.bit 5.200455
L MedianBlur 0 5.499410
F 0 5.834620
DQ 1 19
CrL M 1 19 0 5.834695
L MedianBlur 0 5.859800
F 0 6.362702
DQ 2 0
CrL M 2 0 0 6.362767
L MedianBlur 0 6.379800
F 0 6.469349
DQ 2 3
CrS GaussianBlur  medianblur_0 6.469378
CrL G 2 3 0 6.469433
S /home/xilinx/Bitstreams-axi_firewall/GaussianBlur-GaussianBlur_pblock_medianblur_0_partial.bit 6.500349
L GaussianBlur 0 6.803554
F 0 7.097139
DQ 2 8
CrL G 2 8 0 7.097226
L GaussianBlur 0 7.119809
F 0 7.413350
DQ 2 10
CrS GaussianBlur  medianblur_0 7.413385
CrL M 2 10 0 7.413446
S /home/xilinx/Bitstreams-axi_firewall/MedianBlur-GaussianBlur_pblock_medianblur_0_partial.bit 7.430378
L MedianBlur 0 7.750481
F 0 7.925442
DQ 2 11
CrL M 2 11 0 7.925536
L MedianBlur 0 7.939815
F 0 8.442718
DQ 2 18
CrL M 2 18 0 8.442796
L MedianBlur 0 8.479797
F 0 8.982784
DQ 2 26
CrS GaussianBlur  medianblur_0 8.982828
CrL G 2 26 0 8.982911
S /home/xilinx/Bitstreams-axi_firewall/GaussianBlur-GaussianBlur_pblock_medianblur_0_partial.bit 8.983430
L GaussianBlur 0 9.289724
F 0 9.583265
DQ 3 4
CrS GaussianBlur  medianblur_0 9.583299
CrL M 3 4 0 9.583368
S /home/xilinx/Bitstreams-axi_firewall/MedianBlur-GaussianBlur_pblock_medianblur_0_partial.bit 9.600341
L MedianBlur 0 9.913048
F 0 10.080779
DQ 3 13
CrL M 3 13 0 10.080860
L MedianBlur 0 10.109798
F 0 10.612640
DQ 3 16
CrL M 3 16 0 10.612716
L MedianBlur 0 10.669797
F 0 10.837494
DQ 3 22
CrL M 3 22 0 10.837562
L MedianBlur 0 10.869808
F 0 11.205121
DQ 3 27
CrL M 3 27 0 11.205208
L MedianBlur 0 11.229800
F 0 11.565078
DQ 3 28
CrL M 3 28 0 11.565162
L MedianBlur 0 11.589798
F 0 11.925093
DQ 4 7
CrS GaussianBlur  medianblur_0 11.925128
CrL G 4 7 0 11.925190
S /home/xilinx/Bitstreams-axi_firewall/GaussianBlur-GaussianBlur_pblock_medianblur_0_partial.bit 11.940379
L GaussianBlur 0 12.279881
F 0 12.573433
DQ 4 14
CrS GaussianBlur  medianblur_0 12.573474
CrL M 4 14 0 12.573618
S /home/xilinx/Bitstreams-axi_firewall/MedianBlur-GaussianBlur_pblock_medianblur_0_partial.bit 12.600372
L MedianBlur 0 12.912474
F 0 13.415513
DQ 4 15
CrL M 4 15 0 13.415602
L MedianBlur 0 13.429803
F 0 13.765099
DQ 4 24
CrS GaussianBlur  medianblur_0 13.765135
CrL G 4 24 0 13.765199
S /home/xilinx/Bitstreams-axi_firewall/GaussianBlur-GaussianBlur_pblock_medianblur_0_partial.bit 13.790358
L GaussianBlur 0 14.104036
F 0 14.397588
DQ 4 25
CrS GaussianBlur  medianblur_0 14.397631
CrL M 4 25 0 14.397710
S /home/xilinx/Bitstreams-axi_firewall/MedianBlur-GaussianBlur_pblock_medianblur_0_partial.bit 14.398210
L MedianBlur 0 14.731694
F 0 15.234630
DQ 4 29
CrS GaussianBlur  medianblur_0 15.234679
CrL G 4 29 0 15.234754
S /home/xilinx/Bitstreams-axi_firewall/GaussianBlur-GaussianBlur_pblock_medianblur_0_partial.bit 15.260404
L GaussianBlur 0 15.582723
F 0 15.876267
END 15.876289
