ARR 2 0 0.082826
CrS GaussianBlur GaussianBlur medianblur_0 0.082870
CrL M 2 0 0 0.082947
S /home/xilinx/Bitstreams-axi_firewall/MedianBlur-GaussianBlur_pblock_medianblur_0_partial.bit 0.090504
L MedianBlur 0 0.403364
ARR 0 1 0.436485
CrS MedianBlur GaussianBlur gaussianblur_0 0.436509
CrL M 0 1 1 0.436601
S /home/xilinx/Bitstreams-axi_firewall/MedianBlur-MedianBlur_pblock_gaussianblur_0_partial.bit 0.437309
L MedianBlur 1 0.773198
F 0 0.779937
ARR 4 2 0.825382
CrS GaussianBlur MedianBlur medianblur_0 0.825409
CrL G 4 2 0 0.825473
S /home/xilinx/Bitstreams-axi_firewall/GaussianBlur-MedianBlur_pblock_medianblur_0_partial.bit 0.825971
L GaussianBlur 0 1.152846
ARR 2 3 1.163574
EQ 2 3
ARR 3 4 1.191449
EQ 3 4
ARR 1 5 1.202834
EQ 1 5
ARR 1 6 1.203943
EQ 1 6
ARR 4 7 1.206380
EQ 4 7
ARR 2 8 1.230796
EQ 2 8
ARR 0 9 1.234953
EQ 0 9
ARR 2 10 1.258664
EQ 2 10
ARR 2 11 1.269439
EQ 2 11
F 1 1.278112
DQ 0 9
CrL M 0 9 1 1.278179
ARR 1 12 1.281717
EQ 1 12
L MedianBlur 1 1.289803
ARR 3 13 1.303546
EQ 3 13
ARR 4 14 1.311771
EQ 4 14
ARR 4 15 1.314910
EQ 4 15
ARR 3 16 1.360342
EQ 3 16
ARR 0 17 1.377804
EQ 0 17
ARR 2 18 1.379134
EQ 2 18
F 0 1.447347
DQ 0 17
CrS GaussianBlur MedianBlur medianblur_0 1.447373
CrL M 0 17 0 1.447429
S /home/xilinx/Bitstreams-axi_firewall/MedianBlur-MedianBlur_pblock_medianblur_0_partial.bit 1.460400
L MedianBlur 0 1.792905
F 1 1.794782
DQ 1 5
CrL M 1 5 1 1.795412
ARR 1 19 1.799894
EQ 1 19
ARR 4 20 1.804911
EQ 4 20
ARR 0 21 1.828829
EQ 0 21
L MedianBlur 1 1.839802
ARR 3 22 1.847877
EQ 3 22
ARR 0 23 1.879541
EQ 0 23
ARR 4 24 1.891832
EQ 4 24
ARR 4 25 1.904160
EQ 4 25
ARR 2 26 1.914869
EQ 2 26
ARR 3 27 1.927869
EQ 3 27
ARR 3 28 1.929371
EQ 3 28
ARR 4 29 1.945275
EQ 4 29
F 1 2.009503
DQ 0 21
CrL M 0 21 1 2.009566
L MedianBlur 1 2.039786
F 0 2.302690
DQ 0 23
CrL M 0 23 0 2.302753
L MedianBlur 0 2.329797
F 1 2.378960
DQ 1 6
CrS MedianBlur GaussianBlur gaussianblur_0 2.378984
CrL G 1 6 1 2.379039
S /home/xilinx/Bitstreams-axi_firewall/MedianBlur-GaussianBlur_pblock_gaussianblur_0_partial.bit 2.400354
L GaussianBlur 1 2.707062
F 0 2.719784
DQ 1 12
CrL M 1 12 0 2.720421
L MedianBlur 0 2.729822
F 1 3.001434
DQ 1 19
CrS MedianBlur GaussianBlur gaussianblur_0 3.001463
CrL M 1 19 1 3.001525
S /home/xilinx/Bitstreams-axi_firewall/MedianBlur-MedianBlur_pblock_gaussianblur_0_partial.bit 3.010395
L MedianBlur 1 3.330526
F 0 3.339909
DQ 2 3
CrS GaussianBlur MedianBlur medianblur_0 3.339937
CrL G 2 3 0 3.340009
S /home/xilinx/Bitstreams-axi_firewall/GaussianBlur-MedianBlur_pblock_medianblur_0_partial.bit 3.340478
L GaussianBlur 0 3.649306
F 1 3.835633
DQ 2 8
CrS MedianBlur GaussianBlur gaussianblur_0 3.835664
CrL G 2 8 1 3.835730
S /home/xilinx/Bitstreams-axi_firewall/GaussianBlur-GaussianBlur_pblock_gaussianblur_0_partial.bit 3.850377
L GaussianBlur 1 4.138639
F 0 4.139902
DQ 2 10
CrS GaussianBlur MedianBlur medianblur_0 4.139929
CrL M 2 10 0 4.140534
S /home/xilinx/Bitstreams-axi_firewall/MedianBlur-GaussianBlur_pblock_medianblur_0_partial.bit 4.150345
L MedianBlur 0 4.469919
F 1 4.489799
DQ 2 11
CrS MedianBlur GaussianBlur gaussianblur_0 4.489827
CrL M 2 11 1 4.490441
S /home/xilinx/Bitstreams-axi_firewall/MedianBlur-MedianBlur_pblock_gaussianblur_0_partial.bit 4.520361
L MedianBlur 1 4.818168
F 0 4.829786
DQ 2 18
CrL M 2 18 0 4.830409
L MedianBlur 0 4.839826
F 1 5.328703
DQ 2 26
CrS MedianBlur GaussianBlur gaussianblur_0 5.328743
CrL G 2 26 1 5.328827
S /home/xilinx/Bitstreams-axi_firewall/MedianBlur-GaussianBlur_pblock_gaussianblur_0_partial.bit 5.329360
L GaussianBlur 1 5.658792
F 0 5.669787
DQ 3 4
CrL M 3 4 0 5.670399
L MedianBlur 0 5.709788
F 0 5.878238
DQ 3 13
CrL M 3 13 0 5.878293
L MedianBlur 0 5.909781
F 1 5.952963
DQ 3 16
CrS MedianBlur GaussianBlur gaussianblur_0 5.952988
CrL M 3 16 1 5.953042
S /home/xilinx/Bitstreams-axi_firewall/MedianBlur-MedianBlur_pblock_gaussianblur_0_partial.bit 5.970331
L MedianBlur 1 6.271837
F 0 6.414667
DQ 3 22
CrL M 3 22 0 6.414735
L MedianBlur 0 6.439788
F 1 6.440163
DQ 3 27
CrL M 3 27 1 6.440221
L MedianBlur 1 6.469784
F 0 6.780613
DQ 3 28
CrL M 3 28 0 6.780675
L MedianBlur 0 6.799787
F 1 6.810970
DQ 4 7
CrS MedianBlur GaussianBlur gaussianblur_0 6.811085
CrL G 4 7 1 6.811145
S /home/xilinx/Bitstreams-axi_firewall/MedianBlur-GaussianBlur_pblock_gaussianblur_0_partial.bit 6.830361
L GaussianBlur 1 7.119336
F 0 7.136489
DQ 4 14
CrL M 4 14 0 7.136557
L MedianBlur 0 7.159800
F 1 7.413761
DQ 4 15
CrS MedianBlur GaussianBlur gaussianblur_0 7.413798
CrL M 4 15 1 7.413869
S /home/xilinx/Bitstreams-axi_firewall/MedianBlur-MedianBlur_pblock_gaussianblur_0_partial.bit 7.430390
L MedianBlur 1 7.719533
F 0 7.729786
DQ 4 20
CrL M 4 20 0 7.730402
L MedianBlur 0 7.769788
F 1 8.055963
DQ 4 24
CrS MedianBlur GaussianBlur gaussianblur_0 8.055993
CrL G 4 24 1 8.056053
S /home/xilinx/Bitstreams-axi_firewall/MedianBlur-GaussianBlur_pblock_gaussianblur_0_partial.bit 8.060331
L GaussianBlur 1 8.369945
F 0 8.370021
DQ 4 25
CrL M 4 25 0 8.370089
L MedianBlur 0 8.419791
F 1 8.664237
DQ 4 29
CrL G 4 29 1 8.664302
L GaussianBlur 1 8.689785
F 0 8.924835
F 1 8.984037
END 8.984053
