ARR 2 0 4.016135
CrS GaussianBlur  medianblur_0 4.016192
CrL M 2 0 0 4.016278
S /home/xilinx/Bitstreams-axi_firewall/MedianBlur-GaussianBlur_pblock_medianblur_0_partial.bit 4.050435
L MedianBlur 0 4.355843
F 0 4.523595
ARR 0 1 5.425917
CrL M 0 1 0 5.425991
L MedianBlur 0 5.449773
F 0 5.952560
ARR 4 2 7.449852
CrS GaussianBlur  medianblur_0 7.449886
CrL G 4 2 0 7.449956
S /home/xilinx/Bitstreams-axi_firewall/GaussianBlur-GaussianBlur_pblock_medianblur_0_partial.bit 7.450488
L GaussianBlur 0 7.755903
ARR 2 3 7.808942
EQ 2 3
F 0 8.049488
DQ 2 3
CrL G 2 3 0 8.049572
L GaussianBlur 0 8.079772
F 0 8.373320
ARR 3 4 8.848172
CrS GaussianBlur  medianblur_0 8.848203
CrL M 3 4 0 8.848263
S /home/xilinx/Bitstreams-axi_firewall/MedianBlur-GaussianBlur_pblock_medianblur_0_partial.bit 8.860443
L MedianBlur 0 9.167466
ARR 1 5 9.225603
EQ 1 5
ARR 1 6 9.230245
EQ 1 6
ARR 4 7 9.241542
R 0 9.241877
EQ 3 4
EV 4 7 0 9.242072
CrS MedianBlur  medianblur_0 9.242088
CrL G 4 7 0 9.242123
S /home/xilinx/Bitstreams-axi_firewall/GaussianBlur-GaussianBlur_pblock_medianblur_0_partial.bit 9.250338
L GaussianBlur 0 9.571355
F 0 9.864949
DQ 1 5
CrS GaussianBlur  medianblur_0 9.864992
CrL M 1 5 0 9.865061
S /home/xilinx/Bitstreams-axi_firewall/MedianBlur-GaussianBlur_pblock_medianblur_0_partial.bit 9.890335
L MedianBlur 0 10.203911
F 0 10.371634
DQ 1 6
CrS GaussianBlur  medianblur_0 10.371672
CrL G 1 6 0 10.371742
S /home/xilinx/Bitstreams-axi_firewall/GaussianBlur-GaussianBlur_pblock_medianblur_0_partial.bit 10.400300
L GaussianBlur 0 10.711463
F 0 11.005026
DQ 3 4
CrS GaussianBlur  medianblur_0 11.005066
CrL M 3 4 0 11.005134
S /home/xilinx/Bitstreams-axi_firewall/MedianBlur-GaussianBlur_pblock_medianblur_0_partial.bit 11.030310
L MedianBlur 0 11.328678
F 0 11.496429
ARR 2 8 11.610843
CrS GaussianBlur  medianblur_0 11.610880
CrL G 2 8 0 11.610944
S /home/xilinx/Bitstreams-axi_firewall/GaussianBlur-GaussianBlur_pblock_medianblur_0_partial.bit 11.630320
L GaussianBlur 0 11.943007
ARR 0 9 11.969610
EQ 0 9
F 0 12.236581
DQ 0 9
CrS GaussianBlur  medianblur_0 12.236624
CrL M 0 9 0 12.236733
S /home/xilinx/Bitstreams-axi_firewall/MedianBlur-GaussianBlur_pblock_medianblur_0_partial.bit 12.260331
L MedianBlur 0 12.584525
F 0 13.087348
ARR 2 10 13.335735
CrL M 2 10 0 13.335809
L MedianBlur 0 13.379769
ARR 2 11 13.388866
EQ 2 11
ARR 1 12 13.448186
EQ 1 12
F 0 13.547515
DQ 1 12
CrL M 1 12 0 13.547580
L MedianBlur 0 13.569770
F 0 13.905056
DQ 2 11
CrL M 2 11 0 13.905144
L MedianBlur 0 13.929773
F 0 14.432642
ARR 3 13 14.457095
CrL M 3 13 0 14.457159
L MedianBlur 0 14.489767
ARR 4 14 14.497416
R 0 14.497751
EQ 3 13
EV 13 14 0 14.497937
CrL M 4 14 0 14.497966
ARR 4 15 14.512769
EQ 4 15
L MedianBlur 0 14.529774
F 0 15.032784
DQ 3 13
CrL M 3 13 0 15.032865
L MedianBlur 0 15.059773
F 0 15.554757
DQ 4 15
CrL M 4 15 0 15.554825
L MedianBlur 0 15.579770
F 0 15.915082
ARR 3 16 16.539851
CrL M 3 16 0 16.539925
L MedianBlur 0 16.579770
ARR 0 17 16.626421
EQ 0 17
ARR 2 18 16.632167
EQ 2 18
F 0 16.747510
DQ 0 17
CrL M 0 17 0 16.747575
L MedianBlur 0 16.779768
F 0 17.282703
DQ 2 18
CrL M 2 18 0 17.282769
L MedianBlur 0 17.299772
F 0 17.802779
ARR 1 19 19.702970
CrL M 1 19 0 19.703061
ARR 4 20 19.727276
R 0 19.727605
EQ 1 19
EV 19 20 0 19.727790
CrL M 4 20 0 19.727820
L MedianBlur 0 19.740880
F 0 20.243927
DQ 1 19
CrL M 1 19 0 20.244002
L MedianBlur 0 20.244045
F 0 20.746922
ARR 0 21 20.746944
CrL M 0 21 0 20.747000
L MedianBlur 0 20.799770
ARR 3 22 20.841818
R 0 20.842135
EQ 0 21
EV 21 22 0 20.842320
CrL M 3 22 0 20.842349
L MedianBlur 0 20.879797
F 0 21.215090
DQ 0 21
CrL M 0 21 0 21.215154
L MedianBlur 0 21.239779
F 0 21.532892
ARR 0 23 21.900516
CrL M 0 23 0 21.900599
L MedianBlur 0 21.959769
ARR 4 24 21.961194
R 0 21.961508
EQ 0 23
EV 23 24 0 21.961696
CrS MedianBlur  medianblur_0 21.961717
CrL G 4 24 0 21.961753
S /home/xilinx/Bitstreams-axi_firewall/GaussianBlur-GaussianBlur_pblock_medianblur_0_partial.bit 21.962271
L GaussianBlur 0 22.292542
ARR 4 25 22.360535
EQ 4 25
ARR 2 26 22.413255
EQ 2 26
ARR 3 27 22.477426
EQ 3 27
ARR 3 28 22.484081
EQ 3 28
ARR 4 29 22.562781
EQ 4 29
F 0 22.586123
DQ 0 23
CrS GaussianBlur  medianblur_0 22.586162
CrL M 0 23 0 22.586229
S /home/xilinx/Bitstreams-axi_firewall/MedianBlur-GaussianBlur_pblock_medianblur_0_partial.bit 22.586733
L MedianBlur 0 22.914623
F 0 23.249934
DQ 2 26
CrS GaussianBlur  medianblur_0 23.249980
CrL G 2 26 0 23.250053
S /home/xilinx/Bitstreams-axi_firewall/GaussianBlur-GaussianBlur_pblock_medianblur_0_partial.bit 23.280328
L GaussianBlur 0 23.611758
F 0 23.905358
DQ 3 27
CrS GaussianBlur  medianblur_0 23.905410
CrL M 3 27 0 23.905484
S /home/xilinx/Bitstreams-axi_firewall/MedianBlur-GaussianBlur_pblock_medianblur_0_partial.bit 23.930337
L MedianBlur 0 24.245150
F 0 24.580407
DQ 3 28
CrL M 3 28 0 24.580488
L MedianBlur 0 24.629769
F 0 24.965047
DQ 4 25
CrL M 4 25 0 24.965120
L MedianBlur 0 24.989770
F 0 25.492592
DQ 4 29
CrS GaussianBlur  medianblur_0 25.492626
CrL G 4 29 0 25.492687
S /home/xilinx/Bitstreams-axi_firewall/GaussianBlur-GaussianBlur_pblock_medianblur_0_partial.bit 25.510332
L GaussianBlur 0 25.823796
F 0 26.117341
END 26.117366
