ARR 2 0 4.016128
CrS GaussianBlur GaussianBlur medianblur_0 4.016178
CrL M 2 0 0 4.016260
S /home/xilinx/Bitstreams-axi_firewall/MedianBlur-GaussianBlur_pblock_medianblur_0_partial.bit 4.032234
L MedianBlur 0 4.344604
F 0 4.512391
ARR 0 1 5.410740
CrL M 0 1 0 5.410802
L MedianBlur 0 5.411175
F 0 5.913922
ARR 4 2 7.436022
CrS GaussianBlur GaussianBlur medianblur_0 7.436054
CrL G 4 2 0 7.436122
S /home/xilinx/Bitstreams-axi_firewall/GaussianBlur-GaussianBlur_pblock_medianblur_0_partial.bit 7.462138
L GaussianBlur 0 7.792489
ARR 2 3 7.854599
CrL G 2 3 1 7.854664
L GaussianBlur 1 7.881551
F 0 8.086149
F 1 8.175189
ARR 3 4 8.894026
CrS GaussianBlur GaussianBlur medianblur_0 8.894062
CrL M 3 4 0 8.894133
S /home/xilinx/Bitstreams-axi_firewall/MedianBlur-GaussianBlur_pblock_medianblur_0_partial.bit 8.922127
L MedianBlur 0 9.254231
ARR 1 5 9.310054
CrS MedianBlur GaussianBlur gaussianblur_0 9.310079
CrL M 1 5 1 9.310156
S /home/xilinx/Bitstreams-axi_firewall/MedianBlur-MedianBlur_pblock_gaussianblur_0_partial.bit 9.310876
L MedianBlur 1 9.630457
F 0 9.631684
ARR 1 6 9.636324
CrS GaussianBlur MedianBlur medianblur_0 9.636350
CrL G 1 6 0 9.636410
S /home/xilinx/Bitstreams-axi_firewall/GaussianBlur-MedianBlur_pblock_medianblur_0_partial.bit 9.652138
L GaussianBlur 0 9.994398
F 1 10.011553
ARR 4 7 10.023394
CrS MedianBlur GaussianBlur gaussianblur_0 10.023425
CrL G 4 7 1 10.023485
S /home/xilinx/Bitstreams-axi_firewall/GaussianBlur-GaussianBlur_pblock_gaussianblur_0_partial.bit 10.042141
L GaussianBlur 1 10.358606
F 0 10.361682
F 1 10.652214
ARR 2 8 11.383793
CrL G 2 8 0 11.383865
ARR 0 9 11.403781
CrS MedianBlur GaussianBlur gaussianblur_0 11.403811
CrL M 0 9 1 11.403871
L GaussianBlur 0 11.411569
S /home/xilinx/Bitstreams-axi_firewall/GaussianBlur-MedianBlur_pblock_gaussianblur_0_partial.bit 11.432173
L MedianBlur 1 11.739648
F 0 11.741698
F 1 12.242473
ARR 2 10 12.760056
CrS GaussianBlur GaussianBlur medianblur_0 12.760094
CrL M 2 10 0 12.760168
S /home/xilinx/Bitstreams-axi_firewall/MedianBlur-MedianBlur_pblock_medianblur_0_partial.bit 12.772278
L MedianBlur 0 13.091516
ARR 2 11 13.144461
CrL M 2 11 1 13.144527
L MedianBlur 1 13.151571
ARR 1 12 13.203852
EQ 1 12
F 0 13.291720
DQ 1 12
CrL M 1 12 0 13.291782
L MedianBlur 0 13.321552
F 0 13.663675
F 1 13.663700
ARR 3 13 14.213005
CrL M 3 13 0 14.213090
L MedianBlur 0 14.251551
ARR 4 14 14.253359
CrL M 4 14 1 14.253419
ARR 4 15 14.268229
EQ 4 15
L MedianBlur 1 14.281552
F 0 14.763013
DQ 4 15
CrL M 4 15 0 14.763095
F 1 14.793400
L MedianBlur 0 14.811565
F 0 15.146882
ARR 3 16 16.296258
CrL M 3 16 0 16.296318
L MedianBlur 0 16.341549
ARR 0 17 16.382837
CrL M 0 17 1 16.382893
ARR 2 18 16.388641
EQ 2 18
L MedianBlur 1 16.405644
F 0 16.509769
DQ 2 18
CrL M 2 18 0 16.509846
L MedianBlur 0 16.551583
F 1 16.915613
F 0 17.060364
ARR 1 19 19.459882
CrL M 1 19 0 19.459964
L MedianBlur 0 19.481553
ARR 4 20 19.484141
CrL M 4 20 1 19.484200
L MedianBlur 1 19.511564
F 0 19.993059
F 1 20.023440
ARR 0 21 20.503726
CrL M 0 21 0 20.503804
L MedianBlur 0 20.551551
ARR 3 22 20.598243
CrL M 3 22 1 20.598301
L MedianBlur 1 20.611564
F 0 20.891076
F 1 20.951720
ARR 0 23 21.656742
CrL M 0 23 0 21.656805
L MedianBlur 0 21.701549
ARR 4 24 21.717427
CrS MedianBlur GaussianBlur gaussianblur_0 21.717452
CrL G 4 24 1 21.717510
S /home/xilinx/Bitstreams-axi_firewall/MedianBlur-GaussianBlur_pblock_gaussianblur_0_partial.bit 21.722183
L GaussianBlur 1 22.040910
F 0 22.051552
ARR 4 25 22.112889
CrL M 4 25 0 22.112951
ARR 2 26 22.165657
EQ 2 26
L MedianBlur 0 22.171561
ARR 3 27 22.229820
EQ 3 27
ARR 3 28 22.236475
EQ 3 28
ARR 4 29 22.315175
EQ 4 29
F 1 22.334979
DQ 2 26
CrL G 2 26 1 22.335042
L GaussianBlur 1 22.371554
F 1 22.666011
DQ 3 27
CrS MedianBlur GaussianBlur gaussianblur_0 22.666054
CrL M 3 27 1 22.666126
S /home/xilinx/Bitstreams-axi_firewall/MedianBlur-MedianBlur_pblock_gaussianblur_0_partial.bit 22.692125
L MedianBlur 1 23.022268
F 0 23.041565
DQ 3 28
CrL M 3 28 0 23.042182
L MedianBlur 0 23.081557
F 1 23.360476
DQ 4 29
CrS MedianBlur GaussianBlur gaussianblur_0 23.360509
CrL G 4 29 1 23.360572
S /home/xilinx/Bitstreams-axi_firewall/MedianBlur-GaussianBlur_pblock_gaussianblur_0_partial.bit 23.382108
L GaussianBlur 1 23.681130
F 0 23.681677
F 1 23.974686
END 23.974710
