ARR 2 0 0.082922
CrS GaussianBlur GaussianBlur medianblur_0 0.082974
CrL M 2 0 0 0.083056
S /home/xilinx/Bitstreams-axi_firewall/MedianBlur-GaussianBlur_pblock_medianblur_0_partial.bit 0.100494
L MedianBlur 0 0.403045
ARR 0 1 0.436164
CrS MedianBlur GaussianBlur gaussianblur_0 0.436194
CrL M 0 1 1 0.436273
S /home/xilinx/Bitstreams-axi_firewall/MedianBlur-MedianBlur_pblock_gaussianblur_0_partial.bit 0.436983
L MedianBlur 1 0.728200
F 0 0.739830
ARR 4 2 0.785282
CrS GaussianBlur MedianBlur medianblur_0 0.785314
CrL G 4 2 0 0.785381
S /home/xilinx/Bitstreams-axi_firewall/GaussianBlur-MedianBlur_pblock_medianblur_0_partial.bit 0.785888
L GaussianBlur 0 1.123569
ARR 2 3 1.134296
R 1 1.134583
EQ 0 1
EV 1 3 1 1.134785
CrS MedianBlur MedianBlur gaussianblur_0 1.134801
CrL G 2 3 1 1.134835
S /home/xilinx/Bitstreams-axi_firewall/GaussianBlur-GaussianBlur_pblock_gaussianblur_0_partial.bit 1.140422
L GaussianBlur 1 1.434858
F 0 1.449832
DQ 0 1
CrS GaussianBlur MedianBlur medianblur_0 1.449866
CrL M 0 1 0 1.450477
S /home/xilinx/Bitstreams-axi_firewall/MedianBlur-GaussianBlur_pblock_medianblur_0_partial.bit 1.460404
L MedianBlur 0 1.784048
F 1 1.799847
ARR 3 4 1.828237
CrS MedianBlur GaussianBlur gaussianblur_0 1.828270
CrL M 3 4 1 1.828332
S /home/xilinx/Bitstreams-axi_firewall/MedianBlur-MedianBlur_pblock_gaussianblur_0_partial.bit 1.830391
L MedianBlur 1 2.117676
ARR 1 5 2.131157
R 0 2.131428
EQ 0 1
EV 1 5 0 2.131617
CrL M 1 5 0 2.131643
ARR 1 6 2.132807
EQ 1 6
ARR 4 7 2.135258
R 0 2.135546
EQ 1 5
EV 5 7 0 2.135724
CrS MedianBlur MedianBlur medianblur_0 2.135740
CrL G 4 7 0 2.135773
S /home/xilinx/Bitstreams-axi_firewall/GaussianBlur-MedianBlur_pblock_medianblur_0_partial.bit 2.160447
L GaussianBlur 0 2.469409
F 1 2.469965
DQ 0 1
CrL M 0 1 1 2.470038
L MedianBlur 1 2.470119
ARR 2 8 2.494500
R 1 2.494798
EQ 0 1
EV 1 8 1 2.494983
CrS MedianBlur MedianBlur gaussianblur_0 2.494999
CrL G 2 8 1 2.495031
S /home/xilinx/Bitstreams-axi_firewall/GaussianBlur-GaussianBlur_pblock_gaussianblur_0_partial.bit 2.510379
L GaussianBlur 1 2.788885
F 0 2.799844
DQ 0 1
CrS GaussianBlur MedianBlur medianblur_0 2.799876
S /home/xilinx/Bitstreams-axi_firewall/MedianBlur-GaussianBlur_pblock_medianblur_0_partial.bit 2.800520
CrL M 0 1 0 2.800539
L MedianBlur 0 3.111602
F 1 3.111695
DQ 1 6
CrL G 1 6 1 3.112319
ARR 0 9 3.116901
EQ 0 9
L GaussianBlur 1 3.129841
ARR 2 10 3.140616
R 0 3.140906
EQ 0 1
EV 1 10 0 3.141082
CrL M 2 10 0 3.141108
ARR 2 11 3.151931
R 1 3.152207
EQ 1 6
EV 6 11 1 3.152389
CrS MedianBlur MedianBlur gaussianblur_0 3.152404
CrL M 2 11 1 3.152435
S /home/xilinx/Bitstreams-axi_firewall/MedianBlur-MedianBlur_pblock_gaussianblur_0_partial.bit 3.170396
L MedianBlur 0 3.189859
L MedianBlur 1 3.491298
F 0 3.499971
DQ 0 9
CrL M 0 9 0 3.500628
ARR 1 12 3.513109
R 0 3.513409
EQ 0 9
EV 9 12 0 3.513588
CrL M 1 12 0 3.513613
ARR 3 13 3.535434
R 0 3.535703
EQ 1 12
EV 12 13 0 3.535881
CrL M 3 13 0 3.535907
L MedianBlur 0 3.539857
ARR 4 14 3.544129
R 0 3.544390
EQ 3 13
EV 13 14 0 3.544567
L MedianBlur 0 3.544607
CrL M 4 14 0 3.544612
ARR 4 15 3.547795
R 1 3.548063
EQ 2 11
EV 11 15 1 3.548242
CrL M 4 15 1 3.548267
L MedianBlur 1 3.569838
ARR 3 16 3.593727
EQ 3 16
ARR 0 17 3.611195
EQ 0 17
ARR 2 18 3.612524
EQ 2 18
ARR 1 19 3.686382
EQ 1 19
ARR 4 20 3.691389
EQ 4 20
ARR 0 21 3.715302
EQ 0 21
ARR 3 22 3.734352
EQ 3 22
ARR 0 23 3.766015
EQ 0 23
ARR 4 24 3.778314
EQ 4 24
ARR 4 25 3.790654
EQ 4 25
ARR 2 26 3.801373
EQ 2 26
ARR 3 27 3.814376
EQ 3 27
ARR 3 28 3.815886
EQ 3 28
ARR 4 29 3.831791
EQ 4 29
F 0 3.881419
DQ 0 1
CrL M 0 1 0 3.881681
L MedianBlur 0 3.881718
F 1 3.906912
DQ 0 9
CrL M 0 9 1 3.906974
L MedianBlur 1 3.919862
F 0 4.361115
DQ 0 17
CrL M 0 17 0 4.361200
L MedianBlur 0 4.419830
F 1 4.429447
DQ 0 21
CrL M 0 21 1 4.429509
L MedianBlur 1 4.439871
F 1 4.776410
DQ 0 23
CrL M 0 23 1 4.776471
L MedianBlur 1 4.799829
F 0 4.924625
DQ 1 5
CrL M 1 5 0 4.924685
L MedianBlur 0 4.939837
F 0 5.108169
DQ 1 6
CrS GaussianBlur MedianBlur medianblur_0 5.108199
CrL G 1 6 0 5.108262
S /home/xilinx/Bitstreams-axi_firewall/GaussianBlur-MedianBlur_pblock_medianblur_0_partial.bit 5.108803
L GaussianBlur 0 5.436417
F 1 5.449914
DQ 1 12
CrL M 1 12 1 5.449988
L MedianBlur 1 5.479896
F 0 5.730712
DQ 1 19
CrS GaussianBlur MedianBlur medianblur_0 5.730742
CrL M 1 19 0 5.730802
S /home/xilinx/Bitstreams-axi_firewall/MedianBlur-MedianBlur_pblock_medianblur_0_partial.bit 5.750403
L MedianBlur 0 6.039494
F 1 6.049951
DQ 2 11
CrL M 2 11 1 6.050718
L MedianBlur 1 6.079859
F 1 6.534169
DQ 2 18
CrL M 2 18 1 6.534250
L MedianBlur 1 6.539849
F 0 6.549467
DQ 2 26
CrS GaussianBlur MedianBlur medianblur_0 6.549496
CrL G 2 26 0 6.549555
S /home/xilinx/Bitstreams-axi_firewall/GaussianBlur-MedianBlur_pblock_medianblur_0_partial.bit 6.560453
L GaussianBlur 0 6.855164
F 1 7.045239
DQ 3 13
CrL M 3 13 1 7.045324
L MedianBlur 1 7.049887
F 0 7.149642
DQ 3 16
CrS GaussianBlur MedianBlur medianblur_0 7.149673
CrL M 3 16 0 7.149741
S /home/xilinx/Bitstreams-axi_firewall/MedianBlur-MedianBlur_pblock_medianblur_0_partial.bit 7.180362
L MedianBlur 0 7.479669
F 1 7.550869
DQ 3 22
CrL M 3 22 1 7.550948
L MedianBlur 1 7.599832
F 0 7.648517
DQ 3 27
CrL M 3 27 0 7.648579
L MedianBlur 0 7.669832
F 1 7.939538
DQ 3 28
CrL M 3 28 1 7.939599
L MedianBlur 1 7.959830
F 0 8.008483
DQ 4 20
CrL M 4 20 0 8.008561
L MedianBlur 0 8.029833
F 1 8.299682
DQ 4 24
CrS MedianBlur GaussianBlur gaussianblur_0 8.299722
CrL G 4 24 1 8.299787
S /home/xilinx/Bitstreams-axi_firewall/MedianBlur-GaussianBlur_pblock_gaussianblur_0_partial.bit 8.320422
L GaussianBlur 1 8.650531
F 0 8.659948
DQ 4 25
CrL M 4 25 0 8.660024
L MedianBlur 0 8.679854
F 1 8.944908
DQ 4 29
CrL G 4 29 1 8.944985
L GaussianBlur 1 8.969830
F 0 9.184939
F 1 9.263993
END 9.264009
