ARR 2 0 4.016134
CrS GaussianBlur  medianblur_0 4.016190
CrL M 2 0 0 4.016276
S /home/xilinx/Bitstreams-axi_firewall/MedianBlur-GaussianBlur_pblock_medianblur_0_partial.bit 4.050513
L MedianBlur 0 4.349540
F 0 4.517280
ARR 0 1 5.415659
CrL M 0 1 0 5.415747
L MedianBlur 0 5.419872
F 0 5.922654
ARR 4 2 7.439941
CrS GaussianBlur  medianblur_0 7.439980
CrL G 4 2 0 7.440048
S /home/xilinx/Bitstreams-axi_firewall/GaussianBlur-GaussianBlur_pblock_medianblur_0_partial.bit 7.460468
L GaussianBlur 0 7.781101
ARR 2 3 7.834140
EQ 2 3
F 0 8.074674
DQ 2 3
CrL G 2 3 0 8.074750
L GaussianBlur 0 8.129850
F 0 8.423405
ARR 3 4 8.873347
CrS GaussianBlur  medianblur_0 8.873378
CrL M 3 4 0 8.873435
S /home/xilinx/Bitstreams-axi_firewall/MedianBlur-GaussianBlur_pblock_medianblur_0_partial.bit 8.890441
L MedianBlur 0 9.220302
ARR 1 5 9.285763
EQ 1 5
ARR 1 6 9.290417
EQ 1 6
ARR 4 7 9.301737
R 0 9.302101
EQ 3 4
EV 4 7 0 9.302302
CrS MedianBlur  medianblur_0 9.302320
CrL G 4 7 0 9.302358
S /home/xilinx/Bitstreams-axi_firewall/GaussianBlur-GaussianBlur_pblock_medianblur_0_partial.bit 9.302861
L GaussianBlur 0 9.631919
F 0 9.925478
DQ 1 5
CrS GaussianBlur  medianblur_0 9.925514
CrL M 1 5 0 9.925581
S /home/xilinx/Bitstreams-axi_firewall/MedianBlur-GaussianBlur_pblock_medianblur_0_partial.bit 9.940497
L MedianBlur 0 10.268978
F 0 10.436696
DQ 1 6
CrS GaussianBlur  medianblur_0 10.436736
CrL G 1 6 0 10.436807
S /home/xilinx/Bitstreams-axi_firewall/GaussianBlur-GaussianBlur_pblock_medianblur_0_partial.bit 10.460397
L GaussianBlur 0 10.766360
F 0 11.059933
DQ 3 4
CrS GaussianBlur  medianblur_0 11.059974
CrL M 3 4 0 11.060043
S /home/xilinx/Bitstreams-axi_firewall/MedianBlur-GaussianBlur_pblock_medianblur_0_partial.bit 11.070452
L MedianBlur 0 11.401658
F 0 11.569409
ARR 2 8 11.676401
CrS GaussianBlur  medianblur_0 11.676438
CrL G 2 8 0 11.676503
S /home/xilinx/Bitstreams-axi_firewall/GaussianBlur-GaussianBlur_pblock_medianblur_0_partial.bit 11.700407
L GaussianBlur 0 12.014471
ARR 0 9 12.039688
EQ 0 9
F 0 12.308048
DQ 0 9
CrS GaussianBlur  medianblur_0 12.308089
CrL M 0 9 0 12.308191
S /home/xilinx/Bitstreams-axi_firewall/MedianBlur-GaussianBlur_pblock_medianblur_0_partial.bit 12.330404
L MedianBlur 0 12.651541
F 0 13.154368
ARR 2 10 13.401374
CrL M 2 10 0 13.401465
L MedianBlur 0 13.429854
ARR 2 11 13.454532
EQ 2 11
ARR 1 12 13.513854
EQ 1 12
F 0 13.597614
DQ 1 12
CrL M 1 12 0 13.597679
L MedianBlur 0 13.629855
F 0 13.965096
DQ 2 11
CrL M 2 11 0 13.965161
L MedianBlur 0 13.989852
F 0 14.492728
ARR 3 13 14.522711
CrL M 3 13 0 14.522774
L MedianBlur 0 14.549848
ARR 4 14 14.563030
R 0 14.563354
EQ 3 13
EV 13 14 0 14.563539
CrL M 4 14 0 14.563570
ARR 4 15 14.578375
EQ 4 15
L MedianBlur 0 14.589859
F 0 15.092834
DQ 3 13
CrL M 3 13 0 15.092910
L MedianBlur 0 15.109854
F 0 15.599418
DQ 4 15
CrL M 4 15 0 15.599508
L MedianBlur 0 15.629851
F 0 15.965123
ARR 3 16 16.605997
CrL M 3 16 0 16.606065
L MedianBlur 0 16.639847
ARR 0 17 16.692554
EQ 0 17
ARR 2 18 16.698307
EQ 2 18
F 0 16.807581
DQ 0 17
CrL M 0 17 0 16.807645
L MedianBlur 0 16.839849
F 0 17.342862
DQ 2 18
CrL M 2 18 0 17.342949
L MedianBlur 0 17.389852
F 0 17.892797
ARR 1 19 19.769106
CrL M 1 19 0 19.769189
L MedianBlur 0 19.789856
ARR 4 20 19.793400
R 0 19.793742
EQ 1 19
EV 19 20 0 19.793930
CrL M 4 20 0 19.793959
L MedianBlur 0 19.829852
F 0 20.332879
DQ 1 19
CrL M 1 19 0 20.332959
L MedianBlur 0 20.359851
ARR 0 21 20.813367
EQ 0 21
F 0 20.858986
DQ 0 21
CrL M 0 21 0 20.859051
L MedianBlur 0 20.889850
ARR 3 22 20.908011
R 0 20.908318
EQ 0 21
EV 21 22 0 20.908503
CrL M 3 22 0 20.908533
L MedianBlur 0 20.929857
F 0 21.265188
DQ 0 21
CrL M 0 21 0 21.265269
L MedianBlur 0 21.279869
F 0 21.596907
ARR 0 23 21.966748
CrL M 0 23 0 21.966819
L MedianBlur 0 21.999850
ARR 4 24 22.027410
R 0 22.027724
EQ 0 23
EV 23 24 0 22.027910
CrS MedianBlur  medianblur_0 22.027929
CrL G 4 24 0 22.027965
S /home/xilinx/Bitstreams-axi_firewall/GaussianBlur-GaussianBlur_pblock_medianblur_0_partial.bit 22.040411
L GaussianBlur 0 22.351224
ARR 4 25 22.411949
EQ 4 25
ARR 2 26 22.464670
EQ 2 26
ARR 3 27 22.528843
EQ 3 27
ARR 3 28 22.535500
EQ 3 28
ARR 4 29 22.614277
EQ 4 29
F 0 22.644802
DQ 0 23
CrS GaussianBlur  medianblur_0 22.644841
CrL M 0 23 0 22.644906
S /home/xilinx/Bitstreams-axi_firewall/MedianBlur-GaussianBlur_pblock_medianblur_0_partial.bit 22.645407
L MedianBlur 0 22.991376
F 0 23.326705
DQ 2 26
CrS GaussianBlur  medianblur_0 23.326753
CrL G 2 26 0 23.326828
S /home/xilinx/Bitstreams-axi_firewall/GaussianBlur-GaussianBlur_pblock_medianblur_0_partial.bit 23.340490
L GaussianBlur 0 23.654382
F 0 23.947930
DQ 3 27
CrS GaussianBlur  medianblur_0 23.947971
CrL M 3 27 0 23.948041
S /home/xilinx/Bitstreams-axi_firewall/MedianBlur-GaussianBlur_pblock_medianblur_0_partial.bit 23.950373
L MedianBlur 0 24.274625
F 0 24.609852
DQ 3 28
CrL M 3 28 0 24.609936
L MedianBlur 0 24.659849
F 0 24.995139
DQ 4 25
CrL M 4 25 0 24.995210
L MedianBlur 0 25.019853
F 0 25.522793
DQ 4 29
CrS GaussianBlur  medianblur_0 25.522843
CrL G 4 29 0 25.522916
S /home/xilinx/Bitstreams-axi_firewall/GaussianBlur-GaussianBlur_pblock_medianblur_0_partial.bit 25.540431
L GaussianBlur 0 25.852731
F 0 26.146281
END 26.146305
