ARR 2 0 6.059968
CrS GaussianBlur  medianblur_0 6.060019
CrL M 2 0 0 6.060103
S /home/xilinx/Bitstreams-axi_firewall/MedianBlur-GaussianBlur_pblock_medianblur_0_partial.bit 6.090551
L MedianBlur 0 6.389767
F 0 6.557486
ARR 0 1 8.455856
CrL M 0 1 0 8.455940
L MedianBlur 0 8.509851
F 0 9.012700
ARR 4 2 11.516194
CrS GaussianBlur  medianblur_0 11.516233
CrL G 4 2 0 11.516318
S /home/xilinx/Bitstreams-axi_firewall/GaussianBlur-GaussianBlur_pblock_medianblur_0_partial.bit 11.516863
L GaussianBlur 0 11.863535
ARR 2 3 11.948337
EQ 2 3
F 0 12.157124
DQ 2 3
CrL G 2 3 0 12.157194
L GaussianBlur 0 12.189846
F 0 12.483411
ARR 3 4 13.971481
CrS GaussianBlur  medianblur_0 13.971522
CrL M 3 4 0 13.971598
S /home/xilinx/Bitstreams-axi_firewall/MedianBlur-GaussianBlur_pblock_medianblur_0_partial.bit 14.000437
L MedianBlur 0 14.321503
ARR 1 5 14.419108
EQ 1 5
ARR 1 6 14.426396
EQ 1 6
ARR 4 7 14.444334
EQ 4 7
F 0 14.489254
DQ 1 5
CrL M 1 5 0 14.489314
L MedianBlur 0 14.519847
F 0 14.687574
DQ 1 6
CrS GaussianBlur  medianblur_0 14.687606
CrL G 1 6 0 14.687666
S /home/xilinx/Bitstreams-axi_firewall/GaussianBlur-GaussianBlur_pblock_medianblur_0_partial.bit 14.690395
L GaussianBlur 0 15.004306
F 0 15.297853
DQ 4 7
CrL G 4 7 0 15.297928
L GaussianBlur 0 15.319879
F 0 15.613436
ARR 2 8 15.861382
CrL G 2 8 0 15.861443
ARR 0 9 15.893164
EQ 0 9
L GaussianBlur 0 15.899871
F 0 16.193417
DQ 0 9
CrS GaussianBlur  medianblur_0 16.193445
CrL M 0 9 0 16.193504
S /home/xilinx/Bitstreams-axi_firewall/MedianBlur-GaussianBlur_pblock_medianblur_0_partial.bit 16.220403
L MedianBlur 0 16.560437
F 0 17.063326
ARR 2 10 17.358334
CrL M 2 10 0 17.358413
L MedianBlur 0 17.389849
ARR 2 11 17.443189
EQ 2 11
ARR 1 12 17.538000
EQ 1 12
F 0 17.557618
DQ 1 12
CrL M 1 12 0 17.557676
L MedianBlur 0 17.559858
F 0 17.895092
DQ 2 11
CrL M 2 11 0 17.895149
L MedianBlur 0 17.909848
F 0 18.412746
ARR 3 13 18.611765
CrL M 3 13 0 18.611821
L MedianBlur 0 18.629848
ARR 4 14 18.676105
EQ 4 14
ARR 4 15 18.699660
EQ 4 15
F 0 19.132710
DQ 4 14
CrL M 4 14 0 19.132790
L MedianBlur 0 19.139867
F 0 19.642837
DQ 4 15
CrL M 4 15 0 19.642900
L MedianBlur 0 19.659849
F 0 19.995122
ARR 3 16 21.764039
CrL M 3 16 0 21.764120
L MedianBlur 0 21.779851
F 0 21.947581
ARR 0 17 22.803288
CrL M 0 17 0 22.803349
ARR 2 18 22.812429
EQ 2 18
L MedianBlur 0 22.839850
F 0 23.342815
DQ 2 18
CrL M 2 18 0 23.342890
L MedianBlur 0 23.399859
F 0 23.902815
ARR 1 19 27.906020
CrL M 1 19 0 27.906104
L MedianBlur 0 27.929881
ARR 4 20 27.944654
EQ 4 20
F 0 28.432798
DQ 4 20
CrL M 4 20 0 28.432861
L MedianBlur 0 28.489846
F 0 28.992904
ARR 0 21 29.034921
CrL M 0 21 0 29.034982
L MedianBlur 0 29.079845
F 0 29.415155
ARR 3 22 30.086698
CrL M 3 22 0 30.086772
L MedianBlur 0 30.149852
F 0 30.485144
ARR 0 23 32.139950
CrL M 0 23 0 32.140031
L MedianBlur 0 32.179848
ARR 4 24 32.236879
EQ 4 24
ARR 4 25 32.334054
EQ 4 25
ARR 2 26 32.418276
EQ 2 26
F 0 32.515227
DQ 2 26
CrS GaussianBlur  medianblur_0 32.515262
CrL G 2 26 0 32.515330
S /home/xilinx/Bitstreams-axi_firewall/GaussianBlur-GaussianBlur_pblock_medianblur_0_partial.bit 32.530460
L GaussianBlur 0 32.860769
F 0 33.154371
DQ 4 24
CrL G 4 24 0 33.154455
L GaussianBlur 0 33.189846
F 0 33.483402
DQ 4 25
CrS GaussianBlur  medianblur_0 33.483432
CrL M 4 25 0 33.483494
S /home/xilinx/Bitstreams-axi_firewall/MedianBlur-GaussianBlur_pblock_medianblur_0_partial.bit 33.510405
L MedianBlur 0 33.805289
ARR 3 27 34.088969
EQ 3 27
ARR 3 28 34.099494
EQ 3 28
F 0 34.308179
DQ 3 27
CrL M 3 27 0 34.308247
L MedianBlur 0 34.349845
F 0 34.685076
DQ 3 28
CrL M 3 28 0 34.685137
L MedianBlur 0 34.709849
F 0 35.045217
ARR 4 29 35.125957
CrS GaussianBlur  medianblur_0 35.125987
CrL G 4 29 0 35.126052
S /home/xilinx/Bitstreams-axi_firewall/GaussianBlur-GaussianBlur_pblock_medianblur_0_partial.bit 35.130403
L GaussianBlur 0 35.443555
F 0 35.737110
END 35.737134
