ARR 2 0 0.082826
CrS GaussianBlur  medianblur_0 0.082870
CrL M 2 0 0 0.082951
S /home/xilinx/Bitstreams-axi_firewall/MedianBlur-GaussianBlur_pblock_medianblur_0_partial.bit 0.084154
L MedianBlur 0 0.398904
ARR 0 1 0.432993
EQ 0 1
ARR 4 2 0.477903
EQ 4 2
ARR 2 3 0.488707
EQ 2 3
ARR 3 4 0.516549
EQ 3 4
ARR 1 5 0.527895
EQ 1 5
ARR 1 6 0.528988
EQ 1 6
ARR 4 7 0.531409
EQ 4 7
ARR 2 8 0.555823
EQ 2 8
ARR 0 9 0.559967
EQ 0 9
ARR 2 10 0.583671
EQ 2 10
ARR 2 11 0.594439
EQ 2 11
ARR 1 12 0.606464
EQ 1 12
ARR 3 13 0.628285
EQ 3 13
ARR 4 14 0.636519
EQ 4 14
ARR 4 15 0.639655
EQ 4 15
ARR 3 16 0.685085
EQ 3 16
F 0 0.696311
DQ 0 1
CrL M 0 1 0 0.696369
ARR 0 17 0.702799
EQ 0 17
L MedianBlur 0 0.703072
ARR 2 18 0.704119
EQ 2 18
ARR 1 19 0.777972
EQ 1 19
ARR 4 20 0.782972
EQ 4 20
ARR 0 21 0.806879
EQ 0 21
ARR 3 22 0.825921
EQ 3 22
ARR 0 23 0.857578
EQ 0 23
ARR 4 24 0.869843
EQ 4 24
ARR 4 25 0.882168
EQ 4 25
ARR 2 26 0.892872
EQ 2 26
ARR 3 27 0.905865
EQ 3 27
ARR 3 28 0.907358
EQ 3 28
ARR 4 29 0.923256
EQ 4 29
F 0 1.594767
DQ 0 9
CrL M 0 9 0 1.594845
L MedianBlur 0 1.629849
F 0 2.521401
DQ 0 17
CrL M 0 17 0 2.521462
L MedianBlur 0 2.549851
F 0 3.441506
DQ 0 21
CrL M 0 21 0 3.441585
L MedianBlur 0 3.469882
F 0 4.064278
DQ 0 23
CrL M 0 23 0 4.064338
L MedianBlur 0 4.069862
F 0 4.664372
DQ 1 5
CrL M 1 5 0 4.664432
L MedianBlur 0 4.679862
F 0 4.977231
DQ 1 6
CrS GaussianBlur  medianblur_0 4.977256
CrL G 1 6 0 4.977312
S /home/xilinx/Bitstreams-axi_firewall/GaussianBlur-GaussianBlur_pblock_medianblur_0_partial.bit 5.000427
L GaussianBlur 0 5.328114
F 0 5.849842
DQ 1 12
CrS GaussianBlur  medianblur_0 5.849874
CrL M 1 12 0 5.849943
S /home/xilinx/Bitstreams-axi_firewall/MedianBlur-GaussianBlur_pblock_medianblur_0_partial.bit 5.870401
L MedianBlur 0 6.168802
F 0 6.763064
DQ 1 19
CrL M 1 19 0 6.763135
L MedianBlur 0 6.819846
F 0 7.711522
DQ 2 3
CrS GaussianBlur  medianblur_0 7.711559
CrL G 2 3 0 7.711630
S /home/xilinx/Bitstreams-axi_firewall/GaussianBlur-GaussianBlur_pblock_medianblur_0_partial.bit 7.740418
L GaussianBlur 0 8.053383
F 0 8.575142
DQ 2 8
CrL G 2 8 0 8.575217
L GaussianBlur 0 8.599848
F 0 9.121651
DQ 2 10
CrS GaussianBlur  medianblur_0 9.121689
CrL M 2 10 0 9.121762
S /home/xilinx/Bitstreams-axi_firewall/MedianBlur-GaussianBlur_pblock_medianblur_0_partial.bit 9.150425
L MedianBlur 0 9.468094
F 0 9.765377
DQ 2 11
CrL M 2 11 0 9.765457
L MedianBlur 0 9.809847
F 0 10.701401
DQ 2 18
CrL M 2 18 0 10.701475
L MedianBlur 0 10.739846
F 0 11.631346
DQ 2 26
CrS GaussianBlur  medianblur_0 11.631390
CrL G 2 26 0 11.631466
S /home/xilinx/Bitstreams-axi_firewall/GaussianBlur-GaussianBlur_pblock_medianblur_0_partial.bit 11.650430
L GaussianBlur 0 11.966123
F 0 12.487886
DQ 3 4
CrS GaussianBlur  medianblur_0 12.487923
CrL M 3 4 0 12.487994
S /home/xilinx/Bitstreams-axi_firewall/MedianBlur-GaussianBlur_pblock_medianblur_0_partial.bit 12.490375
L MedianBlur 0 12.798207
F 0 13.095521
DQ 3 13
CrL M 3 13 0 13.095592
L MedianBlur 0 13.149850
F 0 14.041513
DQ 3 16
CrL M 3 16 0 14.041595
L MedianBlur 0 14.099846
F 0 14.397100
DQ 3 22
CrL M 3 22 0 14.397166
L MedianBlur 0 14.419848
F 0 15.014367
DQ 3 27
CrL M 3 27 0 15.014428
L MedianBlur 0 15.049849
F 0 15.644325
DQ 3 28
CrL M 3 28 0 15.644410
L MedianBlur 0 15.679860
F 0 16.274355
DQ 4 2
CrS GaussianBlur  medianblur_0 16.274385
CrL G 4 2 0 16.274457
S /home/xilinx/Bitstreams-axi_firewall/GaussianBlur-GaussianBlur_pblock_medianblur_0_partial.bit 16.274994
L GaussianBlur 0 16.601538
F 0 17.123323
DQ 4 7
CrL G 4 7 0 17.123407
L GaussianBlur 0 17.129867
F 0 17.651653
DQ 4 14
CrS GaussianBlur  medianblur_0 17.651696
CrL M 4 14 0 17.651781
S /home/xilinx/Bitstreams-axi_firewall/MedianBlur-GaussianBlur_pblock_medianblur_0_partial.bit 17.652321
L MedianBlur 0 17.974099
F 0 18.865629
DQ 4 15
CrL M 4 15 0 18.865710
L MedianBlur 0 18.929845
F 0 19.524379
DQ 4 20
CrL M 4 20 0 19.524463
L MedianBlur 0 19.569847
F 0 20.461396
DQ 4 24
CrS GaussianBlur  medianblur_0 20.461428
CrL G 4 24 0 20.461492
S /home/xilinx/Bitstreams-axi_firewall/GaussianBlur-GaussianBlur_pblock_medianblur_0_partial.bit 20.490414
L GaussianBlur 0 20.802348
F 0 21.324217
DQ 4 25
CrS GaussianBlur  medianblur_0 21.324260
CrL M 4 25 0 21.324335
S /home/xilinx/Bitstreams-axi_firewall/MedianBlur-GaussianBlur_pblock_medianblur_0_partial.bit 21.340425
L MedianBlur 0 21.670162
F 0 22.561714
DQ 4 29
CrS GaussianBlur  medianblur_0 22.561752
CrL G 4 29 0 22.561824
S /home/xilinx/Bitstreams-axi_firewall/GaussianBlur-GaussianBlur_pblock_medianblur_0_partial.bit 22.570459
L GaussianBlur 0 22.891455
F 0 23.413256
END 23.413288
