ARR 2 0 0.082815
CrS GaussianBlur GaussianBlur medianblur_0 0.082863
CrL M 2 0 0 0.082947
S /home/xilinx/Bitstreams-axi_firewall/MedianBlur-GaussianBlur_pblock_medianblur_0_partial.bit 0.083521
L MedianBlur 0 0.398800
ARR 0 1 0.431921
CrS MedianBlur GaussianBlur gaussianblur_0 0.431951
CrL M 0 1 1 0.432020
S /home/xilinx/Bitstreams-axi_firewall/MedianBlur-MedianBlur_pblock_gaussianblur_0_partial.bit 0.450628
L MedianBlur 1 0.770627
F 0 0.770738
ARR 4 2 0.815632
CrS GaussianBlur MedianBlur medianblur_0 0.815664
CrL G 4 2 0 0.815728
S /home/xilinx/Bitstreams-axi_firewall/GaussianBlur-MedianBlur_pblock_medianblur_0_partial.bit 0.840377
L GaussianBlur 0 1.128768
ARR 2 3 1.139504
R 1 1.139862
EQ 0 1
EV 1 3 1 1.144817
CrS MedianBlur MedianBlur gaussianblur_0 1.144838
CrL G 2 3 1 1.145128
S /home/xilinx/Bitstreams-axi_firewall/GaussianBlur-GaussianBlur_pblock_gaussianblur_0_partial.bit 1.150455
L GaussianBlur 1 1.470280
ARR 3 4 1.507676
R 1 1.507946
EQ 2 3
EV 3 4 1 1.508137
CrS MedianBlur MedianBlur gaussianblur_0 1.508153
CrL M 3 4 1 1.508186
S /home/xilinx/Bitstreams-axi_firewall/GaussianBlur-MedianBlur_pblock_gaussianblur_0_partial.bit 1.510321
L MedianBlur 1 1.821576
F 0 1.829963
DQ 0 1
CrS GaussianBlur MedianBlur medianblur_0 1.829995
CrL M 0 1 0 1.830645
S /home/xilinx/Bitstreams-axi_firewall/MedianBlur-MedianBlur_pblock_medianblur_0_partial.bit 1.839886
L MedianBlur 0 2.151461
F 1 2.151551
DQ 2 3
CrS MedianBlur GaussianBlur gaussianblur_0 2.151581
CrL G 2 3 1 2.152189
S /home/xilinx/Bitstreams-axi_firewall/MedianBlur-GaussianBlur_pblock_gaussianblur_0_partial.bit 2.154330
L GaussianBlur 1 2.471424
ARR 1 5 2.482693
R 0 2.482954
EQ 0 1
EV 1 5 0 2.483140
CrL M 1 5 0 2.483166
ARR 1 6 2.484350
EQ 1 6
ARR 4 7 2.486796
R 0 2.487084
EQ 1 5
EV 5 7 0 2.487263
CrS MedianBlur MedianBlur medianblur_0 2.487278
CrL G 4 7 0 2.487310
S /home/xilinx/Bitstreams-axi_firewall/GaussianBlur-GaussianBlur_pblock_medianblur_0_partial.bit 2.500505
L GaussianBlur 0 2.818742
ARR 2 8 2.843095
EQ 2 8
ARR 0 9 2.847280
EQ 0 9
ARR 2 10 2.871002
EQ 2 10
ARR 2 11 2.881785
EQ 2 11
ARR 1 12 2.893821
EQ 1 12
ARR 3 13 2.915637
R 1 2.915938
EQ 2 3
EV 3 13 1 2.916120
CrS MedianBlur MedianBlur gaussianblur_0 2.916136
CrL M 3 13 1 2.916172
S /home/xilinx/Bitstreams-axi_firewall/GaussianBlur-MedianBlur_pblock_gaussianblur_0_partial.bit 2.916654
L MedianBlur 1 3.259914
ARR 4 14 3.268073
R 1 3.268331
EQ 3 13
EV 13 14 1 3.268519
CrL M 4 14 1 3.268545
ARR 4 15 3.271685
EQ 4 15
L MedianBlur 1 3.299844
ARR 3 16 3.317130
EQ 3 16
ARR 0 17 3.334593
EQ 0 17
ARR 2 18 3.335925
EQ 2 18
F 0 3.343446
DQ 0 1
CrS GaussianBlur MedianBlur medianblur_0 3.343476
CrL M 0 1 0 3.343529
S /home/xilinx/Bitstreams-axi_firewall/MedianBlur-MedianBlur_pblock_medianblur_0_partial.bit 3.360393
L MedianBlur 0 3.692494
ARR 1 19 3.758905
R 0 3.759171
EQ 0 1
EV 1 19 0 3.759361
CrL M 1 19 0 3.759387
ARR 4 20 3.764448
R 0 3.764732
EQ 1 19
EV 19 20 0 3.764913
CrL M 4 20 0 3.764939
ARR 0 21 3.788883
EQ 0 21
ARR 3 22 3.807940
EQ 3 22
L MedianBlur 0 3.809849
ARR 0 23 3.839608
EQ 0 23
ARR 4 24 3.851894
EQ 4 24
ARR 4 25 3.864226
EQ 4 25
ARR 2 26 3.874940
EQ 2 26
ARR 3 27 3.887941
EQ 3 27
ARR 3 28 3.889447
EQ 3 28
ARR 4 29 3.905350
EQ 4 29
F 1 4.196616
DQ 0 9
CrL M 0 9 1 4.196687
L MedianBlur 1 4.229838
F 0 4.709230
DQ 0 17
CrL M 0 17 0 4.709296
L MedianBlur 0 4.729841
F 1 5.132621
DQ 0 1
CrL M 0 1 1 5.132684
L MedianBlur 1 5.159838
F 0 5.636376
DQ 0 21
CrL M 0 21 0 5.636461
L MedianBlur 0 5.649844
F 1 5.998621
DQ 0 23
CrL M 0 23 1 5.998699
L MedianBlur 1 6.029839
F 0 6.253499
DQ 1 6
CrS GaussianBlur MedianBlur medianblur_0 6.253532
CrL G 1 6 0 6.253600
S /home/xilinx/Bitstreams-axi_firewall/GaussianBlur-MedianBlur_pblock_medianblur_0_partial.bit 6.254146
L GaussianBlur 0 6.584754
F 1 6.628571
DQ 1 5
CrL M 1 5 1 6.628643
L MedianBlur 1 6.649843
F 1 6.948799
DQ 1 12
CrL M 1 12 1 6.948869
L MedianBlur 1 6.979876
F 0 7.108089
DQ 1 19
CrS GaussianBlur MedianBlur medianblur_0 7.108118
CrL M 1 19 0 7.108175
S /home/xilinx/Bitstreams-axi_firewall/MedianBlur-MedianBlur_pblock_medianblur_0_partial.bit 7.130405
L MedianBlur 0 7.471427
F 1 7.576843
DQ 2 8
CrS MedianBlur GaussianBlur gaussianblur_0 7.576881
CrL G 2 8 1 7.576951
S /home/xilinx/Bitstreams-axi_firewall/MedianBlur-GaussianBlur_pblock_gaussianblur_0_partial.bit 7.580388
L GaussianBlur 1 7.900399
F 0 8.367431
DQ 2 10
CrL M 2 10 0 8.367507
L MedianBlur 0 8.369869
F 1 8.423914
DQ 2 11
CrS MedianBlur GaussianBlur gaussianblur_0 8.423945
CrL M 2 11 1 8.424007
S /home/xilinx/Bitstreams-axi_firewall/MedianBlur-MedianBlur_pblock_gaussianblur_0_partial.bit 8.424509
L MedianBlur 1 8.752083
F 0 8.759912
DQ 2 3
CrS GaussianBlur MedianBlur medianblur_0 8.759944
CrL G 2 3 0 8.760011
S /home/xilinx/Bitstreams-axi_firewall/GaussianBlur-MedianBlur_pblock_medianblur_0_partial.bit 8.780405
L GaussianBlur 0 9.088863
F 0 9.612426
DQ 2 18
CrS GaussianBlur MedianBlur medianblur_0 9.612472
CrL M 2 18 0 9.612545
S /home/xilinx/Bitstreams-axi_firewall/MedianBlur-MedianBlur_pblock_medianblur_0_partial.bit 9.640409
L MedianBlur 0 9.946169
F 1 9.949956
DQ 2 26
CrS MedianBlur GaussianBlur gaussianblur_0 9.949990
CrL G 2 26 1 9.950056
S /home/xilinx/Bitstreams-axi_firewall/MedianBlur-GaussianBlur_pblock_gaussianblur_0_partial.bit 9.970410
L GaussianBlur 1 10.290281
F 1 10.813770
DQ 3 13
CrS MedianBlur GaussianBlur gaussianblur_0 10.813808
CrL M 3 13 1 10.813884
S /home/xilinx/Bitstreams-axi_firewall/MedianBlur-MedianBlur_pblock_gaussianblur_0_partial.bit 10.814363
L MedianBlur 1 11.141146
F 0 11.149963
DQ 3 16
CrL M 3 16 0 11.150038
L MedianBlur 0 11.159861
F 0 11.458389
DQ 3 22
CrL M 3 22 0 11.458464
L MedianBlur 0 11.489844
F 1 12.036565
DQ 3 27
CrL M 3 27 1 12.036656
L MedianBlur 1 12.039856
F 0 12.087499
DQ 3 28
CrL M 3 28 0 12.087568
L MedianBlur 0 12.129837
F 1 12.642285
DQ 4 15
CrL M 4 15 1 12.642355
L MedianBlur 1 12.669850
F 0 12.734063
DQ 4 24
CrS GaussianBlur MedianBlur medianblur_0 12.734097
CrL G 4 24 0 12.734163
S /home/xilinx/Bitstreams-axi_firewall/GaussianBlur-MedianBlur_pblock_medianblur_0_partial.bit 12.734698
L GaussianBlur 0 13.048238
F 1 13.268204
DQ 4 25
CrL M 4 25 1 13.268286
L MedianBlur 1 13.309841
F 0 13.571666
DQ 4 29
CrL G 4 29 0 13.571759
L GaussianBlur 0 13.609838
F 0 14.133344
F 1 14.205625
END 14.205651
