ARR 2 0 4.016126
CrS GaussianBlur  medianblur_0 4.016180
CrL M 2 0 0 4.016262
S /home/xilinx/Bitstreams-axi_firewall/MedianBlur-GaussianBlur_pblock_medianblur_0_partial.bit 4.030826
L MedianBlur 0 4.361073
F 0 4.658500
ARR 0 1 5.427095
CrL M 0 1 0 5.427183
L MedianBlur 0 5.439829
F 0 6.331469
ARR 4 2 7.452017
CrS GaussianBlur  medianblur_0 7.452055
CrL G 4 2 0 7.452127
S /home/xilinx/Bitstreams-axi_firewall/GaussianBlur-GaussianBlur_pblock_medianblur_0_partial.bit 7.480367
L GaussianBlur 0 7.786450
ARR 2 3 7.842878
EQ 2 3
F 0 8.308231
DQ 2 3
CrL G 2 3 0 8.308307
L GaussianBlur 0 8.329796
F 0 8.851612
ARR 3 4 8.881722
CrS GaussianBlur  medianblur_0 8.881754
CrL M 3 4 0 8.881825
S /home/xilinx/Bitstreams-axi_firewall/MedianBlur-GaussianBlur_pblock_medianblur_0_partial.bit 8.882361
L MedianBlur 0 9.212909
ARR 1 5 9.275626
EQ 1 5
ARR 1 6 9.280273
EQ 1 6
ARR 4 7 9.291572
R 0 9.291906
EQ 3 4
EV 4 7 0 9.292101
CrS MedianBlur  medianblur_0 9.292118
CrL G 4 7 0 9.292155
S /home/xilinx/Bitstreams-axi_firewall/GaussianBlur-GaussianBlur_pblock_medianblur_0_partial.bit 9.292650
L GaussianBlur 0 9.599067
F 0 10.120851
DQ 1 5
CrS GaussianBlur  medianblur_0 10.120898
CrL M 1 5 0 10.120970
S /home/xilinx/Bitstreams-axi_firewall/MedianBlur-GaussianBlur_pblock_medianblur_0_partial.bit 10.150349
L MedianBlur 0 10.463168
F 0 10.760614
DQ 1 6
CrS GaussianBlur  medianblur_0 10.760661
CrL G 1 6 0 10.760735
S /home/xilinx/Bitstreams-axi_firewall/GaussianBlur-GaussianBlur_pblock_medianblur_0_partial.bit 10.780368
L GaussianBlur 0 11.101011
ARR 2 8 11.304015
R 0 11.304295
EQ 1 6
EV 6 8 0 11.304488
CrL G 2 8 0 11.304519
ARR 0 9 11.324429
EQ 0 9
L GaussianBlur 0 11.339806
F 0 11.861567
DQ 0 9
CrS GaussianBlur  medianblur_0 11.861603
CrL M 0 9 0 11.861673
S /home/xilinx/Bitstreams-axi_firewall/MedianBlur-GaussianBlur_pblock_medianblur_0_partial.bit 11.862185
L MedianBlur 0 12.168846
ARR 2 10 12.649891
R 0 12.650235
EQ 0 9
EV 9 10 0 12.650434
CrL M 2 10 0 12.650467
L MedianBlur 0 12.679804
ARR 2 11 12.703533
EQ 2 11
ARR 1 12 12.762858
EQ 1 12
F 0 12.977055
DQ 0 9
CrL M 0 9 0 12.977120
L MedianBlur 0 12.999794
F 0 13.410149
DQ 1 6
CrS GaussianBlur  medianblur_0 13.410183
CrL G 1 6 0 13.410243
S /home/xilinx/Bitstreams-axi_firewall/GaussianBlur-GaussianBlur_pblock_medianblur_0_partial.bit 13.440339
L GaussianBlur 0 13.738830
ARR 3 13 14.100394
R 0 14.100682
EQ 1 6
EV 6 13 0 14.100876
CrS MedianBlur  medianblur_0 14.100895
CrL M 3 13 0 14.100932
S /home/xilinx/Bitstreams-axi_firewall/MedianBlur-GaussianBlur_pblock_medianblur_0_partial.bit 14.130331
L MedianBlur 0 14.418746
ARR 4 14 14.459981
R 0 14.460248
EQ 3 13
EV 13 14 0 14.460443
CrL M 4 14 0 14.460475
ARR 4 15 14.475285
EQ 4 15
L MedianBlur 0 14.489802
F 0 15.381441
DQ 1 12
CrL M 1 12 0 15.381531
L MedianBlur 0 15.409798
F 0 16.004059
DQ 1 6
CrS GaussianBlur  medianblur_0 16.004094
CrL G 1 6 0 16.004158
S /home/xilinx/Bitstreams-axi_firewall/GaussianBlur-GaussianBlur_pblock_medianblur_0_partial.bit 16.010423
L GaussianBlur 0 16.318069
ARR 3 16 16.818164
R 0 16.818522
EQ 1 6
EV 6 16 0 16.818721
CrS MedianBlur  medianblur_0 16.818743
CrL M 3 16 0 16.818780
S /home/xilinx/Bitstreams-axi_firewall/MedianBlur-GaussianBlur_pblock_medianblur_0_partial.bit 16.830395
L MedianBlur 0 17.160242
ARR 0 17 17.246657
EQ 0 17
ARR 2 18 17.252422
EQ 2 18
F 0 17.457562
DQ 0 17
CrL M 0 17 0 17.457637
L MedianBlur 0 17.479794
F 0 18.371425
DQ 1 6
CrS GaussianBlur  medianblur_0 18.371462
CrL G 1 6 0 18.371528
S /home/xilinx/Bitstreams-axi_firewall/GaussianBlur-GaussianBlur_pblock_medianblur_0_partial.bit 18.400347
L GaussianBlur 0 18.713716
F 0 19.235489
DQ 2 11
CrS GaussianBlur  medianblur_0 19.235530
CrL M 2 11 0 19.235607
S /home/xilinx/Bitstreams-axi_firewall/MedianBlur-GaussianBlur_pblock_medianblur_0_partial.bit 19.236102
L MedianBlur 0 19.573098
F 0 20.464667
DQ 2 18
CrL M 2 18 0 20.464748
L MedianBlur 0 20.499795
ARR 1 19 21.007943
EQ 1 19
ARR 4 20 21.032143
R 0 21.032488
EQ 2 18
EV 18 20 0 21.032677
CrL M 4 20 0 21.032708
L MedianBlur 0 21.059804
F 0 21.951361
DQ 1 19
CrL M 1 19 0 21.951431
L MedianBlur 0 21.979794
ARR 0 21 22.051709
EQ 0 21
ARR 3 22 22.146163
R 0 22.146487
EQ 1 19
EV 19 22 0 22.146679
CrL M 3 22 0 22.146710
L MedianBlur 0 22.159800
F 0 22.754426
DQ 0 21
CrL M 0 21 0 22.754513
L MedianBlur 0 22.789795
ARR 0 23 23.204888
EQ 0 23
ARR 4 24 23.265478
R 0 23.265801
EQ 0 21
EV 21 24 0 23.265988
CrS MedianBlur  medianblur_0 23.266007
CrL G 4 24 0 23.266043
S /home/xilinx/Bitstreams-axi_firewall/GaussianBlur-GaussianBlur_pblock_medianblur_0_partial.bit 23.280332
L GaussianBlur 0 23.590468
ARR 4 25 23.651196
EQ 4 25
ARR 2 26 23.703918
EQ 2 26
ARR 3 27 23.768086
EQ 3 27
ARR 3 28 23.774736
EQ 3 28
ARR 4 29 23.853440
EQ 4 29
F 0 24.112249
DQ 0 23
CrS GaussianBlur  medianblur_0 24.112288
CrL M 0 23 0 24.112356
S /home/xilinx/Bitstreams-axi_firewall/MedianBlur-GaussianBlur_pblock_medianblur_0_partial.bit 24.112873
L MedianBlur 0 24.460783
F 0 25.055347
DQ 0 21
CrL M 0 21 0 25.055439
L MedianBlur 0 25.069831
F 0 25.188413
DQ 1 19
CrL M 1 19 0 25.188480
L MedianBlur 0 25.189880
F 0 25.915028
DQ 2 18
CrL M 2 18 0 25.915098
L MedianBlur 0 25.915136
F 0 26.274105
DQ 2 26
CrS GaussianBlur  medianblur_0 26.274143
CrL G 2 26 0 26.274215
S /home/xilinx/Bitstreams-axi_firewall/GaussianBlur-GaussianBlur_pblock_medianblur_0_partial.bit 26.274755
L GaussianBlur 0 26.593731
F 0 27.115502
DQ 3 4
CrS GaussianBlur  medianblur_0 27.115548
CrL M 3 4 0 27.115629
S /home/xilinx/Bitstreams-axi_firewall/MedianBlur-GaussianBlur_pblock_medianblur_0_partial.bit 27.116135
L MedianBlur 0 27.444250
F 0 27.741541
DQ 3 13
CrL M 3 13 0 27.741622
L MedianBlur 0 27.759798
F 0 28.610136
DQ 3 27
CrL M 3 27 0 28.610234
L MedianBlur 0 28.639801
F 0 29.234232
DQ 3 28
CrL M 3 28 0 29.234318
L MedianBlur 0 29.249798
F 0 29.844206
DQ 4 15
CrL M 4 15 0 29.844276
L MedianBlur 0 29.859794
F 0 30.454216
DQ 4 25
CrL M 4 25 0 30.454296
L MedianBlur 0 30.479794
F 0 31.371396
DQ 4 29
CrS GaussianBlur  medianblur_0 31.371443
CrL G 4 29 0 31.371516
S /home/xilinx/Bitstreams-axi_firewall/GaussianBlur-GaussianBlur_pblock_medianblur_0_partial.bit 31.410371
L GaussianBlur 0 31.716800
F 0 32.238561
END 32.238587
