ARR 2 0 0.082832
CrS GaussianBlur  medianblur_0 0.082880
CrL M 2 0 0 0.082964
S /home/xilinx/Bitstreams-axi_firewall/MedianBlur-GaussianBlur_pblock_medianblur_0_partial.bit 0.083532
L MedianBlur 0 0.396807
ARR 0 1 0.432986
EQ 0 1
ARR 4 2 0.477896
R 0 0.478226
EQ 2 0
EV 0 2 0 0.478420
CrS MedianBlur  medianblur_0 0.478438
CrL G 4 2 0 0.478473
S /home/xilinx/Bitstreams-axi_firewall/GaussianBlur-GaussianBlur_pblock_medianblur_0_partial.bit 0.478953
L GaussianBlur 0 0.824064
ARR 2 3 0.834792
EQ 2 3
ARR 3 4 0.862654
EQ 3 4
ARR 1 5 0.874017
EQ 1 5
ARR 1 6 0.875125
EQ 1 6
ARR 4 7 0.877561
EQ 4 7
ARR 2 8 0.901975
EQ 2 8
ARR 0 9 0.906134
EQ 0 9
ARR 2 10 0.929832
EQ 2 10
ARR 2 11 0.940603
EQ 2 11
ARR 1 12 0.952636
EQ 1 12
ARR 3 13 0.974457
EQ 3 13
ARR 4 14 0.982679
EQ 4 14
ARR 4 15 0.985816
EQ 4 15
ARR 3 16 1.031247
EQ 3 16
ARR 0 17 1.048712
EQ 0 17
ARR 2 18 1.050044
EQ 2 18
ARR 1 19 1.123904
EQ 1 19
ARR 4 20 1.128915
EQ 4 20
ARR 0 21 1.152827
EQ 0 21
ARR 3 22 1.171877
EQ 3 22
ARR 0 23 1.203541
EQ 0 23
ARR 4 24 1.215826
EQ 4 24
ARR 4 25 1.228153
EQ 4 25
ARR 2 26 1.238891
EQ 2 26
ARR 3 27 1.251917
EQ 3 27
ARR 3 28 1.253442
EQ 3 28
ARR 4 29 1.269353
EQ 4 29
F 0 1.345912
DQ 0 1
CrS GaussianBlur  medianblur_0 1.345952
CrL M 0 1 0 1.346020
S /home/xilinx/Bitstreams-axi_firewall/MedianBlur-GaussianBlur_pblock_medianblur_0_partial.bit 1.370437
L MedianBlur 0 1.701393
F 0 2.593002
DQ 0 9
CrL M 0 9 0 2.593080
L MedianBlur 0 2.619843
F 0 3.511374
DQ 0 17
CrL M 0 17 0 3.511455
L MedianBlur 0 3.539840
F 0 4.431463
DQ 0 21
CrL M 0 21 0 4.431532
L MedianBlur 0 4.489838
F 0 5.084230
DQ 0 23
CrL M 0 23 0 5.084296
L MedianBlur 0 5.129835
F 0 5.724387
DQ 1 5
CrL M 1 5 0 5.724467
L MedianBlur 0 5.769848
F 0 6.067189
DQ 1 6
CrS GaussianBlur  medianblur_0 6.067220
CrL G 1 6 0 6.067279
S /home/xilinx/Bitstreams-axi_firewall/GaussianBlur-GaussianBlur_pblock_medianblur_0_partial.bit 6.090454
L GaussianBlur 0 6.420366
F 0 6.942116
DQ 1 12
CrS GaussianBlur  medianblur_0 6.942153
CrL M 1 12 0 6.942228
S /home/xilinx/Bitstreams-axi_firewall/MedianBlur-GaussianBlur_pblock_medianblur_0_partial.bit 6.942711
L MedianBlur 0 7.267256
F 0 7.861535
DQ 1 19
CrL M 1 19 0 7.861617
L MedianBlur 0 7.899838
F 0 8.791430
DQ 2 0
CrL M 2 0 0 8.791499
L MedianBlur 0 8.799853
F 0 9.015938
DQ 2 3
CrS GaussianBlur  medianblur_0 9.015969
CrL G 2 3 0 9.016025
S /home/xilinx/Bitstreams-axi_firewall/GaussianBlur-GaussianBlur_pblock_medianblur_0_partial.bit 9.040403
L GaussianBlur 0 9.353011
F 0 9.874768
DQ 2 8
CrL G 2 8 0 9.874847
L GaussianBlur 0 9.939838
F 0 10.461587
DQ 2 10
CrS GaussianBlur  medianblur_0 10.461626
CrL M 2 10 0 10.461732
S /home/xilinx/Bitstreams-axi_firewall/MedianBlur-GaussianBlur_pblock_medianblur_0_partial.bit 10.462239
L MedianBlur 0 10.784328
F 0 11.081589
DQ 2 11
CrL M 2 11 0 11.081669
L MedianBlur 0 11.099841
F 0 11.991526
DQ 2 18
CrL M 2 18 0 11.991618
L MedianBlur 0 12.029839
F 0 12.921253
DQ 2 26
CrS GaussianBlur  medianblur_0 12.921290
CrL G 2 26 0 12.921354
S /home/xilinx/Bitstreams-axi_firewall/GaussianBlur-GaussianBlur_pblock_medianblur_0_partial.bit 12.950403
L GaussianBlur 0 13.254287
F 0 13.776065
DQ 3 4
CrS GaussianBlur  medianblur_0 13.776112
CrL M 3 4 0 13.776185
S /home/xilinx/Bitstreams-axi_firewall/MedianBlur-GaussianBlur_pblock_medianblur_0_partial.bit 13.790479
L MedianBlur 0 14.114565
F 0 14.411888
DQ 3 13
CrL M 3 13 0 14.411971
L MedianBlur 0 14.429842
F 0 15.321503
DQ 3 16
CrL M 3 16 0 15.321590
L MedianBlur 0 15.349842
F 0 15.647126
DQ 3 22
CrL M 3 22 0 15.647200
L MedianBlur 0 15.669849
F 0 16.264345
DQ 3 27
CrL M 3 27 0 16.264412
L MedianBlur 0 16.269903
F 0 16.864294
DQ 3 28
CrL M 3 28 0 16.864360
L MedianBlur 0 16.889840
F 0 17.484355
DQ 4 7
CrS GaussianBlur  medianblur_0 17.484402
CrL G 4 7 0 17.484475
S /home/xilinx/Bitstreams-axi_firewall/GaussianBlur-GaussianBlur_pblock_medianblur_0_partial.bit 17.510420
L GaussianBlur 0 17.809440
F 0 18.331218
DQ 4 14
CrS GaussianBlur  medianblur_0 18.331266
CrL M 4 14 0 18.331339
S /home/xilinx/Bitstreams-axi_firewall/MedianBlur-GaussianBlur_pblock_medianblur_0_partial.bit 18.340473
L MedianBlur 0 18.654700
F 0 19.546372
DQ 4 15
CrL M 4 15 0 19.546463
L MedianBlur 0 19.579842
F 0 20.174242
DQ 4 20
CrL M 4 20 0 20.174312
L MedianBlur 0 20.199838
F 0 21.091409
DQ 4 24
CrS GaussianBlur  medianblur_0 21.091448
CrL G 4 24 0 21.091512
S /home/xilinx/Bitstreams-axi_firewall/GaussianBlur-GaussianBlur_pblock_medianblur_0_partial.bit 21.120401
L GaussianBlur 0 21.432430
F 0 21.954194
DQ 4 25
CrS GaussianBlur  medianblur_0 21.954237
CrL M 4 25 0 21.954310
S /home/xilinx/Bitstreams-axi_firewall/MedianBlur-GaussianBlur_pblock_medianblur_0_partial.bit 21.970409
L MedianBlur 0 22.281301
F 0 23.172854
DQ 4 29
CrS GaussianBlur  medianblur_0 23.172896
CrL G 4 29 0 23.172975
S /home/xilinx/Bitstreams-axi_firewall/GaussianBlur-GaussianBlur_pblock_medianblur_0_partial.bit 23.173459
L GaussianBlur 0 23.494051
F 0 24.015824
END 24.015854
