ARR 2 0 0.082836
CrS GaussianBlur GaussianBlur medianblur_0 0.082880
CrL M 2 0 0 0.082963
S /home/xilinx/Bitstreams-axi_firewall/MedianBlur-GaussianBlur_pblock_medianblur_0_partial.bit 0.090550
L MedianBlur 0 0.402141
ARR 0 1 0.435265
CrS MedianBlur GaussianBlur gaussianblur_0 0.435290
CrL M 0 1 1 0.435358
S /home/xilinx/Bitstreams-axi_firewall/MedianBlur-MedianBlur_pblock_gaussianblur_0_partial.bit 0.460567
L MedianBlur 1 0.781775
F 0 0.789776
ARR 4 2 0.835236
CrS GaussianBlur MedianBlur medianblur_0 0.835262
CrL G 4 2 0 0.835323
S /home/xilinx/Bitstreams-axi_firewall/GaussianBlur-MedianBlur_pblock_medianblur_0_partial.bit 0.840356
L GaussianBlur 0 1.166788
ARR 2 3 1.180545
EQ 2 3
ARR 3 4 1.208408
EQ 3 4
ARR 1 5 1.219777
EQ 1 5
ARR 1 6 1.220885
EQ 1 6
ARR 4 7 1.223321
EQ 4 7
ARR 2 8 1.247737
EQ 2 8
ARR 0 9 1.251889
EQ 0 9
ARR 2 10 1.275601
EQ 2 10
ARR 2 11 1.286375
EQ 2 11
ARR 1 12 1.298407
EQ 1 12
ARR 3 13 1.320221
EQ 3 13
ARR 4 14 1.328445
EQ 4 14
ARR 4 15 1.331603
EQ 4 15
ARR 3 16 1.377067
EQ 3 16
ARR 0 17 1.394542
EQ 0 17
ARR 2 18 1.395877
EQ 2 18
ARR 1 19 1.469773
EQ 1 19
ARR 4 20 1.474817
EQ 4 20
ARR 0 21 1.498737
EQ 0 21
ARR 3 22 1.517787
EQ 3 22
ARR 0 23 1.549455
EQ 0 23
ARR 4 24 1.561743
EQ 4 24
ARR 4 25 1.574073
EQ 4 25
ARR 2 26 1.584783
EQ 2 26
ARR 3 27 1.597782
EQ 3 27
ARR 3 28 1.599284
EQ 3 28
ARR 4 29 1.615186
EQ 4 29
F 1 1.677757
DQ 0 9
CrL M 0 9 1 1.677815
L MedianBlur 1 1.689776
F 0 1.690332
DQ 0 17
CrS GaussianBlur MedianBlur medianblur_0 1.690355
CrL M 0 17 0 1.690408
S /home/xilinx/Bitstreams-axi_firewall/MedianBlur-MedianBlur_pblock_medianblur_0_partial.bit 1.710332
L MedianBlur 0 2.017525
F 1 2.592668
DQ 0 21
CrL M 0 21 1 2.592741
L MedianBlur 1 2.619778
F 0 2.921461
DQ 0 23
CrL M 0 23 0 2.921520
L MedianBlur 0 2.969773
F 1 3.218778
DQ 1 5
CrL M 1 5 1 3.218834
L MedianBlur 1 3.259784
F 1 3.558420
DQ 1 6
CrS MedianBlur GaussianBlur gaussianblur_0 3.558454
CrL G 1 6 1 3.558525
S /home/xilinx/Bitstreams-axi_firewall/MedianBlur-GaussianBlur_pblock_gaussianblur_0_partial.bit 3.560351
L GaussianBlur 1 3.855376
F 0 3.869858
DQ 1 12
CrL M 1 12 0 3.869928
L MedianBlur 0 3.899789
F 1 4.378746
DQ 1 19
CrS MedianBlur GaussianBlur gaussianblur_0 4.378777
CrL M 1 19 1 4.378850
S /home/xilinx/Bitstreams-axi_firewall/MedianBlur-MedianBlur_pblock_gaussianblur_0_partial.bit 4.379371
L MedianBlur 1 4.705930
F 0 4.709890
DQ 2 3
CrS GaussianBlur MedianBlur medianblur_0 4.709917
CrL G 2 3 0 4.709988
S /home/xilinx/Bitstreams-axi_firewall/GaussianBlur-MedianBlur_pblock_medianblur_0_partial.bit 4.710453
L GaussianBlur 0 5.018961
F 0 5.542565
DQ 2 8
CrL G 2 8 0 5.542650
L GaussianBlur 0 5.559795
F 1 5.602179
DQ 2 10
CrL M 2 10 1 5.602239
L MedianBlur 1 5.649771
F 1 5.948539
DQ 2 11
CrL M 2 11 1 5.948594
L MedianBlur 1 5.969775
F 0 6.083076
DQ 2 18
CrS GaussianBlur MedianBlur medianblur_0 6.083099
CrL M 2 18 0 6.083159
S /home/xilinx/Bitstreams-axi_firewall/MedianBlur-MedianBlur_pblock_medianblur_0_partial.bit 6.083705
L MedianBlur 0 6.395300
F 1 6.865394
DQ 2 26
CrS MedianBlur GaussianBlur gaussianblur_0 6.865425
CrL G 2 26 1 6.865495
S /home/xilinx/Bitstreams-axi_firewall/MedianBlur-GaussianBlur_pblock_gaussianblur_0_partial.bit 6.880331
L GaussianBlur 1 7.191210
F 0 7.290602
DQ 3 4
CrL M 3 4 0 7.290669
L MedianBlur 0 7.319776
F 0 7.618694
DQ 3 13
CrL M 3 13 0 7.618771
L MedianBlur 0 7.639779
F 1 7.714556
DQ 3 16
CrS MedianBlur GaussianBlur gaussianblur_0 7.714581
CrL M 3 16 1 7.714647
S /home/xilinx/Bitstreams-axi_firewall/MedianBlur-MedianBlur_pblock_gaussianblur_0_partial.bit 7.715178
L MedianBlur 1 8.027276
F 1 8.326940
DQ 3 22
CrL M 3 22 1 8.327010
L MedianBlur 1 8.339779
F 0 8.535622
DQ 3 27
CrL M 3 27 0 8.535691
L MedianBlur 0 8.559789
F 1 8.939452
DQ 3 28
CrL M 3 28 1 8.939511
L MedianBlur 1 8.939778
F 0 9.163256
DQ 4 7
CrS GaussianBlur MedianBlur medianblur_0 9.163283
CrL G 4 7 0 9.163344
S /home/xilinx/Bitstreams-axi_firewall/GaussianBlur-MedianBlur_pblock_medianblur_0_partial.bit 9.163869
L GaussianBlur 0 9.484901
F 1 9.538422
DQ 4 14
CrL M 4 14 1 9.538492
L MedianBlur 1 9.579807
F 0 10.008278
DQ 4 15
CrS GaussianBlur MedianBlur medianblur_0 10.008314
CrL M 4 15 0 10.008464
S /home/xilinx/Bitstreams-axi_firewall/MedianBlur-MedianBlur_pblock_medianblur_0_partial.bit 10.010324
L MedianBlur 0 10.307261
F 1 10.478545
DQ 4 20
CrL M 4 20 1 10.478621
L MedianBlur 1 10.489816
F 0 10.907581
DQ 4 24
CrS GaussianBlur MedianBlur medianblur_0 10.907616
CrL G 4 24 0 10.907689
S /home/xilinx/Bitstreams-axi_firewall/GaussianBlur-MedianBlur_pblock_medianblur_0_partial.bit 10.908206
L GaussianBlur 0 11.243240
F 1 11.388329
DQ 4 25
CrL M 4 25 1 11.388413
L MedianBlur 1 11.399821
F 0 11.766781
DQ 4 29
CrL G 4 29 0 11.766863
L GaussianBlur 0 11.779778
F 1 12.296200
F 0 12.303274
END 12.303294
