ARR 2 0 0.082830
CrS GaussianBlur  medianblur_0 0.082872
CrL M 2 0 0 0.082951
S /home/xilinx/Bitstreams-axi_firewall/MedianBlur-GaussianBlur_pblock_medianblur_0_partial.bit 0.083636
L MedianBlur 0 0.403193
ARR 0 1 0.436315
EQ 0 1
ARR 4 2 0.481230
EQ 4 2
ARR 2 3 0.492041
EQ 2 3
ARR 3 4 0.519909
EQ 3 4
ARR 1 5 0.531262
EQ 1 5
ARR 1 6 0.532366
EQ 1 6
ARR 4 7 0.534804
EQ 4 7
ARR 2 8 0.559226
EQ 2 8
ARR 0 9 0.563385
EQ 0 9
ARR 2 10 0.587098
EQ 2 10
ARR 2 11 0.597874
EQ 2 11
ARR 1 12 0.609925
EQ 1 12
ARR 3 13 0.631742
EQ 3 13
ARR 4 14 0.639938
EQ 4 14
ARR 4 15 0.643078
EQ 4 15
ARR 3 16 0.688510
EQ 3 16
F 0 0.700596
DQ 0 1
CrL M 0 1 0 0.700650
ARR 0 17 0.706218
EQ 0 17
ARR 2 18 0.707555
EQ 2 18
L MedianBlur 0 0.749841
ARR 1 19 0.781422
EQ 1 19
ARR 4 20 0.786440
EQ 4 20
ARR 0 21 0.810353
EQ 0 21
ARR 3 22 0.829404
EQ 3 22
ARR 0 23 0.861072
EQ 0 23
ARR 4 24 0.873361
EQ 4 24
ARR 4 25 0.885692
EQ 4 25
ARR 2 26 0.896405
EQ 2 26
ARR 3 27 0.909407
EQ 3 27
ARR 3 28 0.910910
EQ 3 28
ARR 4 29 0.926817
EQ 4 29
F 0 1.641544
DQ 0 9
CrL M 0 9 0 1.641627
L MedianBlur 0 1.699843
F 0 2.591592
DQ 0 17
CrL M 0 17 0 2.591670
L MedianBlur 0 2.619842
F 0 3.511488
DQ 0 21
CrL M 0 21 0 3.511564
L MedianBlur 0 3.569839
F 0 4.164197
DQ 0 23
CrL M 0 23 0 4.164257
L MedianBlur 0 4.209845
F 0 4.804318
DQ 1 5
CrL M 1 5 0 4.804375
L MedianBlur 0 4.849839
F 0 5.147175
DQ 1 6
CrS GaussianBlur  medianblur_0 5.147198
CrL G 1 6 0 5.147254
S /home/xilinx/Bitstreams-axi_firewall/GaussianBlur-GaussianBlur_pblock_medianblur_0_partial.bit 5.170420
L GaussianBlur 0 5.477640
F 0 5.999421
DQ 1 12
CrS GaussianBlur  medianblur_0 5.999457
CrL M 1 12 0 5.999538
S /home/xilinx/Bitstreams-axi_firewall/MedianBlur-GaussianBlur_pblock_medianblur_0_partial.bit 6.030148
L MedianBlur 0 6.339452
F 0 6.933734
DQ 1 19
CrL M 1 19 0 6.933809
L MedianBlur 0 6.959843
F 0 7.851468
DQ 2 3
CrS GaussianBlur  medianblur_0 7.851503
CrL G 2 3 0 7.851572
S /home/xilinx/Bitstreams-axi_firewall/GaussianBlur-GaussianBlur_pblock_medianblur_0_partial.bit 7.880424
L GaussianBlur 0 8.189207
F 0 8.710974
DQ 2 8
CrL G 2 8 0 8.711050
L GaussianBlur 0 8.739842
F 0 9.261593
DQ 2 10
CrS GaussianBlur  medianblur_0 9.261619
CrL M 2 10 0 9.261684
S /home/xilinx/Bitstreams-axi_firewall/MedianBlur-GaussianBlur_pblock_medianblur_0_partial.bit 9.262197
L MedianBlur 0 9.558973
F 0 9.856213
DQ 2 11
CrL M 2 11 0 9.856286
L MedianBlur 0 9.909839
F 0 10.801465
DQ 2 18
CrL M 2 18 0 10.801542
L MedianBlur 0 10.839840
F 0 11.731330
DQ 2 26
CrS GaussianBlur  medianblur_0 11.731370
CrL G 2 26 0 11.731444
S /home/xilinx/Bitstreams-axi_firewall/GaussianBlur-GaussianBlur_pblock_medianblur_0_partial.bit 11.760408
L GaussianBlur 0 12.064363
F 0 12.586125
DQ 3 4
CrS GaussianBlur  medianblur_0 12.586161
CrL M 3 4 0 12.586240
S /home/xilinx/Bitstreams-axi_firewall/MedianBlur-GaussianBlur_pblock_medianblur_0_partial.bit 12.586719
L MedianBlur 0 12.942456
F 0 13.239832
DQ 3 13
CrL M 3 13 0 13.239909
L MedianBlur 0 13.259845
F 0 14.151528
DQ 3 16
CrL M 3 16 0 14.151611
L MedianBlur 0 14.199841
F 0 14.497108
DQ 3 22
CrL M 3 22 0 14.497171
L MedianBlur 0 14.519839
F 0 15.114357
DQ 3 27
CrL M 3 27 0 15.114432
L MedianBlur 0 15.139842
F 0 15.734275
DQ 3 28
CrL M 3 28 0 15.734357
L MedianBlur 0 15.769842
F 0 16.364274
DQ 4 2
CrS GaussianBlur  medianblur_0 16.364302
CrL G 4 2 0 16.364364
S /home/xilinx/Bitstreams-axi_firewall/GaussianBlur-GaussianBlur_pblock_medianblur_0_partial.bit 16.370473
L GaussianBlur 0 16.682443
F 0 17.204222
DQ 4 7
CrL G 4 7 0 17.204304
L GaussianBlur 0 17.259838
F 0 17.781629
DQ 4 14
CrS GaussianBlur  medianblur_0 17.781672
CrL M 4 14 0 17.781759
S /home/xilinx/Bitstreams-axi_firewall/MedianBlur-GaussianBlur_pblock_medianblur_0_partial.bit 17.782300
L MedianBlur 0 18.104071
F 0 18.995615
DQ 4 15
CrL M 4 15 0 18.995697
L MedianBlur 0 19.019843
F 0 19.614280
DQ 4 20
CrL M 4 20 0 19.614361
L MedianBlur 0 19.619864
F 0 20.511442
DQ 4 24
CrS GaussianBlur  medianblur_0 20.511480
CrL G 4 24 0 20.511550
S /home/xilinx/Bitstreams-axi_firewall/GaussianBlur-GaussianBlur_pblock_medianblur_0_partial.bit 20.530452
L GaussianBlur 0 20.841866
F 0 21.363689
DQ 4 25
CrS GaussianBlur  medianblur_0 21.363724
CrL M 4 25 0 21.363803
S /home/xilinx/Bitstreams-axi_firewall/MedianBlur-GaussianBlur_pblock_medianblur_0_partial.bit 21.364299
L MedianBlur 0 21.679437
F 0 22.570986
DQ 4 29
CrS GaussianBlur  medianblur_0 22.571023
CrL G 4 29 0 22.571094
S /home/xilinx/Bitstreams-axi_firewall/GaussianBlur-GaussianBlur_pblock_medianblur_0_partial.bit 22.590399
L GaussianBlur 0 22.910588
F 0 23.432384
END 23.432413
