ARR 2 0 0.082825
CrS GaussianBlur GaussianBlur medianblur_0 0.082874
CrL M 2 0 0 0.082956
S /home/xilinx/Bitstreams-axi_firewall/MedianBlur-GaussianBlur_pblock_medianblur_0_partial.bit 0.100492
L MedianBlur 0 0.422430
ARR 0 1 0.455552
CrS MedianBlur GaussianBlur gaussianblur_0 0.455581
CrL M 0 1 1 0.455654
S /home/xilinx/Bitstreams-axi_firewall/MedianBlur-MedianBlur_pblock_gaussianblur_0_partial.bit 0.490624
L MedianBlur 1 0.798772
F 0 0.799997
ARR 4 2 0.844888
CrS GaussianBlur MedianBlur medianblur_0 0.844919
CrL G 4 2 0 0.844983
S /home/xilinx/Bitstreams-axi_firewall/GaussianBlur-MedianBlur_pblock_medianblur_0_partial.bit 0.845924
L GaussianBlur 0 1.201296
ARR 2 3 1.212025
R 1 1.212323
EQ 0 1
EV 1 3 1 1.212572
CrS MedianBlur MedianBlur gaussianblur_0 1.212590
CrL G 2 3 1 1.212626
S /home/xilinx/Bitstreams-axi_firewall/GaussianBlur-GaussianBlur_pblock_gaussianblur_0_partial.bit 1.230401
L GaussianBlur 1 1.567866
ARR 3 4 1.597608
R 1 1.597866
EQ 2 3
EV 3 4 1 1.598054
CrS MedianBlur MedianBlur gaussianblur_0 1.598070
CrL M 3 4 1 1.598102
S /home/xilinx/Bitstreams-axi_firewall/GaussianBlur-MedianBlur_pblock_gaussianblur_0_partial.bit 1.600337
L MedianBlur 1 1.909685
F 0 1.919924
DQ 0 1
CrS GaussianBlur MedianBlur medianblur_0 1.919957
S /home/xilinx/Bitstreams-axi_firewall/MedianBlur-MedianBlur_pblock_medianblur_0_partial.bit 1.920610
CrL M 0 1 0 1.920614
L MedianBlur 0 2.267678
F 1 2.279822
DQ 2 3
CrS MedianBlur GaussianBlur gaussianblur_0 2.279854
S /home/xilinx/Bitstreams-axi_firewall/MedianBlur-GaussianBlur_pblock_gaussianblur_0_partial.bit 2.280508
CrL G 2 3 1 2.280533
L GaussianBlur 1 2.620325
ARR 1 5 2.631589
R 0 2.631849
EQ 0 1
EV 1 5 0 2.632037
CrL M 1 5 0 2.632064
ARR 1 6 2.633243
EQ 1 6
ARR 4 7 2.635692
R 0 2.635968
EQ 1 5
EV 5 7 0 2.636147
CrS MedianBlur MedianBlur medianblur_0 2.636162
CrL G 4 7 0 2.636194
S /home/xilinx/Bitstreams-axi_firewall/GaussianBlur-GaussianBlur_pblock_medianblur_0_partial.bit 2.650450
L GaussianBlur 0 2.993999
ARR 2 8 3.024202
EQ 2 8
ARR 0 9 3.028386
EQ 0 9
ARR 2 10 3.052121
EQ 2 10
ARR 2 11 3.062923
EQ 2 11
ARR 1 12 3.074965
EQ 1 12
ARR 3 13 3.096784
R 1 3.097093
EQ 2 3
EV 3 13 1 3.097275
CrS MedianBlur MedianBlur gaussianblur_0 3.097291
CrL M 3 13 1 3.097324
S /home/xilinx/Bitstreams-axi_firewall/GaussianBlur-MedianBlur_pblock_gaussianblur_0_partial.bit 3.120430
L MedianBlur 1 3.449532
ARR 4 14 3.459906
R 1 3.460169
EQ 3 13
EV 13 14 1 3.464670
CrL M 4 14 1 3.464758
ARR 4 15 3.468175
EQ 4 15
ARR 3 16 3.513611
EQ 3 16
F 0 3.518487
DQ 0 1
CrS GaussianBlur MedianBlur medianblur_0 3.518517
CrL M 0 1 0 3.518570
L MedianBlur 1 3.519841
S /home/xilinx/Bitstreams-axi_firewall/MedianBlur-MedianBlur_pblock_medianblur_0_partial.bit 3.540390
L MedianBlur 0 3.893030
ARR 0 17 3.912554
EQ 0 17
ARR 2 18 3.913906
R 0 3.914212
EQ 0 1
EV 1 18 0 3.914394
CrL M 2 18 0 3.914421
L MedianBlur 0 3.929852
ARR 1 19 3.988315
EQ 1 19
ARR 4 20 3.993323
R 0 3.993606
EQ 2 18
EV 18 20 0 3.993784
CrL M 4 20 0 3.993809
L MedianBlur 0 4.009838
ARR 0 21 4.017751
EQ 0 21
ARR 3 22 4.036805
EQ 3 22
ARR 0 23 4.068474
EQ 0 23
ARR 4 24 4.080765
EQ 4 24
ARR 4 25 4.093097
EQ 4 25
ARR 2 26 4.103811
EQ 2 26
ARR 3 27 4.116810
EQ 3 27
ARR 3 28 4.118312
EQ 3 28
ARR 4 29 4.134215
EQ 4 29
F 1 4.419504
DQ 0 9
CrL M 0 9 1 4.419567
L MedianBlur 1 4.439833
F 0 4.913104
DQ 0 17
CrL M 0 17 0 4.913165
L MedianBlur 0 4.929832
F 1 5.342853
DQ 0 1
CrL M 0 1 1 5.342935
L MedianBlur 1 5.342977
F 0 5.831982
DQ 0 21
CrL M 0 21 0 5.832050
L MedianBlur 0 5.849832
F 1 6.221671
DQ 0 23
CrL M 0 23 1 6.221751
L MedianBlur 1 6.269829
F 0 6.449339
DQ 1 6
CrS GaussianBlur MedianBlur medianblur_0 6.449370
CrL G 1 6 0 6.449427
S /home/xilinx/Bitstreams-axi_firewall/GaussianBlur-MedianBlur_pblock_medianblur_0_partial.bit 6.460491
L GaussianBlur 0 6.801617
F 1 6.869699
DQ 1 5
CrL M 1 5 1 6.869773
L MedianBlur 1 6.889835
F 1 7.188818
DQ 1 12
CrL M 1 12 1 7.188905
L MedianBlur 1 7.209836
F 0 7.325045
DQ 1 19
CrS GaussianBlur MedianBlur medianblur_0 7.325076
CrL M 1 19 0 7.325142
S /home/xilinx/Bitstreams-axi_firewall/MedianBlur-MedianBlur_pblock_medianblur_0_partial.bit 7.325677
L MedianBlur 0 7.689417
F 1 7.807555
DQ 2 8
CrS MedianBlur GaussianBlur gaussianblur_0 7.807587
CrL G 2 8 1 7.807655
S /home/xilinx/Bitstreams-axi_firewall/MedianBlur-GaussianBlur_pblock_gaussianblur_0_partial.bit 7.810344
L GaussianBlur 1 8.162240
F 0 8.586755
DQ 2 10
CrL M 2 10 0 8.586832
L MedianBlur 0 8.609834
F 1 8.685672
DQ 2 11
CrS MedianBlur GaussianBlur gaussianblur_0 8.685704
CrL M 2 11 1 8.685770
S /home/xilinx/Bitstreams-axi_firewall/MedianBlur-MedianBlur_pblock_gaussianblur_0_partial.bit 8.686292
L MedianBlur 1 9.028585
F 0 9.029953
DQ 2 3
CrS GaussianBlur MedianBlur medianblur_0 9.029985
CrL G 2 3 0 9.030593
S /home/xilinx/Bitstreams-axi_firewall/GaussianBlur-MedianBlur_pblock_medianblur_0_partial.bit 9.041216
L GaussianBlur 0 9.421008
F 1 9.924501
DQ 2 18
CrL M 2 18 1 9.924576
L MedianBlur 1 9.924650
F 0 9.944505
DQ 2 26
CrL G 2 26 0 9.944577
L GaussianBlur 0 9.979832
F 0 10.503335
DQ 3 13
CrS GaussianBlur MedianBlur medianblur_0 10.503372
CrL M 3 13 0 10.503437
S /home/xilinx/Bitstreams-axi_firewall/MedianBlur-MedianBlur_pblock_medianblur_0_partial.bit 10.503946
L MedianBlur 0 10.851633
F 1 10.859950
DQ 3 16
CrL M 3 16 1 10.860029
L MedianBlur 1 10.869855
F 1 11.168503
DQ 3 22
CrL M 3 22 1 11.168594
L MedianBlur 1 11.199852
F 0 11.747336
DQ 3 27
CrL M 3 27 0 11.747407
L MedianBlur 0 11.749845
F 1 11.797483
DQ 3 28
CrL M 3 28 1 11.797547
L MedianBlur 1 11.839828
F 0 12.352257
DQ 4 15
CrL M 4 15 0 12.352331
L MedianBlur 0 12.399838
F 1 12.443336
DQ 4 24
CrS MedianBlur GaussianBlur gaussianblur_0 12.443371
CrL G 4 24 1 12.443430
S /home/xilinx/Bitstreams-axi_firewall/MedianBlur-GaussianBlur_pblock_gaussianblur_0_partial.bit 12.460417
L GaussianBlur 1 12.787685
F 0 12.997091
DQ 4 25
CrL M 4 25 0 12.997171
L MedianBlur 0 13.029829
F 1 13.311177
DQ 4 29
CrL G 4 29 1 13.311268
L GaussianBlur 1 13.339831
F 1 13.863352
F 0 13.925733
END 13.925754
