ARR 2 0 4.016133
CrS GaussianBlur  medianblur_0 4.016191
CrL M 2 0 0 4.016288
S /home/xilinx/Bitstreams-axi_firewall/MedianBlur-GaussianBlur_pblock_medianblur_0_partial.bit 4.030481
L MedianBlur 0 4.372137
F 0 4.669546
ARR 0 1 5.445874
CrL M 0 1 0 5.445943
L MedianBlur 0 5.479839
F 0 6.371465
ARR 4 2 7.469923
CrS GaussianBlur  medianblur_0 7.469962
CrL G 4 2 0 7.470030
S /home/xilinx/Bitstreams-axi_firewall/GaussianBlur-GaussianBlur_pblock_medianblur_0_partial.bit 7.480519
L GaussianBlur 0 7.788760
ARR 2 3 7.842913
EQ 2 3
F 0 8.310556
DQ 2 3
CrL G 2 3 0 8.310637
L GaussianBlur 0 8.319852
F 0 8.841654
ARR 3 4 8.881764
CrS GaussianBlur  medianblur_0 8.881795
CrL M 3 4 0 8.881863
S /home/xilinx/Bitstreams-axi_firewall/MedianBlur-GaussianBlur_pblock_medianblur_0_partial.bit 8.882397
L MedianBlur 0 9.214318
ARR 1 5 9.270141
EQ 1 5
ARR 1 6 9.274798
EQ 1 6
ARR 4 7 9.286093
R 0 9.286414
EQ 3 4
EV 4 7 0 9.286606
CrS MedianBlur  medianblur_0 9.286622
CrL G 4 7 0 9.286656
S /home/xilinx/Bitstreams-axi_firewall/GaussianBlur-GaussianBlur_pblock_medianblur_0_partial.bit 9.290403
L GaussianBlur 0 9.616276
F 0 10.138046
DQ 1 5
CrS GaussianBlur  medianblur_0 10.138088
CrL M 1 5 0 10.138166
S /home/xilinx/Bitstreams-axi_firewall/MedianBlur-GaussianBlur_pblock_medianblur_0_partial.bit 10.138661
L MedianBlur 0 10.459446
F 0 10.756888
DQ 1 6
CrS GaussianBlur  medianblur_0 10.756935
CrL G 1 6 0 10.757009
S /home/xilinx/Bitstreams-axi_firewall/GaussianBlur-GaussianBlur_pblock_medianblur_0_partial.bit 10.770479
L GaussianBlur 0 11.079470
ARR 2 8 11.286088
R 0 11.286374
EQ 1 6
EV 6 8 0 11.286569
CrL G 2 8 0 11.286600
ARR 0 9 11.306512
EQ 0 9
L GaussianBlur 0 11.339879
F 0 11.861637
DQ 0 9
CrS GaussianBlur  medianblur_0 11.861672
CrL M 0 9 0 11.861734
S /home/xilinx/Bitstreams-axi_firewall/MedianBlur-GaussianBlur_pblock_medianblur_0_partial.bit 11.890377
L MedianBlur 0 12.214021
ARR 2 10 12.682951
R 0 12.683280
EQ 0 9
EV 9 10 0 12.683474
CrL M 2 10 0 12.683505
L MedianBlur 0 12.729844
ARR 2 11 12.736572
EQ 2 11
ARR 1 12 12.795899
EQ 1 12
F 0 13.027100
DQ 0 9
CrL M 0 9 0 13.027166
L MedianBlur 0 13.039841
F 0 13.462336
DQ 1 6
CrS GaussianBlur  medianblur_0 13.462373
CrL G 1 6 0 13.462434
S /home/xilinx/Bitstreams-axi_firewall/GaussianBlur-GaussianBlur_pblock_medianblur_0_partial.bit 13.480400
L GaussianBlur 0 13.810371
ARR 3 13 14.152774
R 0 14.153064
EQ 1 6
EV 6 13 0 14.153256
CrS MedianBlur  medianblur_0 14.153276
CrL M 3 13 0 14.153313
S /home/xilinx/Bitstreams-axi_firewall/MedianBlur-GaussianBlur_pblock_medianblur_0_partial.bit 14.170389
L MedianBlur 0 14.491175
ARR 4 14 14.531367
R 0 14.531685
EQ 3 13
EV 13 14 0 14.531879
CrL M 4 14 0 14.531910
ARR 4 15 14.546724
EQ 4 15
L MedianBlur 0 14.569855
F 0 15.461418
DQ 1 12
CrL M 1 12 0 15.461503
L MedianBlur 0 15.509839
F 0 16.104103
DQ 1 6
CrS GaussianBlur  medianblur_0 16.104138
CrL G 1 6 0 16.104207
S /home/xilinx/Bitstreams-axi_firewall/GaussianBlur-GaussianBlur_pblock_medianblur_0_partial.bit 16.104729
L GaussianBlur 0 16.440296
ARR 3 16 16.919557
R 0 16.919930
EQ 1 6
EV 6 16 0 16.920120
CrS MedianBlur  medianblur_0 16.920141
CrL M 3 16 0 16.920180
S /home/xilinx/Bitstreams-axi_firewall/MedianBlur-GaussianBlur_pblock_medianblur_0_partial.bit 16.920674
L MedianBlur 0 17.231534
ARR 0 17 17.326260
EQ 0 17
ARR 2 18 17.332030
EQ 2 18
F 0 17.528832
DQ 0 17
CrL M 0 17 0 17.528907
L MedianBlur 0 17.579865
F 0 18.471554
DQ 1 6
CrS GaussianBlur  medianblur_0 18.471598
CrL G 1 6 0 18.471668
S /home/xilinx/Bitstreams-axi_firewall/GaussianBlur-GaussianBlur_pblock_medianblur_0_partial.bit 18.501394
L GaussianBlur 0 18.833234
F 0 19.355004
DQ 2 11
CrS GaussianBlur  medianblur_0 19.355045
CrL M 2 11 0 19.355126
S /home/xilinx/Bitstreams-axi_firewall/MedianBlur-GaussianBlur_pblock_medianblur_0_partial.bit 19.355616
L MedianBlur 0 19.669505
F 0 20.561188
DQ 2 18
CrL M 2 18 0 20.561279
L MedianBlur 0 20.619836
ARR 1 19 21.084340
EQ 1 19
ARR 4 20 21.108513
R 0 21.108833
EQ 2 18
EV 18 20 0 21.109019
CrL M 4 20 0 21.109050
L MedianBlur 0 21.129844
F 0 22.021422
DQ 1 19
CrL M 1 19 0 22.021501
L MedianBlur 0 22.059835
ARR 0 21 22.128057
EQ 0 21
ARR 3 22 22.222495
R 0 22.222810
EQ 1 19
EV 19 22 0 22.222995
CrL M 3 22 0 22.223026
L MedianBlur 0 22.259870
F 0 22.854495
DQ 0 21
CrL M 0 21 0 22.854585
L MedianBlur 0 22.899836
ARR 0 23 23.281182
EQ 0 23
ARR 4 24 23.341778
R 0 23.342100
EQ 0 21
EV 21 24 0 23.342287
CrS MedianBlur  medianblur_0 23.342306
CrL G 4 24 0 23.342345
S /home/xilinx/Bitstreams-axi_firewall/GaussianBlur-GaussianBlur_pblock_medianblur_0_partial.bit 23.342833
L GaussianBlur 0 23.662797
ARR 4 25 23.730573
EQ 4 25
ARR 2 26 23.783306
EQ 2 26
ARR 3 27 23.847475
EQ 3 27
ARR 3 28 23.854124
EQ 3 28
ARR 4 29 23.932822
EQ 4 29
F 0 24.184578
DQ 0 23
CrS GaussianBlur  medianblur_0 24.184615
CrL M 0 23 0 24.184677
S /home/xilinx/Bitstreams-axi_firewall/MedianBlur-GaussianBlur_pblock_medianblur_0_partial.bit 24.210399
L MedianBlur 0 24.509271
F 0 25.103795
DQ 0 21
CrL M 0 21 0 25.103882
L MedianBlur 0 25.103927
F 0 25.256239
DQ 1 19
CrL M 1 19 0 25.256312
L MedianBlur 0 25.259848
F 0 25.988644
DQ 2 18
CrL M 2 18 0 25.988712
L MedianBlur 0 26.019835
F 0 26.422414
DQ 2 26
CrS GaussianBlur  medianblur_0 26.422448
CrL G 2 26 0 26.422512
S /home/xilinx/Bitstreams-axi_firewall/GaussianBlur-GaussianBlur_pblock_medianblur_0_partial.bit 26.423042
L GaussianBlur 0 26.741948
F 0 27.263714
DQ 3 4
CrS GaussianBlur  medianblur_0 27.263754
CrL M 3 4 0 27.263829
S /home/xilinx/Bitstreams-axi_firewall/MedianBlur-GaussianBlur_pblock_medianblur_0_partial.bit 27.264312
L MedianBlur 0 27.603934
F 0 27.901262
DQ 3 13
CrL M 3 13 0 27.901345
L MedianBlur 0 27.919839
F 0 28.771342
DQ 3 27
CrL M 3 27 0 28.771439
L MedianBlur 0 28.819836
F 0 29.414228
DQ 3 28
CrL M 3 28 0 29.414299
L MedianBlur 0 29.449835
F 0 30.044293
DQ 4 15
CrL M 4 15 0 30.044377
L MedianBlur 0 30.079838
F 0 30.676902
DQ 4 25
CrL M 4 25 0 30.677006
L MedianBlur 0 30.689882
F 0 31.582266
DQ 4 29
CrS GaussianBlur  medianblur_0 31.582315
CrL G 4 29 0 31.582402
S /home/xilinx/Bitstreams-axi_firewall/GaussianBlur-GaussianBlur_pblock_medianblur_0_partial.bit 31.582950
L GaussianBlur 0 31.904522
F 0 32.426313
END 32.426341
