ARR 2 0 6.059913
CrS GaussianBlur  medianblur_0 6.059969
CrL M 2 0 0 6.060050
S /home/xilinx/Bitstreams-axi_firewall/MedianBlur-GaussianBlur_pblock_medianblur_0_partial.bit 6.070551
L MedianBlur 0 6.379649
F 0 6.676988
ARR 0 1 8.445786
CrL M 0 1 0 8.445869
L MedianBlur 0 8.455590
F 0 9.347268
ARR 4 2 11.505759
CrS GaussianBlur  medianblur_0 11.505805
CrL G 4 2 0 11.505892
S /home/xilinx/Bitstreams-axi_firewall/GaussianBlur-GaussianBlur_pblock_medianblur_0_partial.bit 11.506422
L GaussianBlur 0 11.852004
ARR 2 3 11.936805
EQ 2 3
F 0 12.373825
DQ 2 3
CrL G 2 3 0 12.373915
L GaussianBlur 0 12.409778
F 0 12.931544
ARR 3 4 13.959497
CrS GaussianBlur  medianblur_0 13.959533
CrL M 3 4 0 13.959595
S /home/xilinx/Bitstreams-axi_firewall/MedianBlur-GaussianBlur_pblock_medianblur_0_partial.bit 13.970446
L MedianBlur 0 14.284956
ARR 1 5 14.374227
EQ 1 5
ARR 1 6 14.381531
EQ 1 6
ARR 4 7 14.399474
R 0 14.399896
EQ 3 4
EV 4 7 0 14.400095
CrS MedianBlur  medianblur_0 14.400115
CrL G 4 7 0 14.400155
S /home/xilinx/Bitstreams-axi_firewall/GaussianBlur-GaussianBlur_pblock_medianblur_0_partial.bit 14.400652
L GaussianBlur 0 14.730161
F 0 15.251929
DQ 1 5
CrS GaussianBlur  medianblur_0 15.251967
CrL M 1 5 0 15.252040
S /home/xilinx/Bitstreams-axi_firewall/MedianBlur-GaussianBlur_pblock_medianblur_0_partial.bit 15.252523
L MedianBlur 0 15.571258
F 0 15.868649
DQ 1 6
CrS GaussianBlur  medianblur_0 15.868691
CrL G 1 6 0 15.868761
S /home/xilinx/Bitstreams-axi_firewall/GaussianBlur-GaussianBlur_pblock_medianblur_0_partial.bit 15.890339
L GaussianBlur 0 16.204664
ARR 2 8 16.494444
R 0 16.494774
EQ 1 6
EV 6 8 0 16.494967
CrL G 2 8 0 16.494999
ARR 0 9 16.526723
EQ 0 9
L GaussianBlur 0 16.529797
F 0 17.051560
DQ 0 9
CrS GaussianBlur  medianblur_0 17.051597
CrL M 0 9 0 17.051665
S /home/xilinx/Bitstreams-axi_firewall/MedianBlur-GaussianBlur_pblock_medianblur_0_partial.bit 17.052180
L MedianBlur 0 17.363335
ARR 2 10 17.933786
R 0 17.934085
EQ 0 9
EV 9 10 0 17.934280
CrL M 2 10 0 17.934312
L MedianBlur 0 17.969783
ARR 2 11 18.019082
EQ 2 11
ARR 1 12 18.113897
EQ 1 12
F 0 18.267040
DQ 0 9
CrL M 0 9 0 18.267106
L MedianBlur 0 18.279801
F 0 18.600926
DQ 1 6
CrS GaussianBlur  medianblur_0 18.600978
CrL G 1 6 0 18.601065
S /home/xilinx/Bitstreams-axi_firewall/GaussianBlur-GaussianBlur_pblock_medianblur_0_partial.bit 18.601593
L GaussianBlur 0 18.923206
F 0 19.444979
DQ 1 12
CrS GaussianBlur  medianblur_0 19.445022
CrL M 1 12 0 19.445102
S /home/xilinx/Bitstreams-axi_firewall/MedianBlur-GaussianBlur_pblock_medianblur_0_partial.bit 19.445598
L MedianBlur 0 19.772567
ARR 3 13 19.843858
R 0 19.844127
EQ 1 12
EV 12 13 0 19.844320
CrL M 3 13 0 19.844351
L MedianBlur 0 19.889790
ARR 4 14 19.908641
R 0 19.908922
EQ 3 13
EV 13 14 0 19.909108
CrL M 4 14 0 19.909139
L MedianBlur 0 19.929795
ARR 4 15 19.932696
EQ 4 15
F 0 20.821398
DQ 1 12
CrL M 1 12 0 20.821486
L MedianBlur 0 20.821530
F 0 21.344396
DQ 2 11
CrL M 2 11 0 21.344474
L MedianBlur 0 21.379790
F 0 22.271371
DQ 3 4
CrL M 3 4 0 22.271440
L MedianBlur 0 22.271480
F 0 22.454222
DQ 3 13
CrL M 3 13 0 22.454311
L MedianBlur 0 22.469782
ARR 3 16 22.996179
EQ 3 16
F 0 23.342522
DQ 3 16
CrL M 3 16 0 23.342595
L MedianBlur 0 23.369777
F 0 23.667061
DQ 4 15
CrL M 4 15 0 23.667140
L MedianBlur 0 23.719776
ARR 0 17 24.035250
EQ 0 17
ARR 2 18 24.044312
EQ 2 18
F 0 24.314231
DQ 0 17
CrL M 0 17 0 24.314315
L MedianBlur 0 24.360381
F 0 25.251994
DQ 2 18
CrL M 2 18 0 25.252073
L MedianBlur 0 25.279790
F 0 26.171202
ARR 1 19 29.137065
CrL M 1 19 0 29.137157
ARR 4 20 29.175742
R 0 29.176066
EQ 1 19
EV 19 20 0 29.176254
CrL M 4 20 0 29.176284
L MedianBlur 0 29.219791
F 0 30.111414
DQ 1 19
CrL M 1 19 0 30.111480
L MedianBlur 0 30.139777
ARR 0 21 30.266430
EQ 0 21
F 0 31.031430
DQ 0 21
CrL M 0 21 0 31.031518
L MedianBlur 0 31.039818
ARR 3 22 31.317815
R 0 31.318132
EQ 0 21
EV 21 22 0 31.318321
CrL M 3 22 0 31.318351
L MedianBlur 0 31.318815
F 0 31.913377
DQ 0 21
CrL M 0 21 0 31.913449
L MedianBlur 0 31.919793
F 0 32.236026
ARR 0 23 33.371686
CrL M 0 23 0 33.371770
L MedianBlur 0 33.399810
ARR 4 24 33.468615
R 0 33.468933
EQ 0 23
EV 23 24 0 33.469121
CrS MedianBlur  medianblur_0 33.469206
CrL G 4 24 0 33.469247
S /home/xilinx/Bitstreams-axi_firewall/GaussianBlur-GaussianBlur_pblock_medianblur_0_partial.bit 33.480423
L GaussianBlur 0 33.779375
ARR 4 25 33.876476
EQ 4 25
ARR 2 26 33.960722
EQ 2 26
F 0 34.301191
DQ 0 23
CrS GaussianBlur  medianblur_0 34.301238
CrL M 0 23 0 34.301317
S /home/xilinx/Bitstreams-axi_firewall/MedianBlur-GaussianBlur_pblock_medianblur_0_partial.bit 34.301847
L MedianBlur 0 34.599356
F 0 35.193873
DQ 2 26
CrS GaussianBlur  medianblur_0 35.193915
CrL G 2 26 0 35.193994
S /home/xilinx/Bitstreams-axi_firewall/GaussianBlur-GaussianBlur_pblock_medianblur_0_partial.bit 35.194481
L GaussianBlur 0 35.512226
ARR 3 27 35.588104
R 0 35.588387
EQ 2 26
EV 26 27 0 35.588580
CrS MedianBlur  medianblur_0 35.588600
CrL M 3 27 0 35.588637
S /home/xilinx/Bitstreams-axi_firewall/MedianBlur-GaussianBlur_pblock_medianblur_0_partial.bit 35.590263
L MedianBlur 0 35.898764
ARR 3 28 35.909189
EQ 3 28
F 0 36.493262
DQ 2 26
CrS GaussianBlur  medianblur_0 36.493311
CrL G 2 26 0 36.493384
S /home/xilinx/Bitstreams-axi_firewall/GaussianBlur-GaussianBlur_pblock_medianblur_0_partial.bit 36.510350
L GaussianBlur 0 36.829099
ARR 4 29 37.271990
R 0 37.272294
EQ 2 26
EV 26 29 0 37.272488
CrL G 4 29 0 37.272519
L GaussianBlur 0 37.299813
F 0 37.821570
DQ 2 26
CrL G 2 26 0 37.821643
L GaussianBlur 0 37.829791
F 0 37.908514
DQ 3 28
CrS GaussianBlur  medianblur_0 37.908548
CrL M 3 28 0 37.908606
S /home/xilinx/Bitstreams-axi_firewall/MedianBlur-GaussianBlur_pblock_medianblur_0_partial.bit 37.910314
L MedianBlur 0 38.230448
F 0 38.824950
DQ 4 25
CrL M 4 25 0 38.825043
L MedianBlur 0 38.889781
F 0 39.781311
END 39.781332
