ARR 2 0 4.016119
CrS GaussianBlur  medianblur_0 4.016174
CrL M 2 0 0 4.016255
S /home/xilinx/Bitstreams-axi_firewall/MedianBlur-GaussianBlur_pblock_medianblur_0_partial.bit 4.020649
L MedianBlur 0 4.359935
F 0 4.657273
ARR 0 1 5.425919
CrL M 0 1 0 5.425986
L MedianBlur 0 5.489782
F 0 6.381458
ARR 4 2 7.449864
CrS GaussianBlur  medianblur_0 7.449898
CrL G 4 2 0 7.449971
S /home/xilinx/Bitstreams-axi_firewall/GaussianBlur-GaussianBlur_pblock_medianblur_0_partial.bit 7.450501
L GaussianBlur 0 7.765351
ARR 2 3 7.822834
EQ 2 3
F 0 8.287174
DQ 2 3
CrL G 2 3 0 8.287260
L GaussianBlur 0 8.329789
F 0 8.851579
ARR 3 4 8.861681
CrS GaussianBlur  medianblur_0 8.861715
CrL M 3 4 0 8.861786
S /home/xilinx/Bitstreams-axi_firewall/MedianBlur-GaussianBlur_pblock_medianblur_0_partial.bit 8.862314
L MedianBlur 0 9.182420
ARR 1 5 9.238266
EQ 1 5
ARR 1 6 9.242926
EQ 1 6
ARR 4 7 9.254233
R 0 9.254575
EQ 3 4
EV 4 7 0 9.254770
CrS MedianBlur  medianblur_0 9.254787
CrL G 4 7 0 9.254823
S /home/xilinx/Bitstreams-axi_firewall/GaussianBlur-GaussianBlur_pblock_medianblur_0_partial.bit 9.270330
L GaussianBlur 0 9.583694
F 0 10.105477
DQ 1 5
CrS GaussianBlur  medianblur_0 10.105520
CrL M 1 5 0 10.105591
S /home/xilinx/Bitstreams-axi_firewall/MedianBlur-GaussianBlur_pblock_medianblur_0_partial.bit 10.130337
L MedianBlur 0 10.453337
F 0 10.750707
DQ 1 6
CrS GaussianBlur  medianblur_0 10.750747
CrL G 1 6 0 10.750817
S /home/xilinx/Bitstreams-axi_firewall/GaussianBlur-GaussianBlur_pblock_medianblur_0_partial.bit 10.760400
L GaussianBlur 0 11.082060
ARR 2 8 11.292127
R 0 11.292420
EQ 1 6
EV 6 8 0 11.292614
CrL G 2 8 0 11.292645
ARR 0 9 11.312558
EQ 0 9
L GaussianBlur 0 11.339790
F 0 11.861549
DQ 0 9
CrS GaussianBlur  medianblur_0 11.861585
CrL M 0 9 0 11.861651
S /home/xilinx/Bitstreams-axi_firewall/MedianBlur-GaussianBlur_pblock_medianblur_0_partial.bit 11.862159
L MedianBlur 0 12.176589
ARR 2 10 12.649069
R 0 12.649403
EQ 0 9
EV 9 10 0 12.649600
CrL M 2 10 0 12.649631
L MedianBlur 0 12.689796
ARR 2 11 12.702697
EQ 2 11
ARR 1 12 12.762025
EQ 1 12
F 0 12.987043
DQ 0 9
CrL M 0 9 0 12.987108
L MedianBlur 0 13.009786
F 0 13.428727
DQ 1 6
CrS GaussianBlur  medianblur_0 13.428764
CrL G 1 6 0 13.428823
S /home/xilinx/Bitstreams-axi_firewall/GaussianBlur-GaussianBlur_pblock_medianblur_0_partial.bit 13.450345
L GaussianBlur 0 13.768752
ARR 3 13 14.111923
R 0 14.112213
EQ 1 6
EV 6 13 0 14.112406
CrS MedianBlur  medianblur_0 14.112427
CrL M 3 13 0 14.112465
S /home/xilinx/Bitstreams-axi_firewall/MedianBlur-GaussianBlur_pblock_medianblur_0_partial.bit 14.120377
L MedianBlur 0 14.428781
ARR 4 14 14.469981
R 0 14.470255
EQ 3 13
EV 13 14 0 14.470446
CrL M 4 14 0 14.470478
ARR 4 15 14.485290
EQ 4 15
L MedianBlur 0 14.499804
F 0 15.391360
DQ 1 12
CrL M 1 12 0 15.391443
L MedianBlur 0 15.429783
F 0 16.024053
DQ 1 6
CrS GaussianBlur  medianblur_0 16.024090
CrL G 1 6 0 16.024153
S /home/xilinx/Bitstreams-axi_firewall/GaussianBlur-GaussianBlur_pblock_medianblur_0_partial.bit 16.030403
L GaussianBlur 0 16.353541
ARR 3 16 16.848137
R 0 16.848437
EQ 1 6
EV 6 16 0 16.848630
CrS MedianBlur  medianblur_0 16.848651
CrL M 3 16 0 16.848690
S /home/xilinx/Bitstreams-axi_firewall/MedianBlur-GaussianBlur_pblock_medianblur_0_partial.bit 16.849185
L MedianBlur 0 17.178689
ARR 0 17 17.265103
EQ 0 17
ARR 2 18 17.270871
EQ 2 18
F 0 17.475997
DQ 0 17
CrL M 0 17 0 17.476065
L MedianBlur 0 17.486750
F 0 18.378418
DQ 1 6
CrS GaussianBlur  medianblur_0 18.378465
CrL G 1 6 0 18.378539
S /home/xilinx/Bitstreams-axi_firewall/GaussianBlur-GaussianBlur_pblock_medianblur_0_partial.bit 18.410346
L GaussianBlur 0 18.728143
F 0 19.249911
DQ 2 11
CrS GaussianBlur  medianblur_0 19.249953
CrL M 2 11 0 19.250025
S /home/xilinx/Bitstreams-axi_firewall/MedianBlur-GaussianBlur_pblock_medianblur_0_partial.bit 19.270342
L MedianBlur 0 19.589397
F 0 20.481023
DQ 2 18
CrL M 2 18 0 20.481114
L MedianBlur 0 20.519783
ARR 1 19 21.029866
EQ 1 19
ARR 4 20 21.054046
R 0 21.054392
EQ 2 18
EV 18 20 0 21.054580
CrL M 4 20 0 21.054611
L MedianBlur 0 21.079791
F 0 21.971439
DQ 1 19
CrL M 1 19 0 21.971521
L MedianBlur 0 21.989787
ARR 0 21 22.073623
EQ 0 21
ARR 3 22 22.168066
R 0 22.168376
EQ 1 19
EV 19 22 0 22.168563
CrL M 3 22 0 22.168593
L MedianBlur 0 22.179798
F 0 22.774407
DQ 0 21
CrL M 0 21 0 22.774496
L MedianBlur 0 22.819784
ARR 0 23 23.226773
EQ 0 23
ARR 4 24 23.287373
R 0 23.287694
EQ 0 21
EV 21 24 0 23.287878
CrS MedianBlur  medianblur_0 23.287899
CrL G 4 24 0 23.287937
S /home/xilinx/Bitstreams-axi_firewall/GaussianBlur-GaussianBlur_pblock_medianblur_0_partial.bit 23.288429
L GaussianBlur 0 23.642621
ARR 4 25 23.710550
EQ 4 25
ARR 2 26 23.763277
EQ 2 26
ARR 3 27 23.827454
EQ 3 27
ARR 3 28 23.834108
EQ 3 28
ARR 4 29 23.912806
EQ 4 29
F 0 24.164407
DQ 0 23
CrS GaussianBlur  medianblur_0 24.164446
CrL M 0 23 0 24.164510
S /home/xilinx/Bitstreams-axi_firewall/MedianBlur-GaussianBlur_pblock_medianblur_0_partial.bit 24.180478
L MedianBlur 0 24.512519
F 0 25.107050
DQ 0 21
CrL M 0 21 0 25.107132
L MedianBlur 0 25.109805
F 0 25.236462
DQ 1 19
CrL M 1 19 0 25.236531
L MedianBlur 0 25.236573
F 0 25.949844
DQ 2 18
CrL M 2 18 0 25.949914
L MedianBlur 0 25.949954
F 0 26.307120
DQ 2 26
CrS GaussianBlur  medianblur_0 26.307171
CrL G 2 26 0 26.307250
S /home/xilinx/Bitstreams-axi_firewall/GaussianBlur-GaussianBlur_pblock_medianblur_0_partial.bit 26.330370
L GaussianBlur 0 26.661870
F 0 27.183631
DQ 3 4
CrS GaussianBlur  medianblur_0 27.183674
CrL M 3 4 0 27.183745
S /home/xilinx/Bitstreams-axi_firewall/MedianBlur-GaussianBlur_pblock_medianblur_0_partial.bit 27.200344
L MedianBlur 0 27.526980
F 0 27.824297
DQ 3 13
CrL M 3 13 0 27.824380
L MedianBlur 0 27.849784
F 0 28.700243
DQ 3 27
CrL M 3 27 0 28.700333
L MedianBlur 0 28.729818
F 0 29.324236
DQ 3 28
CrL M 3 28 0 29.324320
L MedianBlur 0 29.359792
F 0 29.954204
DQ 4 15
CrL M 4 15 0 29.954273
L MedianBlur 0 29.989781
F 0 30.584273
DQ 4 25
CrL M 4 25 0 30.584361
L MedianBlur 0 30.629783
F 0 31.521345
DQ 4 29
CrS GaussianBlur  medianblur_0 31.521389
CrL G 4 29 0 31.521459
S /home/xilinx/Bitstreams-axi_firewall/GaussianBlur-GaussianBlur_pblock_medianblur_0_partial.bit 31.550357
L GaussianBlur 0 31.892523
F 0 32.414323
END 32.414355
