ARR 2 0 6.059894
CrS GaussianBlur  medianblur_0 6.059943
CrL M 2 0 0 6.060035
S /home/xilinx/Bitstreams-axi_firewall/MedianBlur-GaussianBlur_pblock_medianblur_0_partial.bit 6.060645
L MedianBlur 0 6.368810
F 0 6.666169
ARR 0 1 8.434771
CrL M 0 1 0 8.434847
L MedianBlur 0 8.499776
F 0 9.391413
ARR 4 2 11.494666
CrS GaussianBlur  medianblur_0 11.494706
CrL G 4 2 0 11.494786
S /home/xilinx/Bitstreams-axi_firewall/GaussianBlur-GaussianBlur_pblock_medianblur_0_partial.bit 11.495313
L GaussianBlur 0 11.850418
ARR 2 3 11.944579
EQ 2 3
F 0 12.372204
DQ 2 3
CrL G 2 3 0 12.372277
L GaussianBlur 0 12.399777
F 0 12.921540
ARR 3 4 13.967280
CrS GaussianBlur  medianblur_0 13.967318
CrL M 3 4 0 13.967393
S /home/xilinx/Bitstreams-axi_firewall/MedianBlur-GaussianBlur_pblock_medianblur_0_partial.bit 13.970335
L MedianBlur 0 14.275246
ARR 1 5 14.364507
EQ 1 5
ARR 1 6 14.371792
EQ 1 6
ARR 4 7 14.389730
EQ 4 7
F 0 14.572594
DQ 1 5
CrL M 1 5 0 14.572659
L MedianBlur 0 14.599776
F 0 14.897121
DQ 1 6
CrS GaussianBlur  medianblur_0 14.897150
CrL G 1 6 0 14.897208
S /home/xilinx/Bitstreams-axi_firewall/GaussianBlur-GaussianBlur_pblock_medianblur_0_partial.bit 14.920335
L GaussianBlur 0 15.251468
F 0 15.773270
DQ 4 7
CrL G 4 7 0 15.773354
L GaussianBlur 0 15.809788
ARR 2 8 15.846897
EQ 2 8
ARR 0 9 15.878633
EQ 0 9
F 0 16.331565
DQ 0 9
CrS GaussianBlur  medianblur_0 16.331598
CrL M 0 9 0 16.331664
S /home/xilinx/Bitstreams-axi_firewall/MedianBlur-GaussianBlur_pblock_medianblur_0_partial.bit 16.332203
L MedianBlur 0 16.647528
ARR 2 10 17.285730
EQ 2 10
ARR 2 11 17.370488
EQ 2 11
ARR 1 12 17.465302
EQ 1 12
F 0 17.539141
DQ 1 12
CrL M 1 12 0 17.539202
L MedianBlur 0 17.559779
F 0 18.154094
DQ 2 8
CrS GaussianBlur  medianblur_0 18.154135
CrL G 2 8 0 18.154217
S /home/xilinx/Bitstreams-axi_firewall/GaussianBlur-GaussianBlur_pblock_medianblur_0_partial.bit 18.154752
L GaussianBlur 0 18.461765
ARR 3 13 18.846679
EQ 3 13
ARR 4 14 18.910990
EQ 4 14
ARR 4 15 18.934559
EQ 4 15
F 0 18.983545
DQ 2 10
CrS GaussianBlur  medianblur_0 18.983575
CrL M 2 10 0 18.983637
S /home/xilinx/Bitstreams-axi_firewall/MedianBlur-GaussianBlur_pblock_medianblur_0_partial.bit 19.010323
L MedianBlur 0 19.305698
F 0 19.602981
DQ 2 11
CrL M 2 11 0 19.603057
L MedianBlur 0 19.604752
F 0 20.496443
DQ 3 13
CrL M 3 13 0 20.496527
L MedianBlur 0 20.519795
F 0 21.411423
DQ 4 14
CrL M 4 14 0 21.411492
L MedianBlur 0 21.439794
ARR 3 16 22.319873
EQ 3 16
F 0 22.331430
DQ 3 16
CrL M 3 16 0 22.331498
L MedianBlur 0 22.359778
F 0 22.657040
DQ 4 15
CrL M 4 15 0 22.657101
L MedianBlur 0 22.679776
F 0 23.274193
ARR 0 17 23.358758
CrL M 0 17 0 23.358813
L MedianBlur 0 23.359178
ARR 2 18 23.367900
EQ 2 18
F 0 24.250900
DQ 2 18
CrL M 2 18 0 24.250986
L MedianBlur 0 24.289776
F 0 25.181196
ARR 1 19 28.459867
CrL M 1 19 0 28.459948
L MedianBlur 0 28.479782
ARR 4 20 28.498493
EQ 4 20
F 0 29.371348
DQ 4 20
CrL M 4 20 0 29.371411
L MedianBlur 0 29.399796
ARR 0 21 29.588732
EQ 0 21
F 0 30.291495
DQ 0 21
CrL M 0 21 0 30.291579
L MedianBlur 0 30.299796
ARR 3 22 30.640238
EQ 3 22
F 0 30.894167
DQ 3 22
CrL M 3 22 0 30.894232
L MedianBlur 0 30.909780
F 0 31.504307
ARR 0 23 32.693604
CrL M 0 23 0 32.693683
L MedianBlur 0 32.709782
ARR 4 24 32.790528
EQ 4 24
ARR 4 25 32.887706
EQ 4 25
ARR 2 26 32.971924
EQ 2 26
F 0 33.304311
DQ 2 26
CrS GaussianBlur  medianblur_0 33.304342
CrL G 2 26 0 33.304402
S /home/xilinx/Bitstreams-axi_firewall/GaussianBlur-GaussianBlur_pblock_medianblur_0_partial.bit 33.310435
L GaussianBlur 0 33.618933
F 0 34.140748
DQ 4 24
CrL G 4 24 0 34.140832
L GaussianBlur 0 34.179777
ARR 3 27 34.289534
EQ 3 27
ARR 3 28 34.300041
EQ 3 28
F 0 34.701538
DQ 3 27
CrS GaussianBlur  medianblur_0 34.701570
CrL M 3 27 0 34.701635
S /home/xilinx/Bitstreams-axi_firewall/MedianBlur-GaussianBlur_pblock_medianblur_0_partial.bit 34.702164
L MedianBlur 0 35.031100
F 0 35.625510
DQ 3 28
CrL M 3 28 0 35.625587
L MedianBlur 0 35.639792
ARR 4 29 35.664354
EQ 4 29
F 0 36.234284
DQ 4 25
CrL M 4 25 0 36.234372
L MedianBlur 0 36.269783
F 0 37.161309
DQ 4 29
CrS GaussianBlur  medianblur_0 37.161341
CrL G 4 29 0 37.161406
S /home/xilinx/Bitstreams-axi_firewall/GaussianBlur-GaussianBlur_pblock_medianblur_0_partial.bit 37.190340
L GaussianBlur 0 37.478808
F 0 38.000598
END 38.000628
