ARR 2 0 6.059905
CrS GaussianBlur  medianblur_0 6.059956
CrL M 2 0 0 6.060038
S /home/xilinx/Bitstreams-axi_firewall/MedianBlur-GaussianBlur_pblock_medianblur_0_partial.bit 6.080466
L MedianBlur 0 6.409891
F 0 6.707253
ARR 0 1 8.485805
CrL M 0 1 0 8.485883
L MedianBlur 0 8.529809
F 0 9.421466
ARR 4 2 11.545758
CrS GaussianBlur  medianblur_0 11.545796
CrL G 4 2 0 11.545870
S /home/xilinx/Bitstreams-axi_firewall/GaussianBlur-GaussianBlur_pblock_medianblur_0_partial.bit 11.560391
L GaussianBlur 0 11.871458
ARR 2 3 11.964584
EQ 2 3
F 0 12.393243
DQ 2 3
CrL G 2 3 0 12.393314
L GaussianBlur 0 12.429784
F 0 12.951546
ARR 3 4 13.987273
CrS GaussianBlur  medianblur_0 13.987313
CrL M 3 4 0 13.987386
S /home/xilinx/Bitstreams-axi_firewall/MedianBlur-GaussianBlur_pblock_medianblur_0_partial.bit 13.990348
L MedianBlur 0 14.320569
ARR 1 5 14.419049
EQ 1 5
ARR 1 6 14.426339
EQ 1 6
ARR 4 7 14.444278
EQ 4 7
F 0 14.617919
DQ 1 5
CrL M 1 5 0 14.617980
L MedianBlur 0 14.639802
F 0 14.937174
DQ 1 6
CrS GaussianBlur  medianblur_0 14.937203
CrL G 1 6 0 14.937265
S /home/xilinx/Bitstreams-axi_firewall/GaussianBlur-GaussianBlur_pblock_medianblur_0_partial.bit 14.960344
L GaussianBlur 0 15.282187
F 0 15.803996
DQ 4 7
CrL G 4 7 0 15.804080
L GaussianBlur 0 15.849783
ARR 2 8 15.883766
EQ 2 8
ARR 0 9 15.915491
EQ 0 9
F 0 16.371559
DQ 0 9
CrS GaussianBlur  medianblur_0 16.371591
CrL M 0 9 0 16.371659
S /home/xilinx/Bitstreams-axi_firewall/MedianBlur-GaussianBlur_pblock_medianblur_0_partial.bit 16.372185
L MedianBlur 0 16.690720
ARR 2 10 17.323532
EQ 2 10
ARR 2 11 17.408297
EQ 2 11
ARR 1 12 17.503138
EQ 1 12
F 0 17.582413
DQ 1 12
CrL M 1 12 0 17.582480
L MedianBlur 0 17.619810
F 0 18.214044
DQ 2 8
CrS GaussianBlur  medianblur_0 18.214074
CrL G 2 8 0 18.214133
S /home/xilinx/Bitstreams-axi_firewall/GaussianBlur-GaussianBlur_pblock_medianblur_0_partial.bit 18.220409
L GaussianBlur 0 18.533393
ARR 3 13 18.896190
EQ 3 13
ARR 4 14 18.960506
EQ 4 14
ARR 4 15 18.984076
EQ 4 15
F 0 19.055177
DQ 2 10
CrS GaussianBlur  medianblur_0 19.055210
CrL M 2 10 0 19.055276
S /home/xilinx/Bitstreams-axi_firewall/MedianBlur-GaussianBlur_pblock_medianblur_0_partial.bit 19.055792
L MedianBlur 0 19.391000
F 0 19.688296
DQ 2 11
CrL M 2 11 0 19.688378
L MedianBlur 0 19.709789
F 0 20.601393
DQ 3 13
CrL M 3 13 0 20.601463
L MedianBlur 0 20.629783
F 0 21.521463
DQ 4 14
CrL M 4 14 0 21.521546
L MedianBlur 0 21.549787
ARR 3 16 22.383562
EQ 3 16
F 0 22.441449
DQ 3 16
CrL M 3 16 0 22.441517
L MedianBlur 0 22.469781
F 0 22.767040
DQ 4 15
CrL M 4 15 0 22.767099
L MedianBlur 0 22.789781
F 0 23.384240
ARR 0 17 23.422473
CrL M 0 17 0 23.422554
ARR 2 18 23.431657
EQ 2 18
L MedianBlur 0 23.479784
F 0 24.371412
DQ 2 18
CrL M 2 18 0 24.371473
L MedianBlur 0 24.399782
F 0 25.291197
ARR 1 19 28.524406
CrL M 1 19 0 28.524489
L MedianBlur 0 28.524933
ARR 4 20 28.563037
EQ 4 20
F 0 29.416613
DQ 4 20
CrL M 4 20 0 29.416696
L MedianBlur 0 29.449817
ARR 0 21 29.653342
EQ 0 21
F 0 30.341459
DQ 0 21
CrL M 0 21 0 30.341523
L MedianBlur 0 30.379784
ARR 3 22 30.704806
EQ 3 22
F 0 30.974167
DQ 3 22
CrL M 3 22 0 30.974225
L MedianBlur 0 31.019781
F 0 31.614350
ARR 0 23 32.758128
CrL M 0 23 0 32.758195
L MedianBlur 0 32.779783
ARR 4 24 32.855036
EQ 4 24
ARR 4 25 32.952207
EQ 4 25
ARR 2 26 33.036425
EQ 2 26
F 0 33.374350
DQ 2 26
CrS GaussianBlur  medianblur_0 33.374391
CrL G 2 26 0 33.374461
S /home/xilinx/Bitstreams-axi_firewall/GaussianBlur-GaussianBlur_pblock_medianblur_0_partial.bit 33.390411
L GaussianBlur 0 33.688324
F 0 34.210093
DQ 4 24
CrL G 4 24 0 34.210172
L GaussianBlur 0 34.239795
ARR 3 27 34.354842
EQ 3 27
ARR 3 28 34.365354
EQ 3 28
F 0 34.761565
DQ 3 27
CrS GaussianBlur  medianblur_0 34.761596
CrL M 3 27 0 34.761661
S /home/xilinx/Bitstreams-axi_firewall/MedianBlur-GaussianBlur_pblock_medianblur_0_partial.bit 34.762188
L MedianBlur 0 35.065033
F 0 35.659472
DQ 3 28
CrL M 3 28 0 35.659556
ARR 4 29 35.694915
EQ 4 29
L MedianBlur 0 35.699796
F 0 36.294259
DQ 4 25
CrL M 4 25 0 36.294324
L MedianBlur 0 36.339816
F 0 37.231359
DQ 4 29
CrS GaussianBlur  medianblur_0 37.231391
CrL G 4 29 0 37.231454
S /home/xilinx/Bitstreams-axi_firewall/GaussianBlur-GaussianBlur_pblock_medianblur_0_partial.bit 37.260340
L GaussianBlur 0 37.575199
F 0 38.096961
END 38.096985
