ARR 2 0 0.082850
CrS GaussianBlur GaussianBlur medianblur_0 0.082902
CrL M 2 0 0 0.082986
S /home/xilinx/Bitstreams-axi_firewall/MedianBlur-GaussianBlur_pblock_medianblur_0_partial.bit 0.120450
L MedianBlur 0 0.434270
ARR 0 1 0.472963
CrS MedianBlur GaussianBlur gaussianblur_0 0.472992
CrL M 0 1 1 0.473063
S /home/xilinx/Bitstreams-axi_firewall/MedianBlur-MedianBlur_pblock_gaussianblur_0_partial.bit 0.490575
L MedianBlur 1 0.799535
F 0 0.809786
ARR 4 2 0.854681
CrS GaussianBlur MedianBlur medianblur_0 0.854712
CrL G 4 2 0 0.854781
S /home/xilinx/Bitstreams-axi_firewall/GaussianBlur-MedianBlur_pblock_medianblur_0_partial.bit 0.860331
L GaussianBlur 0 1.206157
ARR 2 3 1.216887
R 1 1.217179
EQ 0 1
EV 1 3 1 1.217430
CrS MedianBlur MedianBlur gaussianblur_0 1.217448
CrL G 2 3 1 1.217484
S /home/xilinx/Bitstreams-axi_firewall/GaussianBlur-GaussianBlur_pblock_gaussianblur_0_partial.bit 1.217979
L GaussianBlur 1 1.553875
ARR 3 4 1.587577
R 1 1.587842
EQ 2 3
EV 3 4 1 1.588033
CrS MedianBlur MedianBlur gaussianblur_0 1.588048
CrL M 3 4 1 1.588082
S /home/xilinx/Bitstreams-axi_firewall/GaussianBlur-MedianBlur_pblock_gaussianblur_0_partial.bit 1.590270
L MedianBlur 1 1.923888
F 0 1.929919
DQ 0 1
CrS GaussianBlur MedianBlur medianblur_0 1.929951
CrL M 0 1 0 1.930563
S /home/xilinx/Bitstreams-axi_firewall/MedianBlur-MedianBlur_pblock_medianblur_0_partial.bit 1.940345
L MedianBlur 0 2.301986
F 1 2.309925
DQ 2 3
CrS MedianBlur GaussianBlur gaussianblur_0 2.309956
CrL G 2 3 1 2.310559
S /home/xilinx/Bitstreams-axi_firewall/MedianBlur-GaussianBlur_pblock_gaussianblur_0_partial.bit 2.320403
L GaussianBlur 1 2.679923
ARR 1 5 2.701086
R 0 2.701349
EQ 0 1
EV 1 5 0 2.701539
CrL M 1 5 0 2.701565
ARR 1 6 2.702732
EQ 1 6
ARR 4 7 2.705180
R 0 2.705461
EQ 1 5
EV 5 7 0 2.705638
CrS MedianBlur MedianBlur medianblur_0 2.705654
CrL G 4 7 0 2.705687
S /home/xilinx/Bitstreams-axi_firewall/GaussianBlur-GaussianBlur_pblock_medianblur_0_partial.bit 2.740389
L GaussianBlur 0 3.092475
ARR 2 8 3.116827
EQ 2 8
ARR 0 9 3.121021
EQ 0 9
ARR 2 10 3.144763
EQ 2 10
F 1 3.145432
DQ 0 1
CrS MedianBlur GaussianBlur gaussianblur_0 3.145463
CrL M 0 1 1 3.145521
S /home/xilinx/Bitstreams-axi_firewall/GaussianBlur-MedianBlur_pblock_gaussianblur_0_partial.bit 3.160370
L MedianBlur 1 3.487022
ARR 2 11 3.500010
R 1 3.500299
EQ 0 1
EV 1 11 1 3.500494
CrL M 2 11 1 3.500519
ARR 1 12 3.512564
EQ 1 12
L MedianBlur 1 3.519828
ARR 3 13 3.534397
R 1 3.534692
EQ 2 11
EV 11 13 1 3.534875
CrL M 3 13 1 3.534900
ARR 4 14 3.543165
R 1 3.543436
EQ 3 13
EV 13 14 1 3.543615
CrL M 4 14 1 3.543639
ARR 4 15 3.546776
EQ 4 15
L MedianBlur 1 3.569864
ARR 3 16 3.592216
EQ 3 16
ARR 0 17 3.609684
EQ 0 17
ARR 2 18 3.611012
EQ 2 18
F 0 3.615626
DQ 0 9
CrS GaussianBlur MedianBlur medianblur_0 3.615654
CrL M 0 9 0 3.615706
S /home/xilinx/Bitstreams-axi_firewall/MedianBlur-MedianBlur_pblock_medianblur_0_partial.bit 3.640321
L MedianBlur 0 3.958651
ARR 1 19 4.029129
R 0 4.029418
EQ 0 9
EV 9 19 0 4.029611
CrL M 1 19 0 4.029637
ARR 4 20 4.034696
R 0 4.034980
EQ 1 19
EV 19 20 0 4.035162
CrL M 4 20 0 4.035187
ARR 0 21 4.059102
EQ 0 21
L MedianBlur 0 4.069842
ARR 3 22 4.078168
EQ 3 22
ARR 0 23 4.109857
EQ 0 23
ARR 4 24 4.122148
EQ 4 24
ARR 4 25 4.134478
EQ 4 25
ARR 2 26 4.145188
EQ 2 26
ARR 3 27 4.158187
EQ 3 27
ARR 3 28 4.159690
EQ 3 28
ARR 4 29 4.175592
EQ 4 29
F 1 4.303289
DQ 0 1
CrL M 0 1 1 4.303353
L MedianBlur 1 4.303391
F 0 4.970401
DQ 0 17
CrL M 0 17 0 4.970470
L MedianBlur 0 5.009791
F 1 5.024204
DQ 0 9
CrL M 0 9 1 5.024264
L MedianBlur 1 5.039788
F 1 5.716194
DQ 0 21
CrL M 0 21 1 5.716276
L MedianBlur 1 5.759830
F 0 5.909615
DQ 0 23
CrL M 0 23 0 5.909679
L MedianBlur 0 5.929790
F 1 6.249080
DQ 1 6
CrS MedianBlur GaussianBlur gaussianblur_0 6.249111
CrL G 1 6 1 6.249166
S /home/xilinx/Bitstreams-axi_firewall/MedianBlur-GaussianBlur_pblock_gaussianblur_0_partial.bit 6.270368
L GaussianBlur 1 6.632639
F 0 6.639906
DQ 1 5
CrL M 1 5 0 6.639980
L MedianBlur 0 6.659811
F 0 6.958764
DQ 1 12
CrL M 1 12 0 6.958833
L MedianBlur 0 6.969827
F 1 7.098231
DQ 1 19
CrS MedianBlur GaussianBlur gaussianblur_0 7.098270
CrL M 1 19 1 7.098351
S /home/xilinx/Bitstreams-axi_firewall/MedianBlur-MedianBlur_pblock_gaussianblur_0_partial.bit 7.098890
L MedianBlur 1 7.490818
F 0 7.567121
DQ 2 8
CrS GaussianBlur MedianBlur medianblur_0 7.567155
CrL G 2 8 0 7.567225
S /home/xilinx/Bitstreams-axi_firewall/GaussianBlur-MedianBlur_pblock_medianblur_0_partial.bit 7.567700
L GaussianBlur 0 7.941316
F 1 8.223952
DQ 2 10
CrL M 2 10 1 8.224034
L MedianBlur 1 8.249791
F 0 8.465272
DQ 2 11
CrS GaussianBlur MedianBlur medianblur_0 8.465303
CrL M 2 11 0 8.465370
S /home/xilinx/Bitstreams-axi_firewall/MedianBlur-MedianBlur_pblock_medianblur_0_partial.bit 8.465884
L MedianBlur 0 8.808104
F 1 8.809901
DQ 2 18
CrL M 2 18 1 8.810522
L MedianBlur 1 8.849796
F 1 9.583797
DQ 2 26
CrS MedianBlur GaussianBlur gaussianblur_0 9.583841
CrL G 2 26 1 9.583910
S /home/xilinx/Bitstreams-axi_firewall/MedianBlur-GaussianBlur_pblock_gaussianblur_0_partial.bit 9.610364
L GaussianBlur 1 9.938829
F 0 9.949867
DQ 3 13
CrL M 3 13 0 9.949943
L MedianBlur 0 9.959828
F 1 10.404451
DQ 3 16
CrS MedianBlur GaussianBlur gaussianblur_0 10.404491
CrL M 3 16 1 10.404557
S /home/xilinx/Bitstreams-axi_firewall/MedianBlur-MedianBlur_pblock_gaussianblur_0_partial.bit 10.410393
L MedianBlur 1 10.740307
F 0 10.856499
DQ 3 22
CrL M 3 22 0 10.856579
L MedianBlur 0 10.909786
F 1 10.984928
DQ 3 27
CrL M 3 27 1 10.984999
L MedianBlur 1 11.019813
F 1 11.509273
DQ 3 28
CrL M 3 28 1 11.509365
F 0 11.509951
DQ 4 15
CrL M 4 15 0 11.510023
L MedianBlur 0 11.519804
L MedianBlur 1 11.539814
F 1 12.029233
DQ 4 24
CrS MedianBlur GaussianBlur gaussianblur_0 12.029269
CrL G 4 24 1 12.029331
S /home/xilinx/Bitstreams-axi_firewall/MedianBlur-GaussianBlur_pblock_gaussianblur_0_partial.bit 12.060393
L GaussianBlur 1 12.400658
F 0 12.409909
DQ 4 25
CrL M 4 25 0 12.409989
L MedianBlur 0 12.449825
F 1 12.866244
DQ 4 29
CrL G 4 29 1 12.866322
L GaussianBlur 1 12.879789
F 1 13.345482
F 0 13.346213
END 13.346234
