ARR 2 0 0.082826
CrS GaussianBlur  medianblur_0 0.082868
CrL M 2 0 0 0.082950
S /home/xilinx/Bitstreams-axi_firewall/MedianBlur-GaussianBlur_pblock_medianblur_0_partial.bit 0.100485
L MedianBlur 0 0.408576
ARR 0 1 0.441703
EQ 0 1
ARR 4 2 0.486609
EQ 4 2
ARR 2 3 0.497408
EQ 2 3
ARR 3 4 0.525247
EQ 3 4
ARR 1 5 0.536593
EQ 1 5
ARR 1 6 0.537684
EQ 1 6
ARR 4 7 0.540109
EQ 4 7
ARR 2 8 0.564518
EQ 2 8
ARR 0 9 0.568661
EQ 0 9
ARR 2 10 0.592366
EQ 2 10
ARR 2 11 0.603141
EQ 2 11
ARR 1 12 0.615171
EQ 1 12
ARR 3 13 0.636980
EQ 3 13
ARR 4 14 0.645199
EQ 4 14
ARR 4 15 0.648326
EQ 4 15
ARR 3 16 0.693750
EQ 3 16
F 0 0.705986
DQ 0 1
CrL M 0 1 0 0.706040
ARR 0 17 0.711441
EQ 0 17
ARR 2 18 0.712762
EQ 2 18
L MedianBlur 0 0.739848
ARR 1 19 0.786613
EQ 1 19
ARR 4 20 0.791613
EQ 4 20
ARR 0 21 0.815526
EQ 0 21
ARR 3 22 0.834574
EQ 3 22
ARR 0 23 0.866238
EQ 0 23
ARR 4 24 0.878518
EQ 4 24
ARR 4 25 0.890837
EQ 4 25
ARR 2 26 0.901544
EQ 2 26
ARR 3 27 0.914537
EQ 3 27
ARR 3 28 0.916029
EQ 3 28
ARR 4 29 0.931925
EQ 4 29
F 0 1.631517
DQ 0 9
CrL M 0 9 0 1.631578
L MedianBlur 0 1.659849
F 0 2.551475
DQ 0 17
CrL M 0 17 0 2.551553
L MedianBlur 0 2.579851
F 0 3.471500
DQ 0 21
CrL M 0 21 0 3.471568
L MedianBlur 0 3.489850
F 0 4.084365
DQ 0 23
CrL M 0 23 0 4.084442
L MedianBlur 0 4.119848
F 0 4.714308
DQ 1 5
CrL M 1 5 0 4.714368
L MedianBlur 0 4.759844
F 0 5.057177
DQ 1 6
CrS GaussianBlur  medianblur_0 5.057203
CrL G 1 6 0 5.057259
S /home/xilinx/Bitstreams-axi_firewall/GaussianBlur-GaussianBlur_pblock_medianblur_0_partial.bit 5.090433
L GaussianBlur 0 5.401871
F 0 5.923660
DQ 1 12
CrS GaussianBlur  medianblur_0 5.923697
CrL M 1 12 0 5.923770
S /home/xilinx/Bitstreams-axi_firewall/MedianBlur-GaussianBlur_pblock_medianblur_0_partial.bit 5.930505
L MedianBlur 0 6.244447
F 0 6.838691
DQ 1 19
CrL M 1 19 0 6.838763
L MedianBlur 0 6.879888
F 0 7.771455
DQ 2 3
CrS GaussianBlur  medianblur_0 7.771480
CrL G 2 3 0 7.771538
S /home/xilinx/Bitstreams-axi_firewall/GaussianBlur-GaussianBlur_pblock_medianblur_0_partial.bit 7.790456
L GaussianBlur 0 8.113585
F 0 8.635346
DQ 2 8
CrL G 2 8 0 8.635422
L GaussianBlur 0 8.659847
F 0 9.181591
DQ 2 10
CrS GaussianBlur  medianblur_0 9.181620
CrL M 2 10 0 9.181681
S /home/xilinx/Bitstreams-axi_firewall/MedianBlur-GaussianBlur_pblock_medianblur_0_partial.bit 9.210407
L MedianBlur 0 9.516828
F 0 9.814100
DQ 2 11
CrL M 2 11 0 9.814179
L MedianBlur 0 9.826814
F 0 10.718432
DQ 2 18
CrL M 2 18 0 10.718509
L MedianBlur 0 10.769858
F 0 11.661260
DQ 2 26
CrS GaussianBlur  medianblur_0 11.661298
CrL G 2 26 0 11.661367
S /home/xilinx/Bitstreams-axi_firewall/GaussianBlur-GaussianBlur_pblock_medianblur_0_partial.bit 11.680426
L GaussianBlur 0 11.985783
F 0 12.507542
DQ 3 4
CrS GaussianBlur  medianblur_0 12.507578
CrL M 3 4 0 12.507649
S /home/xilinx/Bitstreams-axi_firewall/MedianBlur-GaussianBlur_pblock_medianblur_0_partial.bit 12.510365
L MedianBlur 0 12.829962
F 0 13.127321
DQ 3 13
CrL M 3 13 0 13.127398
L MedianBlur 0 13.139852
F 0 14.031569
DQ 3 16
CrL M 3 16 0 14.031651
L MedianBlur 0 14.059848
F 0 14.357112
DQ 3 22
CrL M 3 22 0 14.357174
L MedianBlur 0 14.379848
F 0 14.974340
DQ 3 27
CrL M 3 27 0 14.974403
L MedianBlur 0 14.979860
F 0 15.574311
DQ 3 28
CrL M 3 28 0 15.574388
L MedianBlur 0 15.599851
F 0 16.194370
DQ 4 2
CrS GaussianBlur  medianblur_0 16.194413
CrL G 4 2 0 16.194489
S /home/xilinx/Bitstreams-axi_firewall/GaussianBlur-GaussianBlur_pblock_medianblur_0_partial.bit 16.210454
L GaussianBlur 0 16.531782
F 0 17.053559
DQ 4 7
CrL G 4 7 0 17.053640
L GaussianBlur 0 17.059864
F 0 17.581616
DQ 4 14
CrS GaussianBlur  medianblur_0 17.581649
CrL M 4 14 0 17.581721
S /home/xilinx/Bitstreams-axi_firewall/MedianBlur-GaussianBlur_pblock_medianblur_0_partial.bit 17.582257
L MedianBlur 0 17.885489
F 0 18.777122
DQ 4 15
CrL M 4 15 0 18.777215
L MedianBlur 0 18.809898
F 0 19.404326
DQ 4 20
CrL M 4 20 0 19.404392
L MedianBlur 0 19.459845
F 0 20.351463
DQ 4 24
CrS GaussianBlur  medianblur_0 20.351507
CrL G 4 24 0 20.351591
S /home/xilinx/Bitstreams-axi_firewall/GaussianBlur-GaussianBlur_pblock_medianblur_0_partial.bit 20.352122
L GaussianBlur 0 20.675958
F 0 21.197788
DQ 4 25
CrS GaussianBlur  medianblur_0 21.197825
CrL M 4 25 0 21.197903
S /home/xilinx/Bitstreams-axi_firewall/MedianBlur-GaussianBlur_pblock_medianblur_0_partial.bit 21.198397
L MedianBlur 0 21.539487
F 0 22.431153
DQ 4 29
CrS GaussianBlur  medianblur_0 22.431196
CrL G 4 29 0 22.431271
S /home/xilinx/Bitstreams-axi_firewall/GaussianBlur-GaussianBlur_pblock_medianblur_0_partial.bit 22.440572
L GaussianBlur 0 22.737599
F 0 23.259367
END 23.259398
