ARR 2 0 6.059895
CrS GaussianBlur  medianblur_0 6.059949
CrL M 2 0 0 6.060029
S /home/xilinx/Bitstreams-axi_firewall/MedianBlur-GaussianBlur_pblock_medianblur_0_partial.bit 6.080508
L MedianBlur 0 6.404559
F 0 6.701953
ARR 0 1 8.469871
CrL M 0 1 0 8.469957
L MedianBlur 0 8.519771
F 0 9.411457
ARR 4 2 11.529838
CrS GaussianBlur  medianblur_0 11.529883
CrL G 4 2 0 11.529960
S /home/xilinx/Bitstreams-axi_firewall/GaussianBlur-GaussianBlur_pblock_medianblur_0_partial.bit 11.550420
L GaussianBlur 0 11.859074
ARR 2 3 11.943879
EQ 2 3
F 0 12.380857
DQ 2 3
CrL G 2 3 0 12.380932
L GaussianBlur 0 12.409772
F 0 12.931578
ARR 3 4 13.966598
CrS GaussianBlur  medianblur_0 13.966636
CrL M 3 4 0 13.966701
S /home/xilinx/Bitstreams-axi_firewall/MedianBlur-GaussianBlur_pblock_medianblur_0_partial.bit 13.970322
L MedianBlur 0 14.258775
ARR 1 5 14.349065
EQ 1 5
ARR 1 6 14.356354
EQ 1 6
ARR 4 7 14.374291
R 0 14.374618
EQ 3 4
EV 4 7 0 14.374813
CrS MedianBlur  medianblur_0 14.374833
CrL G 4 7 0 14.374871
S /home/xilinx/Bitstreams-axi_firewall/GaussianBlur-GaussianBlur_pblock_medianblur_0_partial.bit 14.375353
L GaussianBlur 0 14.711672
F 0 15.233489
DQ 1 5
CrS GaussianBlur  medianblur_0 15.233537
CrL M 1 5 0 15.233622
S /home/xilinx/Bitstreams-axi_firewall/MedianBlur-GaussianBlur_pblock_medianblur_0_partial.bit 15.234150
L MedianBlur 0 15.548751
F 0 15.846133
DQ 1 6
CrS GaussianBlur  medianblur_0 15.846171
CrL G 1 6 0 15.846241
S /home/xilinx/Bitstreams-axi_firewall/GaussianBlur-GaussianBlur_pblock_medianblur_0_partial.bit 15.860379
L GaussianBlur 0 16.172845
ARR 2 8 16.455815
R 0 16.456098
EQ 1 6
EV 6 8 0 16.456289
CrL G 2 8 0 16.456320
ARR 0 9 16.488042
EQ 0 9
L GaussianBlur 0 16.489787
F 0 17.011574
DQ 0 9
CrS GaussianBlur  medianblur_0 17.011621
CrL M 0 9 0 17.011697
S /home/xilinx/Bitstreams-axi_firewall/MedianBlur-GaussianBlur_pblock_medianblur_0_partial.bit 17.012218
L MedianBlur 0 17.351160
ARR 2 10 17.916445
R 0 17.916737
EQ 0 9
EV 9 10 0 17.916928
CrL M 2 10 0 17.916960
L MedianBlur 0 17.949804
ARR 2 11 18.001740
EQ 2 11
ARR 1 12 18.096557
EQ 1 12
F 0 18.247070
DQ 0 9
CrL M 0 9 0 18.247135
L MedianBlur 0 18.269774
F 0 18.595893
DQ 1 6
CrS GaussianBlur  medianblur_0 18.595926
CrL G 1 6 0 18.595984
S /home/xilinx/Bitstreams-axi_firewall/GaussianBlur-GaussianBlur_pblock_medianblur_0_partial.bit 18.620322
L GaussianBlur 0 18.925084
F 0 19.446873
DQ 1 12
CrS GaussianBlur  medianblur_0 19.446919
CrL M 1 12 0 19.447001
S /home/xilinx/Bitstreams-axi_firewall/MedianBlur-GaussianBlur_pblock_medianblur_0_partial.bit 19.447516
L MedianBlur 0 19.786888
ARR 3 13 19.846848
R 0 19.847124
EQ 1 12
EV 12 13 0 19.847315
CrL M 3 13 0 19.847347
L MedianBlur 0 19.899780
ARR 4 14 19.911646
R 0 19.911944
EQ 3 13
EV 13 14 0 19.912130
CrL M 4 14 0 19.912160
ARR 4 15 19.935719
EQ 4 15
L MedianBlur 0 19.939804
F 0 20.831337
DQ 1 12
CrL M 1 12 0 20.831411
L MedianBlur 0 20.859796
F 0 21.394017
DQ 2 11
CrL M 2 11 0 21.394102
L MedianBlur 0 21.419775
F 0 22.311351
DQ 3 4
CrL M 3 4 0 22.311429
L MedianBlur 0 22.319791
F 0 22.501490
DQ 3 13
CrL M 3 13 0 22.501557
L MedianBlur 0 22.519774
ARR 3 16 22.999140
EQ 3 16
F 0 23.399527
DQ 3 16
CrL M 3 16 0 23.399611
L MedianBlur 0 23.439773
F 0 23.737059
DQ 4 15
CrL M 4 15 0 23.737127
L MedianBlur 0 23.759772
ARR 0 17 24.038153
EQ 0 17
ARR 2 18 24.047216
EQ 2 18
F 0 24.354241
DQ 0 17
CrL M 0 17 0 24.354304
L MedianBlur 0 24.359782
F 0 25.251403
DQ 2 18
CrL M 2 18 0 25.251488
L MedianBlur 0 25.279785
F 0 26.171228
ARR 1 19 29.139872
CrL M 1 19 0 29.139961
L MedianBlur 0 29.169808
ARR 4 20 29.178543
R 0 29.178887
EQ 1 19
EV 19 20 0 29.179075
CrL M 4 20 0 29.179105
L MedianBlur 0 29.209788
F 0 30.101363
DQ 1 19
CrL M 1 19 0 30.101431
L MedianBlur 0 30.129773
ARR 0 21 30.269268
EQ 0 21
F 0 31.012488
DQ 0 21
CrL M 0 21 0 31.012577
L MedianBlur 0 31.039775
ARR 3 22 31.320681
R 0 31.321007
EQ 0 21
EV 21 22 0 31.321192
CrL M 3 22 0 31.321221
L MedianBlur 0 31.369809
F 0 31.964361
DQ 0 21
CrL M 0 21 0 31.964439
L MedianBlur 0 31.966076
F 0 32.279438
ARR 0 23 33.374547
CrL M 0 23 0 33.374632
L MedianBlur 0 33.409773
ARR 4 24 33.471476
R 0 33.471861
EQ 0 23
EV 23 24 0 33.472051
CrS MedianBlur  medianblur_0 33.472071
CrL G 4 24 0 33.472107
S /home/xilinx/Bitstreams-axi_firewall/GaussianBlur-GaussianBlur_pblock_medianblur_0_partial.bit 33.490339
L GaussianBlur 0 33.778134
ARR 4 25 33.876886
EQ 4 25
ARR 2 26 33.961128
EQ 2 26
F 0 34.299917
DQ 0 23
CrS GaussianBlur  medianblur_0 34.299957
CrL M 0 23 0 34.300020
S /home/xilinx/Bitstreams-axi_firewall/MedianBlur-GaussianBlur_pblock_medianblur_0_partial.bit 34.330321
L MedianBlur 0 34.633783
F 0 35.228335
DQ 2 26
CrS GaussianBlur  medianblur_0 35.228384
CrL G 2 26 0 35.228458
S /home/xilinx/Bitstreams-axi_firewall/GaussianBlur-GaussianBlur_pblock_medianblur_0_partial.bit 35.230328
L GaussianBlur 0 35.543876
ARR 3 27 35.619288
R 0 35.619553
EQ 2 26
EV 26 27 0 35.619786
CrS MedianBlur  medianblur_0 35.619808
CrL M 3 27 0 35.619851
S /home/xilinx/Bitstreams-axi_firewall/MedianBlur-GaussianBlur_pblock_medianblur_0_partial.bit 35.620323
L MedianBlur 0 35.917518
ARR 3 28 35.927945
EQ 3 28
F 0 36.511942
DQ 2 26
CrS GaussianBlur  medianblur_0 36.511984
CrL G 2 26 0 36.512057
S /home/xilinx/Bitstreams-axi_firewall/GaussianBlur-GaussianBlur_pblock_medianblur_0_partial.bit 36.512570
L GaussianBlur 0 36.851526
ARR 4 29 37.302093
R 0 37.302422
EQ 2 26
EV 26 29 0 37.302617
CrL G 4 29 0 37.302650
L GaussianBlur 0 37.359805
F 0 37.881565
DQ 2 26
CrL G 2 26 0 37.881640
L GaussianBlur 0 37.881681
F 0 37.952729
DQ 3 28
CrS GaussianBlur  medianblur_0 37.952765
CrL M 3 28 0 37.952832
S /home/xilinx/Bitstreams-axi_firewall/MedianBlur-GaussianBlur_pblock_medianblur_0_partial.bit 37.953347
L MedianBlur 0 38.262321
F 0 38.856809
DQ 4 25
CrL M 4 25 0 38.856902
L MedianBlur 0 38.859798
F 0 39.751419
END 39.751449
