ARR 2 0 6.059906
CrS GaussianBlur  medianblur_0 6.059956
CrL M 2 0 0 6.060034
S /home/xilinx/Bitstreams-axi_firewall/MedianBlur-GaussianBlur_pblock_medianblur_0_partial.bit 6.090444
L MedianBlur 0 6.412364
F 0 6.709723
ARR 0 1 8.485806
CrL M 0 1 0 8.485884
L MedianBlur 0 8.499793
F 0 9.391428
ARR 4 2 11.545760
CrS GaussianBlur  medianblur_0 11.545800
CrL G 4 2 0 11.545885
S /home/xilinx/Bitstreams-axi_firewall/GaussianBlur-GaussianBlur_pblock_medianblur_0_partial.bit 11.546443
L GaussianBlur 0 11.869571
ARR 2 3 11.954370
EQ 2 3
F 0 12.391377
DQ 2 3
CrL G 2 3 0 12.391456
L GaussianBlur 0 12.410359
F 0 12.932133
ARR 3 4 13.977076
CrS GaussianBlur  medianblur_0 13.977106
CrL M 3 4 0 13.977176
S /home/xilinx/Bitstreams-axi_firewall/MedianBlur-GaussianBlur_pblock_medianblur_0_partial.bit 13.977706
L MedianBlur 0 14.298181
ARR 1 5 14.389054
EQ 1 5
ARR 1 6 14.396355
EQ 1 6
ARR 4 7 14.414310
EQ 4 7
F 0 14.595598
DQ 1 5
CrL M 1 5 0 14.595664
L MedianBlur 0 14.619781
F 0 14.917169
DQ 1 6
CrS GaussianBlur  medianblur_0 14.917201
CrL G 1 6 0 14.917273
S /home/xilinx/Bitstreams-axi_firewall/GaussianBlur-GaussianBlur_pblock_medianblur_0_partial.bit 14.917804
L GaussianBlur 0 15.239372
F 0 15.761148
DQ 4 7
CrL G 4 7 0 15.761221
L GaussianBlur 0 15.799778
ARR 2 8 15.831393
EQ 2 8
ARR 0 9 15.863118
EQ 0 9
F 0 16.321543
DQ 0 9
CrS GaussianBlur  medianblur_0 16.321573
CrL M 0 9 0 16.321633
S /home/xilinx/Bitstreams-axi_firewall/MedianBlur-GaussianBlur_pblock_medianblur_0_partial.bit 16.330456
L MedianBlur 0 16.652146
ARR 2 10 17.289868
EQ 2 10
ARR 2 11 17.374626
EQ 2 11
ARR 1 12 17.469447
EQ 1 12
F 0 17.543785
DQ 1 12
CrL M 1 12 0 17.543844
L MedianBlur 0 17.569780
F 0 18.164071
DQ 2 8
CrS GaussianBlur  medianblur_0 18.164108
CrL G 2 8 0 18.164175
S /home/xilinx/Bitstreams-axi_firewall/GaussianBlur-GaussianBlur_pblock_medianblur_0_partial.bit 18.170423
L GaussianBlur 0 18.485557
ARR 3 13 18.868856
EQ 3 13
ARR 4 14 18.933171
EQ 4 14
ARR 4 15 18.956740
EQ 4 15
F 0 19.007336
DQ 2 10
CrS GaussianBlur  medianblur_0 19.007366
CrL M 2 10 0 19.007429
S /home/xilinx/Bitstreams-axi_firewall/MedianBlur-GaussianBlur_pblock_medianblur_0_partial.bit 19.030334
L MedianBlur 0 19.333626
F 0 19.630869
DQ 2 11
CrL M 2 11 0 19.630941
L MedianBlur 0 19.649797
F 0 20.541433
DQ 3 13
CrL M 3 13 0 20.541518
L MedianBlur 0 20.559786
F 0 21.451423
DQ 4 14
CrL M 4 14 0 21.451489
L MedianBlur 0 21.459794
ARR 3 16 22.346695
EQ 3 16
F 0 22.351374
DQ 3 16
CrL M 3 16 0 22.351438
L MedianBlur 0 22.379778
F 0 22.677084
DQ 4 15
CrL M 4 15 0 22.677160
L MedianBlur 0 22.699812
F 0 23.294268
ARR 0 17 23.385612
CrL M 0 17 0 23.385670
ARR 2 18 23.394758
EQ 2 18
L MedianBlur 0 23.409781
F 0 24.301437
DQ 2 18
CrL M 2 18 0 24.301511
L MedianBlur 0 24.344435
F 0 25.235908
ARR 1 19 28.487573
CrL M 1 19 0 28.487656
L MedianBlur 0 28.499786
ARR 4 20 28.526201
EQ 4 20
F 0 29.391395
DQ 4 20
CrL M 4 20 0 29.391466
L MedianBlur 0 29.419780
ARR 0 21 29.616451
EQ 0 21
F 0 30.311392
DQ 0 21
CrL M 0 21 0 30.311454
L MedianBlur 0 30.339792
ARR 3 22 30.667904
EQ 3 22
F 0 30.934391
DQ 3 22
CrL M 3 22 0 30.934478
L MedianBlur 0 30.939799
F 0 31.534387
ARR 0 23 32.721337
CrL M 0 23 0 32.721417
L MedianBlur 0 32.749793
ARR 4 24 32.818262
EQ 4 24
ARR 4 25 32.915439
EQ 4 25
ARR 2 26 32.999660
EQ 2 26
F 0 33.344321
DQ 2 26
CrS GaussianBlur  medianblur_0 33.344352
CrL G 2 26 0 33.344410
S /home/xilinx/Bitstreams-axi_firewall/GaussianBlur-GaussianBlur_pblock_medianblur_0_partial.bit 33.350446
L GaussianBlur 0 33.675549
F 0 34.197325
DQ 4 24
CrL G 4 24 0 34.197400
L GaussianBlur 0 34.229778
ARR 3 27 34.333843
EQ 3 27
ARR 3 28 34.344373
EQ 3 28
F 0 34.751596
DQ 3 27
CrS GaussianBlur  medianblur_0 34.751637
CrL M 3 27 0 34.751707
S /home/xilinx/Bitstreams-axi_firewall/MedianBlur-GaussianBlur_pblock_medianblur_0_partial.bit 34.760439
L MedianBlur 0 35.059428
F 0 35.653846
DQ 3 28
CrL M 3 28 0 35.653924
ARR 4 29 35.678313
EQ 4 29
L MedianBlur 0 35.689778
F 0 36.284261
DQ 4 25
CrL M 4 25 0 36.284323
L MedianBlur 0 36.289794
F 0 37.181392
DQ 4 29
CrS GaussianBlur  medianblur_0 37.181436
CrL G 4 29 0 37.181509
S /home/xilinx/Bitstreams-axi_firewall/GaussianBlur-GaussianBlur_pblock_medianblur_0_partial.bit 37.210387
L GaussianBlur 0 37.508703
F 0 38.030461
END 38.030484
