ARR 2 0 6.069939
CrS GaussianBlur  medianblur_0 6.069984
CrL M 2 0 0 6.070021
S /home/xilinx/Bitstreams/MedianBlur-GaussianBlur_pblock_medianblur_0_partial.bit 6.167252
L MedianBlur 0 6.540866
F 0 7.174429
ARR 0 1 8.615787
CrL M 0 1 0 8.615811
L MedianBlur 0 8.659839
F 0 10.560115
ARR 4 2 11.675006
CrS GaussianBlur  medianblur_0 11.675046
CrL G 4 2 0 11.675071
S /home/xilinx/Bitstreams/GaussianBlur-GaussianBlur_pblock_medianblur_0_partial.bit 11.787069
L GaussianBlur 0 12.127576
ARR 2 3 12.224693
EQ 2 3
F 0 13.268420
DQ 2 3
CrL G 2 3 0 13.268457
L GaussianBlur 0 13.289826
ARR 3 4 14.247456
EQ 3 4
ARR 1 5 14.336939
EQ 1 5
ARR 1 6 14.344346
EQ 1 6
ARR 4 7 14.362410
EQ 4 7
F 0 14.430632
DQ 1 5
CrS GaussianBlur  medianblur_0 14.430659
CrL M 1 5 0 14.430681
S /home/xilinx/Bitstreams/MedianBlur-GaussianBlur_pblock_medianblur_0_partial.bit 14.537030
L MedianBlur 0 14.874127
F 0 15.507737
DQ 1 6
CrS GaussianBlur  medianblur_0 15.507780
CrL G 1 6 0 15.507805
S /home/xilinx/Bitstreams/GaussianBlur-GaussianBlur_pblock_medianblur_0_partial.bit 15.605661
L GaussianBlur 0 15.918080
ARR 2 8 16.322702
EQ 2 8
ARR 0 9 16.354589
EQ 0 9
F 0 17.058947
DQ 0 9
CrS GaussianBlur  medianblur_0 17.058988
CrL M 0 9 0 17.059012
S /home/xilinx/Bitstreams/MedianBlur-GaussianBlur_pblock_medianblur_0_partial.bit 17.177037
L MedianBlur 0 17.488586
ARR 2 10 17.884319
EQ 2 10
ARR 2 11 17.969218
EQ 2 11
ARR 1 12 18.064171
EQ 1 12
ARR 3 13 19.138396
EQ 3 13
ARR 4 14 19.202867
EQ 4 14
ARR 4 15 19.226572
EQ 4 15
F 0 19.389396
DQ 1 12
CrL M 1 12 0 19.389420
L MedianBlur 0 19.419836
F 0 20.686900
DQ 2 8
CrS GaussianBlur  medianblur_0 20.686943
CrL G 2 8 0 20.686967
S /home/xilinx/Bitstreams/GaussianBlur-GaussianBlur_pblock_medianblur_0_partial.bit 20.784716
L GaussianBlur 0 21.120818
F 0 22.261677
DQ 2 10
CrS GaussianBlur  medianblur_0 22.261721
CrL M 2 10 0 22.261746
S /home/xilinx/Bitstreams/MedianBlur-GaussianBlur_pblock_medianblur_0_partial.bit 22.382331
L MedianBlur 0 23.039907
ARR 3 16 23.520953
EQ 3 16
F 0 23.673439
DQ 2 11
CrL M 2 11 0 23.673467
L MedianBlur 0 23.689825
ARR 0 17 24.559897
EQ 0 17
ARR 2 18 24.569104
EQ 2 18
F 0 25.590207
DQ 0 17
CrL M 0 17 0 25.590243
L MedianBlur 0 25.609825
F 0 27.510084
DQ 2 18
CrL M 2 18 0 27.510121
L MedianBlur 0 27.519851
F 0 29.420228
DQ 3 4
CrL M 3 4 0 29.420266
L MedianBlur 0 29.439826
ARR 1 19 29.659813
EQ 1 19
ARR 4 20 29.698491
EQ 4 20
F 0 30.073418
DQ 1 19
CrL M 1 19 0 30.073452
L MedianBlur 0 30.139820
ARR 0 21 30.789503
EQ 0 21
ARR 3 22 31.841567
EQ 3 22
F 0 32.040278
DQ 0 21
CrL M 0 21 0 32.040301
L MedianBlur 0 32.099818
F 0 33.366781
DQ 3 13
CrL M 3 13 0 33.366817
L MedianBlur 0 33.419829
ARR 0 23 33.894824
EQ 0 23
ARR 4 24 33.991810
EQ 4 24
ARR 4 25 34.089120
EQ 4 25
ARR 2 26 34.173476
EQ 2 26
ARR 3 27 35.177082
EQ 3 27
ARR 3 28 35.187762
EQ 3 28
F 0 35.320171
DQ 0 23
CrL M 0 23 0 35.320204
L MedianBlur 0 35.359821
ARR 4 29 36.214911
EQ 4 29
F 0 36.626738
DQ 2 26
CrS GaussianBlur  medianblur_0 36.626772
CrL G 2 26 0 36.626793
S /home/xilinx/Bitstreams/GaussianBlur-GaussianBlur_pblock_medianblur_0_partial.bit 36.734485
L GaussianBlur 0 37.060698
F 0 38.201505
DQ 3 16
CrS GaussianBlur  medianblur_0 38.201546
CrL M 3 16 0 38.201570
S /home/xilinx/Bitstreams/MedianBlur-GaussianBlur_pblock_medianblur_0_partial.bit 38.307083
L MedianBlur 0 38.607565
F 0 39.241219
DQ 3 22
CrL M 3 22 0 39.241257
L MedianBlur 0 39.289827
F 0 40.556815
DQ 3 27
CrL M 3 27 0 40.556851
L MedianBlur 0 40.619841
F 0 41.886777
DQ 3 28
CrL M 3 28 0 41.886813
L MedianBlur 0 41.899855
F 0 43.166751
DQ 4 7
CrS GaussianBlur  medianblur_0 43.166796
CrL G 4 7 0 43.166821
S /home/xilinx/Bitstreams/GaussianBlur-GaussianBlur_pblock_medianblur_0_partial.bit 43.276981
L GaussianBlur 0 43.610515
F 0 44.751345
DQ 4 14
CrS GaussianBlur  medianblur_0 44.751389
CrL M 4 14 0 44.751413
S /home/xilinx/Bitstreams/MedianBlur-GaussianBlur_pblock_medianblur_0_partial.bit 44.867040
L MedianBlur 0 45.210671
F 0 47.110976
DQ 4 15
CrL M 4 15 0 47.111013
L MedianBlur 0 47.139824
F 0 48.406668
DQ 4 20
CrL M 4 20 0 48.406697
L MedianBlur 0 48.439824
F 0 50.340290
DQ 4 24
CrS GaussianBlur  medianblur_0 50.340410
CrL G 4 24 0 50.340436
S /home/xilinx/Bitstreams/GaussianBlur-GaussianBlur_pblock_medianblur_0_partial.bit 50.447057
L GaussianBlur 0 50.783690
F 0 51.924486
DQ 4 25
CrS GaussianBlur  medianblur_0 51.924522
CrL M 4 25 0 51.924546
S /home/xilinx/Bitstreams/MedianBlur-GaussianBlur_pblock_medianblur_0_partial.bit 52.037031
L MedianBlur 0 52.347773
F 0 54.248232
DQ 4 29
CrS GaussianBlur  medianblur_0 54.248276
CrL G 4 29 0 54.248301
S /home/xilinx/Bitstreams/GaussianBlur-GaussianBlur_pblock_medianblur_0_partial.bit 54.367024
L GaussianBlur 0 54.691123
F 0 55.831977
END 55.832010
