ARR 2 0 0.082989
CrS GaussianBlur  medianblur_0 0.083037
CrL M 2 0 0 0.083060
S /home/xilinx/Bitstreams/MedianBlur-GaussianBlur_pblock_medianblur_0_partial.bit 0.187244
L MedianBlur 0 0.542168
ARR 0 1 0.575436
EQ 0 1
ARR 4 2 0.620755
R 0 0.621099
EQ 2 0
EV 0 2 0 0.621416
CrS MedianBlur  medianblur_0 0.621434
CrL G 4 2 0 0.621452
S /home/xilinx/Bitstreams/GaussianBlur-GaussianBlur_pblock_medianblur_0_partial.bit 0.708727
L GaussianBlur 0 1.047157
ARR 2 3 1.070634
EQ 2 3
ARR 3 4 1.098922
EQ 3 4
ARR 1 5 1.110609
EQ 1 5
ARR 1 6 1.112020
EQ 1 6
ARR 4 7 1.114750
EQ 4 7
ARR 2 8 1.139458
EQ 2 8
ARR 0 9 1.143944
EQ 0 9
ARR 2 10 1.167963
EQ 2 10
ARR 2 11 1.179043
EQ 2 11
ARR 1 12 1.191378
EQ 1 12
ARR 3 13 1.213496
EQ 3 13
ARR 4 14 1.222050
EQ 4 14
ARR 4 15 1.225494
EQ 4 15
ARR 3 16 1.271224
EQ 3 16
ARR 0 17 1.288989
EQ 0 17
ARR 2 18 1.290615
EQ 2 18
ARR 1 19 1.364783
EQ 1 19
ARR 4 20 1.370099
EQ 4 20
ARR 0 21 1.394319
EQ 0 21
ARR 3 22 1.413679
EQ 3 22
ARR 0 23 1.445645
EQ 0 23
ARR 4 24 1.458236
EQ 4 24
ARR 4 25 1.470867
EQ 4 25
ARR 2 26 1.481881
EQ 2 26
ARR 3 27 1.495186
EQ 3 27
ARR 3 28 1.496996
EQ 3 28
ARR 4 29 1.513206
EQ 4 29
F 0 2.188047
DQ 0 1
CrS GaussianBlur  medianblur_0 2.188090
CrL M 0 1 0 2.188111
S /home/xilinx/Bitstreams/MedianBlur-GaussianBlur_pblock_medianblur_0_partial.bit 2.297127
L MedianBlur 0 2.651049
F 0 4.551357
DQ 0 9
CrL M 0 9 0 4.551393
L MedianBlur 0 4.609856
F 0 6.510667
DQ 0 17
CrL M 0 17 0 6.510705
L MedianBlur 0 6.539850
F 0 8.440106
DQ 0 21
CrL M 0 21 0 8.440145
L MedianBlur 0 8.479843
F 0 9.746670
DQ 0 23
CrL M 0 23 0 9.746697
L MedianBlur 0 9.759841
F 0 11.026828
DQ 1 5
CrL M 1 5 0 11.026871
L MedianBlur 0 11.049842
F 0 11.683311
DQ 1 6
CrS GaussianBlur  medianblur_0 11.683347
CrL G 1 6 0 11.683369
S /home/xilinx/Bitstreams/GaussianBlur-GaussianBlur_pblock_medianblur_0_partial.bit 11.777226
L GaussianBlur 0 12.125350
F 0 13.266155
DQ 1 12
CrS GaussianBlur  medianblur_0 13.266200
CrL M 1 12 0 13.266224
S /home/xilinx/Bitstreams/MedianBlur-GaussianBlur_pblock_medianblur_0_partial.bit 13.367104
L MedianBlur 0 13.698039
F 0 14.965046
DQ 1 19
CrL M 1 19 0 14.965091
L MedianBlur 0 14.989857
F 0 16.890268
DQ 2 0
CrL M 2 0 0 16.890311
L MedianBlur 0 16.899892
F 0 17.454602
DQ 2 3
CrS GaussianBlur  medianblur_0 17.454639
CrL G 2 3 0 17.454661
S /home/xilinx/Bitstreams/GaussianBlur-GaussianBlur_pblock_medianblur_0_partial.bit 17.547253
L GaussianBlur 0 17.901787
F 0 19.042600
DQ 2 8
CrL G 2 8 0 19.042642
L GaussianBlur 0 19.099840
F 0 20.240648
DQ 2 10
CrS GaussianBlur  medianblur_0 20.240696
CrL M 2 10 0 20.240759
S /home/xilinx/Bitstreams/MedianBlur-GaussianBlur_pblock_medianblur_0_partial.bit 20.347290
L MedianBlur 0 20.701013
F 0 21.334544
DQ 2 11
CrL M 2 11 0 21.334581
L MedianBlur 0 21.339857
F 0 23.240386
DQ 2 18
CrL M 2 18 0 23.240432
L MedianBlur 0 23.289848
F 0 25.190105
DQ 2 26
CrS GaussianBlur  medianblur_0 25.190155
CrL G 2 26 0 25.190179
S /home/xilinx/Bitstreams/GaussianBlur-GaussianBlur_pblock_medianblur_0_partial.bit 25.287253
L GaussianBlur 0 25.609365
F 0 26.750195
DQ 3 4
CrS GaussianBlur  medianblur_0 26.750245
CrL M 3 4 0 26.750269
S /home/xilinx/Bitstreams/MedianBlur-GaussianBlur_pblock_medianblur_0_partial.bit 26.847244
L MedianBlur 0 27.187351
F 0 27.820986
DQ 3 13
CrL M 3 13 0 27.821026
L MedianBlur 0 27.859840
F 0 29.760013
DQ 3 16
CrL M 3 16 0 29.760054
L MedianBlur 0 29.779850
F 0 30.413537
DQ 3 22
CrL M 3 22 0 30.413580
L MedianBlur 0 30.429849
F 0 31.696773
DQ 3 27
CrL M 3 27 0 31.696812
L MedianBlur 0 31.739844
F 0 33.006800
DQ 3 28
CrL M 3 28 0 33.006841
L MedianBlur 0 33.009855
F 0 34.276767
DQ 4 7
CrS GaussianBlur  medianblur_0 34.276816
CrL G 4 7 0 34.276842
S /home/xilinx/Bitstreams/GaussianBlur-GaussianBlur_pblock_medianblur_0_partial.bit 34.394331
L GaussianBlur 0 34.739901
F 0 35.880713
DQ 4 14
CrS GaussianBlur  medianblur_0 35.880761
CrL M 4 14 0 35.880785
S /home/xilinx/Bitstreams/MedianBlur-GaussianBlur_pblock_medianblur_0_partial.bit 35.994464
L MedianBlur 0 36.327811
F 0 38.228154
DQ 4 15
CrL M 4 15 0 38.228200
L MedianBlur 0 38.279844
F 0 39.546640
DQ 4 20
CrL M 4 20 0 39.546673
L MedianBlur 0 39.599872
F 0 41.500238
DQ 4 24
CrS GaussianBlur  medianblur_0 41.500289
CrL G 4 24 0 41.500314
S /home/xilinx/Bitstreams/GaussianBlur-GaussianBlur_pblock_medianblur_0_partial.bit 41.597317
L GaussianBlur 0 41.936184
F 0 43.077021
DQ 4 25
CrS GaussianBlur  medianblur_0 43.077069
CrL M 4 25 0 43.077093
S /home/xilinx/Bitstreams/MedianBlur-GaussianBlur_pblock_medianblur_0_partial.bit 43.177224
L MedianBlur 0 43.522899
F 0 45.423365
DQ 4 29
CrS GaussianBlur  medianblur_0 45.423416
CrL G 4 29 0 45.423441
S /home/xilinx/Bitstreams/GaussianBlur-GaussianBlur_pblock_medianblur_0_partial.bit 45.527223
L GaussianBlur 0 45.880277
F 0 47.021091
END 47.021122
