ARR 2 0 6.059931
CrS GaussianBlur GaussianBlur medianblur_0 6.059975
CrL M 2 0 0 6.060061
S /home/xilinx/Bitstreams-axi_firewall/MedianBlur-GaussianBlur_pblock_medianblur_0_partial.bit 6.060667
L MedianBlur 0 6.401094
F 0 6.475912
ARR 0 1 8.467273
CrL M 0 1 0 8.467352
L MedianBlur 0 8.499803
F 0 8.723984
ARR 4 2 11.527902
CrS GaussianBlur GaussianBlur medianblur_0 11.527941
CrL G 4 2 0 11.528015
S /home/xilinx/Bitstreams-axi_firewall/GaussianBlur-GaussianBlur_pblock_medianblur_0_partial.bit 11.540536
L GaussianBlur 0 11.862137
ARR 2 3 11.946935
CrL G 2 3 1 11.947005
F 0 11.992741
L GaussianBlur 1 11.999818
F 1 12.130397
ARR 3 4 13.969896
CrS GaussianBlur GaussianBlur medianblur_0 13.969937
CrL M 3 4 0 13.970012
S /home/xilinx/Bitstreams-axi_firewall/MedianBlur-GaussianBlur_pblock_medianblur_0_partial.bit 13.980714
L MedianBlur 0 14.289364
F 0 14.364205
ARR 1 5 14.379202
CrL M 1 5 0 14.379268
ARR 1 6 14.386576
CrL G 1 6 1 14.386633
L MedianBlur 0 14.399806
ARR 4 7 14.404560
EQ 4 7
L GaussianBlur 1 14.409826
F 0 14.474843
DQ 4 7
CrS GaussianBlur MedianBlur medianblur_0 14.474871
CrL G 4 7 0 14.474930
S /home/xilinx/Bitstreams-axi_firewall/GaussianBlur-GaussianBlur_pblock_medianblur_0_partial.bit 14.480391
L GaussianBlur 0 14.782754
F 1 14.782848
F 0 14.913352
ARR 2 8 15.808101
CrL G 2 8 0 15.808171
L GaussianBlur 0 15.819807
ARR 0 9 15.839930
CrS MedianBlur GaussianBlur gaussianblur_0 15.839955
CrL M 0 9 1 15.840021
S /home/xilinx/Bitstreams-axi_firewall/GaussianBlur-MedianBlur_pblock_gaussianblur_0_partial.bit 15.840777
L MedianBlur 1 16.150115
F 0 16.159934
F 1 16.374311
ARR 2 10 17.249116
CrS GaussianBlur GaussianBlur medianblur_0 17.249155
CrL M 2 10 0 17.249238
S /home/xilinx/Bitstreams-axi_firewall/MedianBlur-MedianBlur_pblock_medianblur_0_partial.bit 17.279824
L MedianBlur 0 17.586185
F 0 17.661021
ARR 2 11 17.670979
CrL M 2 11 0 17.671046
L MedianBlur 0 17.699804
ARR 1 12 17.765858
CrL M 1 12 1 17.765913
L MedianBlur 1 17.809811
F 0 17.924529
F 1 17.959881
ARR 3 13 18.839893
CrL M 3 13 0 18.839971
L MedianBlur 0 18.899804
ARR 4 14 18.904275
CrL M 4 14 1 18.904334
ARR 4 15 18.927891
EQ 4 15
L MedianBlur 1 18.929815
F 0 19.126845
DQ 4 15
CrL M 4 15 0 19.126904
F 1 19.156902
L MedianBlur 0 19.179805
F 0 19.329320
ARR 3 16 21.993043
CrL M 3 16 0 21.993123
L MedianBlur 0 22.019808
F 0 22.094631
ARR 0 17 23.032386
CrL M 0 17 0 23.032468
L MedianBlur 0 23.039825
ARR 2 18 23.041541
CrL M 2 18 1 23.041599
L MedianBlur 1 23.089803
F 0 23.264691
F 1 23.314606
ARR 1 19 28.135857
CrL M 1 19 0 28.135939
L MedianBlur 0 28.169807
ARR 4 20 28.174483
CrL M 4 20 1 28.174541
L MedianBlur 1 28.199805
F 0 28.396890
F 1 28.427014
ARR 0 21 29.265484
CrL M 0 21 0 29.265564
L MedianBlur 0 29.299806
F 0 29.449315
ARR 3 22 30.317467
CrL M 3 22 0 30.317528
L MedianBlur 0 30.339804
F 0 30.489311
ARR 0 23 32.369892
CrL M 0 23 0 32.369972
L MedianBlur 0 32.409814
ARR 4 24 32.466818
CrS MedianBlur GaussianBlur gaussianblur_0 32.466844
CrL G 4 24 1 32.466907
S /home/xilinx/Bitstreams-axi_firewall/MedianBlur-GaussianBlur_pblock_gaussianblur_0_partial.bit 32.470409
L GaussianBlur 1 32.792228
F 0 32.799944
ARR 4 25 32.897684
CrL M 4 25 0 32.897754
F 1 32.922834
L MedianBlur 0 32.939806
ARR 2 26 32.982113
CrL G 2 26 1 32.982170
L GaussianBlur 1 33.029802
F 1 33.160717
F 0 33.164521
ARR 3 27 33.985786
CrL M 3 27 0 33.985843
ARR 3 28 33.996368
CrS MedianBlur GaussianBlur gaussianblur_0 33.996395
CrL M 3 28 1 33.996451
S /home/xilinx/Bitstreams-axi_firewall/MedianBlur-MedianBlur_pblock_gaussianblur_0_partial.bit 34.000358
L MedianBlur 0 34.009948
L MedianBlur 1 34.320247
F 0 34.329929
F 1 34.469799
ARR 4 29 35.357220
CrS GaussianBlur GaussianBlur medianblur_0 35.357259
CrL G 4 29 0 35.357332
S /home/xilinx/Bitstreams-axi_firewall/GaussianBlur-MedianBlur_pblock_medianblur_0_partial.bit 35.380383
L GaussianBlur 0 35.694967
F 0 35.825546
END 35.825568
