ARR 2 0 6.059917
CrS GaussianBlur  medianblur_0 6.059975
CrL M 2 0 0 6.060062
S /home/xilinx/Bitstreams-axi_firewall/MedianBlur-GaussianBlur_pblock_medianblur_0_partial.bit 6.090458
L MedianBlur 0 6.402894
F 0 6.477715
ARR 0 1 8.469074
CrL M 0 1 0 8.469162
L MedianBlur 0 8.479841
F 0 8.704042
ARR 4 2 11.529744
CrS GaussianBlur  medianblur_0 11.529820
CrL G 4 2 0 11.529907
S /home/xilinx/Bitstreams-axi_firewall/GaussianBlur-GaussianBlur_pblock_medianblur_0_partial.bit 11.530449
L GaussianBlur 0 11.850101
ARR 2 3 11.934903
EQ 2 3
F 0 11.980708
DQ 2 3
CrL G 2 3 0 11.980783
L GaussianBlur 0 12.019795
F 0 12.150381
ARR 3 4 13.958357
CrS GaussianBlur  medianblur_0 13.958402
CrL M 3 4 0 13.958477
S /home/xilinx/Bitstreams-axi_firewall/MedianBlur-GaussianBlur_pblock_medianblur_0_partial.bit 13.980381
L MedianBlur 0 14.279385
F 0 14.354221
ARR 1 5 14.369193
CrL M 1 5 0 14.369263
ARR 1 6 14.376572
EQ 1 6
L MedianBlur 0 14.389801
ARR 4 7 14.394502
R 0 14.394835
EQ 1 5
EV 5 7 0 14.395031
CrS MedianBlur  medianblur_0 14.395050
CrL G 4 7 0 14.395086
S /home/xilinx/Bitstreams-axi_firewall/GaussianBlur-GaussianBlur_pblock_medianblur_0_partial.bit 14.395572
L GaussianBlur 0 14.707109
F 0 14.837702
DQ 1 6
CrL G 1 6 0 14.837784
L GaussianBlur 0 14.859795
F 0 14.990383
DQ 1 5
CrS GaussianBlur  medianblur_0 14.990417
CrL M 1 5 0 14.990478
S /home/xilinx/Bitstreams-axi_firewall/MedianBlur-GaussianBlur_pblock_medianblur_0_partial.bit 15.020338
L MedianBlur 0 15.342932
F 0 15.417755
ARR 2 8 16.161486
CrS GaussianBlur  medianblur_0 16.161527
CrL G 2 8 0 16.161595
S /home/xilinx/Bitstreams-axi_firewall/GaussianBlur-GaussianBlur_pblock_medianblur_0_partial.bit 16.190353
L GaussianBlur 0 16.496057
ARR 0 9 16.531448
EQ 0 9
F 0 16.626699
DQ 0 9
CrS GaussianBlur  medianblur_0 16.626748
CrL M 0 9 0 16.626822
S /home/xilinx/Bitstreams-axi_firewall/MedianBlur-GaussianBlur_pblock_medianblur_0_partial.bit 16.650402
L MedianBlur 0 16.970584
F 0 17.194747
ARR 2 10 17.964541
CrL M 2 10 0 17.964614
L MedianBlur 0 17.999796
ARR 2 11 18.049386
EQ 2 11
F 0 18.074604
DQ 2 11
CrL M 2 11 0 18.074671
L MedianBlur 0 18.119792
ARR 1 12 18.144390
EQ 1 12
F 0 18.344056
DQ 1 12
CrL M 1 12 0 18.344121
L MedianBlur 0 18.399792
F 0 18.549308
ARR 3 13 19.218471
CrL M 3 13 0 19.218554
L MedianBlur 0 19.239809
ARR 4 14 19.282854
R 0 19.283193
EQ 3 13
EV 13 14 0 19.283381
CrL M 4 14 0 19.283411
ARR 4 15 19.306969
EQ 4 15
L MedianBlur 0 19.309818
F 0 19.533993
DQ 3 13
CrL M 3 13 0 19.534060
L MedianBlur 0 19.549799
F 0 19.730758
DQ 4 15
CrL M 4 15 0 19.730823
L MedianBlur 0 19.789793
F 0 19.939320
ARR 3 16 22.369887
CrL M 3 16 0 22.369974
L MedianBlur 0 22.399798
F 0 22.474606
ARR 0 17 23.409231
CrL M 0 17 0 23.409321
ARR 2 18 23.418396
R 0 23.418731
EQ 0 17
EV 17 18 0 23.418921
CrL M 2 18 0 23.418951
L MedianBlur 0 23.439860
F 0 23.664035
DQ 0 17
CrL M 0 17 0 23.664103
L MedianBlur 0 23.679799
F 0 23.904046
ARR 1 19 28.509887
CrL M 1 19 0 28.509979
L MedianBlur 0 28.539845
ARR 4 20 28.548526
R 0 28.548863
EQ 1 19
EV 19 20 0 28.549052
CrL M 4 20 0 28.549082
L MedianBlur 0 28.579826
F 0 28.804166
DQ 1 19
CrL M 1 19 0 28.804251
L MedianBlur 0 28.819803
F 0 29.035161
ARR 0 21 29.639876
CrL M 0 21 0 29.639944
L MedianBlur 0 29.699793
F 0 29.849311
ARR 3 22 30.691824
CrL M 3 22 0 30.691911
L MedianBlur 0 30.729796
F 0 30.879324
ARR 0 23 32.745738
CrL M 0 23 0 32.745832
L MedianBlur 0 32.769799
ARR 4 24 32.842684
R 0 32.843034
EQ 0 23
EV 23 24 0 32.843221
CrS MedianBlur  medianblur_0 32.843242
CrL G 4 24 0 32.843279
S /home/xilinx/Bitstreams-axi_firewall/GaussianBlur-GaussianBlur_pblock_medianblur_0_partial.bit 32.850401
L GaussianBlur 0 33.182489
ARR 4 25 33.279588
EQ 4 25
F 0 33.313092
DQ 0 23
CrS GaussianBlur  medianblur_0 33.313131
CrL M 0 23 0 33.313195
S /home/xilinx/Bitstreams-axi_firewall/MedianBlur-GaussianBlur_pblock_medianblur_0_partial.bit 33.340342
L MedianBlur 0 33.651203
ARR 2 26 33.701992
R 0 33.702261
EQ 0 23
EV 23 26 0 33.702453
CrS MedianBlur  medianblur_0 33.702473
CrL G 2 26 0 33.702512
S /home/xilinx/Bitstreams-axi_firewall/GaussianBlur-GaussianBlur_pblock_medianblur_0_partial.bit 33.730328
L GaussianBlur 0 34.053739
F 0 34.184326
DQ 0 23
CrS GaussianBlur  medianblur_0 34.184364
CrL M 0 23 0 34.184432
S /home/xilinx/Bitstreams-axi_firewall/MedianBlur-GaussianBlur_pblock_medianblur_0_partial.bit 34.210323
L MedianBlur 0 34.512781
F 0 34.662347
DQ 4 25
CrL M 4 25 0 34.662436
L MedianBlur 0 34.719803
F 0 34.944047
ARR 3 27 35.391650
CrL M 3 27 0 35.391719
ARR 3 28 35.402221
EQ 3 28
L MedianBlur 0 35.439833
F 0 35.589326
DQ 3 28
CrL M 3 28 0 35.589392
L MedianBlur 0 35.599838
F 0 35.749342
ARR 4 29 36.428966
CrS GaussianBlur  medianblur_0 36.428997
CrL G 4 29 0 36.429058
S /home/xilinx/Bitstreams-axi_firewall/GaussianBlur-GaussianBlur_pblock_medianblur_0_partial.bit 36.440474
L GaussianBlur 0 36.755562
F 0 36.886143
END 36.886164
