ARR 2 0 6.059992
CrS GaussianBlur  medianblur_0 6.060047
CrL M 2 0 0 6.060159
S /home/xilinx/Bitstreams-axi_firewall/MedianBlur-GaussianBlur_pblock_medianblur_0_partial.bit 6.100528
L MedianBlur 0 6.413198
F 0 6.488010
ARR 0 1 8.486059
CrL M 0 1 0 8.486140
L MedianBlur 0 8.519884
F 0 8.744018
ARR 4 2 11.546669
CrS GaussianBlur  medianblur_0 11.546711
CrL G 4 2 0 11.546786
S /home/xilinx/Bitstreams-axi_firewall/GaussianBlur-GaussianBlur_pblock_medianblur_0_partial.bit 11.560524
L GaussianBlur 0 11.892926
ARR 2 3 11.984679
EQ 2 3
F 0 12.023543
DQ 2 3
CrL G 2 3 0 12.023611
L GaussianBlur 0 12.049858
F 0 12.180461
ARR 3 4 14.008174
CrS GaussianBlur  medianblur_0 14.008210
CrL M 3 4 0 14.008280
S /home/xilinx/Bitstreams-axi_firewall/MedianBlur-GaussianBlur_pblock_medianblur_0_partial.bit 14.020547
L MedianBlur 0 14.333096
F 0 14.407943
ARR 1 5 14.422494
CrL M 1 5 0 14.422559
ARR 1 6 14.429853
EQ 1 6
ARR 4 7 14.447788
EQ 4 7
L MedianBlur 0 14.459854
F 0 14.534657
DQ 1 6
CrS GaussianBlur  medianblur_0 14.534684
CrL G 1 6 0 14.534742
S /home/xilinx/Bitstreams-axi_firewall/GaussianBlur-GaussianBlur_pblock_medianblur_0_partial.bit 14.537346
L GaussianBlur 0 14.861079
F 0 14.991665
DQ 4 7
CrL G 4 7 0 14.991737
L GaussianBlur 0 15.019921
F 0 15.150514
ARR 2 8 15.869193
CrL G 2 8 0 15.869255
ARR 0 9 15.900977
EQ 0 9
L GaussianBlur 0 15.909861
F 0 16.040469
DQ 0 9
CrS GaussianBlur  medianblur_0 16.040507
CrL M 0 9 0 16.040574
S /home/xilinx/Bitstreams-axi_firewall/MedianBlur-GaussianBlur_pblock_medianblur_0_partial.bit 16.070436
L MedianBlur 0 16.392798
F 0 16.616976
ARR 2 10 17.342461
CrL M 2 10 0 17.342538
L MedianBlur 0 17.389854
ARR 2 11 17.427312
EQ 2 11
F 0 17.464695
DQ 2 11
CrL M 2 11 0 17.464754
L MedianBlur 0 17.509849
ARR 1 12 17.522300
EQ 1 12
F 0 17.734129
DQ 1 12
CrL M 1 12 0 17.734186
L MedianBlur 0 17.789850
F 0 17.939363
ARR 3 13 18.596323
CrL M 3 13 0 18.596403
L MedianBlur 0 18.629852
ARR 4 14 18.660704
EQ 4 14
ARR 4 15 18.684269
EQ 4 15
F 0 18.854067
DQ 4 14
CrL M 4 14 0 18.854128
L MedianBlur 0 18.869859
F 0 19.094037
DQ 4 15
CrL M 4 15 0 19.094095
L MedianBlur 0 19.109852
F 0 19.259368
ARR 3 16 21.749323
CrL M 3 16 0 21.749401
L MedianBlur 0 21.749861
F 0 21.824683
ARR 0 17 22.788692
CrL M 0 17 0 22.788770
L MedianBlur 0 22.789199
ARR 2 18 22.797842
EQ 2 18
F 0 23.013433
DQ 2 18
CrL M 2 18 0 23.013493
L MedianBlur 0 23.029858
F 0 23.253987
ARR 1 19 27.889946
CrL M 1 19 0 27.890028
L MedianBlur 0 27.890462
ARR 4 20 27.928572
EQ 4 20
F 0 28.114703
DQ 4 20
CrL M 4 20 0 28.114784
L MedianBlur 0 28.159856
F 0 28.384154
ARR 0 21 29.019409
CrL M 0 21 0 29.019468
L MedianBlur 0 29.039855
F 0 29.189335
ARR 3 22 30.071389
CrL M 3 22 0 30.071470
L MedianBlur 0 30.089859
F 0 30.239372
ARR 0 23 32.125317
CrL M 0 23 0 32.125398
L MedianBlur 0 32.169851
ARR 4 24 32.222243
EQ 4 24
F 0 32.319367
ARR 4 25 32.319386
CrL M 4 25 0 32.319435
DQ 4 24
EQ 4 24
L MedianBlur 0 32.369850
ARR 2 26 32.404000
EQ 2 26
F 0 32.594065
DQ 2 26
CrS GaussianBlur  medianblur_0 32.594095
CrL G 2 26 0 32.594153
S /home/xilinx/Bitstreams-axi_firewall/GaussianBlur-GaussianBlur_pblock_medianblur_0_partial.bit 32.610465
L GaussianBlur 0 32.912668
F 0 33.043269
DQ 4 24
CrL G 4 24 0 33.043347
L GaussianBlur 0 33.059856
F 0 33.190442
ARR 3 27 33.733304
CrS GaussianBlur  medianblur_0 33.733332
CrL M 3 27 0 33.733393
S /home/xilinx/Bitstreams-axi_firewall/MedianBlur-GaussianBlur_pblock_medianblur_0_partial.bit 33.740480
L MedianBlur 0 34.037265
ARR 3 28 34.047697
EQ 3 28
F 0 34.186835
DQ 3 28
CrL M 3 28 0 34.186916
L MedianBlur 0 34.199856
F 0 34.349381
ARR 4 29 35.074590
CrS GaussianBlur  medianblur_0 35.074620
CrL G 4 29 0 35.074684
S /home/xilinx/Bitstreams-axi_firewall/GaussianBlur-GaussianBlur_pblock_medianblur_0_partial.bit 35.100414
L GaussianBlur 0 35.406573
F 0 35.537169
END 35.537193
