ARR 2 0 6.059893
CrS GaussianBlur  medianblur_0 6.059941
CrL M 2 0 0 6.060023
S /home/xilinx/Bitstreams-axi_firewall/MedianBlur-GaussianBlur_pblock_medianblur_0_partial.bit 6.080475
L MedianBlur 0 6.393655
F 0 6.468463
ARR 0 1 8.465999
CrL M 0 1 0 8.466089
L MedianBlur 0 8.519836
F 0 8.743968
ARR 4 2 11.526610
CrS GaussianBlur  medianblur_0 11.526654
CrL G 4 2 0 11.526729
S /home/xilinx/Bitstreams-axi_firewall/GaussianBlur-GaussianBlur_pblock_medianblur_0_partial.bit 11.530338
L GaussianBlur 0 11.861748
ARR 2 3 11.946546
EQ 2 3
F 0 11.992357
DQ 2 3
CrL G 2 3 0 11.992431
L GaussianBlur 0 12.019780
F 0 12.150369
ARR 3 4 13.969871
CrS GaussianBlur  medianblur_0 13.969915
CrL M 3 4 0 13.969989
S /home/xilinx/Bitstreams-axi_firewall/MedianBlur-GaussianBlur_pblock_medianblur_0_partial.bit 13.990155
L MedianBlur 0 14.269094
F 0 14.343937
ARR 1 5 14.359185
CrL M 1 5 0 14.359256
ARR 1 6 14.366568
EQ 1 6
L MedianBlur 0 14.379785
ARR 4 7 14.384501
R 0 14.384843
EQ 1 5
EV 5 7 0 14.385040
CrS MedianBlur  medianblur_0 14.385060
CrL G 4 7 0 14.385098
S /home/xilinx/Bitstreams-axi_firewall/GaussianBlur-GaussianBlur_pblock_medianblur_0_partial.bit 14.385576
L GaussianBlur 0 14.732268
F 0 14.862859
DQ 1 6
CrL G 1 6 0 14.862939
L GaussianBlur 0 14.899779
F 0 15.030363
DQ 1 5
CrS GaussianBlur  medianblur_0 15.030397
CrL M 1 5 0 15.030460
S /home/xilinx/Bitstreams-axi_firewall/MedianBlur-GaussianBlur_pblock_medianblur_0_partial.bit 15.050366
L MedianBlur 0 15.381726
F 0 15.456554
ARR 2 8 16.186677
CrS GaussianBlur  medianblur_0 16.186722
CrL G 2 8 0 16.186797
S /home/xilinx/Bitstreams-axi_firewall/GaussianBlur-GaussianBlur_pblock_medianblur_0_partial.bit 16.210358
L GaussianBlur 0 16.509371
ARR 0 9 16.541435
EQ 0 9
F 0 16.639970
DQ 0 9
CrS GaussianBlur  medianblur_0 16.640010
CrL M 0 9 0 16.640075
S /home/xilinx/Bitstreams-axi_firewall/MedianBlur-GaussianBlur_pblock_medianblur_0_partial.bit 16.660326
L MedianBlur 0 16.992428
F 0 17.216609
ARR 2 10 17.989879
CrL M 2 10 0 17.989966
L MedianBlur 0 18.019782
ARR 2 11 18.074737
EQ 2 11
F 0 18.094601
DQ 2 11
CrL M 2 11 0 18.094666
L MedianBlur 0 18.099790
ARR 1 12 18.169763
EQ 1 12
F 0 18.324060
DQ 1 12
CrL M 1 12 0 18.324123
L MedianBlur 0 18.339781
F 0 18.489284
ARR 3 13 19.243911
CrL M 3 13 0 19.243975
L MedianBlur 0 19.259782
ARR 4 14 19.308263
R 0 19.308588
EQ 3 13
EV 13 14 0 19.308774
CrL M 4 14 0 19.308804
ARR 4 15 19.332359
EQ 4 15
L MedianBlur 0 19.339824
F 0 19.564114
DQ 3 13
CrL M 3 13 0 19.564202
L MedianBlur 0 19.569827
F 0 19.745387
DQ 4 15
CrL M 4 15 0 19.745455
L MedianBlur 0 19.769791
F 0 19.919323
ARR 3 16 22.397456
CrL M 3 16 0 22.397540
L MedianBlur 0 22.409785
F 0 22.484606
ARR 0 17 23.436806
CrL M 0 17 0 23.436888
ARR 2 18 23.445956
R 0 23.446288
EQ 0 17
EV 17 18 0 23.446478
CrL M 2 18 0 23.446509
L MedianBlur 0 23.489866
F 0 23.714073
DQ 0 17
CrL M 0 17 0 23.714157
L MedianBlur 0 23.714262
F 0 23.938514
ARR 1 19 28.539875
CrL M 1 19 0 28.539970
L MedianBlur 0 28.569825
ARR 4 20 28.578516
R 0 28.578851
EQ 1 19
EV 19 20 0 28.579037
CrL M 4 20 0 28.579068
L MedianBlur 0 28.609789
F 0 28.834081
DQ 1 19
CrL M 1 19 0 28.834148
L MedianBlur 0 28.849780
F 0 29.065151
ARR 0 21 29.669864
CrL M 0 21 0 29.669948
L MedianBlur 0 29.689784
F 0 29.839306
ARR 3 22 30.721879
CrL M 3 22 0 30.721963
L MedianBlur 0 30.769790
F 0 30.919327
ARR 0 23 32.775775
CrL M 0 23 0 32.775863
L MedianBlur 0 32.809781
ARR 4 24 32.872710
R 0 32.873069
EQ 0 23
EV 23 24 0 32.873259
CrS MedianBlur  medianblur_0 32.873279
CrL G 4 24 0 32.873316
S /home/xilinx/Bitstreams-axi_firewall/GaussianBlur-GaussianBlur_pblock_medianblur_0_partial.bit 32.890344
L GaussianBlur 0 33.188701
ARR 4 25 33.286933
EQ 4 25
F 0 33.319322
DQ 0 23
CrS GaussianBlur  medianblur_0 33.319363
CrL M 0 23 0 33.319428
S /home/xilinx/Bitstreams-axi_firewall/MedianBlur-GaussianBlur_pblock_medianblur_0_partial.bit 33.330376
L MedianBlur 0 33.646860
ARR 2 26 33.698779
R 0 33.699063
EQ 0 23
EV 23 26 0 33.699257
CrS MedianBlur  medianblur_0 33.699278
CrL G 2 26 0 33.699316
S /home/xilinx/Bitstreams-axi_firewall/GaussianBlur-GaussianBlur_pblock_medianblur_0_partial.bit 33.720325
L GaussianBlur 0 34.042538
F 0 34.173126
DQ 0 23
CrS GaussianBlur  medianblur_0 34.173163
CrL M 0 23 0 34.173232
S /home/xilinx/Bitstreams-axi_firewall/MedianBlur-GaussianBlur_pblock_medianblur_0_partial.bit 34.200308
L MedianBlur 0 34.496265
F 0 34.645802
DQ 4 25
CrL M 4 25 0 34.645883
L MedianBlur 0 34.669792
F 0 34.894027
ARR 3 27 35.372613
CrL M 3 27 0 35.372679
ARR 3 28 35.383180
EQ 3 28
L MedianBlur 0 35.399783
F 0 35.549321
DQ 3 28
CrL M 3 28 0 35.549403
L MedianBlur 0 35.560909
F 0 35.710445
ARR 4 29 36.409863
CrS GaussianBlur  medianblur_0 36.409901
CrL G 4 29 0 36.409967
S /home/xilinx/Bitstreams-axi_firewall/GaussianBlur-GaussianBlur_pblock_medianblur_0_partial.bit 36.440350
L GaussianBlur 0 36.762346
F 0 36.892921
END 36.892942
