ARR 2 0 0.082828
CrS GaussianBlur  medianblur_0 0.082876
CrL M 2 0 0 0.082964
S /home/xilinx/Bitstreams-axi_firewall/MedianBlur-GaussianBlur_pblock_medianblur_0_partial.bit 0.083611
L MedianBlur 0 0.411706
ARR 0 1 0.452949
EQ 0 1
F 0 0.486534
DQ 0 1
CrL M 0 1 0 0.486607
ARR 4 2 0.498121
R 0 0.498421
EQ 0 1
EV 1 2 0 0.498735
CrS MedianBlur  medianblur_0 0.498753
CrL G 4 2 0 0.498799
S /home/xilinx/Bitstreams-axi_firewall/GaussianBlur-GaussianBlur_pblock_medianblur_0_partial.bit 0.550431
L GaussianBlur 0 0.870988
ARR 2 3 0.890512
EQ 2 3
ARR 3 4 0.918380
EQ 3 4
ARR 1 5 0.929763
EQ 1 5
ARR 1 6 0.930874
EQ 1 6
ARR 4 7 0.933311
EQ 4 7
ARR 2 8 0.957729
EQ 2 8
ARR 0 9 0.961883
EQ 0 9
ARR 2 10 0.985596
EQ 2 10
ARR 2 11 0.996372
EQ 2 11
F 0 1.001591
DQ 0 1
CrS GaussianBlur  medianblur_0 1.001620
CrL M 0 1 0 1.001676
S /home/xilinx/Bitstreams-axi_firewall/MedianBlur-GaussianBlur_pblock_medianblur_0_partial.bit 1.030314
L MedianBlur 0 1.350659
ARR 1 12 1.366714
R 0 1.366975
EQ 0 1
EV 1 12 0 1.367168
CrL M 1 12 0 1.367195
ARR 3 13 1.389019
R 0 1.389300
EQ 1 12
EV 12 13 0 1.389480
CrL M 3 13 0 1.389506
ARR 4 14 1.397740
R 0 1.398010
EQ 3 13
EV 13 14 0 1.398184
CrL M 4 14 0 1.398210
ARR 4 15 1.401378
EQ 4 15
L MedianBlur 0 1.439820
ARR 3 16 1.446826
EQ 3 16
ARR 0 17 1.464294
EQ 0 17
ARR 2 18 1.465626
EQ 2 18
ARR 1 19 1.539482
EQ 1 19
ARR 4 20 1.544492
EQ 4 20
ARR 0 21 1.568404
EQ 0 21
ARR 3 22 1.587448
EQ 3 22
ARR 0 23 1.619113
EQ 0 23
ARR 4 24 1.631399
EQ 4 24
ARR 4 25 1.643727
EQ 4 25
ARR 2 26 1.654438
EQ 2 26
F 0 1.664054
DQ 0 9
CrL M 0 9 0 1.664111
ARR 3 27 1.667678
R 0 1.667967
EQ 0 9
EV 9 27 0 1.668145
CrL M 3 27 0 1.668170
ARR 3 28 1.669677
EQ 3 28
L MedianBlur 0 1.679829
ARR 4 29 1.685636
R 0 1.685905
EQ 3 27
EV 27 29 0 1.686080
CrS MedianBlur  medianblur_0 1.686095
CrL G 4 29 0 1.686127
S /home/xilinx/Bitstreams-axi_firewall/GaussianBlur-GaussianBlur_pblock_medianblur_0_partial.bit 1.686606
L GaussianBlur 0 2.030062
F 0 2.160634
DQ 0 1
CrS GaussianBlur  medianblur_0 2.160666
CrL M 0 1 0 2.160730
S /home/xilinx/Bitstreams-axi_firewall/MedianBlur-GaussianBlur_pblock_medianblur_0_partial.bit 2.190345
L MedianBlur 0 2.488743
F 0 2.712901
DQ 0 17
CrL M 0 17 0 2.712983
L MedianBlur 0 2.739790
F 0 2.964015
DQ 0 21
CrL M 0 21 0 2.964084
L MedianBlur 0 2.979773
F 0 3.129278
DQ 0 23
CrL M 0 23 0 3.129341
L MedianBlur 0 3.139807
F 0 3.289363
DQ 0 9
CrL M 0 9 0 3.289447
L MedianBlur 0 3.299790
F 0 3.523919
DQ 1 5
CrL M 1 5 0 3.523985
L MedianBlur 0 3.539776
F 0 3.614589
DQ 1 6
CrS GaussianBlur  medianblur_0 3.614617
CrL G 1 6 0 3.614669
S /home/xilinx/Bitstreams-axi_firewall/GaussianBlur-GaussianBlur_pblock_medianblur_0_partial.bit 3.620384
L GaussianBlur 0 3.951995
F 0 4.082563
DQ 1 12
CrS GaussianBlur  medianblur_0 4.082594
CrL M 1 12 0 4.082657
S /home/xilinx/Bitstreams-axi_firewall/MedianBlur-GaussianBlur_pblock_medianblur_0_partial.bit 4.110345
L MedianBlur 0 4.422118
F 0 4.571637
DQ 1 19
CrL M 1 19 0 4.571711
L MedianBlur 0 4.579791
F 0 4.804014
DQ 2 3
CrS GaussianBlur  medianblur_0 4.804048
CrL G 2 3 0 4.804110
S /home/xilinx/Bitstreams-axi_firewall/GaussianBlur-GaussianBlur_pblock_medianblur_0_partial.bit 4.820332
L GaussianBlur 0 5.116534
F 0 5.247156
DQ 2 8
CrL G 2 8 0 5.247245
L GaussianBlur 0 5.269776
F 0 5.400346
DQ 2 10
CrS GaussianBlur  medianblur_0 5.400377
CrL M 2 10 0 5.400436
S /home/xilinx/Bitstreams-axi_firewall/MedianBlur-GaussianBlur_pblock_medianblur_0_partial.bit 5.430328
L MedianBlur 0 5.753268
F 0 5.828059
DQ 2 11
CrL M 2 11 0 5.828132
L MedianBlur 0 5.869802
F 0 6.094086
DQ 2 18
CrL M 2 18 0 6.094155
L MedianBlur 0 6.149782
F 0 6.373923
DQ 2 26
CrS GaussianBlur  medianblur_0 6.373954
CrL G 2 26 0 6.374012
S /home/xilinx/Bitstreams-axi_firewall/GaussianBlur-GaussianBlur_pblock_medianblur_0_partial.bit 6.390358
L GaussianBlur 0 6.678770
F 0 6.809337
DQ 3 4
CrS GaussianBlur  medianblur_0 6.809370
CrL M 3 4 0 6.809433
S /home/xilinx/Bitstreams-axi_firewall/MedianBlur-GaussianBlur_pblock_medianblur_0_partial.bit 6.830311
L MedianBlur 0 7.161675
F 0 7.236530
DQ 3 13
CrL M 3 13 0 7.236615
L MedianBlur 0 7.239816
F 0 7.463991
DQ 3 16
CrL M 3 16 0 7.464132
L MedianBlur 0 7.519769
F 0 7.594577
DQ 3 22
CrL M 3 22 0 7.594640
L MedianBlur 0 7.639768
F 0 7.789248
DQ 3 28
CrL M 3 28 0 7.789309
L MedianBlur 0 7.839769
F 0 7.989235
DQ 3 27
CrL M 3 27 0 7.989294
L MedianBlur 0 7.999779
F 0 8.143324
DQ 4 7
CrS GaussianBlur  medianblur_0 8.143356
CrL G 4 7 0 8.143409
S /home/xilinx/Bitstreams-axi_firewall/GaussianBlur-GaussianBlur_pblock_medianblur_0_partial.bit 8.150390
L GaussianBlur 0 8.481434
F 0 8.612004
DQ 4 15
CrS GaussianBlur  medianblur_0 8.612039
CrL M 4 15 0 8.612135
S /home/xilinx/Bitstreams-axi_firewall/MedianBlur-GaussianBlur_pblock_medianblur_0_partial.bit 8.640305
L MedianBlur 0 8.939358
F 0 9.088963
DQ 4 20
CrL M 4 20 0 9.089056
L MedianBlur 0 9.109785
F 0 9.334114
DQ 4 24
CrS GaussianBlur  medianblur_0 9.334160
CrL G 4 24 0 9.334232
S /home/xilinx/Bitstreams-axi_firewall/GaussianBlur-GaussianBlur_pblock_medianblur_0_partial.bit 9.360345
L GaussianBlur 0 9.671082
F 0 9.801653
DQ 4 25
CrS GaussianBlur  medianblur_0 9.801687
CrL M 4 25 0 9.801752
S /home/xilinx/Bitstreams-axi_firewall/MedianBlur-GaussianBlur_pblock_medianblur_0_partial.bit 9.830298
L MedianBlur 0 10.137520
F 0 10.361788
END 10.361813
