ARR 2 0 4.016128
CrS GaussianBlur  medianblur_0 4.016179
CrL M 2 0 0 4.016261
S /home/xilinx/Bitstreams-axi_firewall/MedianBlur-GaussianBlur_pblock_medianblur_0_partial.bit 4.030793
L MedianBlur 0 4.339455
F 0 4.414315
ARR 0 1 5.405690
CrL M 0 1 0 5.405769
L MedianBlur 0 5.409867
F 0 5.634025
ARR 4 2 7.429902
CrS GaussianBlur  medianblur_0 7.429935
CrL G 4 2 0 7.430007
S /home/xilinx/Bitstreams-axi_firewall/GaussianBlur-GaussianBlur_pblock_medianblur_0_partial.bit 7.450398
L GaussianBlur 0 7.750428
ARR 2 3 7.812852
EQ 2 3
F 0 7.881023
DQ 2 3
CrL G 2 3 0 7.881087
L GaussianBlur 0 7.909815
F 0 8.040392
ARR 3 4 8.852418
CrS GaussianBlur  medianblur_0 8.852454
CrL M 3 4 0 8.852526
S /home/xilinx/Bitstreams-axi_firewall/MedianBlur-GaussianBlur_pblock_medianblur_0_partial.bit 8.870385
L MedianBlur 0 9.185935
ARR 1 5 9.245671
EQ 1 5
ARR 1 6 9.250312
EQ 1 6
F 0 9.260783
DQ 1 5
CrL M 1 5 0 9.260840
ARR 4 7 9.261870
EQ 4 7
L MedianBlur 0 9.299805
F 0 9.374654
DQ 1 6
CrS GaussianBlur  medianblur_0 9.374689
CrL G 1 6 0 9.374754
S /home/xilinx/Bitstreams-axi_firewall/GaussianBlur-GaussianBlur_pblock_medianblur_0_partial.bit 9.390379
L GaussianBlur 0 9.685790
F 0 9.816382
DQ 4 7
CrL G 4 7 0 9.816452
L GaussianBlur 0 9.839812
F 0 9.970398
ARR 2 8 10.595309
CrL G 2 8 0 10.595388
L GaussianBlur 0 10.599824
ARR 0 9 10.615306
EQ 0 9
F 0 10.730409
DQ 0 9
CrS GaussianBlur  medianblur_0 10.730439
CrL M 0 9 0 10.730499
S /home/xilinx/Bitstreams-axi_firewall/MedianBlur-GaussianBlur_pblock_medianblur_0_partial.bit 10.760368
L MedianBlur 0 11.064915
F 0 11.289081
ARR 2 10 11.973315
CrL M 2 10 0 11.973387
L MedianBlur 0 12.019806
ARR 2 11 12.026456
EQ 2 11
ARR 1 12 12.085775
EQ 1 12
F 0 12.094640
DQ 1 12
CrL M 1 12 0 12.094698
L MedianBlur 0 12.139802
F 0 12.289301
DQ 2 11
CrL M 2 11 0 12.289357
L MedianBlur 0 12.299861
F 0 12.524169
ARR 3 13 13.095149
CrL M 3 13 0 13.095215
L MedianBlur 0 13.099823
ARR 4 14 13.135475
EQ 4 14
ARR 4 15 13.150286
EQ 4 15
F 0 13.324023
DQ 4 14
CrL M 4 14 0 13.324086
L MedianBlur 0 13.339839
F 0 13.564034
DQ 4 15
CrL M 4 15 0 13.564094
L MedianBlur 0 13.579809
F 0 13.729334
ARR 3 16 15.178657
CrL M 3 16 0 15.178734
L MedianBlur 0 15.179163
F 0 15.253977
ARR 0 17 15.265356
CrL M 0 17 0 15.265412
ARR 2 18 15.271155
EQ 2 18
L MedianBlur 0 15.309813
F 0 15.534049
DQ 2 18
CrL M 2 18 0 15.534108
L MedianBlur 0 15.589813
F 0 15.813994
ARR 1 19 18.339899
CrL M 1 19 0 18.339984
ARR 4 20 18.364165
EQ 4 20
L MedianBlur 0 18.389813
F 0 18.614040
DQ 4 20
CrL M 4 20 0 18.614117
L MedianBlur 0 18.659809
F 0 18.884090
ARR 0 21 19.383767
CrL M 0 21 0 19.383830
L MedianBlur 0 19.429805
ARR 3 22 19.478293
EQ 3 22
F 0 19.579317
DQ 3 22
CrL M 3 22 0 19.579376
L MedianBlur 0 19.589816
F 0 19.739332
ARR 0 23 20.536892
CrL M 0 23 0 20.536974
ARR 4 24 20.597576
EQ 4 24
L MedianBlur 0 20.599818
ARR 4 25 20.658380
EQ 4 25
ARR 2 26 20.711084
EQ 2 26
F 0 20.749337
DQ 2 26
CrS GaussianBlur  medianblur_0 20.749366
CrL G 2 26 0 20.749425
S /home/xilinx/Bitstreams-axi_firewall/GaussianBlur-GaussianBlur_pblock_medianblur_0_partial.bit 20.760452
L GaussianBlur 0 21.081012
ARR 3 27 21.115825
EQ 3 27
ARR 3 28 21.122489
EQ 3 28
ARR 4 29 21.201200
EQ 4 29
F 0 21.211607
DQ 3 27
CrS GaussianBlur  medianblur_0 21.211639
CrL M 3 27 0 21.211700
S /home/xilinx/Bitstreams-axi_firewall/MedianBlur-GaussianBlur_pblock_medianblur_0_partial.bit 21.240342
L MedianBlur 0 21.538747
F 0 21.688243
DQ 3 28
CrL M 3 28 0 21.688316
L MedianBlur 0 21.689893
F 0 21.839422
DQ 4 24
CrS GaussianBlur  medianblur_0 21.839452
CrL G 4 24 0 21.839514
S /home/xilinx/Bitstreams-axi_firewall/GaussianBlur-GaussianBlur_pblock_medianblur_0_partial.bit 21.850363
L GaussianBlur 0 22.148785
F 0 22.279362
DQ 4 25
CrS GaussianBlur  medianblur_0 22.279394
CrL M 4 25 0 22.279465
S /home/xilinx/Bitstreams-axi_firewall/MedianBlur-GaussianBlur_pblock_medianblur_0_partial.bit 22.300376
L MedianBlur 0 22.603113
F 0 22.827351
DQ 4 29
CrS GaussianBlur  medianblur_0 22.827383
CrL G 4 29 0 22.827454
S /home/xilinx/Bitstreams-axi_firewall/GaussianBlur-GaussianBlur_pblock_medianblur_0_partial.bit 22.840394
L GaussianBlur 0 23.172102
F 0 23.302747
END 23.302769
