ARR 2 0 6.059922
CrS GaussianBlur GaussianBlur medianblur_0 6.059972
CrL M 2 0 0 6.060055
S /home/xilinx/Bitstreams-axi_firewall/MedianBlur-GaussianBlur_pblock_medianblur_0_partial.bit 6.070629
L MedianBlur 0 6.382134
F 0 6.456964
ARR 0 1 8.448318
CrL M 0 1 0 8.448400
L MedianBlur 0 8.448843
F 0 8.672981
ARR 4 2 11.508952
CrS GaussianBlur GaussianBlur medianblur_0 11.508993
CrL G 4 2 0 11.509068
S /home/xilinx/Bitstreams-axi_firewall/GaussianBlur-GaussianBlur_pblock_medianblur_0_partial.bit 11.520536
L GaussianBlur 0 11.831759
ARR 2 3 11.916559
CrL G 2 3 1 11.916632
L GaussianBlur 1 11.939795
F 0 11.962392
F 1 12.070410
ARR 3 4 13.939904
CrS GaussianBlur GaussianBlur medianblur_0 13.939942
CrL M 3 4 0 13.940014
S /home/xilinx/Bitstreams-axi_firewall/MedianBlur-GaussianBlur_pblock_medianblur_0_partial.bit 13.960377
L MedianBlur 0 14.258759
F 0 14.333591
ARR 1 5 14.349200
CrL M 1 5 0 14.349263
ARR 1 6 14.356568
CrL G 1 6 1 14.356627
L GaussianBlur 1 14.359803
L MedianBlur 0 14.369796
ARR 4 7 14.374552
EQ 4 7
F 0 14.444885
DQ 4 7
CrS GaussianBlur MedianBlur medianblur_0 14.444915
CrL G 4 7 0 14.444973
S /home/xilinx/Bitstreams-axi_firewall/GaussianBlur-GaussianBlur_pblock_medianblur_0_partial.bit 14.450376
L GaussianBlur 0 14.739362
F 1 14.749794
F 0 14.869958
ARR 2 8 15.775028
CrL G 2 8 0 15.775109
ARR 0 9 15.806876
CrS MedianBlur GaussianBlur gaussianblur_0 15.806908
CrL M 0 9 1 15.806971
S /home/xilinx/Bitstreams-axi_firewall/GaussianBlur-MedianBlur_pblock_gaussianblur_0_partial.bit 15.810585
L GaussianBlur 0 15.829891
L MedianBlur 1 16.151629
F 0 16.159924
F 1 16.375814
ARR 2 10 17.249117
CrS GaussianBlur GaussianBlur medianblur_0 17.249148
CrL M 2 10 0 17.249215
S /home/xilinx/Bitstreams-axi_firewall/MedianBlur-MedianBlur_pblock_medianblur_0_partial.bit 17.261360
L MedianBlur 0 17.583133
F 0 17.657975
ARR 2 11 17.674598
CrL M 2 11 0 17.674662
L MedianBlur 0 17.699791
ARR 1 12 17.769484
CrL M 1 12 1 17.769557
L MedianBlur 1 17.799828
F 0 17.924610
F 1 17.949857
ARR 3 13 18.843862
CrL M 3 13 0 18.843924
L MedianBlur 0 18.869793
ARR 4 14 18.908215
CrL M 4 14 1 18.908270
L MedianBlur 1 18.929806
ARR 4 15 18.931824
EQ 4 15
F 0 19.096444
DQ 4 15
CrL M 4 15 0 19.096503
L MedianBlur 0 19.109796
F 1 19.156414
F 0 19.259494
ARR 3 16 21.997037
CrL M 3 16 0 21.997122
L MedianBlur 0 22.009800
F 0 22.084625
ARR 0 17 23.036395
CrL M 0 17 0 23.036468
ARR 2 18 23.045535
CrL M 2 18 1 23.045598
L MedianBlur 1 23.059796
L MedianBlur 0 23.069794
F 1 23.284723
F 0 23.294780
ARR 1 19 28.139889
CrL M 1 19 0 28.139972
ARR 4 20 28.178517
CrL M 4 20 1 28.178581
L MedianBlur 0 28.179796
L MedianBlur 1 28.199823
F 0 28.404755
F 1 28.424863
ARR 0 21 29.269534
CrL M 0 21 0 29.269608
L MedianBlur 0 29.299791
F 0 29.449301
ARR 3 22 30.321521
CrL M 3 22 0 30.321603
L MedianBlur 0 30.369793
F 0 30.519317
ARR 0 23 32.375415
CrL M 0 23 0 32.375494
L MedianBlur 0 32.429800
ARR 4 24 32.472339
CrS MedianBlur GaussianBlur gaussianblur_0 32.472365
CrL G 4 24 1 32.472425
S /home/xilinx/Bitstreams-axi_firewall/MedianBlur-GaussianBlur_pblock_gaussianblur_0_partial.bit 32.500400
L GaussianBlur 1 32.841455
F 0 32.841544
ARR 4 25 32.939266
CrL M 4 25 0 32.939331
L MedianBlur 0 32.969791
F 1 32.972062
ARR 2 26 33.023677
CrL G 2 26 1 33.023734
L GaussianBlur 1 33.039800
F 1 33.170694
F 0 33.194455
ARR 3 27 34.027386
CrL M 3 27 0 34.027465
ARR 3 28 34.038032
CrS MedianBlur GaussianBlur gaussianblur_0 34.038065
CrL M 3 28 1 34.038139
S /home/xilinx/Bitstreams-axi_firewall/MedianBlur-MedianBlur_pblock_gaussianblur_0_partial.bit 34.038641
L MedianBlur 0 34.059870
L MedianBlur 1 34.360935
F 0 34.369908
F 1 34.510435
ARR 4 29 35.397207
CrS GaussianBlur GaussianBlur medianblur_0 35.397240
CrL G 4 29 0 35.397306
S /home/xilinx/Bitstreams-axi_firewall/GaussianBlur-MedianBlur_pblock_medianblur_0_partial.bit 35.410452
L GaussianBlur 0 35.734826
F 0 35.865425
END 35.865453
