ARR 2 0 0.082837
CrS GaussianBlur GaussianBlur medianblur_0 0.082893
CrL M 2 0 0 0.082979
S /home/xilinx/Bitstreams-axi_firewall/MedianBlur-GaussianBlur_pblock_medianblur_0_partial.bit 0.120501
L MedianBlur 0 0.432381
ARR 0 1 0.472992
CrS MedianBlur GaussianBlur gaussianblur_0 0.473021
CrL M 0 1 1 0.473091
S /home/xilinx/Bitstreams-axi_firewall/MedianBlur-MedianBlur_pblock_gaussianblur_0_partial.bit 0.500614
L MedianBlur 1 0.811189
F 0 0.811304
ARR 4 2 0.856201
CrS GaussianBlur MedianBlur medianblur_0 0.856233
CrL G 4 2 0 0.856300
S /home/xilinx/Bitstreams-axi_firewall/GaussianBlur-MedianBlur_pblock_medianblur_0_partial.bit 0.870367
L GaussianBlur 0 1.184982
F 1 1.189869
ARR 2 3 1.200672
CrS MedianBlur GaussianBlur gaussianblur_0 1.200702
CrL G 2 3 1 1.200771
S /home/xilinx/Bitstreams-axi_firewall/GaussianBlur-GaussianBlur_pblock_gaussianblur_0_partial.bit 1.201270
L GaussianBlur 1 1.496688
F 0 1.499973
ARR 3 4 1.527825
CrS GaussianBlur MedianBlur medianblur_0 1.527856
CrL M 3 4 0 1.527921
S /home/xilinx/Bitstreams-axi_firewall/MedianBlur-GaussianBlur_pblock_medianblur_0_partial.bit 1.528423
L MedianBlur 0 1.858847
F 1 1.869837
ARR 1 5 1.881740
CrS MedianBlur GaussianBlur gaussianblur_0 1.881772
CrL M 1 5 1 1.881835
S /home/xilinx/Bitstreams-axi_firewall/MedianBlur-MedianBlur_pblock_gaussianblur_0_partial.bit 1.882350
L MedianBlur 1 2.210817
F 0 2.219973
ARR 1 6 2.221084
CrS GaussianBlur MedianBlur medianblur_0 2.221114
CrL G 1 6 0 2.221172
S /home/xilinx/Bitstreams-axi_firewall/GaussianBlur-MedianBlur_pblock_medianblur_0_partial.bit 2.240407
L GaussianBlur 0 2.552471
F 1 2.559972
ARR 4 7 2.562420
CrS MedianBlur GaussianBlur gaussianblur_0 2.562451
CrL G 4 7 1 2.562516
S /home/xilinx/Bitstreams-axi_firewall/GaussianBlur-GaussianBlur_pblock_gaussianblur_0_partial.bit 2.563021
L GaussianBlur 1 2.889908
F 0 2.889996
ARR 2 8 2.914424
CrL G 2 8 0 2.914490
ARR 0 9 2.918658
EQ 0 9
ARR 2 10 2.942376
EQ 2 10
ARR 2 11 2.953153
EQ 2 11
L GaussianBlur 0 2.959846
ARR 1 12 2.965186
EQ 1 12
ARR 3 13 2.987004
R 0 2.987326
EQ 2 8
EV 8 13 0 2.987520
CrS MedianBlur MedianBlur medianblur_0 2.987535
CrL M 3 13 0 2.987568
S /home/xilinx/Bitstreams-axi_firewall/MedianBlur-GaussianBlur_pblock_medianblur_0_partial.bit 3.000372
L MedianBlur 0 3.315372
F 1 3.319868
DQ 0 9
CrS MedianBlur GaussianBlur gaussianblur_0 3.319900
S /home/xilinx/Bitstreams-axi_firewall/MedianBlur-MedianBlur_pblock_gaussianblur_0_partial.bit 3.320553
CrL M 0 9 1 3.320576
L MedianBlur 1 3.619429
F 0 3.629839
DQ 1 12
CrL M 1 12 0 3.630463
ARR 4 14 3.639179
R 0 3.639470
EQ 1 12
EV 12 14 0 3.639651
CrL M 4 14 0 3.639677
ARR 4 15 3.642818
R 1 3.643090
EQ 0 9
EV 9 15 1 3.643272
CrL M 4 15 1 3.643296
L MedianBlur 1 3.649864
L MedianBlur 0 3.669882
ARR 3 16 3.688732
EQ 3 16
ARR 0 17 3.706202
EQ 0 17
ARR 2 18 3.707532
EQ 2 18
ARR 1 19 3.781389
EQ 1 19
ARR 4 20 3.786403
EQ 4 20
F 1 3.799915
DQ 0 9
CrL M 0 9 1 3.799974
L MedianBlur 1 3.809888
ARR 0 21 3.810552
EQ 0 21
ARR 3 22 3.829601
R 1 3.829947
EQ 0 9
EV 9 22 1 3.830126
CrL M 3 22 1 3.830151
L MedianBlur 1 3.849860
ARR 0 23 3.861816
EQ 0 23
ARR 4 24 3.874108
R 1 3.874380
EQ 3 22
EV 22 24 1 3.874560
CrS MedianBlur MedianBlur gaussianblur_0 3.874575
CrL G 4 24 1 3.874607
S /home/xilinx/Bitstreams-axi_firewall/MedianBlur-GaussianBlur_pblock_gaussianblur_0_partial.bit 3.890377
L GaussianBlur 1 4.191660
F 0 4.191749
DQ 0 17
CrL M 0 17 0 4.191821
ARR 4 25 4.204149
R 0 4.204438
EQ 0 17
EV 17 25 0 4.204620
CrL M 4 25 0 4.204645
ARR 2 26 4.215361
EQ 2 26
L MedianBlur 0 4.219909
ARR 3 27 4.228377
EQ 3 27
ARR 3 28 4.229914
EQ 3 28
ARR 4 29 4.245822
EQ 4 29
F 1 4.322544
DQ 0 21
CrS MedianBlur GaussianBlur gaussianblur_0 4.322580
CrL M 0 21 1 4.322639
S /home/xilinx/Bitstreams-axi_firewall/MedianBlur-MedianBlur_pblock_gaussianblur_0_partial.bit 4.350383
L MedianBlur 1 4.660672
F 0 4.660749
DQ 0 9
CrL M 0 9 0 4.660823
L MedianBlur 0 4.679848
F 1 4.810811
DQ 0 23
CrL M 0 23 1 4.810875
L MedianBlur 1 4.859867
F 0 4.861684
DQ 0 17
CrL M 0 17 0 4.861746
L MedianBlur 0 4.889838
F 1 5.011126
DQ 1 12
CrL M 1 12 1 5.011185
L MedianBlur 1 5.019849
F 0 5.117037
DQ 1 19
CrL M 1 19 0 5.117166
L MedianBlur 0 5.129869
F 1 5.170411
DQ 2 10
CrL M 2 10 1 5.170471
L MedianBlur 1 5.219836
F 1 5.295927
DQ 2 11
CrL M 2 11 1 5.295985
L MedianBlur 1 5.339834
F 0 5.355617
DQ 2 8
CrS GaussianBlur MedianBlur medianblur_0 5.355644
CrL G 2 8 0 5.355699
S /home/xilinx/Bitstreams-axi_firewall/GaussianBlur-MedianBlur_pblock_medianblur_0_partial.bit 5.361722
L GaussianBlur 0 5.670857
F 1 5.689856
DQ 2 18
CrL M 2 18 1 5.690479
L MedianBlur 1 5.699872
F 0 5.801708
DQ 2 26
CrL G 2 26 0 5.801771
L GaussianBlur 0 5.839839
F 1 5.924703
DQ 3 16
CrL M 3 16 1 5.924768
L MedianBlur 1 5.939841
F 0 5.970728
DQ 3 22
CrS GaussianBlur MedianBlur medianblur_0 5.970756
CrL M 3 22 0 5.970811
S /home/xilinx/Bitstreams-axi_firewall/MedianBlur-MedianBlur_pblock_medianblur_0_partial.bit 6.000392
L MedianBlur 0 6.332637
F 1 6.332717
DQ 3 27
CrL M 3 27 1 6.332790
L MedianBlur 1 6.389843
F 0 6.482489
DQ 3 28
CrL M 3 28 0 6.482554
L MedianBlur 0 6.519837
F 1 6.539776
DQ 4 20
CrL M 4 20 1 6.539858
L MedianBlur 1 6.549879
F 0 6.671190
DQ 4 29
CrS GaussianBlur MedianBlur medianblur_0 6.671224
CrL G 4 29 0 6.671284
S /home/xilinx/Bitstreams-axi_firewall/GaussianBlur-MedianBlur_pblock_medianblur_0_partial.bit 6.680442
L GaussianBlur 0 6.979455
F 1 6.989935
F 0 7.110040
END 7.110058
