ARR 2 0 6.059973
CrS GaussianBlur GaussianBlur medianblur_0 6.060027
CrL M 2 0 0 6.060114
S /home/xilinx/Bitstreams-axi_firewall/MedianBlur-GaussianBlur_pblock_medianblur_0_partial.bit 6.080512
L MedianBlur 0 6.378833
F 0 6.453640
ARR 0 1 8.446054
CrL M 0 1 0 8.446146
L MedianBlur 0 8.479850
F 0 8.703996
ARR 4 2 11.506685
CrS GaussianBlur GaussianBlur medianblur_0 11.506728
CrL G 4 2 0 11.506801
S /home/xilinx/Bitstreams-axi_firewall/GaussianBlur-GaussianBlur_pblock_medianblur_0_partial.bit 11.510419
L GaussianBlur 0 11.809475
ARR 2 3 11.894276
CrL G 2 3 1 11.894356
L GaussianBlur 1 11.929860
F 0 11.940150
F 1 12.060538
ARR 3 4 13.917754
CrS GaussianBlur GaussianBlur medianblur_0 13.917799
CrL M 3 4 0 13.917873
S /home/xilinx/Bitstreams-axi_firewall/MedianBlur-GaussianBlur_pblock_medianblur_0_partial.bit 13.940430
L MedianBlur 0 14.262645
F 0 14.337473
ARR 1 5 14.352039
CrL M 1 5 0 14.352108
ARR 1 6 14.359419
CrL G 1 6 1 14.359482
L GaussianBlur 1 14.369859
ARR 4 7 14.377408
R 0 14.377745
EQ 1 5
EV 5 7 0 14.377941
CrS MedianBlur MedianBlur medianblur_0 14.377960
CrL G 4 7 0 14.377996
S /home/xilinx/Bitstreams-axi_firewall/GaussianBlur-GaussianBlur_pblock_medianblur_0_partial.bit 14.380432
L GaussianBlur 0 14.694736
F 1 14.699976
DQ 1 5
CrS MedianBlur GaussianBlur gaussianblur_0 14.700012
CrL M 1 5 1 14.700730
S /home/xilinx/Bitstreams-axi_firewall/GaussianBlur-MedianBlur_pblock_gaussianblur_0_partial.bit 14.700974
L MedianBlur 1 15.030781
F 0 15.039990
F 1 15.105633
ARR 2 8 16.134968
CrL G 2 8 0 16.135057
L GaussianBlur 0 16.135556
ARR 0 9 16.166829
CrL M 0 9 1 16.166897
L MedianBlur 1 16.189853
F 0 16.266377
F 1 16.414311
ARR 2 10 17.256230
CrS GaussianBlur GaussianBlur medianblur_0 17.256265
CrL M 2 10 0 17.256332
S /home/xilinx/Bitstreams-axi_firewall/MedianBlur-MedianBlur_pblock_medianblur_0_partial.bit 17.256876
L MedianBlur 0 17.593760
F 0 17.668610
ARR 2 11 17.678569
CrL M 2 11 0 17.678639
L MedianBlur 0 17.709848
ARR 1 12 17.773452
CrL M 1 12 1 17.773513
L MedianBlur 1 17.799856
F 0 17.936540
F 1 17.951706
ARR 3 13 18.847720
CrL M 3 13 0 18.847784
L MedianBlur 0 18.879850
ARR 4 14 18.912074
CrL M 4 14 1 18.912134
ARR 4 15 18.935687
R 0 18.936010
EQ 3 13
EV 13 15 0 18.936196
CrL M 4 15 0 18.936226
L MedianBlur 1 18.949869
L MedianBlur 0 18.959870
F 0 19.109925
DQ 3 13
CrL M 3 13 0 19.109991
L MedianBlur 0 19.119860
F 1 19.175055
F 0 19.288405
ARR 3 16 21.999940
CrL M 3 16 0 22.000028
L MedianBlur 0 22.039878
F 0 22.114711
ARR 0 17 23.039277
CrL M 0 17 0 23.039366
ARR 2 18 23.048443
CrL M 2 18 1 23.048512
L MedianBlur 0 23.049927
L MedianBlur 1 23.079875
F 0 23.276944
F 1 23.307000
ARR 1 19 28.139953
CrL M 1 19 0 28.140045
L MedianBlur 0 28.169853
ARR 4 20 28.178626
CrL M 4 20 1 28.178691
L MedianBlur 1 28.199858
F 0 28.396952
F 1 28.427063
ARR 0 21 29.269633
CrL M 0 21 0 29.269696
L MedianBlur 0 29.289850
F 0 29.439373
ARR 3 22 30.321580
CrL M 3 22 0 30.321664
L MedianBlur 0 30.329866
F 0 30.479383
ARR 0 23 32.375518
CrL M 0 23 0 32.375604
L MedianBlur 0 32.409850
ARR 4 24 32.472451
CrS MedianBlur GaussianBlur gaussianblur_0 32.472482
CrL G 4 24 1 32.472545
S /home/xilinx/Bitstreams-axi_firewall/MedianBlur-GaussianBlur_pblock_gaussianblur_0_partial.bit 32.480517
L GaussianBlur 1 32.769261
F 0 32.769979
ARR 4 25 32.867130
CrL M 4 25 0 32.867205
F 1 32.899844
L MedianBlur 0 32.919851
ARR 2 26 32.951572
CrL G 2 26 1 32.951634
L GaussianBlur 1 32.989848
F 1 33.120737
F 0 33.144530
ARR 3 27 33.955238
CrL M 3 27 0 33.955321
ARR 3 28 33.965833
CrS MedianBlur GaussianBlur gaussianblur_0 33.965868
CrL M 3 28 1 33.965929
S /home/xilinx/Bitstreams-axi_firewall/MedianBlur-MedianBlur_pblock_gaussianblur_0_partial.bit 33.980454
L MedianBlur 0 33.989966
L MedianBlur 1 34.269599
F 0 34.269972
F 1 34.419141
ARR 4 29 35.297249
CrS GaussianBlur GaussianBlur medianblur_0 35.297289
CrL G 4 29 0 35.297366
S /home/xilinx/Bitstreams-axi_firewall/GaussianBlur-MedianBlur_pblock_medianblur_0_partial.bit 35.297880
L GaussianBlur 0 35.642068
F 0 35.772653
END 35.772675
