ARR 2 0 0.082827
CrS GaussianBlur GaussianBlur medianblur_0 0.082879
CrL M 2 0 0 0.082963
S /home/xilinx/Bitstreams-axi_firewall/MedianBlur-GaussianBlur_pblock_medianblur_0_partial.bit 0.110431
L MedianBlur 0 0.409230
ARR 0 1 0.442937
CrS MedianBlur GaussianBlur gaussianblur_0 0.442961
CrL M 0 1 1 0.443032
S /home/xilinx/Bitstreams-axi_firewall/MedianBlur-MedianBlur_pblock_gaussianblur_0_partial.bit 0.443870
L MedianBlur 1 0.752132
F 0 0.759947
ARR 4 2 0.804845
CrS GaussianBlur MedianBlur medianblur_0 0.804873
CrL G 4 2 0 0.804942
S /home/xilinx/Bitstreams-axi_firewall/GaussianBlur-MedianBlur_pblock_medianblur_0_partial.bit 0.830302
L GaussianBlur 0 1.126990
F 1 1.139778
ARR 2 3 1.150580
CrS MedianBlur GaussianBlur gaussianblur_0 1.150606
CrL G 2 3 1 1.150672
S /home/xilinx/Bitstreams-axi_firewall/GaussianBlur-GaussianBlur_pblock_gaussianblur_0_partial.bit 1.170552
L GaussianBlur 1 1.459334
F 0 1.459934
ARR 3 4 1.487804
CrS GaussianBlur MedianBlur medianblur_0 1.487836
CrL M 3 4 0 1.487920
S /home/xilinx/Bitstreams-axi_firewall/MedianBlur-GaussianBlur_pblock_medianblur_0_partial.bit 1.488443
L MedianBlur 0 1.809271
F 1 1.819779
ARR 1 5 1.831690
CrS MedianBlur GaussianBlur gaussianblur_0 1.831717
CrL M 1 5 1 1.831777
S /home/xilinx/Bitstreams-axi_firewall/MedianBlur-MedianBlur_pblock_gaussianblur_0_partial.bit 1.860333
L MedianBlur 1 2.148744
F 0 2.159798
ARR 1 6 2.161465
CrS GaussianBlur MedianBlur medianblur_0 2.161491
CrL G 1 6 0 2.161552
S /home/xilinx/Bitstreams-axi_firewall/GaussianBlur-MedianBlur_pblock_medianblur_0_partial.bit 2.180341
L GaussianBlur 0 2.500142
F 1 2.500233
ARR 4 7 2.502685
CrS MedianBlur GaussianBlur gaussianblur_0 2.502710
CrL G 4 7 1 2.502771
S /home/xilinx/Bitstreams-axi_firewall/GaussianBlur-GaussianBlur_pblock_gaussianblur_0_partial.bit 2.530337
L GaussianBlur 1 2.831125
F 0 2.831219
ARR 2 8 2.855640
CrL G 2 8 0 2.855702
ARR 0 9 2.859905
EQ 0 9
L GaussianBlur 0 2.879797
ARR 2 10 2.883623
EQ 2 10
ARR 2 11 2.894398
EQ 2 11
ARR 1 12 2.906432
EQ 1 12
ARR 3 13 2.928250
EQ 3 13
ARR 4 14 2.936471
EQ 4 14
ARR 4 15 2.939605
EQ 4 15
F 1 2.961769
DQ 0 9
CrS MedianBlur GaussianBlur gaussianblur_0 2.961797
CrL M 0 9 1 2.961856
S /home/xilinx/Bitstreams-axi_firewall/GaussianBlur-MedianBlur_pblock_gaussianblur_0_partial.bit 2.990350
L MedianBlur 1 3.303098
F 0 3.319780
DQ 1 12
CrS GaussianBlur MedianBlur medianblur_0 3.319807
S /home/xilinx/Bitstreams-axi_firewall/MedianBlur-MedianBlur_pblock_medianblur_0_partial.bit 3.320454
CrL M 1 12 0 3.320473
L MedianBlur 0 3.645533
F 1 3.659797
DQ 2 10
CrL M 2 10 1 3.660420
ARR 3 16 3.684240
EQ 3 16
L MedianBlur 1 3.689817
ARR 0 17 3.701708
EQ 0 17
ARR 2 18 3.703035
EQ 2 18
F 1 3.765812
DQ 0 17
CrL M 0 17 1 3.765866
ARR 1 19 3.777112
EQ 1 19
ARR 4 20 3.782121
EQ 4 20
F 0 3.796167
DQ 1 19
CrL M 1 19 0 3.796220
ARR 0 21 3.806263
EQ 0 21
L MedianBlur 1 3.809797
ARR 3 22 3.825314
EQ 3 22
L MedianBlur 0 3.839786
ARR 0 23 3.856979
EQ 0 23
ARR 4 24 3.869265
EQ 4 24
ARR 4 25 3.881597
EQ 4 25
ARR 2 26 3.892304
EQ 2 26
ARR 3 27 3.905304
EQ 3 27
ARR 3 28 3.906810
EQ 3 28
ARR 4 29 3.922712
EQ 4 29
F 1 4.036881
DQ 0 21
CrL M 0 21 1 4.036945
F 0 4.066951
DQ 0 23
CrL M 0 23 0 4.067008
L MedianBlur 0 4.079786
L MedianBlur 1 4.089801
F 0 4.229781
DQ 2 11
CrL M 2 11 0 4.229836
F 1 4.239786
DQ 2 18
CrL M 2 18 1 4.239840
L MedianBlur 0 4.279813
L MedianBlur 1 4.289798
F 0 4.504774
DQ 2 26
CrS GaussianBlur MedianBlur medianblur_0 4.504798
CrL G 2 26 0 4.504851
S /home/xilinx/Bitstreams-axi_firewall/GaussianBlur-MedianBlur_pblock_medianblur_0_partial.bit 4.520343
L GaussianBlur 0 4.824504
F 1 4.824583
DQ 3 13
CrL M 3 13 1 4.825196
L MedianBlur 1 4.849802
F 0 4.955361
DQ 3 16
CrS GaussianBlur MedianBlur medianblur_0 4.955386
CrL M 3 16 0 4.955443
S /home/xilinx/Bitstreams-axi_firewall/MedianBlur-MedianBlur_pblock_medianblur_0_partial.bit 4.980333
L MedianBlur 0 5.269323
F 1 5.279860
DQ 3 22
CrL M 3 22 1 5.279927
L MedianBlur 1 5.309798
F 0 5.344294
DQ 3 27
CrL M 3 27 0 5.344358
L MedianBlur 0 5.379785
F 1 5.459807
DQ 3 28
CrL M 3 28 1 5.459881
F 0 5.529669
DQ 4 14
CrL M 4 14 0 5.529745
L MedianBlur 1 5.529794
L MedianBlur 0 5.579817
F 1 5.679780
DQ 4 15
CrL M 4 15 1 5.679840
L MedianBlur 1 5.689807
F 0 5.804781
DQ 4 20
CrL M 4 20 0 5.804835
L MedianBlur 0 5.819788
F 1 5.839780
DQ 4 24
CrS MedianBlur GaussianBlur gaussianblur_0 5.839806
CrL G 4 24 1 5.839860
S /home/xilinx/Bitstreams-axi_firewall/MedianBlur-GaussianBlur_pblock_gaussianblur_0_partial.bit 5.850408
L GaussianBlur 1 6.160370
F 0 6.179780
DQ 4 25
CrL M 4 25 0 6.180398
L MedianBlur 0 6.239793
F 1 6.291076
DQ 4 29
CrL G 4 29 1 6.291136
L GaussianBlur 1 6.309789
F 1 6.440685
F 0 6.464643
END 6.464663
