ARR 2 0 4.016115
CrS GaussianBlur  medianblur_0 4.016166
CrL M 2 0 0 4.016248
S /home/xilinx/Bitstreams-axi_firewall/MedianBlur-GaussianBlur_pblock_medianblur_0_partial.bit 4.040517
L MedianBlur 0 4.390982
F 0 4.465799
ARR 0 1 5.466086
CrL M 0 1 0 5.466152
L MedianBlur 0 5.489854
F 0 5.713975
ARR 4 2 7.489941
CrS GaussianBlur  medianblur_0 7.489974
CrL G 4 2 0 7.490052
S /home/xilinx/Bitstreams-axi_firewall/GaussianBlur-GaussianBlur_pblock_medianblur_0_partial.bit 7.490587
L GaussianBlur 0 7.802554
ARR 2 3 7.862895
EQ 2 3
F 0 7.933171
DQ 2 3
CrL G 2 3 0 7.933247
L GaussianBlur 0 7.959862
F 0 8.090474
ARR 3 4 8.902493
CrS GaussianBlur  medianblur_0 8.902529
CrL M 3 4 0 8.902600
S /home/xilinx/Bitstreams-axi_firewall/MedianBlur-GaussianBlur_pblock_medianblur_0_partial.bit 8.930421
L MedianBlur 0 9.229443
ARR 1 5 9.285267
EQ 1 5
ARR 1 6 9.289937
EQ 1 6
ARR 4 7 9.301233
EQ 4 7
F 0 9.304310
DQ 1 5
CrL M 1 5 0 9.304364
L MedianBlur 0 9.339852
F 0 9.414703
DQ 1 6
CrS GaussianBlur  medianblur_0 9.414738
CrL G 1 6 0 9.414803
S /home/xilinx/Bitstreams-axi_firewall/GaussianBlur-GaussianBlur_pblock_medianblur_0_partial.bit 9.430423
L GaussianBlur 0 9.719497
F 0 9.850080
DQ 4 7
CrL G 4 7 0 9.850149
L GaussianBlur 0 9.869857
F 0 10.000436
ARR 2 8 10.628936
CrL G 2 8 0 10.629019
ARR 0 9 10.648940
EQ 0 9
L GaussianBlur 0 10.679855
F 0 10.810431
DQ 0 9
CrS GaussianBlur  medianblur_0 10.810458
CrL M 0 9 0 10.810515
S /home/xilinx/Bitstreams-axi_firewall/MedianBlur-GaussianBlur_pblock_medianblur_0_partial.bit 10.840415
L MedianBlur 0 11.149427
F 0 11.373602
ARR 2 10 12.006930
CrL M 2 10 0 12.006998
L MedianBlur 0 12.049854
ARR 2 11 12.060083
EQ 2 11
ARR 1 12 12.119425
EQ 1 12
F 0 12.124705
DQ 1 12
CrL M 1 12 0 12.124763
L MedianBlur 0 12.159856
F 0 12.309403
DQ 2 11
CrL M 2 11 0 12.309469
L MedianBlur 0 12.319866
F 0 12.544127
ARR 3 13 13.128806
CrL M 3 13 0 13.128870
L MedianBlur 0 13.129888
ARR 4 14 13.169131
EQ 4 14
ARR 4 15 13.183939
EQ 4 15
F 0 13.354061
DQ 4 14
CrL M 4 14 0 13.354120
L MedianBlur 0 13.369856
F 0 13.594065
DQ 4 15
CrL M 4 15 0 13.594122
L MedianBlur 0 13.609865
F 0 13.759365
ARR 3 16 15.212296
CrL M 3 16 0 15.212379
L MedianBlur 0 15.259854
ARR 0 17 15.298883
EQ 0 17
ARR 2 18 15.304637
EQ 2 18
F 0 15.334680
DQ 0 17
CrL M 0 17 0 15.334739
L MedianBlur 0 15.379851
F 0 15.604086
DQ 2 18
CrL M 2 18 0 15.604144
L MedianBlur 0 15.659851
F 0 15.884005
ARR 1 19 18.376014
CrL M 1 19 0 18.376099
ARR 4 20 18.400277
EQ 4 20
L MedianBlur 0 18.419860
F 0 18.644081
DQ 4 20
CrL M 4 20 0 18.644142
L MedianBlur 0 18.659857
F 0 18.884135
ARR 0 21 19.419853
CrL M 0 21 0 19.419912
L MedianBlur 0 19.459851
ARR 3 22 19.514380
EQ 3 22
F 0 19.609374
DQ 3 22
CrL M 3 22 0 19.609439
L MedianBlur 0 19.629888
F 0 19.779387
ARR 0 23 20.573006
CrL M 0 23 0 20.573084
L MedianBlur 0 20.599855
ARR 4 24 20.633683
EQ 4 24
ARR 4 25 20.694484
EQ 4 25
ARR 2 26 20.747185
EQ 2 26
F 0 20.749377
DQ 2 26
CrS GaussianBlur  medianblur_0 20.749407
CrL G 2 26 0 20.749465
S /home/xilinx/Bitstreams-axi_firewall/GaussianBlur-GaussianBlur_pblock_medianblur_0_partial.bit 20.760499
L GaussianBlur 0 21.067263
ARR 3 27 21.131912
EQ 3 27
ARR 3 28 21.138594
EQ 3 28
F 0 21.197864
DQ 3 27
CrS GaussianBlur  medianblur_0 21.197895
CrL M 3 27 0 21.197956
S /home/xilinx/Bitstreams-axi_firewall/MedianBlur-GaussianBlur_pblock_medianblur_0_partial.bit 21.220405
L MedianBlur 0 21.524572
ARR 4 29 21.544068
EQ 4 29
F 0 21.674083
DQ 3 28
CrL M 3 28 0 21.674155
L MedianBlur 0 21.719856
F 0 21.869377
DQ 4 24
CrS GaussianBlur  medianblur_0 21.869411
CrL G 4 24 0 21.869476
S /home/xilinx/Bitstreams-axi_firewall/GaussianBlur-GaussianBlur_pblock_medianblur_0_partial.bit 21.890416
L GaussianBlur 0 22.196038
F 0 22.326615
DQ 4 25
CrS GaussianBlur  medianblur_0 22.326649
CrL M 4 25 0 22.326716
S /home/xilinx/Bitstreams-axi_firewall/MedianBlur-GaussianBlur_pblock_medianblur_0_partial.bit 22.350397
L MedianBlur 0 22.648844
F 0 22.873069
DQ 4 29
CrS GaussianBlur  medianblur_0 22.873103
CrL G 4 29 0 22.873177
S /home/xilinx/Bitstreams-axi_firewall/GaussianBlur-GaussianBlur_pblock_medianblur_0_partial.bit 22.880485
L GaussianBlur 0 23.191489
F 0 23.322061
END 23.322081
