ARR 2 0 0.082830
CrS GaussianBlur  medianblur_0 0.082880
CrL M 2 0 0 0.082962
S /home/xilinx/Bitstreams-axi_firewall/MedianBlur-GaussianBlur_pblock_medianblur_0_partial.bit 0.110466
L MedianBlur 0 0.422695
ARR 0 1 0.455818
EQ 0 1
F 0 0.497564
DQ 0 1
CrL M 0 1 0 0.497645
ARR 4 2 0.501016
R 0 0.501352
EQ 0 1
EV 1 2 0 0.501589
CrS MedianBlur  medianblur_0 0.501608
CrL G 4 2 0 0.501659
S /home/xilinx/Bitstreams-axi_firewall/GaussianBlur-GaussianBlur_pblock_medianblur_0_partial.bit 0.520847
L GaussianBlur 0 0.833939
ARR 2 3 0.850575
EQ 2 3
ARR 3 4 0.878436
EQ 3 4
ARR 1 5 0.889793
EQ 1 5
ARR 1 6 0.890907
EQ 1 6
ARR 4 7 0.893334
EQ 4 7
ARR 2 8 0.917744
EQ 2 8
ARR 0 9 0.921889
EQ 0 9
ARR 2 10 0.945596
EQ 2 10
ARR 2 11 0.956366
EQ 2 11
F 0 0.964532
DQ 0 1
CrS GaussianBlur  medianblur_0 0.964561
CrL M 0 1 0 0.964620
S /home/xilinx/Bitstreams-axi_firewall/MedianBlur-GaussianBlur_pblock_medianblur_0_partial.bit 0.970395
L MedianBlur 0 1.293930
ARR 1 12 1.299959
R 0 1.300218
EQ 0 1
EV 1 12 0 1.300987
CrL M 1 12 0 1.301074
ARR 3 13 1.322963
R 0 1.323244
EQ 1 12
EV 12 13 0 1.323427
CrL M 3 13 0 1.323452
ARR 4 14 1.331679
R 0 1.331945
EQ 3 13
EV 13 14 0 1.332124
CrL M 4 14 0 1.332150
ARR 4 15 1.335326
EQ 4 15
L MedianBlur 0 1.339873
ARR 3 16 1.380765
EQ 3 16
ARR 0 17 1.398230
EQ 0 17
ARR 2 18 1.399558
EQ 2 18
ARR 1 19 1.473421
EQ 1 19
ARR 4 20 1.478439
EQ 4 20
F 0 1.489398
DQ 0 9
L MedianBlur 0 1.489502
CrL M 0 9 0 1.489718
ARR 0 21 1.502883
EQ 0 21
ARR 3 22 1.521934
R 0 1.522227
EQ 0 9
EV 9 22 0 1.522408
CrL M 3 22 0 1.522433
ARR 0 23 1.554098
EQ 0 23
ARR 4 24 1.566391
R 0 1.566660
EQ 3 22
EV 22 24 0 1.566835
CrS MedianBlur  medianblur_0 1.566851
CrL G 4 24 0 1.566883
S /home/xilinx/Bitstreams-axi_firewall/GaussianBlur-GaussianBlur_pblock_medianblur_0_partial.bit 1.570433
L GaussianBlur 0 1.881746
ARR 4 25 1.894012
EQ 4 25
ARR 2 26 1.904757
EQ 2 26
ARR 3 27 1.917771
EQ 3 27
ARR 3 28 1.919283
EQ 3 28
ARR 4 29 1.935190
EQ 4 29
F 0 2.012344
DQ 0 1
CrS GaussianBlur  medianblur_0 2.012378
CrL M 0 1 0 2.012438
S /home/xilinx/Bitstreams-axi_firewall/MedianBlur-GaussianBlur_pblock_medianblur_0_partial.bit 2.040383
L MedianBlur 0 2.360449
F 0 2.584634
DQ 0 17
CrL M 0 17 0 2.584720
L MedianBlur 0 2.599850
F 0 2.824120
DQ 0 21
CrL M 0 21 0 2.824198
L MedianBlur 0 2.869852
F 0 3.019320
DQ 0 9
CrL M 0 9 0 3.019383
L MedianBlur 0 3.029857
F 0 3.221433
DQ 0 23
CrL M 0 23 0 3.221493
L MedianBlur 0 3.269872
F 0 3.419393
DQ 1 5
CrL M 1 5 0 3.419458
L MedianBlur 0 3.449846
F 0 3.524646
DQ 1 6
CrS GaussianBlur  medianblur_0 3.524677
CrL G 1 6 0 3.524734
S /home/xilinx/Bitstreams-axi_firewall/GaussianBlur-GaussianBlur_pblock_medianblur_0_partial.bit 3.530501
L GaussianBlur 0 3.819430
F 0 3.950003
DQ 1 12
CrS GaussianBlur  medianblur_0 3.950036
CrL M 1 12 0 3.950102
S /home/xilinx/Bitstreams-axi_firewall/MedianBlur-GaussianBlur_pblock_medianblur_0_partial.bit 3.970397
L MedianBlur 0 4.273914
F 0 4.423461
DQ 1 19
CrL M 1 19 0 4.423547
L MedianBlur 0 4.429865
F 0 4.654093
DQ 2 3
CrS GaussianBlur  medianblur_0 4.654133
CrL G 2 3 0 4.654212
S /home/xilinx/Bitstreams-axi_firewall/GaussianBlur-GaussianBlur_pblock_medianblur_0_partial.bit 4.654750
L GaussianBlur 0 4.981949
F 0 5.112522
DQ 2 8
CrL G 2 8 0 5.112595
L GaussianBlur 0 5.139845
F 0 5.270414
DQ 2 10
CrS GaussianBlur  medianblur_0 5.270448
CrL M 2 10 0 5.270510
S /home/xilinx/Bitstreams-axi_firewall/MedianBlur-GaussianBlur_pblock_medianblur_0_partial.bit 5.300394
L MedianBlur 0 5.598822
F 0 5.673635
DQ 2 11
CrL M 2 11 0 5.673707
L MedianBlur 0 5.709843
F 0 5.934094
DQ 2 18
CrL M 2 18 0 5.934159
L MedianBlur 0 5.959846
F 0 6.184001
DQ 2 26
CrS GaussianBlur  medianblur_0 6.184032
CrL G 2 26 0 6.184094
S /home/xilinx/Bitstreams-axi_firewall/GaussianBlur-GaussianBlur_pblock_medianblur_0_partial.bit 6.200401
L GaussianBlur 0 6.513414
F 0 6.643982
DQ 3 4
CrS GaussianBlur  medianblur_0 6.644015
CrL M 3 4 0 6.644081
S /home/xilinx/Bitstreams-axi_firewall/MedianBlur-GaussianBlur_pblock_medianblur_0_partial.bit 6.670372
L MedianBlur 0 6.957389
F 0 7.032237
DQ 3 13
CrL M 3 13 0 7.032315
L MedianBlur 0 7.049853
F 0 7.274293
DQ 3 16
CrL M 3 16 0 7.274463
L MedianBlur 0 7.289865
F 0 7.364667
DQ 3 22
CrL M 3 22 0 7.364731
L MedianBlur 0 7.369860
F 0 7.519347
DQ 3 27
CrL M 3 27 0 7.519415
L MedianBlur 0 7.529857
F 0 7.679323
DQ 3 28
CrL M 3 28 0 7.679384
L MedianBlur 0 7.689880
F 0 7.839378
DQ 4 7
CrS GaussianBlur  medianblur_0 7.839407
CrL G 4 7 0 7.839460
S /home/xilinx/Bitstreams-axi_firewall/GaussianBlur-GaussianBlur_pblock_medianblur_0_partial.bit 7.850462
L GaussianBlur 0 8.149416
F 0 8.279987
DQ 4 15
CrS GaussianBlur  medianblur_0 8.280020
CrL M 4 15 0 8.280120
S /home/xilinx/Bitstreams-axi_firewall/MedianBlur-GaussianBlur_pblock_medianblur_0_partial.bit 8.300396
L MedianBlur 0 8.598747
F 0 8.748274
DQ 4 20
CrL M 4 20 0 8.748348
L MedianBlur 0 8.789844
F 0 9.014146
DQ 4 25
CrL M 4 25 0 9.014230
L MedianBlur 0 9.049847
F 0 9.274057
DQ 4 29
CrS GaussianBlur  medianblur_0 9.274089
CrL G 4 29 0 9.274149
S /home/xilinx/Bitstreams-axi_firewall/GaussianBlur-GaussianBlur_pblock_medianblur_0_partial.bit 9.290417
L GaussianBlur 0 9.604370
F 0 9.734940
END 9.734957
