ARR 2 0 0.082831
CrS GaussianBlur  medianblur_0 0.082878
CrL M 2 0 0 0.082960
S /home/xilinx/Bitstreams-axi_firewall/MedianBlur-GaussianBlur_pblock_medianblur_0_partial.bit 0.110487
L MedianBlur 0 0.422849
ARR 0 1 0.455977
EQ 0 1
F 0 0.497698
DQ 0 1
CrL M 0 1 0 0.497769
ARR 4 2 0.501150
R 0 0.501457
EQ 0 1
EV 1 2 0 0.501687
CrS MedianBlur  medianblur_0 0.501705
CrL G 4 2 0 0.501756
S /home/xilinx/Bitstreams-axi_firewall/GaussianBlur-GaussianBlur_pblock_medianblur_0_partial.bit 0.540819
L GaussianBlur 0 0.854455
ARR 2 3 0.870584
EQ 2 3
ARR 3 4 0.898446
EQ 3 4
ARR 1 5 0.909803
EQ 1 5
ARR 1 6 0.910945
EQ 1 6
ARR 4 7 0.913372
EQ 4 7
ARR 2 8 0.937783
EQ 2 8
ARR 0 9 0.941930
EQ 0 9
ARR 2 10 0.965636
EQ 2 10
ARR 2 11 0.976407
EQ 2 11
F 0 0.985054
DQ 0 1
CrS GaussianBlur  medianblur_0 0.985082
CrL M 0 1 0 0.985144
S /home/xilinx/Bitstreams-axi_firewall/MedianBlur-GaussianBlur_pblock_medianblur_0_partial.bit 1.010370
L MedianBlur 0 1.297989
ARR 1 12 1.309924
R 0 1.310183
EQ 0 1
EV 1 12 0 1.310414
CrL M 1 12 0 1.310443
L MedianBlur 0 1.329854
ARR 3 13 1.332269
R 0 1.332549
EQ 1 12
EV 12 13 0 1.332730
CrL M 3 13 0 1.332756
ARR 4 14 1.340984
R 0 1.341248
EQ 3 13
EV 13 14 0 1.341428
CrL M 4 14 0 1.341453
ARR 4 15 1.344629
EQ 4 15
L MedianBlur 0 1.369885
ARR 3 16 1.390069
EQ 3 16
ARR 0 17 1.407536
EQ 0 17
ARR 2 18 1.408864
EQ 2 18
ARR 1 19 1.482724
EQ 1 19
ARR 4 20 1.487737
EQ 4 20
ARR 0 21 1.511652
EQ 0 21
ARR 3 22 1.530700
EQ 3 22
ARR 0 23 1.562366
EQ 0 23
ARR 4 24 1.574655
EQ 4 24
ARR 4 25 1.586983
EQ 4 25
F 0 1.594097
DQ 0 9
CrL M 0 9 0 1.594155
ARR 2 26 1.597947
R 0 1.598234
EQ 0 9
EV 9 26 0 1.598413
CrS MedianBlur  medianblur_0 1.598428
CrL G 2 26 0 1.598461
S /home/xilinx/Bitstreams-axi_firewall/GaussianBlur-GaussianBlur_pblock_medianblur_0_partial.bit 1.610467
L GaussianBlur 0 1.918298
ARR 3 27 1.932792
R 0 1.933057
EQ 2 26
EV 26 27 0 1.933242
CrS MedianBlur  medianblur_0 1.933258
CrL M 3 27 0 1.933292
S /home/xilinx/Bitstreams-axi_firewall/MedianBlur-GaussianBlur_pblock_medianblur_0_partial.bit 1.951565
L MedianBlur 0 2.265229
ARR 3 28 2.271351
EQ 3 28
ARR 4 29 2.287278
R 0 2.287558
EQ 3 27
EV 27 29 0 2.287739
CrS MedianBlur  medianblur_0 2.287754
CrL G 4 29 0 2.287788
S /home/xilinx/Bitstreams-axi_firewall/GaussianBlur-GaussianBlur_pblock_medianblur_0_partial.bit 2.300375
L GaussianBlur 0 2.614250
F 0 2.744823
DQ 0 1
CrS GaussianBlur  medianblur_0 2.744854
CrL M 0 1 0 2.744918
S /home/xilinx/Bitstreams-axi_firewall/MedianBlur-GaussianBlur_pblock_medianblur_0_partial.bit 2.770396
L MedianBlur 0 3.101517
F 0 3.325652
DQ 0 17
CrL M 0 17 0 3.325725
L MedianBlur 0 3.339841
F 0 3.564099
DQ 0 21
CrL M 0 21 0 3.564169
L MedianBlur 0 3.579844
F 0 3.729324
DQ 0 23
CrL M 0 23 0 3.729385
L MedianBlur 0 3.739847
F 0 3.889387
DQ 0 9
CrL M 0 9 0 3.889464
L MedianBlur 0 3.899853
F 0 4.124028
DQ 1 5
CrL M 1 5 0 4.124101
L MedianBlur 0 4.169839
F 0 4.244656
DQ 1 6
CrS GaussianBlur  medianblur_0 4.244685
CrL G 1 6 0 4.244742
S /home/xilinx/Bitstreams-axi_firewall/GaussianBlur-GaussianBlur_pblock_medianblur_0_partial.bit 4.250460
L GaussianBlur 0 4.571013
F 0 4.701587
DQ 1 12
CrS GaussianBlur  medianblur_0 4.701620
CrL M 1 12 0 4.701686
S /home/xilinx/Bitstreams-axi_firewall/MedianBlur-GaussianBlur_pblock_medianblur_0_partial.bit 4.730375
L MedianBlur 0 5.029455
F 0 5.178957
DQ 1 19
CrL M 1 19 0 5.179028
L MedianBlur 0 5.179848
F 0 5.404086
DQ 2 3
CrS GaussianBlur  medianblur_0 5.404116
CrL G 2 3 0 5.404176
S /home/xilinx/Bitstreams-axi_firewall/GaussianBlur-GaussianBlur_pblock_medianblur_0_partial.bit 5.420386
L GaussianBlur 0 5.761438
F 0 5.892036
DQ 2 8
CrL G 2 8 0 5.892116
L GaussianBlur 0 5.919845
F 0 6.050444
DQ 2 10
CrS GaussianBlur  medianblur_0 6.050484
CrL M 2 10 0 6.050554
S /home/xilinx/Bitstreams-axi_firewall/MedianBlur-GaussianBlur_pblock_medianblur_0_partial.bit 6.060491
L MedianBlur 0 6.367551
F 0 6.442367
DQ 2 11
CrL M 2 11 0 6.442439
L MedianBlur 0 6.479838
F 0 6.704098
DQ 2 18
CrL M 2 18 0 6.704167
L MedianBlur 0 6.759838
F 0 6.983989
DQ 2 26
CrS GaussianBlur  medianblur_0 6.984021
CrL G 2 26 0 6.984081
S /home/xilinx/Bitstreams-axi_firewall/GaussianBlur-GaussianBlur_pblock_medianblur_0_partial.bit 7.010409
L GaussianBlur 0 7.361343
F 0 7.491913
DQ 3 4
CrS GaussianBlur  medianblur_0 7.491948
CrL M 3 4 0 7.492014
S /home/xilinx/Bitstreams-axi_firewall/MedianBlur-GaussianBlur_pblock_medianblur_0_partial.bit 7.510398
L MedianBlur 0 7.824801
F 0 7.899636
DQ 3 13
CrL M 3 13 0 7.899717
L MedianBlur 0 7.899842
F 0 8.124054
DQ 3 16
CrL M 3 16 0 8.124138
L MedianBlur 0 8.176856
F 0 8.251673
DQ 3 22
CrL M 3 22 0 8.251752
L MedianBlur 0 8.289838
F 0 8.439335
DQ 3 28
CrL M 3 28 0 8.439400
L MedianBlur 0 8.489865
F 0 8.639348
DQ 3 27
CrL M 3 27 0 8.639409
L MedianBlur 0 8.649847
F 0 8.777158
DQ 4 7
CrS GaussianBlur  medianblur_0 8.777189
CrL G 4 7 0 8.777251
S /home/xilinx/Bitstreams-axi_firewall/GaussianBlur-GaussianBlur_pblock_medianblur_0_partial.bit 8.777784
L GaussianBlur 0 9.113052
F 0 9.243622
DQ 4 15
CrS GaussianBlur  medianblur_0 9.243656
CrL M 4 15 0 9.243722
S /home/xilinx/Bitstreams-axi_firewall/MedianBlur-GaussianBlur_pblock_medianblur_0_partial.bit 9.270399
L MedianBlur 0 9.602563
F 0 9.752071
DQ 4 20
CrL M 4 20 0 9.752144
L MedianBlur 0 9.799845
F 0 10.024201
DQ 4 24
CrS GaussianBlur  medianblur_0 10.024252
CrL G 4 24 0 10.024328
S /home/xilinx/Bitstreams-axi_firewall/GaussianBlur-GaussianBlur_pblock_medianblur_0_partial.bit 10.030497
L GaussianBlur 0 10.341655
F 0 10.472232
DQ 4 25
CrS GaussianBlur  medianblur_0 10.472270
CrL M 4 25 0 10.472338
S /home/xilinx/Bitstreams-axi_firewall/MedianBlur-GaussianBlur_pblock_medianblur_0_partial.bit 10.500370
L MedianBlur 0 10.820022
F 0 11.044219
END 11.044241
