ARR 2 0 4.016129
CrS GaussianBlur  medianblur_0 4.016184
CrL M 2 0 0 4.016266
S /home/xilinx/Bitstreams-axi_firewall/MedianBlur-GaussianBlur_pblock_medianblur_0_partial.bit 4.020443
L MedianBlur 0 4.326712
F 0 4.401537
ARR 0 1 5.392928
CrL M 0 1 0 5.393013
L MedianBlur 0 5.419793
F 0 5.643934
ARR 4 2 7.418494
CrS GaussianBlur  medianblur_0 7.418532
CrL G 4 2 0 7.418603
S /home/xilinx/Bitstreams-axi_firewall/GaussianBlur-GaussianBlur_pblock_medianblur_0_partial.bit 7.420356
L GaussianBlur 0 7.750279
ARR 2 3 7.812830
EQ 2 3
F 0 7.880873
DQ 2 3
CrL G 2 3 0 7.880942
L GaussianBlur 0 7.909828
F 0 8.040400
ARR 3 4 8.852394
CrS GaussianBlur  medianblur_0 8.852436
CrL M 3 4 0 8.852507
S /home/xilinx/Bitstreams-axi_firewall/MedianBlur-GaussianBlur_pblock_medianblur_0_partial.bit 8.880375
L MedianBlur 0 9.189365
ARR 1 5 9.245655
EQ 1 5
ARR 1 6 9.250293
EQ 1 6
ARR 4 7 9.261590
R 0 9.261912
EQ 3 4
EV 4 7 0 9.262110
CrS MedianBlur  medianblur_0 9.262128
CrL G 4 7 0 9.262164
S /home/xilinx/Bitstreams-axi_firewall/GaussianBlur-GaussianBlur_pblock_medianblur_0_partial.bit 9.262646
L GaussianBlur 0 9.575846
F 0 9.706436
DQ 1 5
CrS GaussianBlur  medianblur_0 9.706472
CrL M 1 5 0 9.706540
S /home/xilinx/Bitstreams-axi_firewall/MedianBlur-GaussianBlur_pblock_medianblur_0_partial.bit 9.730369
L MedianBlur 0 10.044424
F 0 10.119255
DQ 1 6
CrS GaussianBlur  medianblur_0 10.119292
CrL G 1 6 0 10.119360
S /home/xilinx/Bitstreams-axi_firewall/GaussianBlur-GaussianBlur_pblock_medianblur_0_partial.bit 10.120319
L GaussianBlur 0 10.441570
F 0 10.572155
DQ 3 4
CrS GaussianBlur  medianblur_0 10.572192
CrL M 3 4 0 10.572261
S /home/xilinx/Bitstreams-axi_firewall/MedianBlur-GaussianBlur_pblock_medianblur_0_partial.bit 10.600321
L MedianBlur 0 10.941351
F 0 11.016170
ARR 2 8 11.645282
CrS GaussianBlur  medianblur_0 11.645327
CrL G 2 8 0 11.645402
S /home/xilinx/Bitstreams-axi_firewall/GaussianBlur-GaussianBlur_pblock_medianblur_0_partial.bit 11.650434
L GaussianBlur 0 11.955614
ARR 0 9 11.975448
EQ 0 9
F 0 12.086215
DQ 0 9
CrS GaussianBlur  medianblur_0 12.086255
CrL M 0 9 0 12.086353
S /home/xilinx/Bitstreams-axi_firewall/MedianBlur-GaussianBlur_pblock_medianblur_0_partial.bit 12.120336
L MedianBlur 0 12.424709
F 0 12.648867
ARR 2 10 13.337652
CrL M 2 10 0 13.337738
L MedianBlur 0 13.369849
ARR 2 11 13.390812
EQ 2 11
F 0 13.444691
DQ 2 11
CrL M 2 11 0 13.444762
ARR 1 12 13.450366
EQ 1 12
L MedianBlur 0 13.489788
F 0 13.714051
DQ 1 12
CrL M 1 12 0 13.714116
L MedianBlur 0 13.729790
F 0 13.879306
ARR 3 13 14.459535
CrL M 3 13 0 14.459600
L MedianBlur 0 14.489790
ARR 4 14 14.499871
R 0 14.500212
EQ 3 13
EV 13 14 0 14.500399
CrL M 4 14 0 14.500428
ARR 4 15 14.515232
EQ 4 15
L MedianBlur 0 14.529794
F 0 14.753974
DQ 3 13
CrL M 3 13 0 14.754037
L MedianBlur 0 14.769792
F 0 14.983713
DQ 4 15
CrL M 4 15 0 14.983777
L MedianBlur 0 15.009788
F 0 15.159306
ARR 3 16 16.543511
CrL M 3 16 0 16.543598
L MedianBlur 0 16.589789
ARR 0 17 16.630095
EQ 0 17
ARR 2 18 16.635851
EQ 2 18
F 0 16.664610
DQ 0 17
CrL M 0 17 0 16.664674
L MedianBlur 0 16.709785
F 0 16.934022
DQ 2 18
CrL M 2 18 0 16.934084
L MedianBlur 0 16.949790
F 0 17.173920
ARR 1 19 19.707238
CrL M 1 19 0 19.707327
ARR 4 20 19.731537
R 0 19.731878
EQ 1 19
EV 19 20 0 19.732063
CrL M 4 20 0 19.732093
L MedianBlur 0 19.779795
F 0 20.004082
DQ 1 19
CrL M 1 19 0 20.004146
L MedianBlur 0 20.019791
F 0 20.244026
ARR 0 21 20.751650
CrL M 0 21 0 20.751715
L MedianBlur 0 20.779818
ARR 3 22 20.846172
R 0 20.846472
EQ 0 21
EV 21 22 0 20.846655
CrL M 3 22 0 20.846684
L MedianBlur 0 20.859807
F 0 21.009315
DQ 0 21
CrL M 0 21 0 21.009379
L MedianBlur 0 21.019799
F 0 21.102809
ARR 0 23 21.905290
CrL M 0 23 0 21.905377
L MedianBlur 0 21.949820
ARR 4 24 21.965975
R 0 21.966291
EQ 0 23
EV 23 24 0 21.966479
CrS MedianBlur  medianblur_0 21.966498
CrL G 4 24 0 21.966535
S /home/xilinx/Bitstreams-axi_firewall/GaussianBlur-GaussianBlur_pblock_medianblur_0_partial.bit 21.990349
L GaussianBlur 0 22.304310
ARR 4 25 22.370522
EQ 4 25
ARR 2 26 22.423245
EQ 2 26
F 0 22.434913
DQ 0 23
CrS GaussianBlur  medianblur_0 22.434950
CrL M 0 23 0 22.435013
S /home/xilinx/Bitstreams-axi_firewall/MedianBlur-GaussianBlur_pblock_medianblur_0_partial.bit 22.460350
L MedianBlur 0 22.776693
ARR 3 27 22.832369
R 0 22.832639
EQ 0 23
EV 23 27 0 22.832828
CrL M 3 27 0 22.832858
ARR 3 28 22.839518
EQ 3 28
L MedianBlur 0 22.849804
ARR 4 29 22.918226
R 0 22.918516
EQ 3 27
EV 27 29 0 22.918700
CrS MedianBlur  medianblur_0 22.918719
CrL G 4 29 0 22.918755
S /home/xilinx/Bitstreams-axi_firewall/GaussianBlur-GaussianBlur_pblock_medianblur_0_partial.bit 22.930332
L GaussianBlur 0 23.244638
F 0 23.375255
DQ 0 23
CrS GaussianBlur  medianblur_0 23.375300
CrL M 0 23 0 23.375410
S /home/xilinx/Bitstreams-axi_firewall/MedianBlur-GaussianBlur_pblock_medianblur_0_partial.bit 23.390364
L MedianBlur 0 23.713967
F 0 23.863475
DQ 2 26
CrS GaussianBlur  medianblur_0 23.863513
CrL G 2 26 0 23.863581
S /home/xilinx/Bitstreams-axi_firewall/GaussianBlur-GaussianBlur_pblock_medianblur_0_partial.bit 23.870370
L GaussianBlur 0 24.201071
F 0 24.331642
DQ 3 28
CrS GaussianBlur  medianblur_0 24.331680
CrL M 3 28 0 24.331748
S /home/xilinx/Bitstreams-axi_firewall/MedianBlur-GaussianBlur_pblock_medianblur_0_partial.bit 24.350340
L MedianBlur 0 24.671643
F 0 24.821158
DQ 3 27
CrL M 3 27 0 24.821236
L MedianBlur 0 24.829809
F 0 24.910767
DQ 4 25
CrL M 4 25 0 24.910843
L MedianBlur 0 24.979788
F 0 25.203998
END 25.204016
