ARR 2 0 0.082850
CrS GaussianBlur  medianblur_0 0.082899
CrL M 2 0 0 0.082998
S /home/xilinx/Bitstreams-axi_firewall/MedianBlur-GaussianBlur_pblock_medianblur_0_partial.bit 0.090517
L MedianBlur 0 0.401435
ARR 0 1 0.442927
EQ 0 1
F 0 0.476282
DQ 0 1
CrL M 0 1 0 0.476346
L MedianBlur 0 0.479792
ARR 4 2 0.488089
EQ 4 2
ARR 2 3 0.498882
EQ 2 3
ARR 3 4 0.526722
EQ 3 4
ARR 1 5 0.538069
EQ 1 5
ARR 1 6 0.539170
EQ 1 6
ARR 4 7 0.541596
EQ 4 7
ARR 2 8 0.566011
EQ 2 8
ARR 0 9 0.570157
EQ 0 9
ARR 2 10 0.593862
EQ 2 10
ARR 2 11 0.604629
EQ 2 11
ARR 1 12 0.616656
EQ 1 12
ARR 3 13 0.638470
EQ 3 13
ARR 4 14 0.646690
EQ 4 14
ARR 4 15 0.649857
EQ 4 15
ARR 3 16 0.695285
EQ 3 16
F 0 0.703951
DQ 0 9
CrL M 0 9 0 0.704004
ARR 0 17 0.712963
EQ 0 17
ARR 2 18 0.714282
EQ 2 18
L MedianBlur 0 0.729805
ARR 1 19 0.788131
EQ 1 19
ARR 4 20 0.793130
EQ 4 20
ARR 0 21 0.817034
EQ 0 21
ARR 3 22 0.836075
EQ 3 22
ARR 0 23 0.867736
EQ 0 23
ARR 4 24 0.880015
EQ 4 24
ARR 4 25 0.892336
EQ 4 25
ARR 2 26 0.903040
EQ 2 26
ARR 3 27 0.916031
EQ 3 27
ARR 3 28 0.917524
EQ 3 28
ARR 4 29 0.933420
EQ 4 29
F 0 0.953987
DQ 0 17
CrL M 0 17 0 0.954047
L MedianBlur 0 0.999776
F 0 1.224013
DQ 0 21
CrL M 0 21 0 1.224069
L MedianBlur 0 1.279774
F 0 1.429270
DQ 0 23
CrL M 0 23 0 1.429320
L MedianBlur 0 1.439779
F 0 1.589260
DQ 1 5
CrL M 1 5 0 1.589312
L MedianBlur 0 1.599781
F 0 1.674574
DQ 1 6
CrS GaussianBlur  medianblur_0 1.674598
CrL G 1 6 0 1.674650
S /home/xilinx/Bitstreams-axi_firewall/GaussianBlur-GaussianBlur_pblock_medianblur_0_partial.bit 1.680365
L GaussianBlur 0 1.985746
F 0 2.116343
DQ 1 12
CrS GaussianBlur  medianblur_0 2.116377
CrL M 1 12 0 2.116458
S /home/xilinx/Bitstreams-axi_firewall/MedianBlur-GaussianBlur_pblock_medianblur_0_partial.bit 2.116957
L MedianBlur 0 2.443279
F 0 2.592792
DQ 1 19
CrL M 1 19 0 2.592860
L MedianBlur 0 2.599793
F 0 2.824043
DQ 2 3
CrS GaussianBlur  medianblur_0 2.824078
CrL G 2 3 0 2.824145
S /home/xilinx/Bitstreams-axi_firewall/GaussianBlur-GaussianBlur_pblock_medianblur_0_partial.bit 2.830404
L GaussianBlur 0 3.142939
F 0 3.273511
DQ 2 8
CrL G 2 8 0 3.273581
L GaussianBlur 0 3.309776
F 0 3.440350
DQ 2 10
CrS GaussianBlur  medianblur_0 3.440375
CrL M 2 10 0 3.440434
S /home/xilinx/Bitstreams-axi_firewall/MedianBlur-GaussianBlur_pblock_medianblur_0_partial.bit 3.470321
L MedianBlur 0 3.774045
F 0 3.848867
DQ 2 11
CrL M 2 11 0 3.848936
L MedianBlur 0 3.849780
F 0 4.074092
DQ 2 18
CrL M 2 18 0 4.074171
L MedianBlur 0 4.089780
F 0 4.313947
DQ 2 26
CrS GaussianBlur  medianblur_0 4.313977
CrL G 2 26 0 4.314041
S /home/xilinx/Bitstreams-axi_firewall/GaussianBlur-GaussianBlur_pblock_medianblur_0_partial.bit 4.350324
L GaussianBlur 0 4.639448
F 0 4.770016
DQ 3 4
CrS GaussianBlur  medianblur_0 4.770044
CrL M 3 4 0 4.770109
S /home/xilinx/Bitstreams-axi_firewall/MedianBlur-GaussianBlur_pblock_medianblur_0_partial.bit 4.787262
L MedianBlur 0 5.106013
F 0 5.180846
DQ 3 13
CrL M 3 13 0 5.180912
L MedianBlur 0 5.219773
F 0 5.443944
DQ 3 16
CrL M 3 16 0 5.444008
L MedianBlur 0 5.459776
F 0 5.534574
DQ 3 22
CrL M 3 22 0 5.534628
L MedianBlur 0 5.579775
F 0 5.729266
DQ 3 27
CrL M 3 27 0 5.729320
L MedianBlur 0 5.739781
F 0 5.889272
DQ 3 28
CrL M 3 28 0 5.889327
L MedianBlur 0 5.899807
F 0 6.049343
DQ 4 2
CrS GaussianBlur  medianblur_0 6.049376
CrL G 4 2 0 6.049446
S /home/xilinx/Bitstreams-axi_firewall/GaussianBlur-GaussianBlur_pblock_medianblur_0_partial.bit 6.061061
L GaussianBlur 0 6.358200
F 0 6.488771
DQ 4 7
CrL G 4 7 0 6.488842
L GaussianBlur 0 6.509776
F 0 6.640348
DQ 4 14
CrS GaussianBlur  medianblur_0 6.640375
CrL M 4 14 0 6.640438
S /home/xilinx/Bitstreams-axi_firewall/MedianBlur-GaussianBlur_pblock_medianblur_0_partial.bit 6.640955
L MedianBlur 0 6.938541
F 0 7.162717
DQ 4 15
CrL M 4 15 0 7.162788
L MedianBlur 0 7.169805
F 0 7.319311
DQ 4 20
CrL M 4 20 0 7.319376
L MedianBlur 0 7.339777
F 0 7.564061
DQ 4 24
CrS GaussianBlur  medianblur_0 7.564085
CrL G 4 24 0 7.564141
S /home/xilinx/Bitstreams-axi_firewall/GaussianBlur-GaussianBlur_pblock_medianblur_0_partial.bit 7.580336
L GaussianBlur 0 7.902418
F 0 8.033023
DQ 4 25
CrS GaussianBlur  medianblur_0 8.033061
CrL M 4 25 0 8.033210
S /home/xilinx/Bitstreams-axi_firewall/MedianBlur-GaussianBlur_pblock_medianblur_0_partial.bit 8.070382
L MedianBlur 0 8.374888
F 0 8.599111
DQ 4 29
CrS GaussianBlur  medianblur_0 8.599143
CrL G 4 29 0 8.599211
S /home/xilinx/Bitstreams-axi_firewall/GaussianBlur-GaussianBlur_pblock_medianblur_0_partial.bit 8.600286
L GaussianBlur 0 8.910536
F 0 9.041119
END 9.041140
