ARR 2 0 0.082816
CrS GaussianBlur GaussianBlur medianblur_0 0.082864
CrL M 2 0 0 0.082945
S /home/xilinx/Bitstreams-axi_firewall/MedianBlur-GaussianBlur_pblock_medianblur_0_partial.bit 0.090537
L MedianBlur 0 0.421583
ARR 0 1 0.454706
CrS MedianBlur GaussianBlur gaussianblur_0 0.454734
CrL M 0 1 1 0.454801
S /home/xilinx/Bitstreams-axi_firewall/MedianBlur-MedianBlur_pblock_gaussianblur_0_partial.bit 0.460708
L MedianBlur 1 0.769026
F 0 0.779773
ARR 4 2 0.824667
CrS GaussianBlur MedianBlur medianblur_0 0.824697
CrL G 4 2 0 0.824762
S /home/xilinx/Bitstreams-axi_firewall/GaussianBlur-MedianBlur_pblock_medianblur_0_partial.bit 0.840290
L GaussianBlur 0 1.156386
F 1 1.159907
ARR 2 3 1.170704
CrS MedianBlur GaussianBlur gaussianblur_0 1.170732
CrL G 2 3 1 1.170804
S /home/xilinx/Bitstreams-axi_firewall/GaussianBlur-GaussianBlur_pblock_gaussianblur_0_partial.bit 1.171301
L GaussianBlur 1 1.484498
F 0 1.489917
ARR 3 4 1.517766
CrS GaussianBlur MedianBlur medianblur_0 1.517797
CrL M 3 4 0 1.517856
S /home/xilinx/Bitstreams-axi_firewall/MedianBlur-GaussianBlur_pblock_medianblur_0_partial.bit 1.540319
L MedianBlur 0 1.864978
F 1 1.869907
ARR 1 5 1.881816
CrS MedianBlur GaussianBlur gaussianblur_0 1.881846
CrL M 1 5 1 1.881904
S /home/xilinx/Bitstreams-axi_firewall/MedianBlur-MedianBlur_pblock_gaussianblur_0_partial.bit 1.910424
L MedianBlur 1 2.220048
F 0 2.239774
ARR 1 6 2.241438
CrS GaussianBlur MedianBlur medianblur_0 2.241469
CrL G 1 6 0 2.241528
S /home/xilinx/Bitstreams-axi_firewall/GaussianBlur-MedianBlur_pblock_medianblur_0_partial.bit 2.270338
L GaussianBlur 0 2.575117
F 1 2.575204
ARR 4 7 2.577653
CrS MedianBlur GaussianBlur gaussianblur_0 2.577682
CrL G 4 7 1 2.577742
S /home/xilinx/Bitstreams-axi_firewall/GaussianBlur-GaussianBlur_pblock_gaussianblur_0_partial.bit 2.600332
L GaussianBlur 1 2.910425
F 0 2.929775
ARR 2 8 2.954752
CrL G 2 8 0 2.954818
ARR 0 9 2.958985
EQ 0 9
ARR 2 10 2.982701
EQ 2 10
ARR 2 11 2.993480
EQ 2 11
ARR 1 12 3.005516
EQ 1 12
L GaussianBlur 0 3.009782
ARR 3 13 3.027334
R 0 3.027649
EQ 2 8
EV 8 13 0 3.027843
CrS MedianBlur MedianBlur medianblur_0 3.027859
CrL M 3 13 0 3.027891
S /home/xilinx/Bitstreams-axi_firewall/MedianBlur-GaussianBlur_pblock_medianblur_0_partial.bit 3.050310
L MedianBlur 0 3.349372
F 1 3.359775
DQ 0 9
CrS MedianBlur GaussianBlur gaussianblur_0 3.359810
S /home/xilinx/Bitstreams-axi_firewall/MedianBlur-MedianBlur_pblock_gaussianblur_0_partial.bit 3.360469
CrL M 0 9 1 3.360473
L MedianBlur 1 3.667267
F 0 3.679775
DQ 1 12
CrL M 1 12 0 3.680386
ARR 4 14 3.689097
R 0 3.689393
EQ 1 12
EV 12 14 0 3.689575
CrL M 4 14 0 3.689601
ARR 4 15 3.692744
R 1 3.693015
EQ 0 9
EV 9 15 1 3.693196
CrL M 4 15 1 3.693222
L MedianBlur 1 3.699797
L MedianBlur 0 3.719820
ARR 3 16 3.738657
EQ 3 16
ARR 0 17 3.756123
EQ 0 17
ARR 2 18 3.757449
EQ 2 18
ARR 1 19 3.831304
EQ 1 19
ARR 4 20 3.836315
EQ 4 20
F 1 3.849775
DQ 0 9
CrL M 0 9 1 3.849833
L MedianBlur 1 3.859783
ARR 0 21 3.860436
EQ 0 21
ARR 3 22 3.879485
R 1 3.879825
EQ 0 9
EV 9 22 1 3.880002
CrL M 3 22 1 3.880027
L MedianBlur 1 3.899790
ARR 0 23 3.911720
EQ 0 23
ARR 4 24 3.924037
R 1 3.924347
EQ 3 22
EV 22 24 1 3.924531
CrS MedianBlur MedianBlur gaussianblur_0 3.924547
CrL G 4 24 1 3.924580
S /home/xilinx/Bitstreams-axi_firewall/MedianBlur-GaussianBlur_pblock_gaussianblur_0_partial.bit 3.940324
L GaussianBlur 1 4.242486
F 0 4.249927
DQ 0 17
CrL M 0 17 0 4.250539
ARR 4 25 4.272068
R 0 4.272359
EQ 0 17
EV 17 25 0 4.272541
CrL M 4 25 0 4.272566
ARR 2 26 4.283278
EQ 2 26
ARR 3 27 4.296291
EQ 3 27
ARR 3 28 4.297800
EQ 3 28
L MedianBlur 0 4.299861
ARR 4 29 4.313708
EQ 4 29
F 1 4.373271
DQ 0 21
CrS MedianBlur GaussianBlur gaussianblur_0 4.373304
CrL M 0 21 1 4.373359
S /home/xilinx/Bitstreams-axi_firewall/MedianBlur-MedianBlur_pblock_gaussianblur_0_partial.bit 4.400309
L MedianBlur 1 4.699446
F 0 4.709857
DQ 0 9
CrL M 0 9 0 4.709930
L MedianBlur 0 4.719816
F 1 4.849425
DQ 0 23
CrL M 0 23 1 4.849491
L MedianBlur 1 4.889771
F 0 4.899135
DQ 0 17
CrL M 0 17 0 4.899195
L MedianBlur 0 4.919773
F 1 5.041055
DQ 1 12
CrL M 1 12 1 5.041121
L MedianBlur 1 5.049788
F 0 5.146941
DQ 1 19
CrL M 1 19 0 5.147067
L MedianBlur 0 5.159775
F 1 5.200324
DQ 2 10
CrL M 2 10 1 5.200384
L MedianBlur 1 5.249770
F 1 5.325876
DQ 2 11
CrL M 2 11 1 5.325933
L MedianBlur 1 5.369777
F 0 5.385577
DQ 2 8
CrS GaussianBlur MedianBlur medianblur_0 5.385604
CrL G 2 8 0 5.385656
S /home/xilinx/Bitstreams-axi_firewall/GaussianBlur-MedianBlur_pblock_medianblur_0_partial.bit 5.400341
L GaussianBlur 0 5.704227
F 1 5.704306
DQ 2 18
CrL M 2 18 1 5.704935
L MedianBlur 1 5.749841
F 0 5.835039
DQ 2 26
CrL G 2 26 0 5.835102
L GaussianBlur 0 5.859802
F 1 5.974764
DQ 3 16
CrL M 3 16 1 5.974844
L MedianBlur 1 5.990456
F 0 5.990713
DQ 3 22
CrS GaussianBlur MedianBlur medianblur_0 5.990744
CrL M 3 22 0 5.990812
S /home/xilinx/Bitstreams-axi_firewall/MedianBlur-MedianBlur_pblock_medianblur_0_partial.bit 6.020347
L MedianBlur 0 6.371263
F 1 6.379899
DQ 3 27
CrL M 3 27 1 6.379971
L MedianBlur 1 6.419791
F 0 6.521138
DQ 3 28
CrL M 3 28 0 6.521205
F 1 6.569644
DQ 4 20
CrL M 4 20 1 6.569708
L MedianBlur 0 6.569786
L MedianBlur 1 6.619769
F 0 6.719690
DQ 4 29
CrS GaussianBlur MedianBlur medianblur_0 6.719723
CrL G 4 29 0 6.719810
S /home/xilinx/Bitstreams-axi_firewall/GaussianBlur-MedianBlur_pblock_medianblur_0_partial.bit 6.730380
L GaussianBlur 0 7.040537
F 1 7.040615
F 0 7.171116
END 7.171135
