ARR 2 0 6.059980
CrS GaussianBlur GaussianBlur medianblur_0 6.060037
CrL M 2 0 0 6.060124
S /home/xilinx/Bitstreams-axi_firewall/MedianBlur-GaussianBlur_pblock_medianblur_0_partial.bit 6.090520
L MedianBlur 0 6.431223
F 0 6.506039
ARR 0 1 8.506058
CrL M 0 1 0 8.506143
L MedianBlur 0 8.549853
F 0 8.774036
ARR 4 2 11.566713
CrS GaussianBlur GaussianBlur medianblur_0 11.566755
CrL G 4 2 0 11.566827
S /home/xilinx/Bitstreams-axi_firewall/GaussianBlur-GaussianBlur_pblock_medianblur_0_partial.bit 11.590452
L GaussianBlur 0 11.904794
ARR 2 3 11.994652
CrL G 2 3 1 11.994730
L GaussianBlur 1 12.029850
F 0 12.035399
F 1 12.160443
ARR 3 4 14.018114
CrS GaussianBlur GaussianBlur medianblur_0 14.018159
CrL M 3 4 0 14.018233
S /home/xilinx/Bitstreams-axi_firewall/MedianBlur-GaussianBlur_pblock_medianblur_0_partial.bit 14.030559
L MedianBlur 0 14.342205
F 0 14.417034
ARR 1 5 14.431596
CrL M 1 5 0 14.431665
ARR 1 6 14.438979
CrL G 1 6 1 14.439044
L GaussianBlur 1 14.449860
ARR 4 7 14.456971
R 0 14.457305
EQ 1 5
EV 5 7 0 14.457500
CrS MedianBlur MedianBlur medianblur_0 14.457519
CrL G 4 7 0 14.457556
S /home/xilinx/Bitstreams-axi_firewall/GaussianBlur-GaussianBlur_pblock_medianblur_0_partial.bit 14.460441
L GaussianBlur 0 14.777914
F 1 14.779976
DQ 1 5
CrS MedianBlur GaussianBlur gaussianblur_0 14.780013
CrL M 1 5 1 14.780094
S /home/xilinx/Bitstreams-axi_firewall/GaussianBlur-MedianBlur_pblock_gaussianblur_0_partial.bit 14.780808
L MedianBlur 1 15.121449
F 0 15.129841
F 1 15.196291
ARR 2 8 16.225361
CrL G 2 8 0 16.225432
L GaussianBlur 0 16.249852
ARR 0 9 16.257191
CrL M 0 9 1 16.257252
L MedianBlur 1 16.279850
F 0 16.380679
F 1 16.504378
ARR 2 10 17.346573
CrS GaussianBlur GaussianBlur medianblur_0 17.346618
CrL M 2 10 0 17.346700
S /home/xilinx/Bitstreams-axi_firewall/MedianBlur-MedianBlur_pblock_medianblur_0_partial.bit 17.347236
L MedianBlur 0 17.713666
F 0 17.788493
ARR 2 11 17.798462
CrL M 2 11 0 17.798532
L MedianBlur 0 17.829854
ARR 1 12 17.893345
CrL M 1 12 1 17.893413
L MedianBlur 1 17.929852
F 0 18.054602
F 1 18.079838
ARR 3 13 18.967637
CrL M 3 13 0 18.967721
L MedianBlur 0 18.989865
ARR 4 14 19.032018
CrL M 4 14 1 19.032082
ARR 4 15 19.055639
R 0 19.055978
EQ 3 13
EV 13 15 0 19.056166
CrL M 4 15 0 19.056195
L MedianBlur 0 19.059904
L MedianBlur 1 19.079856
F 0 19.209934
DQ 3 13
CrL M 3 13 0 19.209999
L MedianBlur 0 19.219863
F 1 19.305122
F 0 19.378979
ARR 3 16 22.119935
CrL M 3 16 0 22.120021
L MedianBlur 0 22.159851
F 0 22.234684
ARR 0 17 23.159265
CrL M 0 17 0 23.159360
ARR 2 18 23.168438
CrL M 2 18 1 23.168508
L MedianBlur 1 23.169892
L MedianBlur 0 23.179877
F 1 23.394921
F 0 23.404867
ARR 1 19 28.259955
CrL M 1 19 0 28.260041
L MedianBlur 0 28.279856
ARR 4 20 28.298619
CrL M 4 20 1 28.298684
L MedianBlur 1 28.339848
F 0 28.506547
F 1 28.566419
ARR 0 21 29.389635
CrL M 0 21 0 29.389718
L MedianBlur 0 29.399868
F 0 29.549379
ARR 3 22 30.441609
CrL M 3 22 0 30.441676
L MedianBlur 0 30.499878
F 0 30.649422
ARR 0 23 32.495488
CrL M 0 23 0 32.495568
L MedianBlur 0 32.539849
ARR 4 24 32.592415
CrS MedianBlur GaussianBlur gaussianblur_0 32.592454
CrL G 4 24 1 32.592523
S /home/xilinx/Bitstreams-axi_firewall/MedianBlur-GaussianBlur_pblock_gaussianblur_0_partial.bit 32.600536
L GaussianBlur 1 32.961520
F 0 32.969956
ARR 4 25 33.067128
CrL M 4 25 0 33.067198
L MedianBlur 0 33.069864
F 1 33.092198
ARR 2 26 33.151590
CrL G 2 26 1 33.151660
L GaussianBlur 1 33.199851
F 0 33.294528
F 1 33.330663
ARR 3 27 34.155268
CrL M 3 27 0 34.155336
ARR 3 28 34.165842
CrS MedianBlur GaussianBlur gaussianblur_0 34.165873
CrL M 3 28 1 34.165931
S /home/xilinx/Bitstreams-axi_firewall/MedianBlur-MedianBlur_pblock_gaussianblur_0_partial.bit 34.170403
L MedianBlur 0 34.219956
L MedianBlur 1 34.520268
F 0 34.540619
F 1 34.669837
ARR 4 29 35.567983
CrS GaussianBlur GaussianBlur medianblur_0 35.568023
CrL G 4 29 0 35.568091
S /home/xilinx/Bitstreams-axi_firewall/GaussianBlur-MedianBlur_pblock_medianblur_0_partial.bit 35.570427
L GaussianBlur 0 35.942386
F 0 36.072963
END 36.072984
