ARR 2 0 0.082831
CrS GaussianBlur GaussianBlur medianblur_0 0.082873
CrL M 2 0 0 0.082954
S /home/xilinx/Bitstreams-axi_firewall/MedianBlur-GaussianBlur_pblock_medianblur_0_partial.bit 0.110420
L MedianBlur 0 0.433163
ARR 0 1 0.472933
CrS MedianBlur GaussianBlur gaussianblur_0 0.472959
CrL M 0 1 1 0.473028
S /home/xilinx/Bitstreams-axi_firewall/MedianBlur-MedianBlur_pblock_gaussianblur_0_partial.bit 0.500582
L MedianBlur 1 0.838272
F 0 0.849780
ARR 4 2 0.895240
CrS GaussianBlur MedianBlur medianblur_0 0.895268
CrL G 4 2 0 0.895334
S /home/xilinx/Bitstreams-axi_firewall/GaussianBlur-MedianBlur_pblock_medianblur_0_partial.bit 0.895839
L GaussianBlur 0 1.272357
F 1 1.279900
ARR 2 3 1.290727
CrS MedianBlur GaussianBlur gaussianblur_0 1.290756
CrL G 2 3 1 1.290833
S /home/xilinx/Bitstreams-axi_firewall/GaussianBlur-GaussianBlur_pblock_gaussianblur_0_partial.bit 1.291356
L GaussianBlur 1 1.632133
F 0 1.639780
ARR 3 4 1.668213
CrS GaussianBlur MedianBlur medianblur_0 1.668239
CrL M 3 4 0 1.668303
S /home/xilinx/Bitstreams-axi_firewall/MedianBlur-GaussianBlur_pblock_medianblur_0_partial.bit 1.668809
L MedianBlur 0 2.018180
F 1 2.019817
ARR 1 5 2.031734
CrS MedianBlur GaussianBlur gaussianblur_0 2.031759
CrL M 1 5 1 2.031818
S /home/xilinx/Bitstreams-axi_firewall/MedianBlur-MedianBlur_pblock_gaussianblur_0_partial.bit 2.060338
L MedianBlur 1 2.387125
F 0 2.389918
ARR 1 6 2.391007
CrS GaussianBlur MedianBlur medianblur_0 2.391032
CrL G 1 6 0 2.391092
S /home/xilinx/Bitstreams-axi_firewall/GaussianBlur-MedianBlur_pblock_medianblur_0_partial.bit 2.410359
L GaussianBlur 0 2.739452
F 1 2.749781
ARR 4 7 2.752775
CrS MedianBlur GaussianBlur gaussianblur_0 2.752800
CrL G 4 7 1 2.752865
S /home/xilinx/Bitstreams-axi_firewall/GaussianBlur-GaussianBlur_pblock_gaussianblur_0_partial.bit 2.753378
L GaussianBlur 1 3.109939
F 0 3.110027
ARR 2 8 3.134449
CrL G 2 8 0 3.134509
ARR 0 9 3.138679
EQ 0 9
ARR 2 10 3.162394
EQ 2 10
ARR 2 11 3.173171
EQ 2 11
L GaussianBlur 0 3.179796
ARR 1 12 3.185208
EQ 1 12
ARR 3 13 3.207050
EQ 3 13
ARR 4 14 3.215300
EQ 4 14
ARR 4 15 3.218451
EQ 4 15
F 1 3.240593
DQ 0 9
CrS MedianBlur GaussianBlur gaussianblur_0 3.240618
CrL M 0 9 1 3.240677
S /home/xilinx/Bitstreams-axi_firewall/GaussianBlur-MedianBlur_pblock_gaussianblur_0_partial.bit 3.270347
L MedianBlur 1 3.579278
F 0 3.589780
DQ 1 12
CrS GaussianBlur MedianBlur medianblur_0 3.589807
S /home/xilinx/Bitstreams-axi_firewall/MedianBlur-MedianBlur_pblock_medianblur_0_partial.bit 3.590457
CrL M 1 12 0 3.590474
L MedianBlur 0 3.933775
F 1 3.939914
DQ 2 10
CrL M 2 10 1 3.940530
ARR 3 16 3.964388
EQ 3 16
ARR 0 17 3.981856
EQ 0 17
ARR 2 18 3.983190
EQ 2 18
L MedianBlur 1 3.989799
ARR 1 19 4.057048
EQ 1 19
ARR 4 20 4.062056
EQ 4 20
F 1 4.064913
DQ 0 17
CrL M 0 17 1 4.064967
F 0 4.083601
DQ 1 19
CrL M 1 19 0 4.083655
ARR 0 21 4.086442
EQ 0 21
L MedianBlur 0 4.089799
ARR 3 22 4.105489
EQ 3 22
L MedianBlur 1 4.109797
ARR 0 23 4.137154
EQ 0 23
ARR 4 24 4.149441
EQ 4 24
ARR 4 25 4.161770
EQ 4 25
ARR 2 26 4.172482
EQ 2 26
ARR 3 27 4.185482
EQ 3 27
ARR 3 28 4.186989
EQ 3 28
ARR 4 29 4.202890
EQ 4 29
F 0 4.314812
DQ 0 21
CrL M 0 21 0 4.314876
L MedianBlur 0 4.329790
F 1 4.334790
DQ 0 23
CrL M 0 23 1 4.334845
L MedianBlur 1 4.389783
F 0 4.480607
DQ 2 11
CrL M 2 11 0 4.480661
L MedianBlur 0 4.489798
F 1 4.540950
DQ 2 18
CrL M 2 18 1 4.541001
L MedianBlur 1 4.589783
F 0 4.714755
DQ 2 26
CrS GaussianBlur MedianBlur medianblur_0 4.714779
CrL G 2 26 0 4.714833
S /home/xilinx/Bitstreams-axi_firewall/GaussianBlur-MedianBlur_pblock_medianblur_0_partial.bit 4.730354
L GaussianBlur 0 5.081061
F 1 5.081137
DQ 3 13
CrL M 3 13 1 5.081743
L MedianBlur 1 5.133590
F 0 5.211896
DQ 3 16
CrS GaussianBlur MedianBlur medianblur_0 5.211930
CrL M 3 16 0 5.212016
S /home/xilinx/Bitstreams-axi_firewall/MedianBlur-MedianBlur_pblock_medianblur_0_partial.bit 5.212559
L MedianBlur 0 5.559889
F 1 5.559966
DQ 3 22
CrL M 3 22 1 5.560033
L MedianBlur 1 5.589828
F 0 5.635378
DQ 3 27
CrL M 3 27 0 5.635437
L MedianBlur 0 5.679785
F 1 5.740812
DQ 3 28
CrL M 3 28 1 5.740866
L MedianBlur 1 5.789785
F 0 5.830276
DQ 4 14
CrL M 4 14 0 5.830334
L MedianBlur 0 5.879786
F 1 5.940641
DQ 4 15
CrL M 4 15 1 5.940697
L MedianBlur 1 5.989788
F 0 6.105547
DQ 4 20
CrL M 4 20 0 6.105603
F 1 6.139738
DQ 4 24
CrS MedianBlur GaussianBlur gaussianblur_0 6.139782
CrL G 4 24 1 6.139837
S /home/xilinx/Bitstreams-axi_firewall/MedianBlur-GaussianBlur_pblock_gaussianblur_0_partial.bit 6.150382
L MedianBlur 0 6.159902
L GaussianBlur 1 6.492111
F 0 6.499905
DQ 4 25
CrL M 4 25 0 6.499975
L MedianBlur 0 6.519802
F 1 6.622957
DQ 4 29
CrL G 4 29 1 6.623018
L GaussianBlur 1 6.649788
F 0 6.744688
F 1 6.780590
END 6.780607
