ARR 2 0 6.059931
CrS GaussianBlur GaussianBlur medianblur_0 6.059981
CrL M 2 0 0 6.060063
S /home/xilinx/Bitstreams-axi_firewall/MedianBlur-GaussianBlur_pblock_medianblur_0_partial.bit 6.070653
L MedianBlur 0 6.400263
F 0 6.475129
ARR 0 1 8.466471
CrL M 0 1 0 8.466555
L MedianBlur 0 8.479805
F 0 8.703977
ARR 4 2 11.527114
CrS GaussianBlur GaussianBlur medianblur_0 11.527154
CrL G 4 2 0 11.527231
S /home/xilinx/Bitstreams-axi_firewall/GaussianBlur-GaussianBlur_pblock_medianblur_0_partial.bit 11.550378
L GaussianBlur 0 11.872832
ARR 2 3 11.957633
CrL G 2 3 1 11.957703
L GaussianBlur 1 11.979803
F 0 12.003676
F 1 12.110625
ARR 3 4 13.979898
CrS GaussianBlur GaussianBlur medianblur_0 13.979937
CrL M 3 4 0 13.980012
S /home/xilinx/Bitstreams-axi_firewall/MedianBlur-GaussianBlur_pblock_medianblur_0_partial.bit 13.990506
L MedianBlur 0 14.311085
F 0 14.385910
ARR 1 5 14.409227
CrL M 1 5 0 14.409292
ARR 1 6 14.416623
CrL G 1 6 1 14.416699
L MedianBlur 0 14.429813
ARR 4 7 14.434632
EQ 4 7
L GaussianBlur 1 14.449803
F 0 14.504879
DQ 4 7
CrS GaussianBlur MedianBlur medianblur_0 14.504920
CrL G 4 7 0 14.504991
S /home/xilinx/Bitstreams-axi_firewall/GaussianBlur-GaussianBlur_pblock_medianblur_0_partial.bit 14.510444
L GaussianBlur 0 14.828660
F 1 14.829831
F 0 14.959270
ARR 2 8 15.855158
CrL G 2 8 0 15.855227
ARR 0 9 15.886991
CrS MedianBlur GaussianBlur gaussianblur_0 15.887022
CrL M 0 9 1 15.887083
S /home/xilinx/Bitstreams-axi_firewall/GaussianBlur-MedianBlur_pblock_gaussianblur_0_partial.bit 15.900636
L GaussianBlur 0 15.909923
L MedianBlur 1 16.216886
F 0 16.219831
F 1 16.441130
ARR 2 10 17.309609
CrS GaussianBlur GaussianBlur medianblur_0 17.309646
CrL M 2 10 0 17.309718
S /home/xilinx/Bitstreams-axi_firewall/MedianBlur-MedianBlur_pblock_medianblur_0_partial.bit 17.310367
L MedianBlur 0 17.630796
F 0 17.705617
ARR 2 11 17.715589
CrL M 2 11 0 17.715654
L MedianBlur 0 17.749802
ARR 1 12 17.810469
CrL M 1 12 1 17.810532
L MedianBlur 1 17.839812
F 0 17.976429
F 1 17.991599
ARR 3 13 18.884787
CrL M 3 13 0 18.884867
L MedianBlur 0 18.919802
ARR 4 14 18.949165
CrL M 4 14 1 18.949225
ARR 4 15 18.972785
EQ 4 15
L MedianBlur 1 18.989802
F 0 19.144615
DQ 4 15
CrL M 4 15 0 19.144673
L MedianBlur 0 19.199796
F 1 19.214724
F 0 19.349542
ARR 3 16 22.037959
CrL M 3 16 0 22.038039
L MedianBlur 0 22.089829
F 0 22.164654
ARR 0 17 23.077268
CrL M 0 17 0 23.077349
ARR 2 18 23.086419
CrL M 2 18 1 23.086483
L MedianBlur 0 23.109801
L MedianBlur 1 23.129828
F 0 23.334742
F 1 23.354745
ARR 1 19 28.179907
CrL M 1 19 0 28.179992
L MedianBlur 0 28.209806
ARR 4 20 28.218542
CrL M 4 20 1 28.218601
L MedianBlur 1 28.259799
F 0 28.434719
F 1 28.484773
ARR 0 21 29.309566
CrL M 0 21 0 29.309640
L MedianBlur 0 29.329804
F 0 29.479328
ARR 3 22 30.361557
CrL M 3 22 0 30.361617
L MedianBlur 0 30.361961
F 0 30.511532
ARR 0 23 32.415502
CrL M 0 23 0 32.415584
L MedianBlur 0 32.439815
ARR 4 24 32.512445
CrS MedianBlur GaussianBlur gaussianblur_0 32.512479
CrL G 4 24 1 32.512558
S /home/xilinx/Bitstreams-axi_firewall/MedianBlur-GaussianBlur_pblock_gaussianblur_0_partial.bit 32.513131
L GaussianBlur 1 32.851927
F 0 32.852016
ARR 4 25 32.949190
CrL M 4 25 0 32.949256
L MedianBlur 0 32.979801
F 1 32.982548
ARR 2 26 33.033615
CrL G 2 26 1 33.033681
L GaussianBlur 1 33.049817
F 1 33.180716
F 0 33.204511
ARR 3 27 34.037314
CrL M 3 27 0 34.037375
ARR 3 28 34.047905
CrS MedianBlur GaussianBlur gaussianblur_0 34.047931
CrL M 3 28 1 34.047991
S /home/xilinx/Bitstreams-axi_firewall/MedianBlur-MedianBlur_pblock_gaussianblur_0_partial.bit 34.050357
L MedianBlur 0 34.059959
L MedianBlur 1 34.339507
F 0 34.349812
F 1 34.489096
ARR 4 29 35.377147
CrS GaussianBlur GaussianBlur medianblur_0 35.377183
CrL G 4 29 0 35.377261
S /home/xilinx/Bitstreams-axi_firewall/GaussianBlur-MedianBlur_pblock_medianblur_0_partial.bit 35.377792
L GaussianBlur 0 35.713033
F 0 35.843611
END 35.843632
