ARR 2 0 0.082816
CrS GaussianBlur  medianblur_0 0.082865
CrL M 2 0 0 0.082945
S /home/xilinx/Bitstreams-axi_firewall/MedianBlur-GaussianBlur_pblock_medianblur_0_partial.bit 0.100502
L MedianBlur 0 0.404520
ARR 0 1 0.437643
EQ 0 1
F 0 0.479372
DQ 0 1
CrL M 0 1 0 0.479440
ARR 4 2 0.482794
R 0 0.483109
EQ 0 1
EV 1 2 0 0.483302
CrS MedianBlur  medianblur_0 0.483318
CrL G 4 2 0 0.483351
S /home/xilinx/Bitstreams-axi_firewall/GaussianBlur-GaussianBlur_pblock_medianblur_0_partial.bit 0.520450
L GaussianBlur 0 0.842442
ARR 2 3 0.853171
EQ 2 3
ARR 3 4 0.881033
EQ 3 4
ARR 1 5 0.892396
EQ 1 5
ARR 1 6 0.893500
EQ 1 6
ARR 4 7 0.895933
EQ 4 7
ARR 2 8 0.920347
EQ 2 8
ARR 0 9 0.924506
EQ 0 9
ARR 2 10 0.948220
EQ 2 10
ARR 2 11 0.958997
EQ 2 11
ARR 1 12 0.971030
EQ 1 12
F 0 0.973051
DQ 0 1
CrS GaussianBlur  medianblur_0 0.973081
CrL M 0 1 0 0.973137
S /home/xilinx/Bitstreams-axi_firewall/MedianBlur-GaussianBlur_pblock_medianblur_0_partial.bit 1.000422
L MedianBlur 0 1.307703
ARR 3 13 1.329739
R 0 1.330039
EQ 0 1
EV 1 13 0 1.330228
CrL M 3 13 0 1.330254
ARR 4 14 1.338493
R 0 1.338768
EQ 3 13
EV 13 14 0 1.338947
CrL M 4 14 0 1.338973
ARR 4 15 1.342111
EQ 4 15
L MedianBlur 0 1.379894
ARR 3 16 1.387562
EQ 3 16
ARR 0 17 1.405026
EQ 0 17
ARR 2 18 1.406352
EQ 2 18
ARR 1 19 1.480210
EQ 1 19
ARR 4 20 1.485219
EQ 4 20
ARR 0 21 1.509128
EQ 0 21
ARR 3 22 1.528181
EQ 3 22
ARR 0 23 1.559843
EQ 0 23
ARR 4 24 1.572136
EQ 4 24
ARR 4 25 1.584464
EQ 4 25
ARR 2 26 1.595173
EQ 2 26
F 0 1.604128
DQ 0 9
CrL M 0 9 0 1.604185
ARR 3 27 1.608421
R 0 1.608714
EQ 0 9
EV 9 27 0 1.608892
CrL M 3 27 0 1.608917
L MedianBlur 0 1.609906
ARR 3 28 1.610457
EQ 3 28
ARR 4 29 1.626365
R 0 1.626636
EQ 3 27
EV 27 29 0 1.626814
CrS MedianBlur  medianblur_0 1.626830
CrL G 4 29 0 1.626861
S /home/xilinx/Bitstreams-axi_firewall/GaussianBlur-GaussianBlur_pblock_medianblur_0_partial.bit 1.650371
L GaussianBlur 0 1.981676
F 0 2.112249
DQ 0 1
CrS GaussianBlur  medianblur_0 2.112282
CrL M 0 1 0 2.112347
S /home/xilinx/Bitstreams-axi_firewall/MedianBlur-GaussianBlur_pblock_medianblur_0_partial.bit 2.140378
L MedianBlur 0 2.429127
F 0 2.653268
DQ 0 17
CrL M 0 17 0 2.653345
L MedianBlur 0 2.699846
F 0 2.924084
DQ 0 21
CrL M 0 21 0 2.924157
L MedianBlur 0 2.969855
F 0 3.119350
DQ 0 23
CrL M 0 23 0 3.119413
L MedianBlur 0 3.129858
F 0 3.279361
DQ 0 9
CrL M 0 9 0 3.279421
L MedianBlur 0 3.289884
F 0 3.514025
DQ 1 5
CrL M 1 5 0 3.514084
L MedianBlur 0 3.559849
F 0 3.634664
DQ 1 6
CrS GaussianBlur  medianblur_0 3.634693
CrL G 1 6 0 3.634748
S /home/xilinx/Bitstreams-axi_firewall/GaussianBlur-GaussianBlur_pblock_medianblur_0_partial.bit 3.640499
L GaussianBlur 0 3.955299
F 0 4.085873
DQ 1 12
CrS GaussianBlur  medianblur_0 4.085908
CrL M 1 12 0 4.085976
S /home/xilinx/Bitstreams-axi_firewall/MedianBlur-GaussianBlur_pblock_medianblur_0_partial.bit 4.110401
L MedianBlur 0 4.434557
F 0 4.584057
DQ 1 19
CrL M 1 19 0 4.584131
L MedianBlur 0 4.629847
F 0 4.854082
DQ 2 3
CrS GaussianBlur  medianblur_0 4.854117
CrL G 2 3 0 4.854179
S /home/xilinx/Bitstreams-axi_firewall/GaussianBlur-GaussianBlur_pblock_medianblur_0_partial.bit 4.870417
L GaussianBlur 0 5.184613
F 0 5.315181
DQ 2 8
CrL G 2 8 0 5.315252
L GaussianBlur 0 5.339850
F 0 5.470417
DQ 2 10
CrS GaussianBlur  medianblur_0 5.470447
CrL M 2 10 0 5.470503
S /home/xilinx/Bitstreams-axi_firewall/MedianBlur-GaussianBlur_pblock_medianblur_0_partial.bit 5.500410
L MedianBlur 0 5.820928
F 0 5.895740
DQ 2 11
CrL M 2 11 0 5.895815
L MedianBlur 0 5.899865
F 0 6.124133
DQ 2 18
CrL M 2 18 0 6.124204
L MedianBlur 0 6.159851
F 0 6.383972
DQ 2 26
CrS GaussianBlur  medianblur_0 6.384002
CrL G 2 26 0 6.384059
S /home/xilinx/Bitstreams-axi_firewall/GaussianBlur-GaussianBlur_pblock_medianblur_0_partial.bit 6.400408
L GaussianBlur 0 6.707073
F 0 6.837642
DQ 3 4
CrS GaussianBlur  medianblur_0 6.837674
CrL M 3 4 0 6.837738
S /home/xilinx/Bitstreams-axi_firewall/MedianBlur-GaussianBlur_pblock_medianblur_0_partial.bit 6.860392
L MedianBlur 0 7.168775
F 0 7.243598
DQ 3 13
CrL M 3 13 0 7.243672
L MedianBlur 0 7.243711
F 0 7.467884
DQ 3 16
CrL M 3 16 0 7.467953
L MedianBlur 0 7.519844
F 0 7.594727
DQ 3 22
CrL M 3 22 0 7.594795
L MedianBlur 0 7.609850
F 0 7.759376
DQ 3 28
CrL M 3 28 0 7.759454
L MedianBlur 0 7.769874
F 0 7.919430
DQ 3 27
CrL M 3 27 0 7.919506
L MedianBlur 0 7.929861
F 0 8.062756
DQ 4 7
CrS GaussianBlur  medianblur_0 8.062791
CrL G 4 7 0 8.062849
S /home/xilinx/Bitstreams-axi_firewall/GaussianBlur-GaussianBlur_pblock_medianblur_0_partial.bit 8.090415
L GaussianBlur 0 8.404019
F 0 8.534597
DQ 4 15
CrS GaussianBlur  medianblur_0 8.534634
CrL M 4 15 0 8.534701
S /home/xilinx/Bitstreams-axi_firewall/MedianBlur-GaussianBlur_pblock_medianblur_0_partial.bit 8.550402
L MedianBlur 0 8.867338
F 0 9.016855
DQ 4 20
CrL M 4 20 0 9.016932
L MedianBlur 0 9.039850
F 0 9.264127
DQ 4 24
CrS GaussianBlur  medianblur_0 9.264161
CrL G 4 24 0 9.264224
S /home/xilinx/Bitstreams-axi_firewall/GaussianBlur-GaussianBlur_pblock_medianblur_0_partial.bit 9.280407
L GaussianBlur 0 9.578797
F 0 9.709369
DQ 4 25
CrS GaussianBlur  medianblur_0 9.709403
CrL M 4 25 0 9.709469
S /home/xilinx/Bitstreams-axi_firewall/MedianBlur-GaussianBlur_pblock_medianblur_0_partial.bit 9.730423
L MedianBlur 0 10.061518
F 0 10.285749
END 10.285775
