ARR 2 0 6.059921
CrS GaussianBlur GaussianBlur medianblur_0 6.059972
CrL M 2 0 0 6.060054
S /home/xilinx/Bitstreams-axi_firewall/MedianBlur-GaussianBlur_pblock_medianblur_0_partial.bit 6.070635
L MedianBlur 0 6.369439
F 0 6.832695
ARR 0 1 8.435616
CrL M 0 1 0 8.435691
L MedianBlur 0 8.439819
F 0 9.829451
ARR 4 2 11.495109
CrS GaussianBlur GaussianBlur medianblur_0 11.495148
CrL G 4 2 0 11.495221
S /home/xilinx/Bitstreams-axi_firewall/GaussianBlur-GaussianBlur_pblock_medianblur_0_partial.bit 11.520404
L GaussianBlur 0 11.861571
ARR 2 3 11.946371
CrL G 2 3 1 11.946443
L GaussianBlur 1 11.989800
F 0 12.677315
F 1 12.805520
ARR 3 4 13.969136
CrS GaussianBlur GaussianBlur medianblur_0 13.969176
CrL M 3 4 0 13.969248
S /home/xilinx/Bitstreams-axi_firewall/MedianBlur-GaussianBlur_pblock_medianblur_0_partial.bit 13.980484
L MedianBlur 0 14.303147
ARR 1 5 14.399062
CrS MedianBlur GaussianBlur gaussianblur_0 14.399091
CrL M 1 5 1 14.399162
S /home/xilinx/Bitstreams-axi_firewall/MedianBlur-MedianBlur_pblock_gaussianblur_0_partial.bit 14.400536
L MedianBlur 1 14.730375
ARR 1 6 14.747035
EQ 1 6
ARR 4 7 14.764978
EQ 4 7
F 0 14.768161
DQ 1 6
CrS GaussianBlur MedianBlur medianblur_0 14.768192
CrL G 1 6 0 14.768254
S /home/xilinx/Bitstreams-axi_firewall/GaussianBlur-MedianBlur_pblock_medianblur_0_partial.bit 14.780379
L GaussianBlur 0 15.122457
F 1 15.195920
DQ 4 7
CrS MedianBlur GaussianBlur gaussianblur_0 15.195951
CrL G 4 7 1 15.196021
S /home/xilinx/Bitstreams-axi_firewall/GaussianBlur-GaussianBlur_pblock_gaussianblur_0_partial.bit 15.210389
L GaussianBlur 1 15.507960
F 0 15.945971
F 1 16.330332
ARR 2 8 16.533176
CrL G 2 8 0 16.533237
L GaussianBlur 0 16.549804
ARR 0 9 16.564959
CrS MedianBlur GaussianBlur gaussianblur_0 16.564984
CrL M 0 9 1 16.565042
S /home/xilinx/Bitstreams-axi_firewall/GaussianBlur-MedianBlur_pblock_gaussianblur_0_partial.bit 16.580368
L MedianBlur 1 16.894269
F 0 17.367679
ARR 2 10 17.988691
CrS GaussianBlur MedianBlur medianblur_0 17.988724
CrL M 2 10 0 17.988791
S /home/xilinx/Bitstreams-axi_firewall/MedianBlur-MedianBlur_pblock_medianblur_0_partial.bit 18.000461
L MedianBlur 0 18.305437
F 1 18.309903
ARR 2 11 18.394637
CrL M 2 11 1 18.394704
L MedianBlur 1 18.409803
ARR 1 12 18.489516
EQ 1 12
F 0 18.774664
DQ 1 12
CrL M 1 12 0 18.774732
L MedianBlur 0 18.819809
ARR 3 13 19.563541
EQ 3 13
ARR 4 14 19.627867
EQ 4 14
ARR 4 15 19.651434
EQ 4 15
F 0 19.764468
DQ 3 13
CrL M 3 13 0 19.764528
L MedianBlur 0 19.789832
F 1 19.825125
DQ 4 14
CrL M 4 14 1 19.825182
L MedianBlur 1 19.849800
F 0 21.205986
DQ 4 15
CrL M 4 15 0 21.206069
L MedianBlur 0 21.259799
F 1 21.266491
F 0 22.186197
ARR 3 16 22.714930
CrL M 3 16 0 22.715005
L MedianBlur 0 22.739808
F 0 23.203094
ARR 0 17 23.753926
CrL M 0 17 0 23.754008
ARR 2 18 23.763082
CrL M 2 18 1 23.763144
L MedianBlur 0 23.789896
L MedianBlur 1 23.799809
F 0 25.208628
F 1 25.216214
ARR 1 19 28.856280
CrL M 1 19 0 28.856361
ARR 4 20 28.894907
CrL M 4 20 1 28.894972
L MedianBlur 0 28.899815
L MedianBlur 1 28.919841
ARR 0 21 29.985866
EQ 0 21
F 0 30.314060
DQ 0 21
CrL M 0 21 0 30.314126
F 1 30.336684
L MedianBlur 0 30.349802
ARR 3 22 31.037814
CrL M 3 22 1 31.037891
L MedianBlur 1 31.079800
F 0 31.279010
F 1 32.007570
ARR 0 23 33.091096
CrL M 0 23 0 33.091176
L MedianBlur 0 33.139811
ARR 4 24 33.188055
CrS MedianBlur GaussianBlur gaussianblur_0 33.188084
CrL G 4 24 1 33.188150
S /home/xilinx/Bitstreams-axi_firewall/MedianBlur-GaussianBlur_pblock_gaussianblur_0_partial.bit 33.210430
L GaussianBlur 1 33.508162
ARR 4 25 33.605260
EQ 4 25
ARR 2 26 33.689500
EQ 2 26
F 0 34.071380
DQ 2 26
CrS GaussianBlur MedianBlur medianblur_0 34.071414
CrL G 2 26 0 34.071478
S /home/xilinx/Bitstreams-axi_firewall/GaussianBlur-GaussianBlur_pblock_medianblur_0_partial.bit 34.080407
L GaussianBlur 0 34.387809
F 1 34.399794
DQ 4 25
CrS MedianBlur GaussianBlur gaussianblur_0 34.399826
CrL M 4 25 1 34.400445
S /home/xilinx/Bitstreams-axi_firewall/GaussianBlur-MedianBlur_pblock_gaussianblur_0_partial.bit 34.430385
L MedianBlur 1 34.760372
F 0 35.205615
ARR 3 27 35.381384
CrS GaussianBlur MedianBlur medianblur_0 35.381416
CrL M 3 27 0 35.381583
S /home/xilinx/Bitstreams-axi_firewall/MedianBlur-MedianBlur_pblock_medianblur_0_partial.bit 35.390449
L MedianBlur 0 35.704450
ARR 3 28 35.714878
EQ 3 28
F 1 36.162119
DQ 3 28
CrL M 3 28 1 36.162194
L MedianBlur 1 36.189804
F 0 36.646550
ARR 4 29 36.741089
CrS GaussianBlur MedianBlur medianblur_0 36.741117
CrL G 4 29 0 36.741181
S /home/xilinx/Bitstreams-axi_firewall/GaussianBlur-MedianBlur_pblock_medianblur_0_partial.bit 36.741704
L GaussianBlur 0 37.073317
F 1 37.126777
F 0 37.888730
END 37.888760
