ARR 2 0 4.016135
CrS GaussianBlur GaussianBlur medianblur_0 4.016192
CrL M 2 0 0 4.016274
S /home/xilinx/Bitstreams-axi_firewall/MedianBlur-GaussianBlur_pblock_medianblur_0_partial.bit 4.030685
L MedianBlur 0 4.354099
F 0 4.817407
ARR 0 1 5.425717
CrL M 0 1 0 5.425799
L MedianBlur 0 5.449837
F 0 6.839449
ARR 4 2 7.449918
CrS GaussianBlur GaussianBlur medianblur_0 7.449951
CrL G 4 2 0 7.450013
S /home/xilinx/Bitstreams-axi_firewall/GaussianBlur-GaussianBlur_pblock_medianblur_0_partial.bit 7.480435
L GaussianBlur 0 7.789488
ARR 2 3 7.842877
CrL G 2 3 1 7.842949
L GaussianBlur 1 7.879875
F 0 8.609464
F 1 8.699895
ARR 3 4 8.881818
CrS GaussianBlur GaussianBlur medianblur_0 8.881850
CrL M 3 4 0 8.881911
S /home/xilinx/Bitstreams-axi_firewall/MedianBlur-GaussianBlur_pblock_medianblur_0_partial.bit 8.900407
L MedianBlur 0 9.224254
ARR 1 5 9.280079
CrS MedianBlur GaussianBlur gaussianblur_0 9.280110
CrL M 1 5 1 9.280176
S /home/xilinx/Bitstreams-axi_firewall/MedianBlur-MedianBlur_pblock_gaussianblur_0_partial.bit 9.290689
L MedianBlur 1 9.597760
ARR 1 6 9.604392
EQ 1 6
ARR 4 7 9.615699
R 0 9.616029
EQ 3 4
EV 4 7 0 9.616227
CrS MedianBlur MedianBlur medianblur_0 9.616245
CrL G 4 7 0 9.616280
S /home/xilinx/Bitstreams-axi_firewall/GaussianBlur-MedianBlur_pblock_medianblur_0_partial.bit 9.616770
L GaussianBlur 0 9.982089
F 1 10.063379
DQ 1 6
CrS MedianBlur GaussianBlur gaussianblur_0 10.063418
CrL G 1 6 1 10.063484
S /home/xilinx/Bitstreams-axi_firewall/GaussianBlur-GaussianBlur_pblock_gaussianblur_0_partial.bit 10.090376
L GaussianBlur 1 10.383484
F 0 10.805369
DQ 3 4
CrS GaussianBlur MedianBlur medianblur_0 10.805420
CrL M 3 4 0 10.805498
S /home/xilinx/Bitstreams-axi_firewall/MedianBlur-GaussianBlur_pblock_medianblur_0_partial.bit 10.830408
L MedianBlur 0 11.139460
F 1 11.206723
F 0 11.603124
ARR 2 8 11.657977
CrS GaussianBlur GaussianBlur medianblur_0 11.658013
CrL G 2 8 0 11.658076
S /home/xilinx/Bitstreams-axi_firewall/GaussianBlur-GaussianBlur_pblock_medianblur_0_partial.bit 11.680393
ARR 0 9 12.019673
CrS MedianBlur GaussianBlur gaussianblur_0 12.019714
CrL M 0 9 1 12.019784
L GaussianBlur 0 12.019846
S /home/xilinx/Bitstreams-axi_firewall/GaussianBlur-MedianBlur_pblock_gaussianblur_0_partial.bit 12.030460
L MedianBlur 1 12.336895
F 0 12.837830
ARR 2 10 13.358147
CrS GaussianBlur MedianBlur medianblur_0 13.358187
CrL M 2 10 0 13.358253
S /home/xilinx/Bitstreams-axi_firewall/MedianBlur-MedianBlur_pblock_medianblur_0_partial.bit 13.380417
L MedianBlur 0 13.688795
F 1 13.731376
ARR 2 11 13.741912
CrL M 2 11 1 13.741982
L MedianBlur 1 13.769851
ARR 1 12 13.801306
EQ 1 12
F 0 14.156256
DQ 1 12
CrL M 1 12 0 14.156327
L MedianBlur 0 14.159851
ARR 3 13 14.809930
R 0 14.810301
EQ 1 12
EV 12 13 0 14.810498
CrL M 3 13 0 14.810530
L MedianBlur 0 14.849842
ARR 4 14 14.850791
R 0 14.851080
EQ 3 13
EV 13 14 0 14.851265
CrL M 4 14 0 14.851294
ARR 4 15 14.866136
R 1 14.866413
EQ 2 11
EV 11 15 1 14.866597
CrL M 4 15 1 14.866626
L MedianBlur 0 14.889841
L MedianBlur 1 14.899843
F 1 15.842345
DQ 1 12
CrL M 1 12 1 15.842419
L MedianBlur 1 15.859838
F 1 16.143805
DQ 2 11
CrL M 2 11 1 16.143870
L MedianBlur 1 16.143933
F 0 16.304762
DQ 3 13
CrL M 3 13 0 16.304828
L MedianBlur 0 16.309847
F 1 16.450337
ARR 3 16 16.894211
CrL M 3 16 1 16.894295
L MedianBlur 1 16.894726
ARR 0 17 16.980795
EQ 0 17
ARR 2 18 16.986555
EQ 2 18
F 1 17.367519
DQ 0 17
CrL M 0 17 1 17.367586
L MedianBlur 1 17.409834
F 0 17.712978
DQ 2 18
CrL M 2 18 0 17.713047
L MedianBlur 0 17.749835
F 1 18.823536
F 0 19.156904
ARR 1 19 20.056543
CrL M 1 19 0 20.056614
L MedianBlur 0 20.079840
ARR 4 20 20.080819
CrL M 4 20 1 20.080881
L MedianBlur 1 20.119834
ARR 0 21 21.099930
EQ 0 21
ARR 3 22 21.194399
R 0 21.194752
EQ 1 19
EV 19 22 0 21.194941
CrL M 3 22 0 21.194972
L MedianBlur 0 21.239845
F 1 21.533889
DQ 0 21
CrL M 0 21 1 21.533959
L MedianBlur 1 21.549839
F 0 22.180928
DQ 1 19
CrL M 1 19 0 22.180999
L MedianBlur 0 22.199839
ARR 0 23 22.252928
EQ 0 23
ARR 4 24 22.313516
R 0 22.313823
EQ 1 19
EV 19 24 0 22.314008
CrS MedianBlur MedianBlur medianblur_0 22.314028
CrL G 4 24 0 22.314063
S /home/xilinx/Bitstreams-axi_firewall/GaussianBlur-MedianBlur_pblock_medianblur_0_partial.bit 22.320412
L GaussianBlur 0 22.639132
F 1 22.639869
DQ 0 23
CrL M 0 23 1 22.640493
L MedianBlur 1 22.649860
ARR 4 25 22.701743
R 1 22.702078
EQ 0 23
EV 23 25 1 22.702273
CrL M 4 25 1 22.702303
L MedianBlur 1 22.729845
ARR 2 26 22.755007
EQ 2 26
ARR 3 27 22.819173
EQ 3 27
ARR 3 28 22.825826
EQ 3 28
ARR 4 29 22.904526
EQ 4 29
F 0 23.457294
DQ 0 23
CrS GaussianBlur MedianBlur medianblur_0 23.457335
CrL M 0 23 0 23.457398
S /home/xilinx/Bitstreams-axi_firewall/MedianBlur-MedianBlur_pblock_medianblur_0_partial.bit 23.470448
L MedianBlur 0 23.784730
F 1 24.132380
DQ 1 19
CrL M 1 19 1 24.132459
L MedianBlur 1 24.159855
F 1 24.343984
DQ 2 26
CrS MedianBlur GaussianBlur gaussianblur_0 24.344019
CrL G 2 26 1 24.344084
S /home/xilinx/Bitstreams-axi_firewall/MedianBlur-GaussianBlur_pblock_gaussianblur_0_partial.bit 24.360402
L GaussianBlur 1 24.675781
F 0 24.719384
DQ 3 27
CrL M 3 27 0 24.719471
L MedianBlur 0 24.759836
F 1 25.493954
DQ 3 28
CrS MedianBlur GaussianBlur gaussianblur_0 25.494001
CrL M 3 28 1 25.494071
S /home/xilinx/Bitstreams-axi_firewall/MedianBlur-MedianBlur_pblock_gaussianblur_0_partial.bit 25.510419
L MedianBlur 1 25.830774
F 0 25.849830
DQ 4 29
CrS GaussianBlur MedianBlur medianblur_0 25.849868
CrL G 4 29 0 25.850480
S /home/xilinx/Bitstreams-axi_firewall/GaussianBlur-MedianBlur_pblock_medianblur_0_partial.bit 25.860407
L GaussianBlur 0 26.200162
F 1 26.762595
F 0 27.017560
END 27.017584
