ARR 2 0 0.082815
CrS GaussianBlur GaussianBlur medianblur_0 0.082864
CrL M 2 0 0 0.082945
S /home/xilinx/Bitstreams-axi_firewall/MedianBlur-GaussianBlur_pblock_medianblur_0_partial.bit 0.090482
L MedianBlur 0 0.421028
ARR 0 1 0.454152
CrS MedianBlur GaussianBlur gaussianblur_0 0.454183
CrL M 0 1 1 0.454254
S /home/xilinx/Bitstreams-axi_firewall/MedianBlur-MedianBlur_pblock_gaussianblur_0_partial.bit 0.460622
L MedianBlur 1 0.759443
ARR 4 2 0.804658
R 0 0.804956
EQ 2 0
EV 0 2 0 0.805200
CrS MedianBlur MedianBlur medianblur_0 0.805219
CrL G 4 2 0 0.805270
S /home/xilinx/Bitstreams-axi_firewall/GaussianBlur-MedianBlur_pblock_medianblur_0_partial.bit 0.810384
L GaussianBlur 0 1.143775
ARR 2 3 1.160563
R 1 1.160827
EQ 0 1
EV 1 3 1 1.161018
CrS MedianBlur MedianBlur gaussianblur_0 1.161035
CrL G 2 3 1 1.161069
S /home/xilinx/Bitstreams-axi_firewall/GaussianBlur-GaussianBlur_pblock_gaussianblur_0_partial.bit 1.170422
L GaussianBlur 1 1.500990
ARR 3 4 1.528769
R 1 1.529028
EQ 2 3
EV 3 4 1 1.529217
CrS MedianBlur MedianBlur gaussianblur_0 1.529233
CrL M 3 4 1 1.529265
S /home/xilinx/Bitstreams-axi_firewall/GaussianBlur-MedianBlur_pblock_gaussianblur_0_partial.bit 1.540429
L MedianBlur 1 1.827551
ARR 1 5 1.841149
EQ 1 5
ARR 1 6 1.842275
EQ 1 6
ARR 4 7 1.844722
R 1 1.845007
EQ 3 4
EV 4 7 1 1.845191
CrS MedianBlur MedianBlur gaussianblur_0 1.845207
CrL G 4 7 1 1.845241
S /home/xilinx/Bitstreams-axi_firewall/GaussianBlur-GaussianBlur_pblock_gaussianblur_0_partial.bit 1.860356
L GaussianBlur 1 2.148211
F 0 2.159822
DQ 0 1
CrS GaussianBlur MedianBlur medianblur_0 2.159853
CrL M 0 1 0 2.160455
S /home/xilinx/Bitstreams-axi_firewall/MedianBlur-GaussianBlur_pblock_medianblur_0_partial.bit 2.190399
L MedianBlur 0 2.511499
ARR 2 8 2.535850
R 0 2.536116
EQ 0 1
EV 1 8 0 2.536305
CrS MedianBlur MedianBlur medianblur_0 2.536321
CrL G 2 8 0 2.536355
S /home/xilinx/Bitstreams-axi_firewall/GaussianBlur-GaussianBlur_pblock_medianblur_0_partial.bit 2.540774
L GaussianBlur 0 2.839755
ARR 0 9 2.843957
EQ 0 9
ARR 2 10 2.867694
EQ 2 10
ARR 2 11 2.878488
EQ 2 11
ARR 1 12 2.890526
EQ 1 12
ARR 3 13 2.912366
R 0 2.912689
EQ 2 8
EV 8 13 0 2.912874
CrS MedianBlur MedianBlur medianblur_0 2.912890
CrL M 3 13 0 2.912926
S /home/xilinx/Bitstreams-axi_firewall/MedianBlur-GaussianBlur_pblock_medianblur_0_partial.bit 2.913418
L MedianBlur 0 3.229400
F 1 3.229981
DQ 0 1
CrS MedianBlur GaussianBlur gaussianblur_0 3.230013
CrL M 0 1 1 3.230078
S /home/xilinx/Bitstreams-axi_firewall/MedianBlur-MedianBlur_pblock_gaussianblur_0_partial.bit 3.250380
L MedianBlur 1 3.539527
ARR 4 14 3.547679
R 0 3.547944
EQ 3 13
EV 13 14 0 3.552752
CrL M 4 14 0 3.552849
ARR 4 15 3.556247
R 1 3.556541
EQ 0 1
EV 1 15 1 3.556720
CrL M 4 15 1 3.556745
L MedianBlur 1 3.569832
L MedianBlur 0 3.579835
ARR 3 16 3.602180
EQ 3 16
ARR 0 17 3.619648
EQ 0 17
ARR 2 18 3.620978
EQ 2 18
ARR 1 19 3.694836
EQ 1 19
ARR 4 20 3.699830
EQ 4 20
ARR 0 21 3.723746
EQ 0 21
ARR 3 22 3.742794
EQ 3 22
ARR 0 23 3.774460
EQ 0 23
ARR 4 24 3.786748
EQ 4 24
ARR 4 25 3.799076
EQ 4 25
ARR 2 26 3.809809
EQ 2 26
ARR 3 27 3.822808
EQ 3 27
ARR 3 28 3.824315
EQ 3 28
ARR 4 29 3.840218
EQ 4 29
F 1 4.515073
DQ 0 9
CrL M 0 9 1 4.515144
L MedianBlur 1 4.529825
F 0 4.995575
DQ 0 1
CrL M 0 1 0 4.995661
L MedianBlur 0 4.999844
F 1 5.933087
DQ 0 17
CrL M 0 17 1 5.933153
L MedianBlur 1 5.939845
F 0 6.378660
DQ 0 21
CrL M 0 21 0 6.378739
L MedianBlur 0 6.399823
F 0 7.341884
DQ 0 23
CrL M 0 23 0 7.341968
F 1 7.349415
DQ 1 5
CrL M 1 5 1 7.349478
L MedianBlur 0 7.369823
L MedianBlur 1 7.389818
F 1 7.860160
DQ 1 6
CrS MedianBlur GaussianBlur gaussianblur_0 7.860191
CrL G 1 6 1 7.860247
S /home/xilinx/Bitstreams-axi_firewall/MedianBlur-GaussianBlur_pblock_gaussianblur_0_partial.bit 7.870452
L GaussianBlur 1 8.168988
F 0 8.303075
DQ 1 12
CrL M 1 12 0 8.303149
L MedianBlur 0 8.329823
F 1 8.987303
DQ 1 19
CrS MedianBlur GaussianBlur gaussianblur_0 8.987350
CrL M 1 19 1 8.987440
S /home/xilinx/Bitstreams-axi_firewall/MedianBlur-MedianBlur_pblock_gaussianblur_0_partial.bit 8.987993
L MedianBlur 1 9.341864
F 0 9.349945
DQ 2 0
CrL M 2 0 0 9.350018
L MedianBlur 0 9.369845
F 0 9.452064
DQ 2 3
CrS GaussianBlur MedianBlur medianblur_0 9.452096
CrL G 2 3 0 9.452163
S /home/xilinx/Bitstreams-axi_firewall/GaussianBlur-MedianBlur_pblock_medianblur_0_partial.bit 9.452665
L GaussianBlur 0 9.768271
F 0 10.586544
DQ 2 10
CrS GaussianBlur MedianBlur medianblur_0 10.586587
CrL M 2 10 0 10.586659
S /home/xilinx/Bitstreams-axi_firewall/MedianBlur-MedianBlur_pblock_medianblur_0_partial.bit 10.590347
L MedianBlur 0 10.899616
F 1 10.910036
DQ 2 11
CrL M 2 11 1 10.910779
L MedianBlur 1 10.919865
F 0 11.368669
DQ 2 8
CrS GaussianBlur MedianBlur medianblur_0 11.368708
CrL G 2 8 0 11.368773
S /home/xilinx/Bitstreams-axi_firewall/GaussianBlur-MedianBlur_pblock_medianblur_0_partial.bit 11.390393
L GaussianBlur 0 11.699586
F 1 12.323063
DQ 2 18
CrL M 2 18 1 12.323145
L MedianBlur 1 12.359823
F 0 12.517703
DQ 2 26
CrL G 2 26 0 12.517771
L GaussianBlur 0 12.529822
F 0 13.348151
DQ 3 4
CrS GaussianBlur MedianBlur medianblur_0 13.348199
CrL M 3 4 0 13.348273
S /home/xilinx/Bitstreams-axi_firewall/MedianBlur-MedianBlur_pblock_medianblur_0_partial.bit 13.370409
L MedianBlur 0 13.701404
F 1 13.758097
DQ 3 13
CrL M 3 13 1 13.758178
L MedianBlur 1 13.759917
F 0 14.172288
DQ 3 16
CrL M 3 16 0 14.172373
L MedianBlur 0 14.189831
F 0 14.656455
DQ 3 22
CrL M 3 22 0 14.656526
L MedianBlur 0 14.669822
F 1 14.848619
DQ 3 27
CrL M 3 27 1 14.848702
L MedianBlur 1 14.879822
F 0 15.609186
DQ 3 28
CrL M 3 28 0 15.609267
L MedianBlur 0 15.629824
F 1 15.817535
DQ 4 20
CrL M 4 20 1 15.817603
L MedianBlur 1 15.839829
F 0 16.572799
DQ 4 24
CrS GaussianBlur MedianBlur medianblur_0 16.572836
CrL G 4 24 0 16.572897
S /home/xilinx/Bitstreams-axi_firewall/GaussianBlur-MedianBlur_pblock_medianblur_0_partial.bit 16.580454
L GaussianBlur 0 16.904402
F 1 17.243992
DQ 4 25
CrL M 4 25 1 17.244084
L MedianBlur 1 17.259825
F 0 17.722649
DQ 4 29
CrL G 4 29 0 17.722720
L GaussianBlur 0 17.749822
F 0 18.568112
F 1 18.657455
END 18.657476
