ARR 2 0 0.082818
CrS GaussianBlur  medianblur_0 0.082860
CrL M 2 0 0 0.082943
S /home/xilinx/Bitstreams-axi_firewall/MedianBlur-GaussianBlur_pblock_medianblur_0_partial.bit 0.100534
L MedianBlur 0 0.420370
ARR 0 1 0.453495
EQ 0 1
ARR 4 2 0.498403
EQ 4 2
ARR 2 3 0.509210
EQ 2 3
ARR 3 4 0.537055
EQ 3 4
ARR 1 5 0.548406
EQ 1 5
ARR 1 6 0.549506
EQ 1 6
ARR 4 7 0.551941
EQ 4 7
ARR 2 8 0.576357
EQ 2 8
ARR 0 9 0.580509
EQ 0 9
ARR 2 10 0.604219
EQ 2 10
ARR 2 11 0.614998
EQ 2 11
ARR 1 12 0.627042
EQ 1 12
ARR 3 13 0.648865
EQ 3 13
ARR 4 14 0.657091
EQ 4 14
ARR 4 15 0.660226
EQ 4 15
ARR 3 16 0.705657
EQ 3 16
ARR 0 17 0.723117
EQ 0 17
ARR 2 18 0.724440
EQ 2 18
ARR 1 19 0.798301
EQ 1 19
ARR 4 20 0.803308
EQ 4 20
ARR 0 21 0.827221
EQ 0 21
ARR 3 22 0.846267
EQ 3 22
ARR 0 23 0.877930
EQ 0 23
F 0 0.883743
DQ 0 1
CrL M 0 1 0 0.883795
ARR 4 24 0.890439
EQ 4 24
L MedianBlur 0 0.899859
ARR 4 25 0.902773
EQ 4 25
ARR 2 26 0.913484
EQ 2 26
ARR 3 27 0.926483
EQ 3 27
ARR 3 28 0.927986
EQ 3 28
ARR 4 29 0.943886
EQ 4 29
F 0 2.289498
DQ 0 9
CrL M 0 9 0 2.289576
L MedianBlur 0 2.299864
F 0 3.689034
DQ 0 17
CrL M 0 17 0 3.689111
L MedianBlur 0 3.719850
F 0 5.109365
DQ 0 21
CrL M 0 21 0 5.109443
L MedianBlur 0 5.159858
F 0 6.086109
DQ 0 23
CrL M 0 23 0 6.086174
L MedianBlur 0 6.119848
F 0 7.046059
DQ 1 5
CrL M 1 5 0 7.046128
L MedianBlur 0 7.049876
F 0 7.513169
DQ 1 6
CrS GaussianBlur  medianblur_0 7.513205
CrL G 1 6 0 7.513284
S /home/xilinx/Bitstreams-axi_firewall/GaussianBlur-GaussianBlur_pblock_medianblur_0_partial.bit 7.513846
L GaussianBlur 0 7.853775
F 0 8.668940
DQ 1 12
CrS GaussianBlur  medianblur_0 8.668972
CrL M 1 12 0 8.669048
S /home/xilinx/Bitstreams-axi_firewall/MedianBlur-GaussianBlur_pblock_medianblur_0_partial.bit 8.669536
L MedianBlur 0 8.996118
F 0 9.922459
DQ 1 19
CrL M 1 19 0 9.922540
L MedianBlur 0 9.939853
F 0 11.329338
DQ 2 3
CrS GaussianBlur  medianblur_0 11.329379
CrL G 2 3 0 11.329452
S /home/xilinx/Bitstreams-axi_firewall/GaussianBlur-GaussianBlur_pblock_medianblur_0_partial.bit 11.350442
L GaussianBlur 0 11.691017
F 0 12.506189
DQ 2 8
CrL G 2 8 0 12.506267
L GaussianBlur 0 12.549856
F 0 13.365064
DQ 2 10
CrS GaussianBlur  medianblur_0 13.365106
CrL M 2 10 0 13.365180
S /home/xilinx/Bitstreams-axi_firewall/MedianBlur-GaussianBlur_pblock_medianblur_0_partial.bit 13.377983
L MedianBlur 0 13.720378
F 0 14.183579
DQ 2 11
CrL M 2 11 0 14.183658
L MedianBlur 0 14.239845
F 0 15.629458
DQ 2 18
CrL M 2 18 0 15.629552
L MedianBlur 0 15.669849
F 0 17.059084
DQ 2 26
CrS GaussianBlur  medianblur_0 17.059121
CrL G 2 26 0 17.059194
S /home/xilinx/Bitstreams-axi_firewall/GaussianBlur-GaussianBlur_pblock_medianblur_0_partial.bit 17.070494
L GaussianBlur 0 17.378858
F 0 18.194035
DQ 3 4
CrS GaussianBlur  medianblur_0 18.194072
CrL M 3 4 0 18.194145
S /home/xilinx/Bitstreams-axi_firewall/MedianBlur-GaussianBlur_pblock_medianblur_0_partial.bit 18.220398
L MedianBlur 0 18.528793
F 0 18.992006
DQ 3 13
CrL M 3 13 0 18.992089
L MedianBlur 0 19.009851
F 0 20.399224
DQ 3 16
CrL M 3 16 0 20.399305
L MedianBlur 0 20.409860
F 0 20.873109
DQ 3 22
CrL M 3 22 0 20.873181
L MedianBlur 0 20.899878
F 0 21.826241
DQ 3 27
CrL M 3 27 0 21.826324
L MedianBlur 0 21.859852
F 0 22.786268
DQ 3 28
CrL M 3 28 0 22.786336
L MedianBlur 0 22.819853
F 0 23.746349
DQ 4 2
CrS GaussianBlur  medianblur_0 23.746390
CrL G 4 2 0 23.746470
S /home/xilinx/Bitstreams-axi_firewall/GaussianBlur-GaussianBlur_pblock_medianblur_0_partial.bit 23.747013
L GaussianBlur 0 24.082883
F 0 24.898060
DQ 4 7
CrL G 4 7 0 24.898142
L GaussianBlur 0 24.949858
F 0 25.765076
DQ 4 14
CrS GaussianBlur  medianblur_0 25.765123
CrL M 4 14 0 25.765199
S /home/xilinx/Bitstreams-axi_firewall/MedianBlur-GaussianBlur_pblock_medianblur_0_partial.bit 25.790423
L MedianBlur 0 26.112599
F 0 27.502037
DQ 4 15
CrL M 4 15 0 27.502123
L MedianBlur 0 27.529880
F 0 28.456211
DQ 4 20
CrL M 4 20 0 28.456279
L MedianBlur 0 28.489846
F 0 29.879368
DQ 4 24
CrS GaussianBlur  medianblur_0 29.879410
CrL G 4 24 0 29.879485
S /home/xilinx/Bitstreams-axi_firewall/GaussianBlur-GaussianBlur_pblock_medianblur_0_partial.bit 29.890508
L GaussianBlur 0 30.212329
F 0 31.027571
DQ 4 25
CrS GaussianBlur  medianblur_0 31.027612
CrL M 4 25 0 31.027683
S /home/xilinx/Bitstreams-axi_firewall/MedianBlur-GaussianBlur_pblock_medianblur_0_partial.bit 31.050581
L MedianBlur 0 31.359441
F 0 32.748770
DQ 4 29
CrS GaussianBlur  medianblur_0 32.748808
CrL G 4 29 0 32.748887
S /home/xilinx/Bitstreams-axi_firewall/GaussianBlur-GaussianBlur_pblock_medianblur_0_partial.bit 32.749375
L GaussianBlur 0 33.065849
F 0 33.881035
END 33.881066
