ARR 2 0 6.059941
CrS GaussianBlur  medianblur_0 6.059994
CrL M 2 0 0 6.060078
S /home/xilinx/Bitstreams-axi_firewall/MedianBlur-GaussianBlur_pblock_medianblur_0_partial.bit 6.070676
L MedianBlur 0 6.387211
F 0 6.850544
ARR 0 1 8.455658
CrL M 0 1 0 8.455728
L MedianBlur 0 8.509824
F 0 9.899491
ARR 4 2 11.515095
CrS GaussianBlur  medianblur_0 11.515139
CrL G 4 2 0 11.515211
S /home/xilinx/Bitstreams-axi_firewall/GaussianBlur-GaussianBlur_pblock_medianblur_0_partial.bit 11.520546
L GaussianBlur 0 11.853756
ARR 2 3 11.944631
EQ 2 3
F 0 12.668978
DQ 2 3
CrL G 2 3 0 12.669066
L GaussianBlur 0 12.689829
F 0 13.505025
ARR 3 4 13.966774
CrS GaussianBlur  medianblur_0 13.966810
CrL M 3 4 0 13.966876
S /home/xilinx/Bitstreams-axi_firewall/MedianBlur-GaussianBlur_pblock_medianblur_0_partial.bit 13.970387
L MedianBlur 0 14.310092
ARR 1 5 14.399346
EQ 1 5
ARR 1 6 14.406639
EQ 1 6
ARR 4 7 14.424580
R 0 14.424915
EQ 3 4
EV 4 7 0 14.425115
CrS MedianBlur  medianblur_0 14.425135
CrL G 4 7 0 14.425173
S /home/xilinx/Bitstreams-axi_firewall/GaussianBlur-GaussianBlur_pblock_medianblur_0_partial.bit 14.430383
L GaussianBlur 0 14.770189
F 0 15.585380
DQ 1 5
CrS GaussianBlur  medianblur_0 15.585424
CrL M 1 5 0 15.585494
S /home/xilinx/Bitstreams-axi_firewall/MedianBlur-GaussianBlur_pblock_medianblur_0_partial.bit 15.610384
L MedianBlur 0 15.938771
ARR 2 8 16.218715
R 0 16.219004
EQ 1 5
EV 5 8 0 16.219200
CrS MedianBlur  medianblur_0 16.219220
CrL G 2 8 0 16.219259
S /home/xilinx/Bitstreams-axi_firewall/GaussianBlur-GaussianBlur_pblock_medianblur_0_partial.bit 16.219733
L GaussianBlur 0 16.567300
ARR 0 9 16.598947
EQ 0 9
F 0 17.382550
DQ 0 9
CrS GaussianBlur  medianblur_0 17.382600
CrL M 0 9 0 17.382676
S /home/xilinx/Bitstreams-axi_firewall/MedianBlur-GaussianBlur_pblock_medianblur_0_partial.bit 17.410395
L MedianBlur 0 17.751107
ARR 2 10 18.064796
R 0 18.065080
EQ 0 9
EV 9 10 0 18.065270
CrL M 2 10 0 18.065302
L MedianBlur 0 18.089834
ARR 2 11 18.150028
EQ 2 11
ARR 1 12 18.244840
EQ 1 12
F 0 18.553061
DQ 0 9
CrL M 0 9 0 18.553126
L MedianBlur 0 18.569831
ARR 3 13 19.318872
R 0 19.319203
EQ 0 9
EV 9 13 0 19.319395
CrL M 3 13 0 19.319426
L MedianBlur 0 19.369831
ARR 4 14 19.383748
R 0 19.384036
EQ 3 13
EV 13 14 0 19.384221
CrL M 4 14 0 19.384250
ARR 4 15 19.407808
EQ 4 15
L MedianBlur 0 19.409845
F 0 20.799319
DQ 0 9
CrL M 0 9 0 20.799408
L MedianBlur 0 20.809844
F 0 21.135955
DQ 1 6
CrS GaussianBlur  medianblur_0 21.135991
CrL G 1 6 0 21.136060
S /home/xilinx/Bitstreams-axi_firewall/GaussianBlur-GaussianBlur_pblock_medianblur_0_partial.bit 21.136593
L GaussianBlur 0 21.476757
F 0 22.291939
DQ 1 5
CrS GaussianBlur  medianblur_0 22.291980
CrL M 1 5 0 22.292054
S /home/xilinx/Bitstreams-axi_firewall/MedianBlur-GaussianBlur_pblock_medianblur_0_partial.bit 22.292536
L MedianBlur 0 22.623275
F 0 23.086657
DQ 1 12
CrL M 1 12 0 23.086750
L MedianBlur 0 23.129853
ARR 3 16 23.152308
R 0 23.152637
EQ 1 12
EV 12 16 0 23.152824
CrL M 3 16 0 23.152853
L MedianBlur 0 23.209825
F 0 23.673070
DQ 1 12
CrL M 1 12 0 23.673137
L MedianBlur 0 23.689857
ARR 0 17 24.191759
EQ 0 17
ARR 2 18 24.200825
R 0 24.201123
EQ 1 12
EV 12 18 0 24.201308
CrL M 2 18 0 24.201338
L MedianBlur 0 24.249829
F 0 25.639137
DQ 0 17
CrL M 0 17 0 25.639225
L MedianBlur 0 25.699833
F 0 27.089328
DQ 1 12
CrL M 1 12 0 27.089413
L MedianBlur 0 27.099841
F 0 27.492479
DQ 2 11
CrL M 2 11 0 27.492549
L MedianBlur 0 27.539826
F 0 28.929384
DQ 3 4
CrL M 3 4 0 28.929475
L MedianBlur 0 28.959867
ARR 1 19 29.291890
EQ 1 19
F 0 29.308416
DQ 1 19
CrL M 1 19 0 29.308482
L MedianBlur 0 29.319832
ARR 4 20 29.330689
R 0 29.331025
EQ 1 19
EV 19 20 0 29.331210
CrL M 4 20 0 29.331240
L MedianBlur 0 29.359846
ARR 0 21 30.422077
EQ 0 21
F 0 30.749413
DQ 0 21
CrL M 0 21 0 30.749499
L MedianBlur 0 30.779859
ARR 3 22 31.473942
R 0 31.474263
EQ 0 21
EV 21 22 0 31.474452
CrL M 3 22 0 31.474483
L MedianBlur 0 31.489831
F 0 32.416117
DQ 0 21
CrL M 0 21 0 32.416186
L MedianBlur 0 32.416268
F 0 32.648310
DQ 1 19
CrL M 1 19 0 32.648378
L MedianBlur 0 32.648417
ARR 0 23 33.527637
EQ 0 23
ARR 4 24 33.624507
R 0 33.624833
EQ 1 19
EV 19 24 0 33.625087
CrS MedianBlur  medianblur_0 33.625109
CrL G 4 24 0 33.625155
S /home/xilinx/Bitstreams-axi_firewall/GaussianBlur-GaussianBlur_pblock_medianblur_0_partial.bit 33.625670
L GaussianBlur 0 33.972635
ARR 4 25 34.069733
EQ 4 25
ARR 2 26 34.153991
EQ 2 26
F 0 34.787871
DQ 0 23
CrS GaussianBlur  medianblur_0 34.787919
CrL M 0 23 0 34.787993
S /home/xilinx/Bitstreams-axi_firewall/MedianBlur-GaussianBlur_pblock_medianblur_0_partial.bit 34.800463
L MedianBlur 0 35.112152
ARR 3 27 35.481196
R 0 35.481490
EQ 0 23
EV 23 27 0 35.481686
CrL M 3 27 0 35.481716
ARR 3 28 35.492259
EQ 3 28
L MedianBlur 0 35.519843
F 0 36.446263
DQ 0 23
CrL M 0 23 0 36.446333
L MedianBlur 0 36.469826
ARR 4 29 36.518257
R 0 36.518555
EQ 0 23
EV 23 29 0 36.518739
CrS MedianBlur  medianblur_0 36.518758
CrL G 4 29 0 36.518796
S /home/xilinx/Bitstreams-axi_firewall/GaussianBlur-GaussianBlur_pblock_medianblur_0_partial.bit 36.519278
L GaussianBlur 0 36.873784
F 0 37.688961
DQ 0 23
CrS GaussianBlur  medianblur_0 37.689004
CrL M 0 23 0 37.689082
S /home/xilinx/Bitstreams-axi_firewall/MedianBlur-GaussianBlur_pblock_medianblur_0_partial.bit 37.689587
L MedianBlur 0 38.035645
F 0 38.961935
DQ 1 19
CrL M 1 19 0 38.962027
L MedianBlur 0 38.962075
F 0 39.364264
DQ 2 26
CrS GaussianBlur  medianblur_0 39.364304
CrL G 2 26 0 39.364371
S /home/xilinx/Bitstreams-axi_firewall/GaussianBlur-GaussianBlur_pblock_medianblur_0_partial.bit 39.364906
L GaussianBlur 0 39.702765
F 0 40.517937
DQ 3 13
CrS GaussianBlur  medianblur_0 40.517981
CrL M 3 13 0 40.518061
S /home/xilinx/Bitstreams-axi_firewall/MedianBlur-GaussianBlur_pblock_medianblur_0_partial.bit 40.518548
L MedianBlur 0 40.870999
F 0 42.260362
DQ 3 28
CrL M 3 28 0 42.260448
L MedianBlur 0 42.279829
F 0 43.206358
DQ 4 15
CrL M 4 15 0 43.206447
L MedianBlur 0 43.239825
F 0 44.166199
DQ 4 25
CrL M 4 25 0 44.166268
L MedianBlur 0 44.179829
F 0 45.569374
END 45.569407
