ARR 2 0 4.016136
CrS GaussianBlur GaussianBlur medianblur_0 4.016191
CrL M 2 0 0 4.016277
S /home/xilinx/Bitstreams-axi_firewall/MedianBlur-GaussianBlur_pblock_medianblur_0_partial.bit 4.030691
L MedianBlur 0 4.362281
F 0 4.825602
ARR 0 1 5.428122
CrL M 0 1 0 5.428193
L MedianBlur 0 5.479844
F 0 6.869422
ARR 4 2 7.452512
CrS GaussianBlur GaussianBlur medianblur_0 7.452545
CrL G 4 2 0 7.452606
S /home/xilinx/Bitstreams-axi_firewall/GaussianBlur-GaussianBlur_pblock_medianblur_0_partial.bit 7.480421
L GaussianBlur 0 7.812919
ARR 2 3 7.865955
CrL G 2 3 1 7.866024
L GaussianBlur 1 7.879848
F 0 8.642599
F 1 8.709506
ARR 3 4 8.904874
CrS GaussianBlur GaussianBlur medianblur_0 8.904905
CrL M 3 4 0 8.904963
S /home/xilinx/Bitstreams-axi_firewall/MedianBlur-GaussianBlur_pblock_medianblur_0_partial.bit 8.930419
L MedianBlur 0 9.255905
ARR 1 5 9.311732
CrS MedianBlur GaussianBlur gaussianblur_0 9.311764
CrL M 1 5 1 9.311833
S /home/xilinx/Bitstreams-axi_firewall/MedianBlur-MedianBlur_pblock_gaussianblur_0_partial.bit 9.320705
L MedianBlur 1 9.609423
ARR 1 6 9.614404
EQ 1 6
ARR 4 7 9.625709
R 0 9.626044
EQ 3 4
EV 4 7 0 9.626241
CrS MedianBlur MedianBlur medianblur_0 9.626259
CrL G 4 7 0 9.626293
S /home/xilinx/Bitstreams-axi_firewall/GaussianBlur-MedianBlur_pblock_medianblur_0_partial.bit 9.630456
L GaussianBlur 0 9.954194
F 1 10.075220
DQ 1 6
CrS MedianBlur GaussianBlur gaussianblur_0 10.075259
CrL G 1 6 1 10.075327
S /home/xilinx/Bitstreams-axi_firewall/GaussianBlur-GaussianBlur_pblock_gaussianblur_0_partial.bit 10.100379
L GaussianBlur 1 10.409016
F 0 10.776483
DQ 3 4
CrS GaussianBlur MedianBlur medianblur_0 10.776524
CrL M 3 4 0 10.776594
S /home/xilinx/Bitstreams-axi_firewall/MedianBlur-GaussianBlur_pblock_medianblur_0_partial.bit 10.780393
L MedianBlur 0 11.097016
F 1 11.231392
F 0 11.561106
ARR 2 8 11.633060
CrS GaussianBlur GaussianBlur medianblur_0 11.633096
CrL G 2 8 0 11.633167
S /home/xilinx/Bitstreams-axi_firewall/GaussianBlur-GaussianBlur_pblock_medianblur_0_partial.bit 11.633692
L GaussianBlur 0 11.956111
ARR 0 9 11.975948
CrS MedianBlur GaussianBlur gaussianblur_0 11.975981
CrL M 0 9 1 11.976050
S /home/xilinx/Bitstreams-axi_firewall/GaussianBlur-MedianBlur_pblock_gaussianblur_0_partial.bit 12.000390
L MedianBlur 1 12.307339
F 0 12.773994
ARR 2 10 13.325663
CrS GaussianBlur MedianBlur medianblur_0 13.325701
CrL M 2 10 0 13.325777
S /home/xilinx/Bitstreams-axi_firewall/MedianBlur-MedianBlur_pblock_medianblur_0_partial.bit 13.326309
L MedianBlur 0 13.665016
F 1 13.701369
ARR 2 11 13.722966
CrL M 2 11 1 13.723038
L MedianBlur 1 13.769884
ARR 1 12 13.782367
EQ 1 12
F 0 14.134948
DQ 1 12
CrL M 1 12 0 14.135024
L MedianBlur 0 14.149850
ARR 3 13 14.791467
R 0 14.791842
EQ 1 12
EV 12 13 0 14.792038
CrL M 3 13 0 14.792070
L MedianBlur 0 14.829864
ARR 4 14 14.832329
R 0 14.832614
EQ 3 13
EV 13 14 0 14.832801
CrL M 4 14 0 14.832831
ARR 4 15 14.847672
R 1 14.847948
EQ 2 11
EV 11 15 1 14.848134
CrL M 4 15 1 14.848164
L MedianBlur 0 14.869862
L MedianBlur 1 14.889849
F 1 15.833571
DQ 1 12
CrL M 1 12 1 15.833655
L MedianBlur 1 15.849877
F 1 16.151746
DQ 2 11
CrL M 2 11 1 16.151817
L MedianBlur 1 16.169848
F 0 16.282501
DQ 3 13
CrL M 3 13 0 16.282581
L MedianBlur 0 16.309849
F 1 16.502798
ARR 3 16 16.875758
CrL M 3 16 1 16.875829
L MedianBlur 1 16.919845
ARR 0 17 16.962320
EQ 0 17
ARR 2 18 16.968074
EQ 2 18
F 1 17.390908
DQ 0 17
CrL M 0 17 1 17.390975
L MedianBlur 1 17.429854
F 0 17.706858
DQ 2 18
CrL M 2 18 0 17.706924
L MedianBlur 0 17.759842
F 1 18.840740
F 0 19.166451
ARR 1 19 20.038021
CrL M 1 19 0 20.038088
ARR 4 20 20.062290
CrL M 4 20 1 20.062355
L MedianBlur 0 20.079847
L MedianBlur 1 20.089849
ARR 0 21 21.082074
EQ 0 21
ARR 3 22 21.176542
R 0 21.176893
EQ 1 19
EV 19 22 0 21.177085
CrL M 3 22 0 21.177116
L MedianBlur 0 21.189856
F 1 21.499979
DQ 0 21
CrL M 0 21 1 21.500048
L MedianBlur 1 21.559842
F 0 22.121356
DQ 1 19
CrL M 1 19 0 22.121426
L MedianBlur 0 22.139850
ARR 0 23 22.235108
EQ 0 23
ARR 4 24 22.295711
R 0 22.296040
EQ 1 19
EV 19 24 0 22.296231
CrS MedianBlur MedianBlur medianblur_0 22.296251
CrL G 4 24 0 22.296288
S /home/xilinx/Bitstreams-axi_firewall/GaussianBlur-MedianBlur_pblock_medianblur_0_partial.bit 22.300457
L GaussianBlur 0 22.632699
F 1 22.639970
DQ 0 23
CrL M 0 23 1 22.640576
L MedianBlur 1 22.649870
ARR 4 25 22.701819
R 1 22.702118
EQ 0 23
EV 23 25 1 22.702305
CrL M 4 25 1 22.702335
L MedianBlur 1 22.729861
ARR 2 26 22.755035
EQ 2 26
ARR 3 27 22.819200
EQ 3 27
ARR 3 28 22.825848
EQ 3 28
ARR 4 29 22.904551
EQ 4 29
F 0 23.450866
DQ 0 23
CrS GaussianBlur MedianBlur medianblur_0 23.450906
CrL M 0 23 0 23.450969
S /home/xilinx/Bitstreams-axi_firewall/MedianBlur-MedianBlur_pblock_medianblur_0_partial.bit 23.460440
L MedianBlur 0 23.790508
F 1 24.132759
DQ 1 19
CrL M 1 19 1 24.132841
L MedianBlur 1 24.139865
F 1 24.302827
DQ 2 26
CrS MedianBlur GaussianBlur gaussianblur_0 24.302872
CrL G 2 26 1 24.302949
S /home/xilinx/Bitstreams-axi_firewall/MedianBlur-GaussianBlur_pblock_gaussianblur_0_partial.bit 24.303477
L GaussianBlur 1 24.632247
F 0 24.729174
DQ 3 27
CrL M 3 27 0 24.729255
L MedianBlur 0 24.739857
F 1 25.450475
DQ 3 28
CrS MedianBlur GaussianBlur gaussianblur_0 25.450516
CrL M 3 28 1 25.450581
S /home/xilinx/Bitstreams-axi_firewall/MedianBlur-MedianBlur_pblock_gaussianblur_0_partial.bit 25.480404
L MedianBlur 1 25.779493
F 0 25.789918
DQ 4 29
CrS GaussianBlur MedianBlur medianblur_0 25.789954
CrL G 4 29 0 25.790026
S /home/xilinx/Bitstreams-axi_firewall/GaussianBlur-MedianBlur_pblock_medianblur_0_partial.bit 25.800453
L GaussianBlur 0 26.125752
F 1 26.711333
F 0 26.943162
END 26.943187
