ARR 2 0 4.016147
CrS GaussianBlur  medianblur_0 4.016201
CrL M 2 0 0 4.016300
S /home/xilinx/Bitstreams-axi_firewall/MedianBlur-GaussianBlur_pblock_medianblur_0_partial.bit 4.016929
L MedianBlur 0 4.370435
F 0 4.833687
ARR 0 1 5.436255
CrL M 0 1 0 5.436323
L MedianBlur 0 5.489837
F 0 6.879467
ARR 4 2 7.460623
CrS GaussianBlur  medianblur_0 7.460659
CrL G 4 2 0 7.460728
S /home/xilinx/Bitstreams-axi_firewall/GaussianBlur-GaussianBlur_pblock_medianblur_0_partial.bit 7.490407
L GaussianBlur 0 7.831218
ARR 2 3 7.892885
EQ 2 3
F 0 8.646426
DQ 2 3
CrL G 2 3 0 8.646506
L GaussianBlur 0 8.669865
ARR 3 4 8.931775
R 0 8.932123
EQ 2 3
EV 3 4 0 8.932320
CrS MedianBlur  medianblur_0 8.932336
CrL M 3 4 0 8.932370
S /home/xilinx/Bitstreams-axi_firewall/MedianBlur-GaussianBlur_pblock_medianblur_0_partial.bit 8.950391
L MedianBlur 0 9.282926
ARR 1 5 9.345662
EQ 1 5
ARR 1 6 9.350305
EQ 1 6
ARR 4 7 9.361604
R 0 9.361906
EQ 3 4
EV 4 7 0 9.362090
CrS MedianBlur  medianblur_0 9.362106
CrL G 4 7 0 9.362140
S /home/xilinx/Bitstreams-axi_firewall/GaussianBlur-GaussianBlur_pblock_medianblur_0_partial.bit 9.390361
L GaussianBlur 0 9.721113
F 0 10.536336
DQ 1 5
CrS GaussianBlur  medianblur_0 10.536386
CrL M 1 5 0 10.536460
S /home/xilinx/Bitstreams-axi_firewall/MedianBlur-GaussianBlur_pblock_medianblur_0_partial.bit 10.560408
L MedianBlur 0 10.869396
ARR 2 8 11.075586
R 0 11.075882
EQ 1 5
EV 5 8 0 11.076076
CrS MedianBlur  medianblur_0 11.076096
CrL G 2 8 0 11.076136
S /home/xilinx/Bitstreams-axi_firewall/GaussianBlur-GaussianBlur_pblock_medianblur_0_partial.bit 11.076615
L GaussianBlur 0 11.417459
ARR 0 9 11.439676
EQ 0 9
F 0 12.232684
DQ 0 9
CrS GaussianBlur  medianblur_0 12.232732
CrL M 0 9 0 12.232803
S /home/xilinx/Bitstreams-axi_firewall/MedianBlur-GaussianBlur_pblock_medianblur_0_partial.bit 12.260404
L MedianBlur 0 12.600715
ARR 2 10 12.834818
R 0 12.835100
EQ 0 9
EV 9 10 0 12.835294
CrL M 2 10 0 12.835326
ARR 2 11 12.888355
EQ 2 11
L MedianBlur 0 12.889942
ARR 1 12 12.947703
EQ 1 12
F 0 13.353235
DQ 0 9
CrL M 0 9 0 13.353303
L MedianBlur 0 13.369839
ARR 3 13 13.956774
R 0 13.957119
EQ 0 9
EV 9 13 0 13.957316
CrL M 3 13 0 13.957348
ARR 4 14 13.997640
R 0 13.997935
EQ 3 13
EV 13 14 0 13.998123
CrL M 4 14 0 13.998154
ARR 4 15 14.012963
EQ 4 15
L MedianBlur 0 14.039839
F 0 15.429247
DQ 0 9
CrL M 0 9 0 15.429317
L MedianBlur 0 15.439846
F 0 16.007767
DQ 1 6
CrS GaussianBlur  medianblur_0 16.007815
CrL G 1 6 0 16.007897
S /home/xilinx/Bitstreams-axi_firewall/GaussianBlur-GaussianBlur_pblock_medianblur_0_partial.bit 16.008415
L GaussianBlur 0 16.349449
ARR 3 16 16.381702
R 0 16.381971
EQ 1 6
EV 6 16 0 16.382162
CrS MedianBlur  medianblur_0 16.382183
CrL M 3 16 0 16.382221
S /home/xilinx/Bitstreams-axi_firewall/MedianBlur-GaussianBlur_pblock_medianblur_0_partial.bit 16.382688
L MedianBlur 0 16.751380
ARR 0 17 16.846253
EQ 0 17
ARR 2 18 16.852018
EQ 2 18
F 0 17.214664
DQ 0 17
CrL M 0 17 0 17.214733
L MedianBlur 0 17.269839
F 0 18.659348
DQ 1 5
CrL M 1 5 0 18.659438
L MedianBlur 0 18.659526
F 0 18.916522
DQ 1 12
CrL M 1 12 0 18.916596
L MedianBlur 0 18.939862
F 0 19.866191
DQ 1 6
CrS GaussianBlur  medianblur_0 19.866235
CrL G 1 6 0 19.866305
S /home/xilinx/Bitstreams-axi_firewall/GaussianBlur-GaussianBlur_pblock_medianblur_0_partial.bit 19.890435
L GaussianBlur 0 20.220159
ARR 1 19 20.284896
EQ 1 19
ARR 4 20 20.309079
R 0 20.309389
EQ 1 6
EV 6 20 0 20.309575
CrS MedianBlur  medianblur_0 20.309594
CrL M 4 20 0 20.309633
S /home/xilinx/Bitstreams-axi_firewall/MedianBlur-GaussianBlur_pblock_medianblur_0_partial.bit 20.340205
L MedianBlur 0 20.658248
ARR 0 21 21.677861
EQ 0 21
ARR 3 22 21.772320
EQ 3 22
F 0 22.048036
DQ 0 21
CrL M 0 21 0 22.048128
L MedianBlur 0 22.079837
ARR 0 23 22.830811
EQ 0 23
ARR 4 24 22.891410
R 0 22.891732
EQ 0 21
EV 21 24 0 22.891922
CrS MedianBlur  medianblur_0 22.891941
CrL G 4 24 0 22.891978
S /home/xilinx/Bitstreams-axi_firewall/GaussianBlur-GaussianBlur_pblock_medianblur_0_partial.bit 22.910368
L GaussianBlur 0 23.232171
ARR 4 25 23.292895
EQ 4 25
ARR 2 26 23.345613
EQ 2 26
ARR 3 27 23.409783
EQ 3 27
ARR 3 28 23.416462
EQ 3 28
ARR 4 29 23.495248
EQ 4 29
F 0 24.047393
DQ 0 23
CrS GaussianBlur  medianblur_0 24.047439
CrL M 0 23 0 24.047512
S /home/xilinx/Bitstreams-axi_firewall/MedianBlur-GaussianBlur_pblock_medianblur_0_partial.bit 24.070411
L MedianBlur 0 24.395344
F 0 25.321565
DQ 0 21
CrL M 0 21 0 25.321650
L MedianBlur 0 25.349848
F 0 25.464399
DQ 1 19
CrL M 1 19 0 25.464466
L MedianBlur 0 25.469848
F 0 26.859357
DQ 1 6
CrS GaussianBlur  medianblur_0 26.859405
CrL G 1 6 0 26.859478
S /home/xilinx/Bitstreams-axi_firewall/GaussianBlur-GaussianBlur_pblock_medianblur_0_partial.bit 26.870516
L GaussianBlur 0 27.187788
F 0 28.003010
DQ 2 3
CrL G 2 3 0 28.003100
L GaussianBlur 0 28.029838
F 0 28.582923
DQ 2 11
CrS GaussianBlur  medianblur_0 28.582961
CrL M 2 11 0 28.583026
S /home/xilinx/Bitstreams-axi_firewall/MedianBlur-GaussianBlur_pblock_medianblur_0_partial.bit 28.590457
L MedianBlur 0 28.906657
F 0 30.296139
DQ 2 18
CrL M 2 18 0 30.296235
L MedianBlur 0 30.309840
F 0 31.699053
DQ 2 26
CrS GaussianBlur  medianblur_0 31.699093
CrL G 2 26 0 31.699160
S /home/xilinx/Bitstreams-axi_firewall/GaussianBlur-GaussianBlur_pblock_medianblur_0_partial.bit 31.710467
L GaussianBlur 0 32.060361
F 0 32.875609
DQ 3 4
CrS GaussianBlur  medianblur_0 32.875657
CrL M 3 4 0 32.875730
S /home/xilinx/Bitstreams-axi_firewall/MedianBlur-GaussianBlur_pblock_medianblur_0_partial.bit 32.880491
L MedianBlur 0 33.221582
F 0 33.684796
DQ 3 13
CrL M 3 13 0 33.684878
L MedianBlur 0 33.689851
F 0 35.079279
DQ 3 22
CrL M 3 22 0 35.079373
L MedianBlur 0 35.119835
F 0 36.046160
DQ 3 27
CrL M 3 27 0 36.046249
L MedianBlur 0 36.069839
F 0 36.996294
DQ 3 28
CrL M 3 28 0 36.996367
L MedianBlur 0 37.059834
F 0 37.986427
DQ 4 15
CrL M 4 15 0 37.986519
L MedianBlur 0 37.989854
F 0 38.916183
DQ 4 25
CrL M 4 25 0 38.916256
L MedianBlur 0 38.979832
F 0 40.369164
DQ 4 29
CrS GaussianBlur  medianblur_0 40.369209
CrL G 4 29 0 40.369280
S /home/xilinx/Bitstreams-axi_firewall/GaussianBlur-GaussianBlur_pblock_medianblur_0_partial.bit 40.380498
L GaussianBlur 0 40.712717
F 0 41.527885
END 41.527910
