ARR 2 0 4.016145
CrS GaussianBlur  medianblur_0 4.016197
CrL M 2 0 0 4.016287
S /home/xilinx/Bitstreams-axi_firewall/MedianBlur-GaussianBlur_pblock_medianblur_0_partial.bit 4.017480
L MedianBlur 0 4.357838
F 0 4.821141
ARR 0 1 5.425657
CrL M 0 1 0 5.425724
L MedianBlur 0 5.469818
F 0 6.859499
ARR 4 2 7.449897
CrS GaussianBlur  medianblur_0 7.449928
CrL G 4 2 0 7.449992
S /home/xilinx/Bitstreams-axi_firewall/GaussianBlur-GaussianBlur_pblock_medianblur_0_partial.bit 7.470497
L GaussianBlur 0 7.814346
ARR 2 3 7.867381
EQ 2 3
F 0 8.629538
DQ 2 3
CrL G 2 3 0 8.629617
L GaussianBlur 0 8.639832
ARR 3 4 8.906255
R 0 8.906599
EQ 2 3
EV 3 4 0 8.906794
CrS MedianBlur  medianblur_0 8.906811
CrL M 3 4 0 8.906845
S /home/xilinx/Bitstreams-axi_firewall/MedianBlur-GaussianBlur_pblock_medianblur_0_partial.bit 8.920390
L MedianBlur 0 9.292528
ARR 1 5 9.348354
EQ 1 5
ARR 1 6 9.353000
EQ 1 6
ARR 4 7 9.364299
R 0 9.364586
EQ 3 4
EV 4 7 0 9.364766
CrS MedianBlur  medianblur_0 9.364783
CrL G 4 7 0 9.364818
S /home/xilinx/Bitstreams-axi_firewall/GaussianBlur-GaussianBlur_pblock_medianblur_0_partial.bit 9.370369
L GaussianBlur 0 9.712407
F 0 10.527588
DQ 1 5
CrS GaussianBlur  medianblur_0 10.527629
CrL M 1 5 0 10.527700
S /home/xilinx/Bitstreams-axi_firewall/MedianBlur-GaussianBlur_pblock_medianblur_0_partial.bit 10.550374
L MedianBlur 0 10.895564
ARR 2 8 11.101788
R 0 11.102085
EQ 1 5
EV 5 8 0 11.102277
CrS MedianBlur  medianblur_0 11.102298
CrL G 2 8 0 11.102337
S /home/xilinx/Bitstreams-axi_firewall/GaussianBlur-GaussianBlur_pblock_medianblur_0_partial.bit 11.102813
L GaussianBlur 0 11.452887
ARR 0 9 11.479690
EQ 0 9
F 0 12.268120
DQ 0 9
CrS GaussianBlur  medianblur_0 12.268169
CrL M 0 9 0 12.268239
S /home/xilinx/Bitstreams-axi_firewall/MedianBlur-GaussianBlur_pblock_medianblur_0_partial.bit 12.280452
L MedianBlur 0 12.615149
ARR 2 10 12.844724
R 0 12.845016
EQ 0 9
EV 9 10 0 12.845205
CrL M 2 10 0 12.845236
L MedianBlur 0 12.879821
ARR 2 11 12.898255
EQ 2 11
ARR 1 12 12.957581
EQ 1 12
F 0 13.343055
DQ 0 9
CrL M 0 9 0 13.343121
L MedianBlur 0 13.359819
ARR 3 13 13.966674
R 0 13.967012
EQ 0 9
EV 9 13 0 13.967203
CrL M 3 13 0 13.967233
L MedianBlur 0 13.967741
ARR 4 14 14.007526
R 0 14.007819
EQ 3 13
EV 13 14 0 14.008004
CrL M 4 14 0 14.008033
ARR 4 15 14.022837
EQ 4 15
L MedianBlur 0 14.049826
F 0 15.439259
DQ 0 9
CrL M 0 9 0 15.439341
L MedianBlur 0 15.459821
F 0 16.012355
DQ 1 6
CrS GaussianBlur  medianblur_0 16.012403
CrL G 1 6 0 16.012489
S /home/xilinx/Bitstreams-axi_firewall/GaussianBlur-GaussianBlur_pblock_medianblur_0_partial.bit 16.013032
L GaussianBlur 0 16.360444
ARR 3 16 16.406991
R 0 16.407256
EQ 1 6
EV 6 16 0 16.407447
CrS MedianBlur  medianblur_0 16.407468
CrL M 3 16 0 16.407506
S /home/xilinx/Bitstreams-axi_firewall/MedianBlur-GaussianBlur_pblock_medianblur_0_partial.bit 16.407974
L MedianBlur 0 16.773655
ARR 0 17 16.860068
EQ 0 17
ARR 2 18 16.865842
EQ 2 18
F 0 17.236955
DQ 0 17
CrL M 0 17 0 17.237027
L MedianBlur 0 17.259818
F 0 18.649308
DQ 1 5
CrL M 1 5 0 18.649395
L MedianBlur 0 18.659832
F 0 18.916762
DQ 1 12
CrL M 1 12 0 18.916831
L MedianBlur 0 18.939821
F 0 19.866190
DQ 1 6
CrS GaussianBlur  medianblur_0 19.866238
CrL G 1 6 0 19.866322
S /home/xilinx/Bitstreams-axi_firewall/GaussianBlur-GaussianBlur_pblock_medianblur_0_partial.bit 19.866857
L GaussianBlur 0 20.208750
ARR 1 19 20.278688
EQ 1 19
ARR 4 20 20.302873
R 0 20.303193
EQ 1 6
EV 6 20 0 20.303379
CrS MedianBlur  medianblur_0 20.303399
CrL M 4 20 0 20.303437
S /home/xilinx/Bitstreams-axi_firewall/MedianBlur-GaussianBlur_pblock_medianblur_0_partial.bit 20.320344
L MedianBlur 0 20.659074
ARR 0 21 21.679457
EQ 0 21
ARR 3 22 21.773930
EQ 3 22
F 0 22.048759
DQ 0 21
CrL M 0 21 0 22.048827
L MedianBlur 0 22.099826
ARR 0 23 22.832383
EQ 0 23
ARR 4 24 22.892979
R 0 22.893303
EQ 0 21
EV 21 24 0 22.893490
CrS MedianBlur  medianblur_0 22.893510
CrL G 4 24 0 22.893547
S /home/xilinx/Bitstreams-axi_firewall/GaussianBlur-GaussianBlur_pblock_medianblur_0_partial.bit 22.900383
L GaussianBlur 0 23.270309
ARR 4 25 23.331032
EQ 4 25
ARR 2 26 23.383753
EQ 2 26
ARR 3 27 23.447928
EQ 3 27
ARR 3 28 23.454649
EQ 3 28
ARR 4 29 23.533362
EQ 4 29
F 0 24.085549
DQ 0 23
CrS GaussianBlur  medianblur_0 24.085594
CrL M 0 23 0 24.085673
S /home/xilinx/Bitstreams-axi_firewall/MedianBlur-GaussianBlur_pblock_medianblur_0_partial.bit 24.086192
L MedianBlur 0 24.431737
F 0 25.357958
DQ 0 21
CrL M 0 21 0 25.358039
L MedianBlur 0 25.358122
F 0 25.491090
DQ 1 19
CrL M 1 19 0 25.491174
L MedianBlur 0 25.519819
F 0 26.909346
DQ 1 6
CrS GaussianBlur  medianblur_0 26.909395
CrL G 1 6 0 26.909467
S /home/xilinx/Bitstreams-axi_firewall/GaussianBlur-GaussianBlur_pblock_medianblur_0_partial.bit 26.920474
L GaussianBlur 0 27.238810
F 0 28.054018
DQ 2 3
CrL G 2 3 0 28.054112
L GaussianBlur 0 28.079820
F 0 28.628391
DQ 2 11
CrS GaussianBlur  medianblur_0 28.628428
CrL M 2 11 0 28.628493
S /home/xilinx/Bitstreams-axi_firewall/MedianBlur-GaussianBlur_pblock_medianblur_0_partial.bit 28.640435
L MedianBlur 0 28.959442
F 0 30.348959
DQ 2 18
CrL M 2 18 0 30.349051
L MedianBlur 0 30.379824
F 0 31.769141
DQ 2 26
CrS GaussianBlur  medianblur_0 31.769193
CrL G 2 26 0 31.769268
S /home/xilinx/Bitstreams-axi_firewall/GaussianBlur-GaussianBlur_pblock_medianblur_0_partial.bit 31.780495
L GaussianBlur 0 32.133620
F 0 32.948808
DQ 3 4
CrS GaussianBlur  medianblur_0 32.948853
CrL M 3 4 0 32.948935
S /home/xilinx/Bitstreams-axi_firewall/MedianBlur-GaussianBlur_pblock_medianblur_0_partial.bit 32.949450
L MedianBlur 0 33.321078
F 0 33.784349
DQ 3 13
CrL M 3 13 0 33.784440
L MedianBlur 0 33.809822
F 0 35.159263
DQ 3 22
CrL M 3 22 0 35.159340
L MedianBlur 0 35.209817
F 0 36.136190
DQ 3 27
CrL M 3 27 0 36.136280
L MedianBlur 0 36.169818
F 0 37.096292
DQ 3 28
CrL M 3 28 0 37.096375
L MedianBlur 0 37.119819
F 0 38.046349
DQ 4 15
CrL M 4 15 0 38.046439
L MedianBlur 0 38.069819
F 0 38.996219
DQ 4 25
CrL M 4 25 0 38.996301
L MedianBlur 0 38.999846
F 0 40.389181
DQ 4 29
CrS GaussianBlur  medianblur_0 40.389230
CrL G 4 29 0 40.389305
S /home/xilinx/Bitstreams-axi_firewall/GaussianBlur-GaussianBlur_pblock_medianblur_0_partial.bit 40.400510
L GaussianBlur 0 40.764146
F 0 41.579360
END 41.579391
