ARR 2 0 6.059903
CrS GaussianBlur GaussianBlur medianblur_0 6.059954
CrL M 2 0 0 6.060050
S /home/xilinx/Bitstreams-axi_firewall/MedianBlur-GaussianBlur_pblock_medianblur_0_partial.bit 6.060691
L MedianBlur 0 6.374798
F 0 6.838114
ARR 0 1 8.440509
CrL M 0 1 0 8.440586
L MedianBlur 0 8.449806
F 0 9.839393
ARR 4 2 11.499879
CrS GaussianBlur GaussianBlur medianblur_0 11.499917
CrL G 4 2 0 11.499991
S /home/xilinx/Bitstreams-axi_firewall/GaussianBlur-GaussianBlur_pblock_medianblur_0_partial.bit 11.530375
L GaussianBlur 0 11.864287
ARR 2 3 11.949084
CrL G 2 3 1 11.949155
L GaussianBlur 1 11.989785
F 0 12.679881
F 1 12.805342
ARR 3 4 13.971867
CrS GaussianBlur GaussianBlur medianblur_0 13.971897
CrL M 3 4 0 13.971960
S /home/xilinx/Bitstreams-axi_firewall/MedianBlur-GaussianBlur_pblock_medianblur_0_partial.bit 13.980461
L MedianBlur 0 14.289546
ARR 1 5 14.378802
CrS MedianBlur GaussianBlur gaussianblur_0 14.378830
CrL M 1 5 1 14.378900
S /home/xilinx/Bitstreams-axi_firewall/MedianBlur-MedianBlur_pblock_gaussianblur_0_partial.bit 14.390639
L MedianBlur 1 14.689335
ARR 1 6 14.699861
EQ 1 6
ARR 4 7 14.718369
EQ 4 7
F 0 14.754768
DQ 1 6
CrS GaussianBlur MedianBlur medianblur_0 14.754799
CrL G 1 6 0 14.754860
S /home/xilinx/Bitstreams-axi_firewall/GaussianBlur-MedianBlur_pblock_medianblur_0_partial.bit 14.780326
L GaussianBlur 0 15.122208
F 1 15.155439
DQ 4 7
CrS MedianBlur GaussianBlur gaussianblur_0 15.155471
CrL G 4 7 1 15.155539
S /home/xilinx/Bitstreams-axi_firewall/GaussianBlur-GaussianBlur_pblock_gaussianblur_0_partial.bit 15.180325
L GaussianBlur 1 15.510852
F 0 15.944504
F 1 16.332171
ARR 2 8 16.552314
CrL G 2 8 0 16.552398
L GaussianBlur 0 16.569795
ARR 0 9 16.584129
CrS MedianBlur GaussianBlur gaussianblur_0 16.584155
CrL M 0 9 1 16.584225
S /home/xilinx/Bitstreams-axi_firewall/GaussianBlur-MedianBlur_pblock_gaussianblur_0_partial.bit 16.584774
L MedianBlur 1 17.021725
F 0 17.387279
ARR 2 10 18.118784
CrS GaussianBlur MedianBlur medianblur_0 18.118819
CrL M 2 10 0 18.118885
S /home/xilinx/Bitstreams-axi_firewall/MedianBlur-MedianBlur_pblock_medianblur_0_partial.bit 18.130474
L MedianBlur 0 18.434732
F 1 18.439914
ARR 2 11 18.524664
CrL M 2 11 1 18.524746
L MedianBlur 1 18.559787
ARR 1 12 18.619567
EQ 1 12
F 0 18.899491
DQ 1 12
CrL M 1 12 0 18.899560
L MedianBlur 0 18.909800
ARR 3 13 19.693602
EQ 3 13
ARR 4 14 19.757919
EQ 4 14
ARR 4 15 19.781483
EQ 4 15
F 0 19.853161
DQ 3 13
CrL M 3 13 0 19.853220
L MedianBlur 0 19.889785
F 1 19.968112
DQ 4 14
CrL M 4 14 1 19.968170
L MedianBlur 1 19.999784
F 0 21.298218
DQ 4 15
CrL M 4 15 0 21.298303
L MedianBlur 0 21.329791
F 1 21.404388
F 0 22.256468
ARR 3 16 22.845062
CrL M 3 16 0 22.845145
L MedianBlur 0 22.889785
F 0 23.353008
ARR 0 17 23.884016
CrL M 0 17 0 23.884076
ARR 2 18 23.893137
CrL M 2 18 1 23.893194
L MedianBlur 1 23.929788
L MedianBlur 0 23.939788
F 1 25.348022
F 0 25.355546
ARR 1 19 28.986323
CrL M 1 19 0 28.986405
ARR 4 20 29.024952
CrL M 4 20 1 29.025016
L MedianBlur 1 29.039820
L MedianBlur 0 29.059787
ARR 0 21 30.115913
EQ 0 21
F 1 30.450500
DQ 0 21
CrL M 0 21 1 30.450579
F 0 30.473219
L MedianBlur 1 30.479801
ARR 3 22 31.167911
CrL M 3 22 0 31.167984
L MedianBlur 0 31.189789
F 1 31.407824
F 0 32.119500
ARR 0 23 33.221204
CrL M 0 23 0 33.221286
L MedianBlur 0 33.221758
ARR 4 24 33.318167
CrS MedianBlur GaussianBlur gaussianblur_0 33.318194
CrL G 4 24 1 33.318256
S /home/xilinx/Bitstreams-axi_firewall/MedianBlur-GaussianBlur_pblock_gaussianblur_0_partial.bit 33.320441
L GaussianBlur 1 33.618734
ARR 4 25 33.715832
EQ 4 25
ARR 2 26 33.800074
EQ 2 26
F 0 34.153086
DQ 2 26
CrS GaussianBlur MedianBlur medianblur_0 34.153120
CrL G 2 26 0 34.153189
S /home/xilinx/Bitstreams-axi_firewall/GaussianBlur-GaussianBlur_pblock_medianblur_0_partial.bit 34.153705
L GaussianBlur 0 34.493474
F 1 34.499927
DQ 4 25
CrS MedianBlur GaussianBlur gaussianblur_0 34.499959
CrL M 4 25 1 34.500574
S /home/xilinx/Bitstreams-axi_firewall/GaussianBlur-MedianBlur_pblock_gaussianblur_0_partial.bit 34.521003
L MedianBlur 1 34.819334
F 0 35.311399
ARR 3 27 35.469681
CrS GaussianBlur MedianBlur medianblur_0 35.469713
CrL M 3 27 0 35.469871
S /home/xilinx/Bitstreams-axi_firewall/MedianBlur-MedianBlur_pblock_medianblur_0_partial.bit 35.480441
L MedianBlur 0 35.796166
ARR 3 28 35.810235
EQ 3 28
F 1 36.222550
DQ 3 28
CrL M 3 28 1 36.222623
L MedianBlur 1 36.249788
F 0 36.734819
ARR 4 29 36.836494
CrS GaussianBlur MedianBlur medianblur_0 36.836526
CrL G 4 29 0 36.836593
S /home/xilinx/Bitstreams-axi_firewall/GaussianBlur-MedianBlur_pblock_medianblur_0_partial.bit 36.840381
L GaussianBlur 0 37.162918
F 1 37.183842
F 0 37.978183
END 37.978209
