ARR 2 0 4.016144
CrS GaussianBlur  medianblur_0 4.016193
CrL M 2 0 0 4.016287
S /home/xilinx/Bitstreams-axi_firewall/MedianBlur-GaussianBlur_pblock_medianblur_0_partial.bit 4.016913
L MedianBlur 0 4.362067
F 0 4.825349
ARR 0 1 5.427893
CrL M 0 1 0 5.427968
L MedianBlur 0 5.439835
F 0 6.829349
ARR 4 2 7.452308
CrS GaussianBlur  medianblur_0 7.452341
CrL G 4 2 0 7.452412
S /home/xilinx/Bitstreams-axi_firewall/GaussianBlur-GaussianBlur_pblock_medianblur_0_partial.bit 7.470450
L GaussianBlur 0 7.802913
ARR 2 3 7.862868
EQ 2 3
F 0 8.618100
DQ 2 3
CrL G 2 3 0 8.618170
L GaussianBlur 0 8.649827
ARR 3 4 8.901735
EQ 3 4
ARR 1 5 8.957633
EQ 1 5
ARR 1 6 8.962257
EQ 1 6
ARR 4 7 8.973541
EQ 4 7
F 0 9.465045
DQ 1 5
CrS GaussianBlur  medianblur_0 9.465082
CrL M 1 5 0 9.465153
S /home/xilinx/Bitstreams-axi_firewall/MedianBlur-GaussianBlur_pblock_medianblur_0_partial.bit 9.490397
L MedianBlur 0 9.824727
F 0 10.288047
DQ 1 6
CrS GaussianBlur  medianblur_0 10.288084
CrL G 1 6 0 10.288153
S /home/xilinx/Bitstreams-axi_firewall/GaussianBlur-GaussianBlur_pblock_medianblur_0_partial.bit 10.310387
L GaussianBlur 0 10.650680
ARR 2 8 10.722386
EQ 2 8
ARR 0 9 10.742311
EQ 0 9
F 0 11.465927
DQ 0 9
CrS GaussianBlur  medianblur_0 11.465974
CrL M 0 9 0 11.466050
S /home/xilinx/Bitstreams-axi_firewall/MedianBlur-GaussianBlur_pblock_medianblur_0_partial.bit 11.490410
L MedianBlur 0 11.823085
ARR 2 10 12.117531
EQ 2 10
ARR 2 11 12.170579
EQ 2 11
ARR 1 12 12.229906
EQ 1 12
F 0 13.212258
DQ 1 12
CrL M 1 12 0 13.212337
L MedianBlur 0 13.230433
ARR 3 13 13.238408
EQ 3 13
ARR 4 14 13.278677
EQ 4 14
ARR 4 15 13.293493
EQ 4 15
F 0 14.156745
DQ 2 8
CrS GaussianBlur  medianblur_0 14.156776
CrL G 2 8 0 14.156842
S /home/xilinx/Bitstreams-axi_firewall/GaussianBlur-GaussianBlur_pblock_medianblur_0_partial.bit 14.157376
L GaussianBlur 0 14.504170
F 0 15.319425
DQ 2 10
CrS GaussianBlur  medianblur_0 15.319470
CrL M 2 10 0 15.319545
S /home/xilinx/Bitstreams-axi_firewall/MedianBlur-GaussianBlur_pblock_medianblur_0_partial.bit 15.330490
L MedianBlur 0 15.638727
ARR 3 16 15.988131
EQ 3 16
ARR 0 17 16.074645
EQ 0 17
ARR 2 18 16.080402
EQ 2 18
F 0 16.101987
DQ 0 17
CrL M 0 17 0 16.102044
L MedianBlur 0 16.159826
F 0 17.549366
DQ 2 11
CrL M 2 11 0 17.549448
L MedianBlur 0 17.579834
F 0 18.969290
DQ 2 18
CrL M 2 18 0 18.969355
L MedianBlur 0 19.019827
ARR 1 19 19.149591
EQ 1 19
ARR 4 20 19.173773
EQ 4 20
ARR 0 21 20.193480
EQ 0 21
ARR 3 22 20.287935
EQ 3 22
F 0 20.409135
DQ 0 21
CrL M 0 21 0 20.409196
L MedianBlur 0 20.459826
ARR 0 23 21.346573
EQ 0 23
F 0 21.386151
DQ 0 23
CrL M 0 23 0 21.386219
L MedianBlur 0 21.399849
ARR 4 24 21.407419
EQ 4 24
ARR 4 25 21.468233
EQ 4 25
ARR 2 26 21.520941
EQ 2 26
ARR 3 27 21.585102
EQ 3 27
ARR 3 28 21.591745
EQ 3 28
ARR 4 29 21.670441
EQ 4 29
F 0 22.326099
DQ 1 19
CrL M 1 19 0 22.326164
L MedianBlur 0 22.359827
F 0 23.749308
DQ 2 26
CrS GaussianBlur  medianblur_0 23.749350
CrL G 2 26 0 23.749424
S /home/xilinx/Bitstreams-axi_firewall/GaussianBlur-GaussianBlur_pblock_medianblur_0_partial.bit 23.760533
L GaussianBlur 0 24.103814
F 0 24.918985
DQ 3 4
CrS GaussianBlur  medianblur_0 24.919021
CrL M 3 4 0 24.919092
S /home/xilinx/Bitstreams-axi_firewall/MedianBlur-GaussianBlur_pblock_medianblur_0_partial.bit 24.930479
L MedianBlur 0 25.249718
F 0 25.712885
DQ 3 13
CrL M 3 13 0 25.712961
L MedianBlur 0 25.769835
F 0 27.159248
DQ 3 16
CrL M 3 16 0 27.159322
L MedianBlur 0 27.159837
F 0 27.623095
DQ 3 22
CrL M 3 22 0 27.623180
L MedianBlur 0 27.639837
F 0 28.566136
DQ 3 27
CrL M 3 27 0 28.566203
L MedianBlur 0 28.579834
F 0 29.506283
DQ 3 28
CrL M 3 28 0 29.506363
L MedianBlur 0 29.539830
F 0 30.466354
DQ 4 7
CrS GaussianBlur  medianblur_0 30.466394
CrL G 4 7 0 30.466463
S /home/xilinx/Bitstreams-axi_firewall/GaussianBlur-GaussianBlur_pblock_medianblur_0_partial.bit 30.490407
L GaussianBlur 0 30.821811
F 0 31.637027
DQ 4 14
CrS GaussianBlur  medianblur_0 31.637069
CrL M 4 14 0 31.637158
S /home/xilinx/Bitstreams-axi_firewall/MedianBlur-GaussianBlur_pblock_medianblur_0_partial.bit 31.637690
L MedianBlur 0 31.968781
F 0 33.358248
DQ 4 15
CrL M 4 15 0 33.358336
L MedianBlur 0 33.379866
F 0 34.306287
DQ 4 20
CrL M 4 20 0 34.306353
L MedianBlur 0 34.339826
F 0 35.729380
DQ 4 24
CrS GaussianBlur  medianblur_0 35.729423
CrL G 4 24 0 35.729499
S /home/xilinx/Bitstreams-axi_firewall/GaussianBlur-GaussianBlur_pblock_medianblur_0_partial.bit 35.750437
L GaussianBlur 0 36.073535
F 0 36.888723
DQ 4 25
CrS GaussianBlur  medianblur_0 36.888763
CrL M 4 25 0 36.888847
S /home/xilinx/Bitstreams-axi_firewall/MedianBlur-GaussianBlur_pblock_medianblur_0_partial.bit 36.889365
L MedianBlur 0 37.231106
F 0 38.620419
DQ 4 29
CrS GaussianBlur  medianblur_0 38.620456
CrL G 4 29 0 38.620526
S /home/xilinx/Bitstreams-axi_firewall/GaussianBlur-GaussianBlur_pblock_medianblur_0_partial.bit 38.640385
L GaussianBlur 0 38.982237
F 0 39.797444
END 39.797475
