ARR 2 0 0.082824
CrS GaussianBlur GaussianBlur medianblur_0 0.082879
CrL M 2 0 0 0.082960
S /home/xilinx/Bitstreams-axi_firewall/MedianBlur-GaussianBlur_pblock_medianblur_0_partial.bit 0.110517
L MedianBlur 0 0.435030
ARR 0 1 0.472983
CrS MedianBlur GaussianBlur gaussianblur_0 0.473014
CrL M 0 1 1 0.473082
S /home/xilinx/Bitstreams-axi_firewall/MedianBlur-MedianBlur_pblock_gaussianblur_0_partial.bit 0.480718
L MedianBlur 1 0.801018
ARR 4 2 0.854665
R 0 0.854965
EQ 2 0
EV 0 2 0 0.855166
CrS MedianBlur MedianBlur medianblur_0 0.855184
CrL G 4 2 0 0.855220
S /home/xilinx/Bitstreams-axi_firewall/GaussianBlur-MedianBlur_pblock_medianblur_0_partial.bit 0.855701
L GaussianBlur 0 1.183515
ARR 2 3 1.194243
R 1 1.194505
EQ 0 1
EV 1 3 1 1.194695
CrS MedianBlur MedianBlur gaussianblur_0 1.194711
CrL G 2 3 1 1.194744
S /home/xilinx/Bitstreams-axi_firewall/GaussianBlur-GaussianBlur_pblock_gaussianblur_0_partial.bit 1.195224
L GaussianBlur 1 1.499400
ARR 3 4 1.527620
R 1 1.527883
EQ 2 3
EV 3 4 1 1.528073
CrS MedianBlur MedianBlur gaussianblur_0 1.528089
CrL M 3 4 1 1.528121
S /home/xilinx/Bitstreams-axi_firewall/GaussianBlur-MedianBlur_pblock_gaussianblur_0_partial.bit 1.530319
L MedianBlur 1 1.830980
ARR 1 5 1.842266
EQ 1 5
ARR 1 6 1.843389
EQ 1 6
ARR 4 7 1.845838
R 1 1.846123
EQ 3 4
EV 4 7 1 1.846305
CrS MedianBlur MedianBlur gaussianblur_0 1.846321
CrL G 4 7 1 1.846354
S /home/xilinx/Bitstreams-axi_firewall/GaussianBlur-GaussianBlur_pblock_gaussianblur_0_partial.bit 1.870394
L GaussianBlur 1 2.159313
F 0 2.169870
DQ 0 1
CrS GaussianBlur MedianBlur medianblur_0 2.169902
CrL M 0 1 0 2.170515
S /home/xilinx/Bitstreams-axi_firewall/MedianBlur-GaussianBlur_pblock_medianblur_0_partial.bit 2.200382
L MedianBlur 0 2.514318
ARR 2 8 2.538663
R 0 2.538929
EQ 0 1
EV 1 8 0 2.539116
CrS MedianBlur MedianBlur medianblur_0 2.539132
CrL G 2 8 0 2.539166
S /home/xilinx/Bitstreams-axi_firewall/GaussianBlur-GaussianBlur_pblock_medianblur_0_partial.bit 2.550402
L GaussianBlur 0 2.855641
ARR 0 9 2.863930
EQ 0 9
ARR 2 10 2.887660
EQ 2 10
ARR 2 11 2.898446
EQ 2 11
ARR 1 12 2.910488
EQ 1 12
ARR 3 13 2.932311
R 0 2.932605
EQ 2 8
EV 8 13 0 2.932785
CrS MedianBlur MedianBlur medianblur_0 2.932802
CrL M 3 13 0 2.932836
S /home/xilinx/Bitstreams-axi_firewall/MedianBlur-GaussianBlur_pblock_medianblur_0_partial.bit 2.933316
L MedianBlur 0 3.264643
F 1 3.269963
DQ 0 1
CrS MedianBlur GaussianBlur gaussianblur_0 3.269995
CrL M 0 1 1 3.270062
S /home/xilinx/Bitstreams-axi_firewall/MedianBlur-MedianBlur_pblock_gaussianblur_0_partial.bit 3.290410
L MedianBlur 1 3.610232
ARR 4 14 3.618386
R 0 3.618642
EQ 3 13
EV 13 14 0 3.618830
CrL M 4 14 0 3.618856
ARR 4 15 3.622001
R 1 3.622284
EQ 0 1
EV 1 15 1 3.622468
CrL M 4 15 1 3.622493
L MedianBlur 0 3.629854
L MedianBlur 1 3.649837
ARR 3 16 3.667927
EQ 3 16
ARR 0 17 3.685400
EQ 0 17
ARR 2 18 3.686731
EQ 2 18
ARR 1 19 3.760592
EQ 1 19
ARR 4 20 3.765604
EQ 4 20
ARR 0 21 3.789516
EQ 0 21
ARR 3 22 3.808566
EQ 3 22
ARR 0 23 3.840230
EQ 0 23
ARR 4 24 3.852517
EQ 4 24
ARR 4 25 3.864845
EQ 4 25
ARR 2 26 3.875555
EQ 2 26
ARR 3 27 3.888554
EQ 3 27
ARR 3 28 3.890055
EQ 3 28
ARR 4 29 3.905961
EQ 4 29
F 1 4.593455
DQ 0 9
CrL M 0 9 1 4.593539
L MedianBlur 1 4.649829
F 0 5.035257
DQ 0 1
CrL M 0 1 0 5.035322
L MedianBlur 0 5.049868
F 1 6.059139
DQ 0 17
CrL M 0 17 1 6.059226
L MedianBlur 1 6.079834
F 0 6.452704
DQ 0 21
CrL M 0 21 0 6.452781
L MedianBlur 0 6.479832
F 0 7.423167
DQ 0 23
CrL M 0 23 0 7.423234
L MedianBlur 0 7.439831
F 1 7.491425
DQ 1 5
CrL M 1 5 1 7.491484
L MedianBlur 1 7.529827
F 1 8.002568
DQ 1 6
CrS MedianBlur GaussianBlur gaussianblur_0 8.002599
CrL G 1 6 1 8.002659
S /home/xilinx/Bitstreams-axi_firewall/MedianBlur-GaussianBlur_pblock_gaussianblur_0_partial.bit 8.003216
L GaussianBlur 1 8.315221
F 0 8.376088
DQ 1 12
CrL M 1 12 0 8.376165
L MedianBlur 0 8.409877
F 1 9.133362
DQ 1 19
CrS MedianBlur GaussianBlur gaussianblur_0 9.133401
CrL M 1 19 1 9.133464
S /home/xilinx/Bitstreams-axi_firewall/MedianBlur-MedianBlur_pblock_gaussianblur_0_partial.bit 9.160422
L MedianBlur 1 9.471276
F 0 9.471354
DQ 2 0
CrL M 2 0 0 9.471426
L MedianBlur 0 9.499846
F 0 9.546128
DQ 2 3
CrS GaussianBlur MedianBlur medianblur_0 9.546161
CrL G 2 3 0 9.546226
S /home/xilinx/Bitstreams-axi_firewall/GaussianBlur-MedianBlur_pblock_medianblur_0_partial.bit 9.546732
L GaussianBlur 0 9.859502
F 0 10.677778
DQ 2 10
CrS GaussianBlur MedianBlur medianblur_0 10.677828
CrL M 2 10 0 10.677904
S /home/xilinx/Bitstreams-axi_firewall/MedianBlur-MedianBlur_pblock_medianblur_0_partial.bit 10.690485
L MedianBlur 0 11.012782
F 1 11.019951
DQ 2 11
CrL M 2 11 1 11.020568
L MedianBlur 1 11.039848
F 0 11.477860
DQ 2 8
CrS GaussianBlur MedianBlur medianblur_0 11.477900
CrL G 2 8 0 11.477964
S /home/xilinx/Bitstreams-axi_firewall/GaussianBlur-MedianBlur_pblock_medianblur_0_partial.bit 11.490433
L GaussianBlur 0 11.831569
F 1 12.436630
DQ 2 18
CrL M 2 18 1 12.436721
L MedianBlur 1 12.469831
F 0 12.649703
DQ 2 26
CrL G 2 26 0 12.649775
L GaussianBlur 0 12.659844
F 0 13.478062
DQ 3 4
CrS GaussianBlur MedianBlur medianblur_0 13.478097
CrL M 3 4 0 13.478157
S /home/xilinx/Bitstreams-axi_firewall/MedianBlur-MedianBlur_pblock_medianblur_0_partial.bit 13.500405
L MedianBlur 0 13.804608
F 1 13.868571
DQ 3 13
CrL M 3 13 1 13.868649
L MedianBlur 1 13.889833
F 0 14.273287
DQ 3 16
CrL M 3 16 0 14.273380
L MedianBlur 0 14.289834
F 0 14.757808
DQ 3 22
CrL M 3 22 0 14.757879
L MedianBlur 0 14.769834
F 1 14.942095
DQ 3 27
CrL M 3 27 1 14.942185
L MedianBlur 1 14.971276
F 0 15.712696
DQ 3 28
CrL M 3 28 0 15.712781
L MedianBlur 0 15.759828
F 1 15.910043
DQ 4 20
CrL M 4 20 1 15.910111
L MedianBlur 1 15.939833
F 0 16.697913
DQ 4 24
CrS GaussianBlur MedianBlur medianblur_0 16.697962
CrL G 4 24 0 16.698035
S /home/xilinx/Bitstreams-axi_firewall/GaussianBlur-MedianBlur_pblock_medianblur_0_partial.bit 16.730443
L GaussianBlur 0 17.034778
F 1 17.346041
DQ 4 25
CrL M 4 25 1 17.346124
L MedianBlur 1 17.369837
F 0 17.852950
DQ 4 29
CrL G 4 29 0 17.853021
L GaussianBlur 0 17.869831
F 0 18.688126
F 1 18.767680
END 18.767704
