ARR 2 0 6.059884
CrS GaussianBlur  medianblur_0 6.059937
CrL M 2 0 0 6.060036
S /home/xilinx/Bitstreams-axi_firewall/MedianBlur-GaussianBlur_pblock_medianblur_0_partial.bit 6.060665
L MedianBlur 0 6.384069
F 0 6.847310
ARR 0 1 8.455597
CrL M 0 1 0 8.455683
L MedianBlur 0 8.499767
F 0 9.889324
ARR 4 2 11.515059
CrS GaussianBlur  medianblur_0 11.515105
CrL G 4 2 0 11.515179
S /home/xilinx/Bitstreams-axi_firewall/GaussianBlur-GaussianBlur_pblock_medianblur_0_partial.bit 11.540383
L GaussianBlur 0 11.871590
ARR 2 3 11.964568
EQ 2 3
F 0 12.686782
DQ 2 3
CrL G 2 3 0 12.686859
L GaussianBlur 0 12.709800
F 0 13.525000
ARR 3 4 13.986702
CrS GaussianBlur  medianblur_0 13.986736
CrL M 3 4 0 13.986802
S /home/xilinx/Bitstreams-axi_firewall/MedianBlur-GaussianBlur_pblock_medianblur_0_partial.bit 14.000387
L MedianBlur 0 14.320636
ARR 1 5 14.409858
EQ 1 5
ARR 1 6 14.417158
EQ 1 6
ARR 4 7 14.435095
R 0 14.435423
EQ 3 4
EV 4 7 0 14.435620
CrS MedianBlur  medianblur_0 14.435640
CrL G 4 7 0 14.435677
S /home/xilinx/Bitstreams-axi_firewall/GaussianBlur-GaussianBlur_pblock_medianblur_0_partial.bit 14.440324
L GaussianBlur 0 14.747324
F 0 15.562556
DQ 1 5
CrS GaussianBlur  medianblur_0 15.562606
CrL M 1 5 0 15.562679
S /home/xilinx/Bitstreams-axi_firewall/MedianBlur-GaussianBlur_pblock_medianblur_0_partial.bit 15.590336
L MedianBlur 0 15.906559
ARR 2 8 16.191117
R 0 16.191414
EQ 1 5
EV 5 8 0 16.191606
CrS MedianBlur  medianblur_0 16.191626
CrL G 2 8 0 16.191665
S /home/xilinx/Bitstreams-axi_firewall/GaussianBlur-GaussianBlur_pblock_medianblur_0_partial.bit 16.220345
L GaussianBlur 0 16.536033
ARR 0 9 16.567682
EQ 0 9
F 0 17.351275
DQ 0 9
CrS GaussianBlur  medianblur_0 17.351320
CrL M 0 9 0 17.351392
S /home/xilinx/Bitstreams-axi_firewall/MedianBlur-GaussianBlur_pblock_medianblur_0_partial.bit 17.376314
L MedianBlur 0 17.692811
ARR 2 10 18.004747
R 0 18.005031
EQ 0 9
EV 9 10 0 18.005221
CrL M 2 10 0 18.005252
L MedianBlur 0 18.049774
ARR 2 11 18.089976
EQ 2 11
ARR 1 12 18.184792
EQ 1 12
F 0 18.513005
DQ 0 9
CrL M 0 9 0 18.513071
L MedianBlur 0 18.539767
ARR 3 13 19.258806
R 0 19.259146
EQ 0 9
EV 9 13 0 19.259340
CrL M 3 13 0 19.259372
L MedianBlur 0 19.269789
ARR 4 14 19.323709
R 0 19.323997
EQ 3 13
EV 13 14 0 19.324184
CrL M 4 14 0 19.324214
ARR 4 15 19.347767
EQ 4 15
L MedianBlur 0 19.349787
F 0 20.739204
DQ 0 9
CrL M 0 9 0 20.739273
L MedianBlur 0 20.749775
F 0 21.107747
DQ 1 6
CrS GaussianBlur  medianblur_0 21.107791
CrL G 1 6 0 21.107867
S /home/xilinx/Bitstreams-axi_firewall/GaussianBlur-GaussianBlur_pblock_medianblur_0_partial.bit 21.108388
L GaussianBlur 0 21.463687
F 0 22.278875
DQ 1 5
CrS GaussianBlur  medianblur_0 22.278918
CrL M 1 5 0 22.278988
S /home/xilinx/Bitstreams-axi_firewall/MedianBlur-GaussianBlur_pblock_medianblur_0_partial.bit 22.300323
L MedianBlur 0 22.599307
F 0 23.062616
DQ 1 12
CrL M 1 12 0 23.062704
ARR 3 16 23.092894
R 0 23.093209
EQ 1 12
EV 12 16 0 23.093395
CrL M 3 16 0 23.093425
L MedianBlur 0 23.159772
F 0 23.623039
DQ 1 12
CrL M 1 12 0 23.623115
L MedianBlur 0 23.639773
ARR 0 17 24.132356
EQ 0 17
ARR 2 18 24.141419
R 0 24.141738
EQ 1 12
EV 12 18 0 24.141923
CrL M 2 18 0 24.141954
L MedianBlur 0 24.159774
F 0 25.549112
DQ 0 17
CrL M 0 17 0 25.549198
L MedianBlur 0 25.589771
F 0 26.979196
DQ 1 12
CrL M 1 12 0 26.979279
L MedianBlur 0 26.979352
F 0 27.403913
DQ 2 11
CrL M 2 11 0 27.404003
L MedianBlur 0 27.439811
F 0 28.829272
DQ 3 4
CrL M 3 4 0 28.829354
L MedianBlur 0 28.849770
F 0 29.198399
DQ 3 13
CrL M 3 13 0 29.198482
L MedianBlur 0 29.209779
ARR 1 19 29.232482
EQ 1 19
ARR 4 20 29.271020
R 0 29.271358
EQ 3 13
EV 13 20 0 29.271543
CrL M 4 20 0 29.271574
L MedianBlur 0 29.289771
ARR 0 21 30.362412
EQ 0 21
F 0 30.679283
DQ 0 21
CrL M 0 21 0 30.679352
L MedianBlur 0 30.689775
ARR 3 22 31.414232
R 0 31.414566
EQ 0 21
EV 21 22 0 31.414760
CrL M 3 22 0 31.414792
L MedianBlur 0 31.439778
F 0 32.366049
DQ 0 21
CrL M 0 21 0 32.366122
L MedianBlur 0 32.366189
F 0 32.567890
DQ 1 19
CrL M 1 19 0 32.567959
L MedianBlur 0 32.599791
ARR 0 23 33.468000
EQ 0 23
ARR 4 24 33.564860
R 0 33.565178
EQ 1 19
EV 19 24 0 33.565364
CrS MedianBlur  medianblur_0 33.565385
CrL G 4 24 0 33.565491
S /home/xilinx/Bitstreams-axi_firewall/GaussianBlur-GaussianBlur_pblock_medianblur_0_partial.bit 33.590336
L GaussianBlur 0 33.940337
ARR 4 25 34.037434
EQ 4 25
ARR 2 26 34.121674
EQ 2 26
F 0 34.755534
DQ 0 23
CrS GaussianBlur  medianblur_0 34.755573
CrL M 0 23 0 34.755638
S /home/xilinx/Bitstreams-axi_firewall/MedianBlur-GaussianBlur_pblock_medianblur_0_partial.bit 34.780310
L MedianBlur 0 35.091796
ARR 3 27 35.468844
R 0 35.469167
EQ 0 23
EV 23 27 0 35.469359
CrL M 3 27 0 35.469390
ARR 3 28 35.479941
EQ 3 28
L MedianBlur 0 35.489794
F 0 36.416276
DQ 0 23
CrL M 0 23 0 36.416361
L MedianBlur 0 36.416405
ARR 4 29 36.505999
R 0 36.506466
EQ 0 23
EV 23 29 0 36.506656
CrS MedianBlur  medianblur_0 36.506676
CrL G 4 29 0 36.506714
S /home/xilinx/Bitstreams-axi_firewall/GaussianBlur-GaussianBlur_pblock_medianblur_0_partial.bit 36.530324
L GaussianBlur 0 36.839264
F 0 37.654483
DQ 0 23
CrS GaussianBlur  medianblur_0 37.654528
CrL M 0 23 0 37.654601
S /home/xilinx/Bitstreams-axi_firewall/MedianBlur-GaussianBlur_pblock_medianblur_0_partial.bit 37.680330
L MedianBlur 0 37.988721
F 0 38.914922
DQ 1 19
CrL M 1 19 0 38.915007
L MedianBlur 0 38.939770
F 0 39.364068
DQ 2 26
CrS GaussianBlur  medianblur_0 39.364119
CrL G 2 26 0 39.364198
S /home/xilinx/Bitstreams-axi_firewall/GaussianBlur-GaussianBlur_pblock_medianblur_0_partial.bit 39.380355
L GaussianBlur 0 39.692774
F 0 40.507946
DQ 3 13
CrS GaussianBlur  medianblur_0 40.507988
CrL M 3 13 0 40.508059
S /home/xilinx/Bitstreams-axi_firewall/MedianBlur-GaussianBlur_pblock_medianblur_0_partial.bit 40.530348
L MedianBlur 0 40.857658
F 0 42.247092
DQ 3 28
CrL M 3 28 0 42.247182
L MedianBlur 0 42.289767
F 0 43.216320
DQ 4 15
CrL M 4 15 0 43.216410
L MedianBlur 0 43.249767
F 0 44.176135
DQ 4 25
CrL M 4 25 0 44.176211
L MedianBlur 0 44.209766
F 0 45.599146
END 45.599178
