ARR 2 0 4.016145
CrS GaussianBlur  medianblur_0 4.016201
CrL M 2 0 0 4.016286
S /home/xilinx/Bitstreams-axi_firewall/MedianBlur-GaussianBlur_pblock_medianblur_0_partial.bit 4.040525
L MedianBlur 0 4.371703
F 0 4.834963
ARR 0 1 5.445722
CrL M 0 1 0 5.445789
L MedianBlur 0 5.449852
F 0 6.839427
ARR 4 2 7.469916
CrS GaussianBlur  medianblur_0 7.469949
CrL G 4 2 0 7.470012
S /home/xilinx/Bitstreams-axi_firewall/GaussianBlur-GaussianBlur_pblock_medianblur_0_partial.bit 7.490416
L GaussianBlur 0 7.805805
ARR 2 3 7.862875
EQ 2 3
F 0 8.621021
DQ 2 3
CrL G 2 3 0 8.621108
L GaussianBlur 0 8.669837
ARR 3 4 8.901776
R 0 8.902131
EQ 2 3
EV 3 4 0 8.902330
CrS MedianBlur  medianblur_0 8.902347
CrL M 3 4 0 8.902381
S /home/xilinx/Bitstreams-axi_firewall/MedianBlur-GaussianBlur_pblock_medianblur_0_partial.bit 8.910408
L MedianBlur 0 9.231401
ARR 1 5 9.295669
EQ 1 5
ARR 1 6 9.300312
EQ 1 6
ARR 4 7 9.311609
R 0 9.311896
EQ 3 4
EV 4 7 0 9.312075
CrS MedianBlur  medianblur_0 9.312091
CrL G 4 7 0 9.312127
S /home/xilinx/Bitstreams-axi_firewall/GaussianBlur-GaussianBlur_pblock_medianblur_0_partial.bit 9.312612
L GaussianBlur 0 9.641637
F 0 10.456818
DQ 1 5
CrS GaussianBlur  medianblur_0 10.456860
CrL M 1 5 0 10.456937
S /home/xilinx/Bitstreams-axi_firewall/MedianBlur-GaussianBlur_pblock_medianblur_0_partial.bit 10.457444
L MedianBlur 0 10.784538
ARR 2 8 10.990759
R 0 10.991031
EQ 1 5
EV 5 8 0 10.991222
CrS MedianBlur  medianblur_0 10.991242
CrL G 2 8 0 10.991280
S /home/xilinx/Bitstreams-axi_firewall/GaussianBlur-GaussianBlur_pblock_medianblur_0_partial.bit 11.020403
L GaussianBlur 0 11.340664
ARR 0 9 11.369675
EQ 0 9
F 0 12.155893
DQ 0 9
CrS GaussianBlur  medianblur_0 12.155942
CrL M 0 9 0 12.156013
S /home/xilinx/Bitstreams-axi_firewall/MedianBlur-GaussianBlur_pblock_medianblur_0_partial.bit 12.180413
L MedianBlur 0 12.494290
ARR 2 10 12.731627
R 0 12.731899
EQ 0 9
EV 9 10 0 12.732092
CrL M 2 10 0 12.732122
L MedianBlur 0 12.769840
ARR 2 11 12.785141
EQ 2 11
ARR 1 12 12.844471
EQ 1 12
F 0 13.233084
DQ 0 9
CrL M 0 9 0 13.233151
L MedianBlur 0 13.233227
ARR 3 13 13.853564
R 0 13.853914
EQ 0 9
EV 9 13 0 13.854109
CrL M 3 13 0 13.854141
L MedianBlur 0 13.879878
ARR 4 14 13.894436
R 0 13.894723
EQ 3 13
EV 13 14 0 13.894909
CrL M 4 14 0 13.894938
ARR 4 15 13.909745
EQ 4 15
L MedianBlur 0 13.919863
F 0 15.309292
DQ 0 9
CrL M 0 9 0 15.309375
L MedianBlur 0 15.329841
F 0 15.861191
DQ 1 6
CrS GaussianBlur  medianblur_0 15.861238
CrL G 1 6 0 15.861309
S /home/xilinx/Bitstreams-axi_firewall/GaussianBlur-GaussianBlur_pblock_medianblur_0_partial.bit 15.890406
L GaussianBlur 0 16.199410
ARR 3 16 16.275142
R 0 16.275411
EQ 1 6
EV 6 16 0 16.275605
CrS MedianBlur  medianblur_0 16.275625
CrL M 3 16 0 16.275664
S /home/xilinx/Bitstreams-axi_firewall/MedianBlur-GaussianBlur_pblock_medianblur_0_partial.bit 16.276130
L MedianBlur 0 16.602073
ARR 0 17 16.688488
EQ 0 17
ARR 2 18 16.694259
EQ 2 18
F 0 17.065376
DQ 0 17
CrL M 0 17 0 17.065448
L MedianBlur 0 17.089838
F 0 18.479324
DQ 1 5
CrL M 1 5 0 18.479415
L MedianBlur 0 18.479492
F 0 18.736419
DQ 1 12
CrL M 1 12 0 18.736493
L MedianBlur 0 18.749840
F 0 19.676211
DQ 1 6
CrS GaussianBlur  medianblur_0 19.676258
CrL G 1 6 0 19.676341
S /home/xilinx/Bitstreams-axi_firewall/GaussianBlur-GaussianBlur_pblock_medianblur_0_partial.bit 19.676867
L GaussianBlur 0 20.005060
ARR 1 19 20.092356
EQ 1 19
ARR 4 20 20.116540
R 0 20.116858
EQ 1 6
EV 6 20 0 20.117045
CrS MedianBlur  medianblur_0 20.117065
CrL M 4 20 0 20.117103
S /home/xilinx/Bitstreams-axi_firewall/MedianBlur-GaussianBlur_pblock_medianblur_0_partial.bit 20.120444
L MedianBlur 0 20.436625
ARR 0 21 21.459448
EQ 0 21
ARR 3 22 21.553916
EQ 3 22
F 0 21.826225
DQ 0 21
CrL M 0 21 0 21.826315
L MedianBlur 0 21.849841
ARR 0 23 22.612423
EQ 0 23
ARR 4 24 22.673021
R 0 22.673351
EQ 0 21
EV 21 24 0 22.673537
CrS MedianBlur  medianblur_0 22.673557
CrL G 4 24 0 22.673595
S /home/xilinx/Bitstreams-axi_firewall/GaussianBlur-GaussianBlur_pblock_medianblur_0_partial.bit 22.700368
L GaussianBlur 0 23.033389
ARR 4 25 23.094112
EQ 4 25
ARR 2 26 23.146835
EQ 2 26
ARR 3 27 23.211008
EQ 3 27
ARR 3 28 23.217736
EQ 3 28
ARR 4 29 23.296438
EQ 4 29
F 0 23.848616
DQ 0 23
CrS GaussianBlur  medianblur_0 23.848664
CrL M 0 23 0 23.848748
S /home/xilinx/Bitstreams-axi_firewall/MedianBlur-GaussianBlur_pblock_medianblur_0_partial.bit 23.849272
L MedianBlur 0 24.203190
F 0 25.129403
DQ 0 21
CrL M 0 21 0 25.129485
L MedianBlur 0 25.159840
F 0 25.262761
DQ 1 19
CrL M 1 19 0 25.262829
L MedianBlur 0 25.279838
F 0 26.669336
DQ 1 6
CrS GaussianBlur  medianblur_0 26.669383
CrL G 1 6 0 26.669458
S /home/xilinx/Bitstreams-axi_firewall/GaussianBlur-GaussianBlur_pblock_medianblur_0_partial.bit 26.680487
L GaussianBlur 0 26.975339
F 0 27.790544
DQ 2 3
CrL G 2 3 0 27.790633
L GaussianBlur 0 27.799859
F 0 28.382907
DQ 2 11
CrS GaussianBlur  medianblur_0 28.382943
CrL M 2 11 0 28.383007
S /home/xilinx/Bitstreams-axi_firewall/MedianBlur-GaussianBlur_pblock_medianblur_0_partial.bit 28.400408
L MedianBlur 0 28.730888
F 0 30.120465
DQ 2 18
CrL M 2 18 0 30.120559
L MedianBlur 0 30.159840
F 0 31.549105
DQ 2 26
CrS GaussianBlur  medianblur_0 31.549148
CrL G 2 26 0 31.549219
S /home/xilinx/Bitstreams-axi_firewall/GaussianBlur-GaussianBlur_pblock_medianblur_0_partial.bit 31.560510
L GaussianBlur 0 31.872782
F 0 32.687955
DQ 3 4
CrS GaussianBlur  medianblur_0 32.687997
CrL M 3 4 0 32.688068
S /home/xilinx/Bitstreams-axi_firewall/MedianBlur-GaussianBlur_pblock_medianblur_0_partial.bit 32.710402
L MedianBlur 0 33.033547
F 0 33.496768
DQ 3 13
CrL M 3 13 0 33.496849
L MedianBlur 0 33.519872
F 0 34.894625
DQ 3 22
CrL M 3 22 0 34.894717
L MedianBlur 0 34.939869
F 0 35.866219
DQ 3 27
CrL M 3 27 0 35.866307
L MedianBlur 0 35.869856
F 0 36.796279
DQ 3 28
CrL M 3 28 0 36.796349
L MedianBlur 0 36.859836
F 0 37.786406
DQ 4 15
CrL M 4 15 0 37.786495
L MedianBlur 0 37.809843
F 0 38.736268
DQ 4 25
CrL M 4 25 0 38.736339
L MedianBlur 0 38.769837
F 0 40.159182
DQ 4 29
CrS GaussianBlur  medianblur_0 40.159230
CrL G 4 29 0 40.159302
S /home/xilinx/Bitstreams-axi_firewall/GaussianBlur-GaussianBlur_pblock_medianblur_0_partial.bit 40.170505
L GaussianBlur 0 40.492038
F 0 41.307213
END 41.307239
