ARR 2 0 6.059879
CrS GaussianBlur GaussianBlur medianblur_0 6.059929
CrL M 2 0 0 6.060012
S /home/xilinx/Bitstreams-axi_firewall/MedianBlur-GaussianBlur_pblock_medianblur_0_partial.bit 6.070600
L MedianBlur 0 6.381308
F 0 6.844592
ARR 0 1 8.447101
CrL M 0 1 0 8.447180
L MedianBlur 0 8.459769
F 0 9.849383
ARR 4 2 11.506588
CrS GaussianBlur GaussianBlur medianblur_0 11.506628
CrL G 4 2 0 11.506700
S /home/xilinx/Bitstreams-axi_firewall/GaussianBlur-GaussianBlur_pblock_medianblur_0_partial.bit 11.520519
L GaussianBlur 0 11.827888
ARR 2 3 11.914577
CrL G 2 3 1 11.914646
L GaussianBlur 1 11.926729
F 0 12.643609
F 1 12.742437
ARR 3 4 13.937364
CrS GaussianBlur GaussianBlur medianblur_0 13.937409
CrL M 3 4 0 13.937483
S /home/xilinx/Bitstreams-axi_firewall/MedianBlur-GaussianBlur_pblock_medianblur_0_partial.bit 13.940341
L MedianBlur 0 14.270305
ARR 1 5 14.359561
CrS MedianBlur GaussianBlur gaussianblur_0 14.359590
CrL M 1 5 1 14.359660
S /home/xilinx/Bitstreams-axi_firewall/MedianBlur-MedianBlur_pblock_gaussianblur_0_partial.bit 14.380582
L MedianBlur 1 14.691157
ARR 1 6 14.706968
EQ 1 6
ARR 4 7 14.724910
EQ 4 7
F 0 14.735254
DQ 1 6
CrS GaussianBlur MedianBlur medianblur_0 14.735286
CrL G 1 6 0 14.735346
S /home/xilinx/Bitstreams-axi_firewall/GaussianBlur-MedianBlur_pblock_medianblur_0_partial.bit 14.750319
L GaussianBlur 0 15.080522
F 1 15.156705
DQ 4 7
CrS MedianBlur GaussianBlur gaussianblur_0 15.156738
CrL G 4 7 1 15.156809
S /home/xilinx/Bitstreams-axi_firewall/GaussianBlur-GaussianBlur_pblock_gaussianblur_0_partial.bit 15.180317
L GaussianBlur 1 15.483248
F 0 15.900173
F 1 16.301770
ARR 2 8 16.491217
CrL G 2 8 0 16.491276
ARR 0 9 16.523000
CrS MedianBlur GaussianBlur gaussianblur_0 16.523028
CrL M 0 9 1 16.523087
L GaussianBlur 0 16.529778
S /home/xilinx/Bitstreams-axi_firewall/GaussianBlur-MedianBlur_pblock_gaussianblur_0_partial.bit 16.540324
L MedianBlur 1 16.853465
F 0 17.347790
ARR 2 10 17.948647
CrS GaussianBlur MedianBlur medianblur_0 17.948680
CrL M 2 10 0 17.948755
S /home/xilinx/Bitstreams-axi_firewall/MedianBlur-MedianBlur_pblock_medianblur_0_partial.bit 17.949305
L MedianBlur 0 18.302713
F 1 18.309895
ARR 2 11 18.394627
CrL M 2 11 1 18.394692
L MedianBlur 1 18.399779
ARR 1 12 18.489504
EQ 1 12
F 0 18.772500
DQ 1 12
CrL M 1 12 0 18.772563
L MedianBlur 0 18.809767
ARR 3 13 19.563535
EQ 3 13
ARR 4 14 19.627860
EQ 4 14
ARR 4 15 19.651424
EQ 4 15
F 0 19.754393
DQ 3 13
CrL M 3 13 0 19.754452
L MedianBlur 0 19.789763
F 1 19.815368
DQ 4 14
CrL M 4 14 1 19.815425
L MedianBlur 1 19.859763
F 0 21.206243
DQ 4 15
CrL M 4 15 0 21.206330
L MedianBlur 0 21.229781
F 1 21.274478
F 0 22.156381
ARR 3 16 22.714963
CrL M 3 16 0 22.715027
L MedianBlur 0 22.749765
F 0 23.213073
ARR 0 17 23.753946
CrL M 0 17 0 23.754011
ARR 2 18 23.763075
CrL M 2 18 1 23.763134
L MedianBlur 1 23.789766
L MedianBlur 0 23.809761
F 1 25.203811
F 0 25.226479
ARR 1 19 28.856247
CrL M 1 19 0 28.856324
L MedianBlur 0 28.869771
ARR 4 20 28.894875
CrL M 4 20 1 28.894949
L MedianBlur 1 28.909771
ARR 0 21 29.985853
EQ 0 21
F 0 30.286808
DQ 0 21
CrL M 0 21 0 30.286875
L MedianBlur 0 30.309766
F 1 30.324686
ARR 3 22 31.037820
CrL M 3 22 1 31.037901
L MedianBlur 1 31.069771
F 0 31.239126
F 1 31.997631
ARR 0 23 33.091127
CrL M 0 23 0 33.091207
L MedianBlur 0 33.099813
ARR 4 24 33.188089
CrS MedianBlur GaussianBlur gaussianblur_0 33.188119
CrL G 4 24 1 33.188185
S /home/xilinx/Bitstreams-axi_firewall/MedianBlur-GaussianBlur_pblock_gaussianblur_0_partial.bit 33.200430
L GaussianBlur 1 33.512378
ARR 4 25 33.609477
EQ 4 25
ARR 2 26 33.693717
EQ 2 26
F 0 34.031022
DQ 2 26
CrS GaussianBlur MedianBlur medianblur_0 34.031056
CrL G 2 26 0 34.031119
S /home/xilinx/Bitstreams-axi_firewall/GaussianBlur-GaussianBlur_pblock_medianblur_0_partial.bit 34.040364
L GaussianBlur 0 34.349344
F 1 34.349890
DQ 4 25
CrS MedianBlur GaussianBlur gaussianblur_0 34.349923
CrL M 4 25 1 34.349992
S /home/xilinx/Bitstreams-axi_firewall/GaussianBlur-MedianBlur_pblock_gaussianblur_0_partial.bit 34.360409
L MedianBlur 1 34.649437
F 0 35.167390
ARR 3 27 35.315334
CrS GaussianBlur MedianBlur medianblur_0 35.315366
CrL M 3 27 0 35.315509
S /home/xilinx/Bitstreams-axi_firewall/MedianBlur-MedianBlur_pblock_medianblur_0_partial.bit 35.330353
L MedianBlur 0 35.653259
ARR 3 28 35.670198
EQ 3 28
F 1 36.045413
DQ 3 28
CrL M 3 28 1 36.045485
L MedianBlur 1 36.089790
F 0 36.590723
ARR 4 29 36.696410
CrS GaussianBlur MedianBlur medianblur_0 36.696437
CrL G 4 29 0 36.696498
S /home/xilinx/Bitstreams-axi_firewall/GaussianBlur-MedianBlur_pblock_medianblur_0_partial.bit 36.700318
F 1 37.025135
L GaussianBlur 0 37.029797
F 0 37.844969
END 37.844994
