ARR 2 0 4.016128
CrS GaussianBlur  medianblur_0 4.016178
CrL M 2 0 0 4.016259
S /home/xilinx/Bitstreams-axi_firewall/MedianBlur-GaussianBlur_pblock_medianblur_0_partial.bit 4.040489
L MedianBlur 0 4.365926
F 0 4.829239
ARR 0 1 5.431757
CrL M 0 1 0 5.431818
L MedianBlur 0 5.449799
F 0 6.839417
ARR 4 2 7.456159
CrS GaussianBlur  medianblur_0 7.456186
CrL G 4 2 0 7.456249
S /home/xilinx/Bitstreams-axi_firewall/GaussianBlur-GaussianBlur_pblock_medianblur_0_partial.bit 7.470422
L GaussianBlur 0 7.800959
ARR 2 3 7.853999
EQ 2 3
F 0 8.616181
DQ 2 3
CrL G 2 3 0 8.616261
L GaussianBlur 0 8.629802
ARR 3 4 8.892882
EQ 3 4
ARR 1 5 8.948782
EQ 1 5
ARR 1 6 8.953407
EQ 1 6
ARR 4 7 8.964690
EQ 4 7
F 0 9.444979
DQ 1 5
CrS GaussianBlur  medianblur_0 9.445006
CrL M 1 5 0 9.445064
S /home/xilinx/Bitstreams-axi_firewall/MedianBlur-GaussianBlur_pblock_medianblur_0_partial.bit 9.460392
L MedianBlur 0 9.793917
F 0 10.257210
DQ 1 6
CrS GaussianBlur  medianblur_0 10.257250
CrL G 1 6 0 10.257323
S /home/xilinx/Bitstreams-axi_firewall/GaussianBlur-GaussianBlur_pblock_medianblur_0_partial.bit 10.280399
L GaussianBlur 0 10.607782
ARR 2 8 10.691553
EQ 2 8
ARR 0 9 10.711480
EQ 0 9
F 0 11.422983
DQ 0 9
CrS GaussianBlur  medianblur_0 11.423017
CrL M 0 9 0 11.423084
S /home/xilinx/Bitstreams-axi_firewall/MedianBlur-GaussianBlur_pblock_medianblur_0_partial.bit 11.430403
L MedianBlur 0 11.749371
ARR 2 10 12.055927
EQ 2 10
ARR 2 11 12.108969
EQ 2 11
ARR 1 12 12.168296
EQ 1 12
F 0 13.138563
DQ 1 12
CrL M 1 12 0 13.138645
ARR 3 13 13.176796
EQ 3 13
L MedianBlur 0 13.189814
ARR 4 14 13.217064
EQ 4 14
ARR 4 15 13.231872
EQ 4 15
F 0 14.116152
DQ 2 8
CrS GaussianBlur  medianblur_0 14.116191
CrL G 2 8 0 14.116261
S /home/xilinx/Bitstreams-axi_firewall/GaussianBlur-GaussianBlur_pblock_medianblur_0_partial.bit 14.140405
L GaussianBlur 0 14.474511
F 0 15.289694
DQ 2 10
CrS GaussianBlur  medianblur_0 15.289731
CrL M 2 10 0 15.289828
S /home/xilinx/Bitstreams-axi_firewall/MedianBlur-GaussianBlur_pblock_medianblur_0_partial.bit 15.300412
L MedianBlur 0 15.651095
ARR 3 16 15.983732
EQ 3 16
ARR 0 17 16.070240
EQ 0 17
ARR 2 18 16.076011
EQ 2 18
F 0 16.114342
DQ 0 17
CrL M 0 17 0 16.114402
L MedianBlur 0 16.159795
F 0 17.549250
DQ 2 11
CrL M 2 11 0 17.549329
L MedianBlur 0 17.599798
F 0 18.989350
DQ 2 18
CrL M 2 18 0 18.989432
L MedianBlur 0 19.019801
ARR 1 19 19.145214
EQ 1 19
ARR 4 20 19.169387
EQ 4 20
ARR 0 21 20.189071
EQ 0 21
ARR 3 22 20.283538
EQ 3 22
F 0 20.409174
DQ 0 21
CrL M 0 21 0 20.409239
L MedianBlur 0 20.419808
ARR 0 23 21.342189
EQ 0 23
F 0 21.346124
DQ 0 23
CrL M 0 23 0 21.346189
L MedianBlur 0 21.369795
ARR 4 24 21.403022
EQ 4 24
ARR 4 25 21.463817
EQ 4 25
ARR 2 26 21.516517
EQ 2 26
ARR 3 27 21.580673
EQ 3 27
ARR 3 28 21.587322
EQ 3 28
ARR 4 29 21.666016
EQ 4 29
F 0 22.296125
DQ 1 19
CrL M 1 19 0 22.296209
L MedianBlur 0 22.319802
F 0 23.709195
DQ 2 26
CrS GaussianBlur  medianblur_0 23.709226
CrL G 2 26 0 23.709292
S /home/xilinx/Bitstreams-axi_firewall/GaussianBlur-GaussianBlur_pblock_medianblur_0_partial.bit 23.720450
L GaussianBlur 0 24.036106
F 0 24.851317
DQ 3 4
CrS GaussianBlur  medianblur_0 24.851361
CrL M 3 4 0 24.851436
S /home/xilinx/Bitstreams-axi_firewall/MedianBlur-GaussianBlur_pblock_medianblur_0_partial.bit 24.860456
L MedianBlur 0 25.189190
F 0 25.652389
DQ 3 13
CrL M 3 13 0 25.652465
L MedianBlur 0 25.699797
F 0 27.089172
DQ 3 16
CrL M 3 16 0 27.089256
L MedianBlur 0 27.099811
F 0 27.563055
DQ 3 22
CrL M 3 22 0 27.563119
L MedianBlur 0 27.579799
F 0 28.506167
DQ 3 27
CrL M 3 27 0 28.506247
L MedianBlur 0 28.529800
F 0 29.456236
DQ 3 28
CrL M 3 28 0 29.456302
L MedianBlur 0 29.489810
F 0 30.416356
DQ 4 7
CrS GaussianBlur  medianblur_0 30.416399
CrL G 4 7 0 30.416474
S /home/xilinx/Bitstreams-axi_firewall/GaussianBlur-GaussianBlur_pblock_medianblur_0_partial.bit 30.420396
L GaussianBlur 0 30.749426
F 0 31.564595
DQ 4 14
CrS GaussianBlur  medianblur_0 31.564632
CrL M 4 14 0 31.564703
S /home/xilinx/Bitstreams-axi_firewall/MedianBlur-GaussianBlur_pblock_medianblur_0_partial.bit 31.580387
L MedianBlur 0 31.912997
F 0 33.302479
DQ 4 15
CrL M 4 15 0 33.302562
L MedianBlur 0 33.349798
F 0 34.276240
DQ 4 20
CrL M 4 20 0 34.276324
L MedianBlur 0 34.309830
F 0 35.699345
DQ 4 24
CrS GaussianBlur  medianblur_0 35.699388
CrL G 4 24 0 35.699464
S /home/xilinx/Bitstreams-axi_firewall/GaussianBlur-GaussianBlur_pblock_medianblur_0_partial.bit 35.720396
L GaussianBlur 0 36.044559
F 0 36.859759
DQ 4 25
CrS GaussianBlur  medianblur_0 36.859821
CrL M 4 25 0 36.859908
S /home/xilinx/Bitstreams-axi_firewall/MedianBlur-GaussianBlur_pblock_medianblur_0_partial.bit 36.860433
L MedianBlur 0 37.194940
F 0 38.584336
DQ 4 29
CrS GaussianBlur  medianblur_0 38.584382
CrL G 4 29 0 38.584473
S /home/xilinx/Bitstreams-axi_firewall/GaussianBlur-GaussianBlur_pblock_medianblur_0_partial.bit 38.584992
L GaussianBlur 0 38.922161
F 0 39.737358
END 39.737387
