ARR 2 0 6.059974
CrS GaussianBlur  medianblur_0 6.060030
CrL M 2 0 0 6.060111
S /home/xilinx/Bitstreams-axi_firewall/MedianBlur-GaussianBlur_pblock_medianblur_0_partial.bit 6.080542
L MedianBlur 0 6.407582
F 0 6.870881
ARR 0 1 8.473377
CrL M 0 1 0 8.473459
L MedianBlur 0 8.473896
F 0 9.863455
ARR 4 2 11.532877
CrS GaussianBlur  medianblur_0 11.532921
CrL G 4 2 0 11.532995
S /home/xilinx/Bitstreams-axi_firewall/GaussianBlur-GaussianBlur_pblock_medianblur_0_partial.bit 11.540497
L GaussianBlur 0 11.882948
ARR 2 3 11.967750
EQ 2 3
F 0 12.698142
DQ 2 3
CrL G 2 3 0 12.698224
L GaussianBlur 0 12.709854
F 0 13.525072
ARR 3 4 13.989917
CrS GaussianBlur  medianblur_0 13.989955
CrL M 3 4 0 13.990022
S /home/xilinx/Bitstreams-axi_firewall/MedianBlur-GaussianBlur_pblock_medianblur_0_partial.bit 14.000456
L MedianBlur 0 14.316790
ARR 1 5 14.406048
EQ 1 5
ARR 1 6 14.413336
EQ 1 6
ARR 4 7 14.431273
R 0 14.431607
EQ 3 4
EV 4 7 0 14.431803
CrS MedianBlur  medianblur_0 14.431823
CrL G 4 7 0 14.431863
S /home/xilinx/Bitstreams-axi_firewall/GaussianBlur-GaussianBlur_pblock_medianblur_0_partial.bit 14.432355
L GaussianBlur 0 14.781272
F 0 15.596521
DQ 1 5
CrS GaussianBlur  medianblur_0 15.596574
CrL M 1 5 0 15.596650
S /home/xilinx/Bitstreams-axi_firewall/MedianBlur-GaussianBlur_pblock_medianblur_0_partial.bit 15.620428
L MedianBlur 0 15.938868
ARR 2 8 16.227267
R 0 16.227562
EQ 1 5
EV 5 8 0 16.227755
CrS MedianBlur  medianblur_0 16.227775
CrL G 2 8 0 16.227813
S /home/xilinx/Bitstreams-axi_firewall/GaussianBlur-GaussianBlur_pblock_medianblur_0_partial.bit 16.260371
L GaussianBlur 0 16.568797
ARR 0 9 16.601494
EQ 0 9
F 0 17.384040
DQ 0 9
CrS GaussianBlur  medianblur_0 17.384091
CrL M 0 9 0 17.384166
S /home/xilinx/Bitstreams-axi_firewall/MedianBlur-GaussianBlur_pblock_medianblur_0_partial.bit 17.390503
L MedianBlur 0 17.723036
ARR 2 10 18.035859
R 0 18.036156
EQ 0 9
EV 9 10 0 18.036349
CrL M 2 10 0 18.036381
L MedianBlur 0 18.049845
ARR 2 11 18.121106
EQ 2 11
ARR 1 12 18.215918
EQ 1 12
F 0 18.513090
DQ 0 9
CrL M 0 9 0 18.513157
L MedianBlur 0 18.529843
ARR 3 13 19.289929
R 0 19.290268
EQ 0 9
EV 9 13 0 19.290461
CrL M 3 13 0 19.290492
L MedianBlur 0 19.329845
ARR 4 14 19.354812
R 0 19.355099
EQ 3 13
EV 13 14 0 19.355288
CrL M 4 14 0 19.355318
L MedianBlur 0 19.369844
ARR 4 15 19.378872
EQ 4 15
F 0 20.759242
DQ 0 9
CrL M 0 9 0 20.759315
L MedianBlur 0 20.769851
F 0 21.085873
DQ 1 6
CrS GaussianBlur  medianblur_0 21.085924
CrL G 1 6 0 21.085999
S /home/xilinx/Bitstreams-axi_firewall/GaussianBlur-GaussianBlur_pblock_medianblur_0_partial.bit 21.090418
L GaussianBlur 0 21.418621
F 0 22.233810
DQ 1 5
CrS GaussianBlur  medianblur_0 22.233852
CrL M 1 5 0 22.233922
S /home/xilinx/Bitstreams-axi_firewall/MedianBlur-GaussianBlur_pblock_medianblur_0_partial.bit 22.240451
L MedianBlur 0 22.583929
F 0 23.047282
DQ 1 12
CrL M 1 12 0 23.047375
L MedianBlur 0 23.079850
ARR 3 16 23.130378
R 0 23.130703
EQ 1 12
EV 12 16 0 23.130895
CrL M 3 16 0 23.130925
L MedianBlur 0 23.159846
F 0 23.623083
DQ 1 12
CrL M 1 12 0 23.623151
L MedianBlur 0 23.639878
ARR 0 17 24.169833
EQ 0 17
ARR 2 18 24.178905
R 0 24.179207
EQ 1 12
EV 12 18 0 24.179391
CrL M 2 18 0 24.179421
L MedianBlur 0 24.199870
F 0 25.589176
DQ 0 17
CrL M 0 17 0 25.589269
L MedianBlur 0 25.629840
F 0 27.019299
DQ 1 12
CrL M 1 12 0 27.019388
L MedianBlur 0 27.049842
F 0 27.386251
DQ 2 11
CrL M 2 11 0 27.386322
L MedianBlur 0 27.409844
F 0 28.799279
DQ 3 4
CrL M 3 4 0 28.799351
L MedianBlur 0 28.799847
F 0 29.148477
DQ 3 13
CrL M 3 13 0 29.148567
L MedianBlur 0 29.169875
ARR 1 19 29.269924
EQ 1 19
ARR 4 20 29.308461
R 0 29.308803
EQ 3 13
EV 13 20 0 29.308991
CrL M 4 20 0 29.309022
L MedianBlur 0 29.329847
ARR 0 21 30.399834
EQ 0 21
F 0 30.719369
DQ 0 21
CrL M 0 21 0 30.719436
L MedianBlur 0 30.729876
ARR 3 22 31.451646
R 0 31.451983
EQ 0 21
EV 21 22 0 31.452177
CrL M 3 22 0 31.452208
L MedianBlur 0 31.499847
F 0 32.426133
DQ 0 21
CrL M 0 21 0 32.426207
L MedianBlur 0 32.426272
F 0 32.630651
DQ 1 19
CrL M 1 19 0 32.630720
L MedianBlur 0 32.669838
ARR 0 23 33.505406
EQ 0 23
ARR 4 24 33.602277
R 0 33.602607
EQ 1 19
EV 19 24 0 33.602859
CrS MedianBlur  medianblur_0 33.602881
CrL G 4 24 0 33.602926
S /home/xilinx/Bitstreams-axi_firewall/GaussianBlur-GaussianBlur_pblock_medianblur_0_partial.bit 33.603448
L GaussianBlur 0 33.936917
ARR 4 25 34.036945
EQ 4 25
ARR 2 26 34.121192
EQ 2 26
F 0 34.752112
DQ 0 23
CrS GaussianBlur  medianblur_0 34.752150
CrL M 0 23 0 34.752218
S /home/xilinx/Bitstreams-axi_firewall/MedianBlur-GaussianBlur_pblock_medianblur_0_partial.bit 34.752735
L MedianBlur 0 35.102352
ARR 3 27 35.481845
R 0 35.482147
EQ 0 23
EV 23 27 0 35.482341
CrL M 3 27 0 35.482372
ARR 3 28 35.492920
EQ 3 28
L MedianBlur 0 35.529846
F 0 36.456283
DQ 0 23
CrL M 0 23 0 36.456351
L MedianBlur 0 36.469841
ARR 4 29 36.518906
R 0 36.519205
EQ 0 23
EV 23 29 0 36.519391
CrS MedianBlur  medianblur_0 36.519411
CrL G 4 29 0 36.519449
S /home/xilinx/Bitstreams-axi_firewall/GaussianBlur-GaussianBlur_pblock_medianblur_0_partial.bit 36.550002
L GaussianBlur 0 36.900425
F 0 37.715640
DQ 0 23
CrS GaussianBlur  medianblur_0 37.715689
CrL M 0 23 0 37.715765
S /home/xilinx/Bitstreams-axi_firewall/MedianBlur-GaussianBlur_pblock_medianblur_0_partial.bit 37.740411
L MedianBlur 0 38.056035
F 0 38.982256
DQ 1 19
CrL M 1 19 0 38.982345
L MedianBlur 0 38.982391
F 0 39.439303
DQ 2 26
CrS GaussianBlur  medianblur_0 39.439349
CrL G 2 26 0 39.439418
S /home/xilinx/Bitstreams-axi_firewall/GaussianBlur-GaussianBlur_pblock_medianblur_0_partial.bit 39.460418
L GaussianBlur 0 39.802495
F 0 40.617666
DQ 3 13
CrS GaussianBlur  medianblur_0 40.617710
CrL M 3 13 0 40.617779
S /home/xilinx/Bitstreams-axi_firewall/MedianBlur-GaussianBlur_pblock_medianblur_0_partial.bit 40.630446
L MedianBlur 0 40.981622
F 0 42.371047
DQ 3 28
CrL M 3 28 0 42.371138
L MedianBlur 0 42.429870
F 0 43.356394
DQ 4 15
CrL M 4 15 0 43.356480
L MedianBlur 0 43.389842
F 0 44.316238
DQ 4 25
CrL M 4 25 0 44.316314
L MedianBlur 0 44.349837
F 0 45.739206
END 45.739239
