ARR 2 0 4.016150
CrS GaussianBlur  medianblur_0 4.016206
CrL M 2 0 0 4.016290
S /home/xilinx/Bitstreams-axi_firewall/MedianBlur-GaussianBlur_pblock_medianblur_0_partial.bit 4.020522
L MedianBlur 0 4.318865
F 0 4.782132
ARR 0 1 5.385706
CrL M 0 1 0 5.385790
L MedianBlur 0 5.409840
F 0 6.799439
ARR 4 2 7.409930
CrS GaussianBlur  medianblur_0 7.409968
CrL G 4 2 0 7.410039
S /home/xilinx/Bitstreams-axi_firewall/GaussianBlur-GaussianBlur_pblock_medianblur_0_partial.bit 7.440412
L GaussianBlur 0 7.781226
ARR 2 3 7.842902
EQ 2 3
F 0 8.596450
DQ 2 3
CrL G 2 3 0 8.596536
L GaussianBlur 0 8.619852
ARR 3 4 8.881817
R 0 8.882173
EQ 2 3
EV 3 4 0 8.882372
CrS MedianBlur  medianblur_0 8.882388
CrL M 3 4 0 8.882421
S /home/xilinx/Bitstreams-axi_firewall/MedianBlur-GaussianBlur_pblock_medianblur_0_partial.bit 8.900382
L MedianBlur 0 9.232614
ARR 1 5 9.295670
EQ 1 5
ARR 1 6 9.300310
EQ 1 6
ARR 4 7 9.311607
R 0 9.311895
EQ 3 4
EV 4 7 0 9.312074
CrS MedianBlur  medianblur_0 9.312092
CrL G 4 7 0 9.312127
S /home/xilinx/Bitstreams-axi_firewall/GaussianBlur-GaussianBlur_pblock_medianblur_0_partial.bit 9.312612
L GaussianBlur 0 9.644518
F 0 10.459698
DQ 1 5
CrS GaussianBlur  medianblur_0 10.459741
CrL M 1 5 0 10.459834
S /home/xilinx/Bitstreams-axi_firewall/MedianBlur-GaussianBlur_pblock_medianblur_0_partial.bit 10.480393
L MedianBlur 0 10.796641
ARR 2 8 11.011446
R 0 11.011765
EQ 1 5
EV 5 8 0 11.011962
CrS MedianBlur  medianblur_0 11.011982
CrL G 2 8 0 11.012019
S /home/xilinx/Bitstreams-axi_firewall/GaussianBlur-GaussianBlur_pblock_medianblur_0_partial.bit 11.030415
L GaussianBlur 0 11.329425
ARR 0 9 11.349679
EQ 0 9
F 0 12.144618
DQ 0 9
CrS GaussianBlur  medianblur_0 12.144662
CrL M 0 9 0 12.144731
S /home/xilinx/Bitstreams-axi_firewall/MedianBlur-GaussianBlur_pblock_medianblur_0_partial.bit 12.160396
L MedianBlur 0 12.503263
ARR 2 10 12.732883
R 0 12.733156
EQ 0 9
EV 9 10 0 12.733349
CrL M 2 10 0 12.733380
L MedianBlur 0 12.739887
ARR 2 11 12.786405
EQ 2 11
ARR 1 12 12.845741
EQ 1 12
F 0 13.203208
DQ 0 9
CrL M 0 9 0 13.203299
L MedianBlur 0 13.209858
ARR 3 13 13.854884
R 0 13.855210
EQ 0 9
EV 9 13 0 13.855401
CrL M 3 13 0 13.855431
ARR 4 14 13.895714
R 0 13.895991
EQ 3 13
EV 13 14 0 13.896176
CrL M 4 14 0 13.896206
L MedianBlur 0 13.909919
ARR 4 15 13.911014
EQ 4 15
F 0 15.299395
DQ 0 9
CrL M 0 9 0 15.299485
L MedianBlur 0 15.319857
F 0 15.834155
DQ 1 6
CrS GaussianBlur  medianblur_0 15.834197
CrL G 1 6 0 15.834266
S /home/xilinx/Bitstreams-axi_firewall/GaussianBlur-GaussianBlur_pblock_medianblur_0_partial.bit 15.840482
L GaussianBlur 0 16.170915
ARR 3 16 16.283456
R 0 16.283743
EQ 1 6
EV 6 16 0 16.283935
CrS MedianBlur  medianblur_0 16.283956
CrL M 3 16 0 16.283994
S /home/xilinx/Bitstreams-axi_firewall/MedianBlur-GaussianBlur_pblock_medianblur_0_partial.bit 16.284470
L MedianBlur 0 16.598742
ARR 0 17 16.685156
EQ 0 17
ARR 2 18 16.690922
EQ 2 18
F 0 17.062047
DQ 0 17
CrL M 0 17 0 17.062137
L MedianBlur 0 17.069857
F 0 18.459244
DQ 1 5
CrL M 1 5 0 18.459328
L MedianBlur 0 18.469851
F 0 18.718206
DQ 1 12
CrL M 1 12 0 18.718274
L MedianBlur 0 18.749835
F 0 19.676189
DQ 1 6
CrS GaussianBlur  medianblur_0 19.676236
CrL G 1 6 0 19.676318
S /home/xilinx/Bitstreams-axi_firewall/GaussianBlur-GaussianBlur_pblock_medianblur_0_partial.bit 19.676846
L GaussianBlur 0 20.014988
ARR 1 19 20.103865
EQ 1 19
ARR 4 20 20.128051
R 0 20.128363
EQ 1 6
EV 6 20 0 20.128549
CrS MedianBlur  medianblur_0 20.128570
CrL M 4 20 0 20.128607
S /home/xilinx/Bitstreams-axi_firewall/MedianBlur-GaussianBlur_pblock_medianblur_0_partial.bit 20.130337
L MedianBlur 0 20.469855
ARR 0 21 21.469467
EQ 0 21
ARR 3 22 21.563940
EQ 3 22
F 0 21.859507
DQ 0 21
CrL M 0 21 0 21.859575
L MedianBlur 0 21.889837
ARR 0 23 22.622384
EQ 0 23
ARR 4 24 22.683000
R 0 22.683329
EQ 0 21
EV 21 24 0 22.683516
CrS MedianBlur  medianblur_0 22.683536
CrL G 4 24 0 22.683574
S /home/xilinx/Bitstreams-axi_firewall/GaussianBlur-GaussianBlur_pblock_medianblur_0_partial.bit 22.690402
L GaussianBlur 0 23.003595
ARR 4 25 23.070575
EQ 4 25
ARR 2 26 23.123312
EQ 2 26
ARR 3 27 23.187482
EQ 3 27
ARR 3 28 23.194132
EQ 3 28
ARR 4 29 23.272906
EQ 4 29
F 0 23.818797
DQ 0 23
CrS GaussianBlur  medianblur_0 23.818838
CrL M 0 23 0 23.818901
S /home/xilinx/Bitstreams-axi_firewall/MedianBlur-GaussianBlur_pblock_medianblur_0_partial.bit 23.830427
L MedianBlur 0 24.137278
F 0 25.063609
DQ 0 21
CrL M 0 21 0 25.063703
L MedianBlur 0 25.089872
F 0 25.222828
DQ 1 19
CrL M 1 19 0 25.222895
L MedianBlur 0 25.249837
F 0 26.639254
DQ 1 6
CrS GaussianBlur  medianblur_0 26.639293
CrL G 1 6 0 26.639359
S /home/xilinx/Bitstreams-axi_firewall/GaussianBlur-GaussianBlur_pblock_medianblur_0_partial.bit 26.650494
L GaussianBlur 0 26.970168
F 0 27.785351
DQ 2 3
CrL G 2 3 0 27.785439
L GaussianBlur 0 27.789858
F 0 28.342904
DQ 2 11
CrS GaussianBlur  medianblur_0 28.342950
CrL M 2 11 0 28.343022
S /home/xilinx/Bitstreams-axi_firewall/MedianBlur-GaussianBlur_pblock_medianblur_0_partial.bit 28.350482
L MedianBlur 0 28.683486
F 0 30.073028
DQ 2 18
CrL M 2 18 0 30.073121
L MedianBlur 0 30.099842
F 0 31.489114
DQ 2 26
CrS GaussianBlur  medianblur_0 31.489162
CrL G 2 26 0 31.489234
S /home/xilinx/Bitstreams-axi_firewall/GaussianBlur-GaussianBlur_pblock_medianblur_0_partial.bit 31.500474
L GaussianBlur 0 31.811988
F 0 32.627165
DQ 3 4
CrS GaussianBlur  medianblur_0 32.627209
CrL M 3 4 0 32.627289
S /home/xilinx/Bitstreams-axi_firewall/MedianBlur-GaussianBlur_pblock_medianblur_0_partial.bit 32.627801
L MedianBlur 0 32.972678
F 0 33.435912
DQ 3 13
CrL M 3 13 0 33.436007
L MedianBlur 0 33.437779
F 0 34.827160
DQ 3 22
CrL M 3 22 0 34.827236
L MedianBlur 0 34.879836
F 0 35.806126
DQ 3 27
CrL M 3 27 0 35.806216
L MedianBlur 0 35.839840
F 0 36.766273
DQ 3 28
CrL M 3 28 0 36.766341
L MedianBlur 0 36.799839
F 0 37.726376
DQ 4 15
CrL M 4 15 0 37.726466
L MedianBlur 0 37.769837
F 0 38.696298
DQ 4 25
CrL M 4 25 0 38.696391
L MedianBlur 0 38.729846
F 0 40.119198
DQ 4 29
CrS GaussianBlur  medianblur_0 40.119247
CrL G 4 29 0 40.119321
S /home/xilinx/Bitstreams-axi_firewall/GaussianBlur-GaussianBlur_pblock_medianblur_0_partial.bit 40.140449
L GaussianBlur 0 40.462801
F 0 41.278013
END 41.278045
