ARR 2 0 0.082829
CrS GaussianBlur  medianblur_0 0.082872
CrL M 2 0 0 0.082950
S /home/xilinx/Bitstreams-axi_firewall/MedianBlur-GaussianBlur_pblock_medianblur_0_partial.bit 0.110428
L MedianBlur 0 0.418881
ARR 0 1 0.452002
EQ 0 1
ARR 4 2 0.496912
EQ 4 2
ARR 2 3 0.507720
EQ 2 3
ARR 3 4 0.535566
EQ 3 4
ARR 1 5 0.546919
EQ 1 5
ARR 1 6 0.548019
EQ 1 6
ARR 4 7 0.550447
EQ 4 7
ARR 2 8 0.574867
EQ 2 8
ARR 0 9 0.579034
EQ 0 9
ARR 2 10 0.602753
EQ 2 10
ARR 2 11 0.613529
EQ 2 11
ARR 1 12 0.625561
EQ 1 12
ARR 3 13 0.647381
EQ 3 13
ARR 4 14 0.655602
EQ 4 14
ARR 4 15 0.658738
EQ 4 15
ARR 3 16 0.704168
EQ 3 16
ARR 0 17 0.721625
EQ 0 17
ARR 2 18 0.722948
EQ 2 18
ARR 1 19 0.796818
EQ 1 19
ARR 4 20 0.801852
EQ 4 20
ARR 0 21 0.825773
EQ 0 21
ARR 3 22 0.844852
EQ 3 22
ARR 0 23 0.876543
EQ 0 23
F 0 0.882329
DQ 0 1
CrL M 0 1 0 0.882385
ARR 4 24 0.889080
EQ 4 24
L MedianBlur 0 0.899806
ARR 4 25 0.901413
EQ 4 25
ARR 2 26 0.912123
EQ 2 26
ARR 3 27 0.925124
EQ 3 27
ARR 3 28 0.926626
EQ 3 28
ARR 4 29 0.942534
EQ 4 29
F 0 2.289388
DQ 0 9
CrL M 0 9 0 2.289451
L MedianBlur 0 2.339794
F 0 3.728939
DQ 0 17
CrL M 0 17 0 3.729015
L MedianBlur 0 3.729838
F 0 5.119318
DQ 0 21
CrL M 0 21 0 5.119395
L MedianBlur 0 5.159839
F 0 6.086121
DQ 0 23
CrL M 0 23 0 6.086193
L MedianBlur 0 6.129795
F 0 7.056060
DQ 1 5
CrL M 1 5 0 7.056138
L MedianBlur 0 7.089798
F 0 7.553028
DQ 1 6
CrS GaussianBlur  medianblur_0 7.553054
CrL G 1 6 0 7.553113
S /home/xilinx/Bitstreams-axi_firewall/GaussianBlur-GaussianBlur_pblock_medianblur_0_partial.bit 7.570399
L GaussianBlur 0 7.891293
F 0 8.706459
DQ 1 12
CrS GaussianBlur  medianblur_0 8.706492
CrL M 1 12 0 8.706566
S /home/xilinx/Bitstreams-axi_firewall/MedianBlur-GaussianBlur_pblock_medianblur_0_partial.bit 8.707049
L MedianBlur 0 9.050986
F 0 9.977271
DQ 1 19
CrL M 1 19 0 9.977347
L MedianBlur 0 9.999799
F 0 11.389279
DQ 2 3
CrS GaussianBlur  medianblur_0 11.389321
CrL G 2 3 0 11.389394
S /home/xilinx/Bitstreams-axi_firewall/GaussianBlur-GaussianBlur_pblock_medianblur_0_partial.bit 11.400459
L GaussianBlur 0 11.714547
F 0 12.529720
DQ 2 8
CrL G 2 8 0 12.529822
L GaussianBlur 0 12.549801
F 0 13.365010
DQ 2 10
CrS GaussianBlur  medianblur_0 13.365053
CrL M 2 10 0 13.365126
S /home/xilinx/Bitstreams-axi_firewall/MedianBlur-GaussianBlur_pblock_medianblur_0_partial.bit 13.390365
L MedianBlur 0 13.731923
F 0 14.195195
DQ 2 11
CrL M 2 11 0 14.195272
L MedianBlur 0 14.239796
F 0 15.629299
DQ 2 18
CrL M 2 18 0 15.629381
L MedianBlur 0 15.639848
F 0 17.029148
DQ 2 26
CrS GaussianBlur  medianblur_0 17.029190
CrL G 2 26 0 17.029275
S /home/xilinx/Bitstreams-axi_firewall/GaussianBlur-GaussianBlur_pblock_medianblur_0_partial.bit 17.029888
L GaussianBlur 0 17.334639
F 0 18.149792
DQ 3 4
CrS GaussianBlur  medianblur_0 18.149831
CrL M 3 4 0 18.149913
S /home/xilinx/Bitstreams-axi_firewall/MedianBlur-GaussianBlur_pblock_medianblur_0_partial.bit 18.150409
L MedianBlur 0 18.449383
F 0 18.912653
DQ 3 13
CrL M 3 13 0 18.912741
L MedianBlur 0 18.949801
F 0 20.339143
DQ 3 16
CrL M 3 16 0 20.339210
L MedianBlur 0 20.389795
F 0 20.853063
DQ 3 22
CrL M 3 22 0 20.853149
L MedianBlur 0 20.879811
F 0 21.806094
DQ 3 27
CrL M 3 27 0 21.806162
L MedianBlur 0 21.809812
F 0 22.736215
DQ 3 28
CrL M 3 28 0 22.736278
L MedianBlur 0 22.769815
F 0 23.696427
DQ 4 2
CrS GaussianBlur  medianblur_0 23.696474
CrL G 4 2 0 23.696554
S /home/xilinx/Bitstreams-axi_firewall/GaussianBlur-GaussianBlur_pblock_medianblur_0_partial.bit 23.710484
L GaussianBlur 0 24.041994
F 0 24.857208
DQ 4 7
CrL G 4 7 0 24.857295
L GaussianBlur 0 24.869803
F 0 25.684966
DQ 4 14
CrS GaussianBlur  medianblur_0 25.684997
CrL M 4 14 0 25.685063
S /home/xilinx/Bitstreams-axi_firewall/MedianBlur-GaussianBlur_pblock_medianblur_0_partial.bit 25.720355
L MedianBlur 0 26.019680
F 0 27.409151
DQ 4 15
CrL M 4 15 0 27.409238
L MedianBlur 0 27.439799
F 0 28.366228
DQ 4 20
CrL M 4 20 0 28.366309
L MedianBlur 0 28.399795
F 0 29.789412
DQ 4 24
CrS GaussianBlur  medianblur_0 29.789457
CrL G 4 24 0 29.789532
S /home/xilinx/Bitstreams-axi_firewall/GaussianBlur-GaussianBlur_pblock_medianblur_0_partial.bit 29.800507
L GaussianBlur 0 30.105372
F 0 30.920639
DQ 4 25
CrS GaussianBlur  medianblur_0 30.920682
CrL M 4 25 0 30.920758
S /home/xilinx/Bitstreams-axi_firewall/MedianBlur-GaussianBlur_pblock_medianblur_0_partial.bit 30.950356
L MedianBlur 0 31.264367
F 0 32.653701
DQ 4 29
CrS GaussianBlur  medianblur_0 32.653738
CrL G 4 29 0 32.653810
S /home/xilinx/Bitstreams-axi_firewall/GaussianBlur-GaussianBlur_pblock_medianblur_0_partial.bit 32.680343
L GaussianBlur 0 32.985255
F 0 33.800437
END 33.800465
