ARR 2 0 6.059958
CrS GaussianBlur  medianblur_0 6.060008
CrL M 2 0 0 6.060102
S /home/xilinx/Bitstreams-axi_firewall/MedianBlur-GaussianBlur_pblock_medianblur_0_partial.bit 6.060906
L MedianBlur 0 6.366104
F 0 6.829401
ARR 0 1 8.431906
CrL M 0 1 0 8.431984
L MedianBlur 0 8.469835
F 0 9.859374
ARR 4 2 11.489936
CrS GaussianBlur  medianblur_0 11.489971
CrL G 4 2 0 11.490040
S /home/xilinx/Bitstreams-axi_firewall/GaussianBlur-GaussianBlur_pblock_medianblur_0_partial.bit 11.510445
L GaussianBlur 0 11.822085
ARR 2 3 11.906893
EQ 2 3
F 0 12.637290
DQ 2 3
CrL G 2 3 0 12.637364
L GaussianBlur 0 12.669833
F 0 13.485007
ARR 3 4 13.929009
CrS GaussianBlur  medianblur_0 13.929047
CrL M 3 4 0 13.929128
S /home/xilinx/Bitstreams-axi_firewall/MedianBlur-GaussianBlur_pblock_medianblur_0_partial.bit 13.929657
L MedianBlur 0 14.248776
ARR 1 5 14.339109
EQ 1 5
ARR 1 6 14.346394
EQ 1 6
ARR 4 7 14.364333
EQ 4 7
F 0 14.712014
DQ 1 5
CrL M 1 5 0 14.712079
L MedianBlur 0 14.719851
F 0 15.183104
DQ 1 6
CrS GaussianBlur  medianblur_0 15.183135
CrL G 1 6 0 15.183196
S /home/xilinx/Bitstreams-axi_firewall/GaussianBlur-GaussianBlur_pblock_medianblur_0_partial.bit 15.200400
L GaussianBlur 0 15.529886
ARR 2 8 15.815535
EQ 2 8
ARR 0 9 15.847291
EQ 0 9
F 0 16.345129
DQ 0 9
CrS GaussianBlur  medianblur_0 16.345168
CrL M 0 9 0 16.345238
S /home/xilinx/Bitstreams-axi_firewall/MedianBlur-GaussianBlur_pblock_medianblur_0_partial.bit 16.370402
L MedianBlur 0 16.694164
ARR 2 10 17.285178
EQ 2 10
ARR 2 11 17.369926
EQ 2 11
ARR 1 12 17.464745
EQ 1 12
F 0 18.083467
DQ 1 12
CrL M 1 12 0 18.083547
L MedianBlur 0 18.089857
ARR 3 13 18.538457
EQ 3 13
ARR 4 14 18.602754
EQ 4 14
ARR 4 15 18.626312
EQ 4 15
F 0 19.016171
DQ 2 8
CrS GaussianBlur  medianblur_0 19.016202
CrL G 2 8 0 19.016266
S /home/xilinx/Bitstreams-axi_firewall/GaussianBlur-GaussianBlur_pblock_medianblur_0_partial.bit 19.016804
L GaussianBlur 0 19.354697
F 0 20.169942
DQ 2 10
CrS GaussianBlur  medianblur_0 20.169986
CrL M 2 10 0 20.170061
S /home/xilinx/Bitstreams-axi_firewall/MedianBlur-GaussianBlur_pblock_medianblur_0_partial.bit 20.200411
L MedianBlur 0 20.515435
F 0 20.978664
DQ 2 11
CrL M 2 11 0 20.978740
L MedianBlur 0 21.019865
ARR 3 16 22.379261
EQ 3 16
F 0 22.409371
DQ 3 13
CrL M 3 13 0 22.409439
L MedianBlur 0 22.449864
ARR 0 17 23.418673
EQ 0 17
ARR 2 18 23.427737
EQ 2 18
F 0 23.839316
DQ 0 17
CrL M 0 17 0 23.839394
L MedianBlur 0 23.849845
F 0 25.239307
DQ 2 18
CrL M 2 18 0 25.239388
L MedianBlur 0 25.259839
F 0 26.649207
DQ 3 16
CrL M 3 16 0 26.649292
L MedianBlur 0 26.669840
F 0 27.133077
DQ 4 7
CrS GaussianBlur  medianblur_0 27.133108
CrL G 4 7 0 27.133170
S /home/xilinx/Bitstreams-axi_firewall/GaussianBlur-GaussianBlur_pblock_medianblur_0_partial.bit 27.150416
L GaussianBlur 0 27.470894
F 0 28.286128
DQ 4 14
CrS GaussianBlur  medianblur_0 28.286172
CrL M 4 14 0 28.286246
S /home/xilinx/Bitstreams-axi_firewall/MedianBlur-GaussianBlur_pblock_medianblur_0_partial.bit 28.290400
L MedianBlur 0 28.604523
ARR 1 19 29.179923
EQ 1 19
ARR 4 20 29.218484
EQ 4 20
F 0 29.994008
DQ 1 19
CrL M 1 19 0 29.994088
L MedianBlur 0 30.039834
ARR 0 21 30.308819
EQ 0 21
ARR 3 22 31.359929
EQ 3 22
F 0 31.429300
DQ 0 21
CrL M 0 21 0 31.429367
L MedianBlur 0 31.429841
F 0 32.356188
DQ 3 22
CrL M 3 22 0 32.356270
L MedianBlur 0 32.409838
F 0 33.336124
DQ 4 15
CrL M 4 15 0 33.336189
L MedianBlur 0 33.369859
ARR 0 23 33.412586
EQ 0 23
ARR 4 24 33.509427
EQ 4 24
ARR 4 25 33.606603
EQ 4 25
ARR 2 26 33.690821
EQ 2 26
F 0 34.296275
DQ 0 23
CrL M 0 23 0 34.296356
L MedianBlur 0 34.319837
ARR 3 27 34.693921
EQ 3 27
ARR 3 28 34.704431
EQ 3 28
F 0 35.246059
DQ 2 26
CrS GaussianBlur  medianblur_0 35.246090
CrL G 2 26 0 35.246151
S /home/xilinx/Bitstreams-axi_firewall/GaussianBlur-GaussianBlur_pblock_medianblur_0_partial.bit 35.250407
L GaussianBlur 0 35.563999
ARR 4 29 36.054525
EQ 4 29
F 0 36.379224
DQ 3 27
CrS GaussianBlur  medianblur_0 36.379261
CrL M 3 27 0 36.379330
S /home/xilinx/Bitstreams-axi_firewall/MedianBlur-GaussianBlur_pblock_medianblur_0_partial.bit 36.390437
L MedianBlur 0 36.701310
F 0 37.627749
DQ 3 28
CrL M 3 28 0 37.627828
L MedianBlur 0 37.669839
F 0 38.596368
DQ 4 20
CrL M 4 20 0 38.596452
L MedianBlur 0 38.599866
F 0 39.989442
DQ 4 24
CrS GaussianBlur  medianblur_0 39.989486
CrL G 4 24 0 39.989571
S /home/xilinx/Bitstreams-axi_firewall/GaussianBlur-GaussianBlur_pblock_medianblur_0_partial.bit 40.020201
L GaussianBlur 0 40.336105
F 0 41.151320
DQ 4 25
CrS GaussianBlur  medianblur_0 41.151367
CrL M 4 25 0 41.151445
S /home/xilinx/Bitstreams-axi_firewall/MedianBlur-GaussianBlur_pblock_medianblur_0_partial.bit 41.170422
L MedianBlur 0 41.475872
F 0 42.865266
DQ 4 29
CrS GaussianBlur  medianblur_0 42.865310
CrL G 4 29 0 42.865388
S /home/xilinx/Bitstreams-axi_firewall/GaussianBlur-GaussianBlur_pblock_medianblur_0_partial.bit 42.890395
L GaussianBlur 0 43.195847
F 0 44.011065
END 44.011097
