ARR 2 0 0.082838
CrS GaussianBlur  medianblur_0 0.082885
CrL M 2 0 0 0.082968
S /home/xilinx/Bitstreams-axi_firewall/MedianBlur-GaussianBlur_pblock_medianblur_0_partial.bit 0.110511
L MedianBlur 0 0.422130
ARR 0 1 0.455257
EQ 0 1
ARR 4 2 0.500163
R 0 0.500488
EQ 2 0
EV 0 2 0 0.500725
CrS MedianBlur  medianblur_0 0.500743
CrL G 4 2 0 0.500796
S /home/xilinx/Bitstreams-axi_firewall/GaussianBlur-GaussianBlur_pblock_medianblur_0_partial.bit 0.501692
L GaussianBlur 0 0.841943
ARR 2 3 0.852673
EQ 2 3
ARR 3 4 0.880533
EQ 3 4
ARR 1 5 0.891895
EQ 1 5
ARR 1 6 0.893003
EQ 1 6
ARR 4 7 0.895439
EQ 4 7
ARR 2 8 0.919873
EQ 2 8
ARR 0 9 0.924031
EQ 0 9
ARR 2 10 0.947741
EQ 2 10
ARR 2 11 0.958514
EQ 2 11
ARR 1 12 0.970546
EQ 1 12
ARR 3 13 0.992371
EQ 3 13
ARR 4 14 1.000595
EQ 4 14
ARR 4 15 1.003732
EQ 4 15
ARR 3 16 1.049164
EQ 3 16
ARR 0 17 1.066625
EQ 0 17
ARR 2 18 1.067949
EQ 2 18
ARR 1 19 1.141822
EQ 1 19
ARR 4 20 1.146874
EQ 4 20
ARR 0 21 1.170808
EQ 0 21
ARR 3 22 1.189920
EQ 3 22
ARR 0 23 1.221598
EQ 0 23
ARR 4 24 1.233889
EQ 4 24
ARR 4 25 1.246220
EQ 4 25
ARR 2 26 1.256930
EQ 2 26
ARR 3 27 1.269894
EQ 3 27
ARR 3 28 1.271400
EQ 3 28
ARR 4 29 1.287304
EQ 4 29
F 0 1.657205
DQ 0 1
CrS GaussianBlur  medianblur_0 1.657238
CrL M 0 1 0 1.657298
S /home/xilinx/Bitstreams-axi_firewall/MedianBlur-GaussianBlur_pblock_medianblur_0_partial.bit 1.670414
L MedianBlur 0 2.010936
F 0 3.400536
DQ 0 9
CrL M 0 9 0 3.400624
L MedianBlur 0 3.449812
F 0 4.838898
DQ 0 17
CrL M 0 17 0 4.838968
L MedianBlur 0 4.889822
F 0 6.279305
DQ 0 21
CrL M 0 21 0 6.279386
L MedianBlur 0 6.329810
F 0 7.256189
DQ 0 23
CrL M 0 23 0 7.256279
L MedianBlur 0 7.289812
F 0 8.216022
DQ 1 5
CrL M 1 5 0 8.216089
L MedianBlur 0 8.249810
F 0 8.713078
DQ 1 6
CrS GaussianBlur  medianblur_0 8.713108
CrL G 1 6 0 8.713166
S /home/xilinx/Bitstreams-axi_firewall/GaussianBlur-GaussianBlur_pblock_medianblur_0_partial.bit 8.730397
L GaussianBlur 0 9.044135
F 0 9.859336
DQ 1 12
CrS GaussianBlur  medianblur_0 9.859380
CrL M 1 12 0 9.859452
S /home/xilinx/Bitstreams-axi_firewall/MedianBlur-GaussianBlur_pblock_medianblur_0_partial.bit 9.880384
L MedianBlur 0 10.211235
F 0 11.137574
DQ 1 19
CrL M 1 19 0 11.137663
L MedianBlur 0 11.159844
F 0 12.549279
DQ 2 0
CrL M 2 0 0 12.549368
L MedianBlur 0 12.569813
F 0 12.954898
DQ 2 3
CrS GaussianBlur  medianblur_0 12.954936
CrL G 2 3 0 12.955002
S /home/xilinx/Bitstreams-axi_firewall/GaussianBlur-GaussianBlur_pblock_medianblur_0_partial.bit 12.970395
L GaussianBlur 0 13.310994
F 0 14.126163
DQ 2 8
CrL G 2 8 0 14.126244
L GaussianBlur 0 14.169809
F 0 14.984989
DQ 2 10
CrS GaussianBlur  medianblur_0 14.985032
CrL M 2 10 0 14.985132
S /home/xilinx/Bitstreams-axi_firewall/MedianBlur-GaussianBlur_pblock_medianblur_0_partial.bit 15.000415
L MedianBlur 0 15.323865
F 0 15.787096
DQ 2 11
CrL M 2 11 0 15.787180
L MedianBlur 0 15.819813
F 0 17.209318
DQ 2 18
CrL M 2 18 0 17.209405
L MedianBlur 0 17.249811
F 0 18.639065
DQ 2 26
CrS GaussianBlur  medianblur_0 18.639103
CrL G 2 26 0 18.639178
S /home/xilinx/Bitstreams-axi_firewall/GaussianBlur-GaussianBlur_pblock_medianblur_0_partial.bit 18.639708
L GaussianBlur 0 19.011335
F 0 19.826549
DQ 3 4
CrS GaussianBlur  medianblur_0 19.826598
CrL M 3 4 0 19.826674
S /home/xilinx/Bitstreams-axi_firewall/MedianBlur-GaussianBlur_pblock_medianblur_0_partial.bit 19.830372
L MedianBlur 0 20.139188
F 0 20.602377
DQ 3 13
CrL M 3 13 0 20.602461
L MedianBlur 0 20.619818
F 0 22.009202
DQ 3 16
CrL M 3 16 0 22.009289
L MedianBlur 0 22.059810
F 0 22.523029
DQ 3 22
CrL M 3 22 0 22.523101
L MedianBlur 0 22.569811
F 0 23.496200
DQ 3 27
CrL M 3 27 0 23.496292
L MedianBlur 0 23.509828
F 0 24.436259
DQ 3 28
CrL M 3 28 0 24.436331
L MedianBlur 0 24.469809
F 0 25.396335
DQ 4 7
CrS GaussianBlur  medianblur_0 25.396381
CrL G 4 7 0 25.396450
S /home/xilinx/Bitstreams-axi_firewall/GaussianBlur-GaussianBlur_pblock_medianblur_0_partial.bit 25.410477
L GaussianBlur 0 25.746000
F 0 26.561193
DQ 4 14
CrS GaussianBlur  medianblur_0 26.561238
CrL M 4 14 0 26.561322
S /home/xilinx/Bitstreams-axi_firewall/MedianBlur-GaussianBlur_pblock_medianblur_0_partial.bit 26.561824
L MedianBlur 0 26.901747
F 0 28.291216
DQ 4 15
CrL M 4 15 0 28.291308
L MedianBlur 0 28.349811
F 0 29.276160
DQ 4 20
CrL M 4 20 0 29.276246
L MedianBlur 0 29.299812
F 0 30.689287
DQ 4 24
CrS GaussianBlur  medianblur_0 30.689326
CrL G 4 24 0 30.689394
S /home/xilinx/Bitstreams-axi_firewall/GaussianBlur-GaussianBlur_pblock_medianblur_0_partial.bit 30.700444
L GaussianBlur 0 31.034178
F 0 31.849399
DQ 4 25
CrS GaussianBlur  medianblur_0 31.849449
CrL M 4 25 0 31.849524
S /home/xilinx/Bitstreams-axi_firewall/MedianBlur-GaussianBlur_pblock_medianblur_0_partial.bit 31.880375
L MedianBlur 0 32.200000
F 0 33.589342
DQ 4 29
CrS GaussianBlur  medianblur_0 33.589390
CrL G 4 29 0 33.589464
S /home/xilinx/Bitstreams-axi_firewall/GaussianBlur-GaussianBlur_pblock_medianblur_0_partial.bit 33.610398
L GaussianBlur 0 33.951490
F 0 34.766661
END 34.766687
