ARR 2 0 4.016124
CrS GaussianBlur GaussianBlur medianblur_0 4.016181
CrL M 2 0 0 4.016263
S /home/xilinx/Bitstreams-axi_firewall/MedianBlur-GaussianBlur_pblock_medianblur_0_partial.bit 4.030699
L MedianBlur 0 4.339467
F 0 5.006299
ARR 0 1 5.405502
CrL M 0 1 0 5.405569
L MedianBlur 0 5.429839
ARR 4 2 7.429935
CrL G 4 2 1 7.430021
F 0 7.430470
L GaussianBlur 1 7.459840
ARR 2 3 7.483577
CrS GaussianBlur MedianBlur medianblur_0 7.483602
CrL G 2 3 0 7.483658
S /home/xilinx/Bitstreams-axi_firewall/GaussianBlur-GaussianBlur_pblock_medianblur_0_partial.bit 7.510419
L GaussianBlur 0 7.823734
F 1 8.635685
ARR 3 4 8.862404
CrS MedianBlur GaussianBlur gaussianblur_0 8.862443
CrL M 3 4 1 8.862515
S /home/xilinx/Bitstreams-axi_firewall/GaussianBlur-MedianBlur_pblock_gaussianblur_0_partial.bit 8.870806
L MedianBlur 1 9.178780
F 0 9.179963
ARR 1 5 9.235862
CrS GaussianBlur MedianBlur medianblur_0 9.235895
CrL M 1 5 0 9.235963
S /home/xilinx/Bitstreams-axi_firewall/MedianBlur-MedianBlur_pblock_medianblur_0_partial.bit 9.236473
L MedianBlur 0 9.575206
ARR 1 6 9.584396
EQ 1 6
ARR 4 7 9.595704
R 0 9.596044
EQ 1 5
EV 5 7 0 9.596242
CrS MedianBlur MedianBlur medianblur_0 9.596259
CrL G 4 7 0 9.596294
S /home/xilinx/Bitstreams-axi_firewall/GaussianBlur-MedianBlur_pblock_medianblur_0_partial.bit 9.610365
L GaussianBlur 0 9.944270
F 1 9.949869
DQ 1 6
CrS MedianBlur GaussianBlur gaussianblur_0 9.949900
CrL G 1 6 1 9.950517
S /home/xilinx/Bitstreams-axi_firewall/GaussianBlur-GaussianBlur_pblock_gaussianblur_0_partial.bit 9.970397
L GaussianBlur 1 10.290575
F 0 11.132932
DQ 1 5
CrS GaussianBlur MedianBlur medianblur_0 11.132980
CrL M 1 5 0 11.133053
S /home/xilinx/Bitstreams-axi_firewall/MedianBlur-GaussianBlur_pblock_medianblur_0_partial.bit 11.140491
L MedianBlur 0 11.462204
F 1 11.479315
ARR 2 8 11.649017
CrL G 2 8 1 11.649090
ARR 0 9 11.669042
EQ 0 9
L GaussianBlur 1 11.669892
F 0 12.132174
DQ 0 9
CrL M 0 9 0 12.132246
L MedianBlur 0 12.149844
ARR 2 10 12.687523
R 0 12.687863
EQ 0 9
EV 9 10 0 12.688057
CrL M 2 10 0 12.688088
L MedianBlur 0 12.719883
ARR 2 11 12.741148
EQ 2 11
ARR 1 12 12.800488
EQ 1 12
F 1 12.848029
DQ 0 9
CrS MedianBlur GaussianBlur gaussianblur_0 12.848066
CrL M 0 9 1 12.848128
S /home/xilinx/Bitstreams-axi_firewall/MedianBlur-MedianBlur_pblock_gaussianblur_0_partial.bit 12.850402
L MedianBlur 1 13.163892
F 0 13.390136
DQ 1 12
CrL M 1 12 0 13.390217
L MedianBlur 0 13.429874
ARR 3 13 14.131569
R 0 14.131887
EQ 1 12
EV 12 13 0 14.132079
CrL M 3 13 0 14.132109
L MedianBlur 0 14.169894
ARR 4 14 14.172366
R 0 14.172652
EQ 3 13
EV 13 14 0 14.172840
CrL M 4 14 0 14.172869
ARR 4 15 14.187714
R 1 14.187994
EQ 0 9
EV 9 15 1 14.188180
CrL M 4 15 1 14.188209
L MedianBlur 1 14.199844
L MedianBlur 0 14.209845
F 1 15.558288
DQ 0 9
CrL M 0 9 1 15.558379
L MedianBlur 1 15.558428
ARR 3 16 16.215394
R 1 16.215723
EQ 0 9
EV 9 16 1 16.215915
CrL M 3 16 1 16.215945
L MedianBlur 1 16.229898
F 0 16.237909
DQ 0 9
CrL M 0 9 0 16.237975
L MedianBlur 0 16.259848
ARR 0 17 16.302672
EQ 0 17
ARR 2 18 16.308424
R 0 16.308722
EQ 0 9
EV 9 18 0 16.308907
CrL M 2 18 0 16.308937
L MedianBlur 0 16.339841
F 1 16.899543
DQ 0 17
CrL M 0 17 1 16.899633
L MedianBlur 1 16.939839
F 0 18.367844
DQ 0 9
CrL M 0 9 0 18.367941
L MedianBlur 0 18.367991
F 0 18.660452
DQ 1 12
CrL M 1 12 0 18.660538
L MedianBlur 0 18.669870
F 1 18.972192
DQ 2 11
CrL M 2 11 1 18.972271
L MedianBlur 1 19.009839
F 0 19.325368
DQ 3 13
CrL M 3 13 0 19.325436
L MedianBlur 0 19.339841
ARR 1 19 19.378566
EQ 1 19
ARR 4 20 19.402736
R 0 19.403069
EQ 3 13
EV 13 20 0 19.403254
CrL M 4 20 0 19.403283
L MedianBlur 0 19.429854
ARR 0 21 20.422974
EQ 0 21
ARR 3 22 20.517452
R 1 20.517795
EQ 2 11
EV 11 22 1 20.517991
CrL M 3 22 1 20.518022
L MedianBlur 1 20.539876
F 0 21.464882
DQ 0 21
CrL M 0 21 0 21.464971
L MedianBlur 0 21.489841
ARR 0 23 21.575880
EQ 0 23
ARR 4 24 21.636473
R 0 21.636803
EQ 0 21
EV 21 24 0 21.636994
CrS MedianBlur MedianBlur medianblur_0 21.637013
CrL G 4 24 0 21.637085
S /home/xilinx/Bitstreams-axi_firewall/GaussianBlur-MedianBlur_pblock_medianblur_0_partial.bit 21.650396
L GaussianBlur 0 21.975109
F 1 21.979964
DQ 0 23
CrL M 0 23 1 21.980590
L MedianBlur 1 21.989870
ARR 4 25 22.041822
R 1 22.042125
EQ 0 23
EV 23 25 1 22.042316
CrL M 4 25 1 22.042345
L MedianBlur 1 22.069856
ARR 2 26 22.095043
EQ 2 26
ARR 3 27 22.159205
EQ 3 27
ARR 3 28 22.165855
EQ 3 28
ARR 4 29 22.244568
EQ 4 29
F 0 23.153470
DQ 0 21
CrS GaussianBlur MedianBlur medianblur_0 23.153521
CrL M 0 21 0 23.153597
S /home/xilinx/Bitstreams-axi_firewall/MedianBlur-MedianBlur_pblock_medianblur_0_partial.bit 23.160510
L MedianBlur 0 23.476840
F 1 24.081622
DQ 0 23
CrL M 0 23 1 24.081708
L MedianBlur 1 24.099844
F 0 24.827484
DQ 1 19
CrL M 1 19 0 24.827577
L MedianBlur 0 24.839845
F 1 25.403521
DQ 2 11
CrL M 2 11 1 25.403590
L MedianBlur 1 25.419842
F 1 25.943490
DQ 2 26
CrS MedianBlur GaussianBlur gaussianblur_0 25.943529
CrL G 2 26 1 25.943598
S /home/xilinx/Bitstreams-axi_firewall/MedianBlur-GaussianBlur_pblock_gaussianblur_0_partial.bit 25.944144
L GaussianBlur 1 26.281011
F 0 26.865111
DQ 3 13
CrL M 3 13 0 26.865204
L MedianBlur 0 26.869876
F 1 27.459345
DQ 3 27
CrS MedianBlur GaussianBlur gaussianblur_0 27.459385
CrL M 3 27 1 27.459450
S /home/xilinx/Bitstreams-axi_firewall/MedianBlur-MedianBlur_pblock_gaussianblur_0_partial.bit 27.480416
L MedianBlur 1 27.794301
F 0 28.828106
DQ 3 28
CrL M 3 28 0 28.828204
L MedianBlur 0 28.859872
F 1 29.150194
DQ 4 29
CrS MedianBlur GaussianBlur gaussianblur_0 29.150239
CrL G 4 29 1 29.150309
S /home/xilinx/Bitstreams-axi_firewall/MedianBlur-GaussianBlur_pblock_gaussianblur_0_partial.bit 29.160498
L GaussianBlur 1 29.457437
F 0 30.202112
F 1 30.634080
END 30.634108
