ARR 2 0 6.059890
CrS GaussianBlur  medianblur_0 6.059941
CrL M 2 0 0 6.060027
S /home/xilinx/Bitstreams-axi_firewall/MedianBlur-GaussianBlur_pblock_medianblur_0_partial.bit 6.090456
L MedianBlur 0 6.401091
F 0 7.067966
ARR 0 1 8.466701
CrL M 0 1 0 8.466775
L MedianBlur 0 8.489771
F 0 10.489777
ARR 4 2 11.525538
CrS GaussianBlur  medianblur_0 11.525582
CrL G 4 2 0 11.525656
S /home/xilinx/Bitstreams-axi_firewall/GaussianBlur-GaussianBlur_pblock_medianblur_0_partial.bit 11.530453
L GaussianBlur 0 11.842692
ARR 2 3 11.927497
EQ 2 3
F 0 13.016476
DQ 2 3
CrL G 2 3 0 13.016568
L GaussianBlur 0 13.059771
ARR 3 4 13.949859
R 0 13.950218
EQ 2 3
EV 3 4 0 13.950422
CrS MedianBlur  medianblur_0 13.950443
CrL M 3 4 0 13.950480
S /home/xilinx/Bitstreams-axi_firewall/MedianBlur-GaussianBlur_pblock_medianblur_0_partial.bit 13.980318
L MedianBlur 0 14.299880
ARR 1 5 14.399065
EQ 1 5
ARR 1 6 14.406357
EQ 1 6
ARR 4 7 14.424293
R 0 14.424585
EQ 3 4
EV 4 7 0 14.424768
CrS MedianBlur  medianblur_0 14.424787
CrL G 4 7 0 14.424826
S /home/xilinx/Bitstreams-axi_firewall/GaussianBlur-GaussianBlur_pblock_medianblur_0_partial.bit 14.425316
L GaussianBlur 0 14.738824
ARR 2 8 15.834593
EQ 2 8
ARR 0 9 15.866349
EQ 0 9
F 0 15.912575
DQ 0 9
CrS GaussianBlur  medianblur_0 15.912612
CrL M 0 9 0 15.912674
S /home/xilinx/Bitstreams-axi_firewall/MedianBlur-GaussianBlur_pblock_medianblur_0_partial.bit 15.930343
L MedianBlur 0 16.240435
ARR 2 10 17.292854
R 0 17.293211
EQ 0 9
EV 9 10 0 17.293404
CrL M 2 10 0 17.293436
L MedianBlur 0 17.329782
ARR 2 11 17.378165
EQ 2 11
ARR 1 12 17.472977
EQ 1 12
F 0 17.996586
DQ 0 9
CrL M 0 9 0 17.996654
L MedianBlur 0 18.009771
ARR 3 13 18.546750
R 0 18.547058
EQ 0 9
EV 9 13 0 18.547243
CrL M 3 13 0 18.547272
L MedianBlur 0 18.569784
ARR 4 14 18.611558
R 0 18.611830
EQ 3 13
EV 13 14 0 18.612012
CrL M 4 14 0 18.612041
ARR 4 15 18.635636
EQ 4 15
L MedianBlur 0 18.649787
F 0 20.649950
DQ 0 9
CrL M 0 9 0 20.650038
L MedianBlur 0 20.650084
F 0 21.060773
DQ 1 5
CrL M 1 5 0 21.060862
L MedianBlur 0 21.079776
ARR 3 16 21.698747
R 0 21.699088
EQ 1 5
EV 5 16 0 21.699279
CrL M 3 16 0 21.699309
L MedianBlur 0 21.719803
F 0 22.386672
DQ 1 6
CrS GaussianBlur  medianblur_0 22.386708
CrL G 1 6 0 22.386770
S /home/xilinx/Bitstreams-axi_firewall/GaussianBlur-GaussianBlur_pblock_medianblur_0_partial.bit 22.400372
L GaussianBlur 0 22.699387
ARR 0 17 23.050611
EQ 0 17
ARR 2 18 23.059715
R 0 23.060083
EQ 1 6
EV 6 18 0 23.060273
CrS MedianBlur  medianblur_0 23.060294
CrL M 2 18 0 23.060332
S /home/xilinx/Bitstreams-axi_firewall/MedianBlur-GaussianBlur_pblock_medianblur_0_partial.bit 23.090307
L MedianBlur 0 23.395162
F 0 25.395124
DQ 0 17
CrL M 0 17 0 25.395216
L MedianBlur 0 25.429771
F 0 27.429844
DQ 1 12
CrL M 1 12 0 27.429929
L MedianBlur 0 27.459773
ARR 1 19 28.489869
EQ 1 19
ARR 4 20 28.528430
R 0 28.528760
EQ 1 12
EV 12 20 0 28.528949
CrL M 4 20 0 28.528980
L MedianBlur 0 28.539809
ARR 0 21 29.619856
EQ 0 21
F 0 30.539927
DQ 0 21
CrL M 0 21 0 30.540003
L MedianBlur 0 30.579771
ARR 3 22 30.671096
R 0 30.671420
EQ 0 21
EV 21 22 0 30.671605
CrL M 3 22 0 30.671636
L MedianBlur 0 30.699788
F 0 32.033289
DQ 0 21
CrL M 0 21 0 32.033376
L MedianBlur 0 32.039820
ARR 0 23 32.724408
EQ 0 23
ARR 4 24 32.821261
R 0 32.821620
EQ 0 21
EV 21 24 0 32.821812
CrS MedianBlur  medianblur_0 32.821833
CrL G 4 24 0 32.821873
S /home/xilinx/Bitstreams-axi_firewall/GaussianBlur-GaussianBlur_pblock_medianblur_0_partial.bit 32.850967
L GaussianBlur 0 33.161466
ARR 4 25 33.266909
EQ 4 25
ARR 2 26 33.351149
EQ 2 26
F 0 34.335199
DQ 0 23
CrS GaussianBlur  medianblur_0 34.335241
CrL M 0 23 0 34.335306
S /home/xilinx/Bitstreams-axi_firewall/MedianBlur-GaussianBlur_pblock_medianblur_0_partial.bit 34.360325
L MedianBlur 0 34.669342
ARR 3 27 34.687899
R 0 34.688165
EQ 0 23
EV 23 27 0 34.688358
CrL M 3 27 0 34.688389
ARR 3 28 34.698929
EQ 3 28
L MedianBlur 0 34.739773
ARR 4 29 35.725671
R 0 35.726003
EQ 3 27
EV 27 29 0 35.726198
CrS MedianBlur  medianblur_0 35.726218
CrL G 4 29 0 35.726257
S /home/xilinx/Bitstreams-axi_firewall/GaussianBlur-GaussianBlur_pblock_medianblur_0_partial.bit 35.740323
L GaussianBlur 0 36.029565
F 0 37.203322
DQ 0 21
CrS GaussianBlur  medianblur_0 37.203369
CrL M 0 21 0 37.203444
S /home/xilinx/Bitstreams-axi_firewall/MedianBlur-GaussianBlur_pblock_medianblur_0_partial.bit 37.230340
L MedianBlur 0 37.540522
F 0 38.873983
DQ 0 23
CrL M 0 23 0 38.874076
L MedianBlur 0 38.879792
F 0 40.194654
DQ 1 5
CrL M 1 5 0 40.194738
L MedianBlur 0 40.194818
F 0 40.242411
DQ 1 6
CrS GaussianBlur  medianblur_0 40.242447
CrL G 1 6 0 40.242509
S /home/xilinx/Bitstreams-axi_firewall/GaussianBlur-GaussianBlur_pblock_medianblur_0_partial.bit 40.270336
L GaussianBlur 0 40.600603
F 0 41.774344
DQ 1 19
CrS GaussianBlur  medianblur_0 41.774394
CrL M 1 19 0 41.774471
S /home/xilinx/Bitstreams-axi_firewall/MedianBlur-GaussianBlur_pblock_medianblur_0_partial.bit 41.800337
L MedianBlur 0 42.112077
F 0 44.112250
DQ 1 12
CrL M 1 12 0 44.112341
L MedianBlur 0 44.112424
F 0 44.377062
DQ 2 3
CrS GaussianBlur  medianblur_0 44.377101
CrL G 2 3 0 44.377164
S /home/xilinx/Bitstreams-axi_firewall/GaussianBlur-GaussianBlur_pblock_medianblur_0_partial.bit 44.390382
L GaussianBlur 0 44.689709
F 0 45.863469
DQ 2 8
CrL G 2 8 0 45.863560
L GaussianBlur 0 45.889772
F 0 47.063541
DQ 2 11
CrS GaussianBlur  medianblur_0 47.063593
CrL M 2 11 0 47.063684
S /home/xilinx/Bitstreams-axi_firewall/MedianBlur-GaussianBlur_pblock_medianblur_0_partial.bit 47.064219
L MedianBlur 0 47.368960
F 0 49.369264
DQ 2 26
CrS GaussianBlur  medianblur_0 49.369314
CrL G 2 26 0 49.369391
S /home/xilinx/Bitstreams-axi_firewall/GaussianBlur-GaussianBlur_pblock_medianblur_0_partial.bit 49.400337
L GaussianBlur 0 49.698767
F 0 50.872512
DQ 3 4
CrS GaussianBlur  medianblur_0 50.872561
CrL M 3 4 0 50.872637
S /home/xilinx/Bitstreams-axi_firewall/MedianBlur-GaussianBlur_pblock_medianblur_0_partial.bit 50.890342
L MedianBlur 0 51.201445
F 0 51.868245
DQ 3 13
CrL M 3 13 0 51.868332
L MedianBlur 0 51.879779
F 0 53.837875
DQ 3 28
CrL M 3 28 0 53.837968
L MedianBlur 0 53.889770
F 0 55.223363
DQ 3 27
CrL M 3 27 0 55.223451
L MedianBlur 0 55.239777
F 0 55.587185
DQ 4 15
CrL M 4 15 0 55.587254
L MedianBlur 0 55.629767
F 0 56.963134
DQ 4 25
CrL M 4 25 0 56.963225
L MedianBlur 0 56.999799
F 0 58.999986
END 59.000016
