ARR 2 0 0.082855
CrS GaussianBlur GaussianBlur medianblur_0 0.082903
CrL M 2 0 0 0.083002
S /home/xilinx/Bitstreams-axi_firewall/MedianBlur-GaussianBlur_pblock_medianblur_0_partial.bit 0.083607
L MedianBlur 0 0.411366
ARR 0 1 0.444489
CrS MedianBlur GaussianBlur gaussianblur_0 0.444514
CrL M 0 1 1 0.444580
S /home/xilinx/Bitstreams-axi_firewall/MedianBlur-MedianBlur_pblock_gaussianblur_0_partial.bit 0.470567
L MedianBlur 1 0.790297
ARR 4 2 0.835120
EQ 4 2
ARR 2 3 0.845930
EQ 2 3
ARR 3 4 0.873784
EQ 3 4
ARR 1 5 0.885140
EQ 1 5
ARR 1 6 0.886244
EQ 1 6
ARR 4 7 0.888676
EQ 4 7
ARR 2 8 0.913088
EQ 2 8
ARR 0 9 0.917245
EQ 0 9
ARR 2 10 0.940956
EQ 2 10
ARR 2 11 0.951730
EQ 2 11
ARR 1 12 0.963760
EQ 1 12
ARR 3 13 0.985578
EQ 3 13
ARR 4 14 0.993802
EQ 4 14
ARR 4 15 0.996938
EQ 4 15
ARR 3 16 1.042369
EQ 3 16
ARR 0 17 1.059842
EQ 0 17
ARR 2 18 1.061164
EQ 2 18
F 0 1.084918
DQ 0 9
CrL M 0 9 0 1.084970
L MedianBlur 0 1.119812
ARR 1 19 1.135217
EQ 1 19
ARR 4 20 1.140226
EQ 4 20
ARR 0 21 1.164147
EQ 0 21
ARR 3 22 1.183197
EQ 3 22
ARR 0 23 1.214860
EQ 0 23
ARR 4 24 1.227147
EQ 4 24
ARR 4 25 1.239474
EQ 4 25
ARR 2 26 1.250181
EQ 2 26
ARR 3 27 1.263177
EQ 3 27
ARR 3 28 1.264685
EQ 3 28
ARR 4 29 1.280585
EQ 4 29
F 1 2.823910
DQ 0 17
CrL M 0 17 1 2.823989
L MedianBlur 1 2.869777
F 0 3.154223
DQ 0 21
CrL M 0 21 0 3.154281
L MedianBlur 0 3.209775
F 0 4.558839
DQ 0 23
CrL M 0 23 0 4.558919
L MedianBlur 0 4.609782
F 1 4.896506
DQ 1 5
CrL M 1 5 1 4.896564
L MedianBlur 1 4.909779
F 1 5.589431
DQ 1 6
CrS MedianBlur GaussianBlur gaussianblur_0 5.589456
CrL G 1 6 1 5.589521
S /home/xilinx/Bitstreams-axi_firewall/MedianBlur-GaussianBlur_pblock_gaussianblur_0_partial.bit 5.590147
L GaussianBlur 1 5.887848
F 0 5.962258
DQ 1 12
CrL M 1 12 0 5.962325
L MedianBlur 0 5.989780
F 1 7.066148
DQ 1 19
CrS MedianBlur GaussianBlur gaussianblur_0 7.066185
CrL M 1 19 1 7.066250
S /home/xilinx/Bitstreams-axi_firewall/MedianBlur-MedianBlur_pblock_gaussianblur_0_partial.bit 7.070373
L MedianBlur 1 7.367470
F 0 7.369895
DQ 2 3
CrS GaussianBlur MedianBlur medianblur_0 7.369922
CrL G 2 3 0 7.369989
S /home/xilinx/Bitstreams-axi_firewall/GaussianBlur-MedianBlur_pblock_medianblur_0_partial.bit 7.380391
L GaussianBlur 0 7.684717
F 0 8.863100
DQ 2 8
CrL G 2 8 0 8.863184
L GaussianBlur 0 8.879781
F 1 9.380282
DQ 2 10
CrL M 2 10 1 9.380343
L MedianBlur 1 9.429793
F 0 10.057884
DQ 2 11
CrS GaussianBlur MedianBlur medianblur_0 10.057914
CrL M 2 11 0 10.057973
S /home/xilinx/Bitstreams-axi_firewall/MedianBlur-MedianBlur_pblock_medianblur_0_partial.bit 10.090371
F 1 10.399851
DQ 2 18
CrL M 2 18 1 10.399930
L MedianBlur 0 10.419784
L MedianBlur 1 10.429795
F 0 12.458352
DQ 2 26
CrS GaussianBlur MedianBlur medianblur_0 12.458399
CrL G 2 26 0 12.458478
S /home/xilinx/Bitstreams-axi_firewall/GaussianBlur-MedianBlur_pblock_medianblur_0_partial.bit 12.480367
L GaussianBlur 0 12.779413
F 1 12.799765
DQ 3 4
CrL M 3 4 1 12.800409
L MedianBlur 1 12.829792
F 1 13.500993
DQ 3 13
CrL M 3 13 1 13.501064
L MedianBlur 1 13.549776
F 0 13.957363
DQ 3 16
CrS GaussianBlur MedianBlur medianblur_0 13.957394
CrL M 3 16 0 13.957453
S /home/xilinx/Bitstreams-axi_firewall/MedianBlur-MedianBlur_pblock_medianblur_0_partial.bit 13.970388
L MedianBlur 0 14.303155
F 0 14.982730
DQ 3 22
CrL M 3 22 0 14.982808
L MedianBlur 0 15.019779
F 1 15.576467
DQ 3 27
CrL M 3 27 1 15.576531
L MedianBlur 1 15.629784
F 0 16.378153
DQ 3 28
CrL M 3 28 0 16.378237
L MedianBlur 0 16.419777
F 1 16.979288
DQ 4 2
CrS MedianBlur GaussianBlur gaussianblur_0 16.979334
CrL G 4 2 1 16.979408
S /home/xilinx/Bitstreams-axi_firewall/MedianBlur-GaussianBlur_pblock_gaussianblur_0_partial.bit 16.990460
L GaussianBlur 1 17.288946
F 0 17.762523
DQ 4 7
CrS GaussianBlur MedianBlur medianblur_0 17.762565
CrL G 4 7 0 17.762647
S /home/xilinx/Bitstreams-axi_firewall/GaussianBlur-GaussianBlur_pblock_medianblur_0_partial.bit 17.763161
L GaussianBlur 0 18.092058
F 1 18.471446
DQ 4 14
CrS MedianBlur GaussianBlur gaussianblur_0 18.471487
CrL M 4 14 1 18.471569
S /home/xilinx/Bitstreams-axi_firewall/GaussianBlur-MedianBlur_pblock_gaussianblur_0_partial.bit 18.472087
L MedianBlur 1 18.778025
F 0 19.274598
DQ 4 15
CrS GaussianBlur MedianBlur medianblur_0 19.274634
CrL M 4 15 0 19.274711
S /home/xilinx/Bitstreams-axi_firewall/MedianBlur-MedianBlur_pblock_medianblur_0_partial.bit 19.275218
L MedianBlur 0 19.606559
F 1 20.802348
DQ 4 20
CrL M 4 20 1 20.802436
L MedianBlur 1 20.819784
F 0 20.961820
DQ 4 24
CrS GaussianBlur MedianBlur medianblur_0 20.961850
CrL G 4 24 0 20.961922
S /home/xilinx/Bitstreams-axi_firewall/GaussianBlur-MedianBlur_pblock_medianblur_0_partial.bit 20.962454
L GaussianBlur 0 21.268993
F 0 22.447382
DQ 4 25
CrS GaussianBlur MedianBlur medianblur_0 22.447426
CrL M 4 25 0 22.447503
S /home/xilinx/Bitstreams-axi_firewall/MedianBlur-MedianBlur_pblock_medianblur_0_partial.bit 22.480347
L MedianBlur 0 22.788178
F 1 22.831630
DQ 4 29
CrS MedianBlur GaussianBlur gaussianblur_0 22.831663
CrL G 4 29 1 22.831733
S /home/xilinx/Bitstreams-axi_firewall/MedianBlur-GaussianBlur_pblock_gaussianblur_0_partial.bit 22.840396
L GaussianBlur 1 23.137056
F 1 24.315468
F 0 24.797967
END 24.797991
