ARR 2 0 4.016137
CrS GaussianBlur  medianblur_0 4.016186
CrL M 2 0 0 4.016269
S /home/xilinx/Bitstreams-axi_firewall/MedianBlur-GaussianBlur_pblock_medianblur_0_partial.bit 4.020530
L MedianBlur 0 4.371198
F 0 5.038034
ARR 0 1 5.445514
CrL M 0 1 0 5.445574
L MedianBlur 0 5.479843
ARR 4 2 7.469931
EQ 4 2
F 0 7.479845
DQ 4 2
CrS GaussianBlur  medianblur_0 7.479874
CrL G 4 2 0 7.479940
S /home/xilinx/Bitstreams-axi_firewall/GaussianBlur-GaussianBlur_pblock_medianblur_0_partial.bit 7.480472
L GaussianBlur 0 7.832995
ARR 2 3 7.883127
EQ 2 3
ARR 3 4 8.922485
EQ 3 4
ARR 1 5 8.978410
EQ 1 5
ARR 1 6 8.983060
EQ 1 6
ARR 4 7 8.994352
EQ 4 7
F 0 9.006733
DQ 1 5
CrS GaussianBlur  medianblur_0 9.006760
CrL M 1 5 0 9.006817
S /home/xilinx/Bitstreams-axi_firewall/MedianBlur-GaussianBlur_pblock_medianblur_0_partial.bit 9.010402
L MedianBlur 0 9.348784
F 0 10.015562
DQ 1 6
CrS GaussianBlur  medianblur_0 10.015599
CrL G 1 6 0 10.015671
S /home/xilinx/Bitstreams-axi_firewall/GaussianBlur-GaussianBlur_pblock_medianblur_0_partial.bit 10.030396
L GaussianBlur 0 10.376769
ARR 2 8 10.722377
EQ 2 8
ARR 0 9 10.742305
EQ 0 9
F 0 11.550535
DQ 0 9
CrS GaussianBlur  medianblur_0 11.550577
CrL M 0 9 0 11.550648
S /home/xilinx/Bitstreams-axi_firewall/MedianBlur-GaussianBlur_pblock_medianblur_0_partial.bit 11.560512
L MedianBlur 0 11.889506
ARR 2 10 12.099587
EQ 2 10
ARR 2 11 12.152625
EQ 2 11
ARR 1 12 12.211951
EQ 1 12
ARR 3 13 13.221164
EQ 3 13
ARR 4 14 13.261456
EQ 4 14
ARR 4 15 13.276275
EQ 4 15
F 0 13.889912
DQ 1 12
CrL M 1 12 0 13.889975
L MedianBlur 0 13.929841
F 0 15.263381
DQ 2 3
CrS GaussianBlur  medianblur_0 15.263423
CrL G 2 3 0 15.263497
S /home/xilinx/Bitstreams-axi_firewall/GaussianBlur-GaussianBlur_pblock_medianblur_0_partial.bit 15.270506
L GaussianBlur 0 15.598551
ARR 3 16 15.639444
EQ 3 16
ARR 0 17 15.725950
EQ 0 17
ARR 2 18 15.731710
EQ 2 18
F 0 16.772285
DQ 0 17
CrS GaussianBlur  medianblur_0 16.772321
CrL M 0 17 0 16.772386
S /home/xilinx/Bitstreams-axi_firewall/MedianBlur-GaussianBlur_pblock_medianblur_0_partial.bit 16.790399
L MedianBlur 0 17.129480
F 0 19.129565
DQ 2 8
CrS GaussianBlur  medianblur_0 19.129607
CrL G 2 8 0 19.129683
S /home/xilinx/Bitstreams-axi_firewall/GaussianBlur-GaussianBlur_pblock_medianblur_0_partial.bit 19.160402
L GaussianBlur 0 19.501698
ARR 1 19 19.538061
EQ 1 19
ARR 4 20 19.562242
EQ 4 20
ARR 0 21 20.581934
EQ 0 21
F 0 20.675429
DQ 0 21
CrS GaussianBlur  medianblur_0 20.675459
CrL M 0 21 0 20.675559
S /home/xilinx/Bitstreams-axi_firewall/MedianBlur-GaussianBlur_pblock_medianblur_0_partial.bit 20.700391
L MedianBlur 0 21.035192
ARR 3 22 21.040847
EQ 3 22
ARR 0 23 22.099916
EQ 0 23
ARR 4 24 22.160519
EQ 4 24
ARR 4 25 22.221326
EQ 4 25
ARR 2 26 22.274028
EQ 2 26
ARR 3 27 22.338183
EQ 3 27
ARR 3 28 22.344826
EQ 3 28
F 0 22.368660
DQ 0 23
CrL M 0 23 0 22.368717
L MedianBlur 0 22.399837
ARR 4 29 22.423714
EQ 4 29
F 0 23.733388
DQ 1 19
CrL M 1 19 0 23.733470
L MedianBlur 0 23.744639
F 0 25.744845
DQ 2 10
CrL M 2 10 0 25.744932
L MedianBlur 0 25.779844
F 0 26.446658
DQ 2 11
CrL M 2 11 0 26.446732
L MedianBlur 0 26.459843
F 0 28.460095
DQ 2 18
CrL M 2 18 0 28.460179
L MedianBlur 0 28.489843
F 0 30.489789
DQ 2 26
CrS GaussianBlur  medianblur_0 30.489848
CrL G 2 26 0 30.489922
S /home/xilinx/Bitstreams-axi_firewall/GaussianBlur-GaussianBlur_pblock_medianblur_0_partial.bit 30.520440
L GaussianBlur 0 30.838847
F 0 32.012576
DQ 3 4
CrS GaussianBlur  medianblur_0 32.012619
CrL M 3 4 0 32.012693
S /home/xilinx/Bitstreams-axi_firewall/MedianBlur-GaussianBlur_pblock_medianblur_0_partial.bit 32.050397
L MedianBlur 0 32.400654
F 0 33.067486
DQ 3 13
CrL M 3 13 0 33.067573
L MedianBlur 0 33.119839
F 0 35.119799
DQ 3 16
CrL M 3 16 0 35.119910
L MedianBlur 0 35.149842
F 0 35.816697
DQ 3 22
CrL M 3 22 0 35.816762
L MedianBlur 0 35.869874
F 0 37.203396
DQ 3 27
CrL M 3 27 0 37.203484
L MedianBlur 0 37.219847
F 0 38.553285
DQ 3 28
CrL M 3 28 0 38.553352
L MedianBlur 0 38.569853
F 0 39.903559
DQ 4 7
CrS GaussianBlur  medianblur_0 39.903604
CrL G 4 7 0 39.903680
S /home/xilinx/Bitstreams-axi_firewall/GaussianBlur-GaussianBlur_pblock_medianblur_0_partial.bit 39.920432
L GaussianBlur 0 40.273600
F 0 41.447347
DQ 4 14
CrS GaussianBlur  medianblur_0 41.447391
CrL M 4 14 0 41.447466
S /home/xilinx/Bitstreams-axi_firewall/MedianBlur-GaussianBlur_pblock_medianblur_0_partial.bit 41.470428
L MedianBlur 0 41.812087
F 0 43.812190
DQ 4 15
CrL M 4 15 0 43.812277
L MedianBlur 0 43.829844
F 0 45.163277
DQ 4 20
CrL M 4 20 0 45.163365
L MedianBlur 0 45.209839
F 0 47.209908
DQ 4 24
CrS GaussianBlur  medianblur_0 47.209951
CrL G 4 24 0 47.210033
S /home/xilinx/Bitstreams-axi_firewall/GaussianBlur-GaussianBlur_pblock_medianblur_0_partial.bit 47.210583
L GaussianBlur 0 47.562012
F 0 48.735715
DQ 4 25
CrS GaussianBlur  medianblur_0 48.735752
CrL M 4 25 0 48.735827
S /home/xilinx/Bitstreams-axi_firewall/MedianBlur-GaussianBlur_pblock_medianblur_0_partial.bit 48.740482
L MedianBlur 0 49.104041
F 0 51.104237
DQ 4 29
CrS GaussianBlur  medianblur_0 51.104280
CrL G 4 29 0 51.104366
S /home/xilinx/Bitstreams-axi_firewall/GaussianBlur-GaussianBlur_pblock_medianblur_0_partial.bit 51.104879
L GaussianBlur 0 51.451288
F 0 52.624991
END 52.625016
