ARR 2 0 4.016128
CrS GaussianBlur GaussianBlur medianblur_0 4.016182
CrL M 2 0 0 4.016261
S /home/xilinx/Bitstreams-axi_firewall/MedianBlur-GaussianBlur_pblock_medianblur_0_partial.bit 4.020446
L MedianBlur 0 4.344632
F 0 5.011363
ARR 0 1 5.409863
CrL M 0 1 0 5.409928
L MedianBlur 0 5.469788
ARR 4 2 7.435493
CrL G 4 2 1 7.435573
L GaussianBlur 1 7.439803
F 0 7.470041
ARR 2 3 7.488861
CrS GaussianBlur MedianBlur medianblur_0 7.488891
CrL G 2 3 0 7.488949
S /home/xilinx/Bitstreams-axi_firewall/GaussianBlur-GaussianBlur_pblock_medianblur_0_partial.bit 7.500444
L GaussianBlur 0 7.820192
F 1 8.615570
ARR 3 4 8.868453
CrS MedianBlur GaussianBlur gaussianblur_0 8.868486
CrL M 3 4 1 8.868548
S /home/xilinx/Bitstreams-axi_firewall/GaussianBlur-MedianBlur_pblock_gaussianblur_0_partial.bit 8.870573
L MedianBlur 1 9.169332
F 0 9.169908
ARR 1 5 9.226350
CrS GaussianBlur MedianBlur medianblur_0 9.226383
CrL M 1 5 0 9.226443
S /home/xilinx/Bitstreams-axi_firewall/MedianBlur-MedianBlur_pblock_medianblur_0_partial.bit 9.230324
L MedianBlur 0 9.549671
ARR 1 6 9.554346
EQ 1 6
ARR 4 7 9.565654
R 0 9.565994
EQ 1 5
EV 5 7 0 9.566193
CrS MedianBlur MedianBlur medianblur_0 9.566210
CrL G 4 7 0 9.566245
S /home/xilinx/Bitstreams-axi_firewall/GaussianBlur-MedianBlur_pblock_medianblur_0_partial.bit 9.580357
L GaussianBlur 0 9.892445
F 1 9.899771
DQ 1 6
CrS MedianBlur GaussianBlur gaussianblur_0 9.899830
CrL G 1 6 1 9.900436
S /home/xilinx/Bitstreams-axi_firewall/GaussianBlur-GaussianBlur_pblock_gaussianblur_0_partial.bit 9.910341
L GaussianBlur 1 10.221137
F 0 11.068032
DQ 1 5
CrS GaussianBlur MedianBlur medianblur_0 11.068069
CrL M 1 5 0 11.068136
S /home/xilinx/Bitstreams-axi_firewall/MedianBlur-GaussianBlur_pblock_medianblur_0_partial.bit 11.090339
L MedianBlur 0 11.430873
F 1 11.430960
ARR 2 8 11.606057
CrL G 2 8 1 11.606144
ARR 0 9 11.626100
EQ 0 9
L GaussianBlur 1 11.649784
F 0 12.100779
DQ 0 9
CrL M 0 9 0 12.100854
L MedianBlur 0 12.149782
ARR 2 10 12.644575
R 0 12.644903
EQ 0 9
EV 9 10 0 12.645095
CrL M 2 10 0 12.645125
L MedianBlur 0 12.669786
ARR 2 11 12.698168
EQ 2 11
ARR 1 12 12.757488
EQ 1 12
F 1 12.827893
DQ 0 9
CrS MedianBlur GaussianBlur gaussianblur_0 12.827928
CrL M 0 9 1 12.827989
S /home/xilinx/Bitstreams-axi_firewall/MedianBlur-MedianBlur_pblock_gaussianblur_0_partial.bit 12.828498
L MedianBlur 1 13.139402
F 0 13.341437
DQ 1 12
CrL M 1 12 0 13.341514
L MedianBlur 0 13.359789
ARR 3 13 14.078259
R 0 14.078605
EQ 1 12
EV 12 13 0 14.078802
CrL M 3 13 0 14.078833
L MedianBlur 0 14.089800
ARR 4 14 14.119095
R 0 14.119384
EQ 3 13
EV 13 14 0 14.119570
CrL M 4 14 0 14.119600
L MedianBlur 0 14.129831
ARR 4 15 14.134454
R 1 14.134733
EQ 0 9
EV 9 15 1 14.134919
CrL M 4 15 1 14.134947
L MedianBlur 1 14.189788
F 1 15.548847
DQ 0 9
CrL M 0 9 1 15.548939
L MedianBlur 1 15.559829
ARR 3 16 16.162085
R 1 16.162413
EQ 0 9
EV 9 16 1 16.162604
CrL M 3 16 1 16.162634
F 0 16.164124
DQ 0 9
CrL M 0 9 0 16.164199
L MedianBlur 0 16.164242
L MedianBlur 1 16.189790
ARR 0 17 16.249401
EQ 0 17
ARR 2 18 16.255155
R 0 16.255453
EQ 0 9
EV 9 18 0 16.255640
CrL M 2 18 0 16.255670
L MedianBlur 0 16.279789
F 1 16.866838
DQ 0 17
CrL M 0 17 1 16.866905
L MedianBlur 1 16.919782
F 0 18.318747
DQ 0 9
CrL M 0 9 0 18.318836
L MedianBlur 0 18.339789
F 0 18.681579
DQ 1 12
CrL M 1 12 0 18.681649
L MedianBlur 0 18.699795
F 1 18.957549
DQ 2 11
CrL M 2 11 1 18.957615
L MedianBlur 1 18.959796
ARR 1 19 19.325255
EQ 1 19
F 0 19.334357
DQ 1 19
CrL M 1 19 0 19.334422
ARR 4 20 19.349638
R 0 19.349989
EQ 1 19
EV 19 20 0 19.350174
CrL M 4 20 0 19.350203
L MedianBlur 0 19.389830
ARR 0 21 20.369877
EQ 0 21
ARR 3 22 20.464347
R 1 20.464676
EQ 2 11
EV 11 22 1 20.464868
CrL M 3 22 1 20.464899
L MedianBlur 1 20.499826
F 0 21.418066
DQ 0 21
CrL M 0 21 0 21.418153
L MedianBlur 0 21.469789
ARR 0 23 21.522747
EQ 0 23
ARR 4 24 21.583368
R 0 21.583703
EQ 0 21
EV 21 24 0 21.583892
CrS MedianBlur MedianBlur medianblur_0 21.583913
CrL G 4 24 0 21.583983
S /home/xilinx/Bitstreams-axi_firewall/GaussianBlur-MedianBlur_pblock_medianblur_0_partial.bit 21.600362
L GaussianBlur 0 21.915902
F 1 21.919911
DQ 0 23
CrL M 0 23 1 21.920058
L MedianBlur 1 21.939799
ARR 4 25 21.980830
R 1 21.981127
EQ 0 23
EV 23 25 1 21.981317
CrL M 4 25 1 21.981347
L MedianBlur 1 22.019791
ARR 2 26 22.034044
EQ 2 26
ARR 3 27 22.098214
EQ 3 27
ARR 3 28 22.104865
EQ 3 28
ARR 4 29 22.183565
EQ 4 29
F 0 23.093992
DQ 0 21
CrS GaussianBlur MedianBlur medianblur_0 23.094033
CrL M 0 21 0 23.094099
S /home/xilinx/Bitstreams-axi_firewall/MedianBlur-MedianBlur_pblock_medianblur_0_partial.bit 23.100436
L MedianBlur 0 23.431419
F 1 24.039882
DQ 0 23
CrL M 0 23 1 24.039973
L MedianBlur 1 24.049803
F 0 24.787501
DQ 1 19
CrL M 1 19 0 24.787575
L MedianBlur 0 24.787618
F 1 25.365823
DQ 2 11
CrL M 2 11 1 25.365892
L MedianBlur 1 25.379785
F 1 25.902288
DQ 2 26
CrS MedianBlur GaussianBlur gaussianblur_0 25.902337
CrL G 2 26 1 25.902412
S /home/xilinx/Bitstreams-axi_firewall/MedianBlur-GaussianBlur_pblock_gaussianblur_0_partial.bit 25.930540
L GaussianBlur 1 26.228721
F 0 26.809184
DQ 3 13
CrL M 3 13 0 26.809269
L MedianBlur 0 26.829791
F 1 27.407012
DQ 3 27
CrS MedianBlur GaussianBlur gaussianblur_0 27.407048
CrL M 3 27 1 27.407112
S /home/xilinx/Bitstreams-axi_firewall/MedianBlur-MedianBlur_pblock_gaussianblur_0_partial.bit 27.430347
L MedianBlur 1 27.719211
F 0 28.818792
DQ 3 28
CrL M 3 28 0 28.818878
L MedianBlur 0 28.869783
F 1 29.064088
DQ 4 29
CrS MedianBlur GaussianBlur gaussianblur_0 29.064124
CrL G 4 29 1 29.064187
S /home/xilinx/Bitstreams-axi_firewall/MedianBlur-GaussianBlur_pblock_gaussianblur_0_partial.bit 29.080372
L GaussianBlur 1 29.389209
F 0 30.213818
F 1 30.566183
END 30.566207
