ARR 2 0 6.059967
CrS GaussianBlur GaussianBlur medianblur_0 6.060022
CrL M 2 0 0 6.060103
S /home/xilinx/Bitstreams-axi_firewall/MedianBlur-GaussianBlur_pblock_medianblur_0_partial.bit 6.100511
L MedianBlur 0 6.442134
F 0 7.108887
ARR 0 1 8.507732
CrL M 0 1 0 8.507817
L MedianBlur 0 8.529849
F 0 10.529995
ARR 4 2 11.566608
CrS GaussianBlur GaussianBlur medianblur_0 11.566647
CrL G 4 2 0 11.566715
S /home/xilinx/Bitstreams-axi_firewall/GaussianBlur-GaussianBlur_pblock_medianblur_0_partial.bit 11.590429
L GaussianBlur 0 11.925796
ARR 2 3 12.014690
CrL G 2 3 1 12.014768
L GaussianBlur 1 12.029848
F 0 13.114419
F 1 13.218476
ARR 3 4 14.037124
CrS GaussianBlur GaussianBlur medianblur_0 14.037169
CrL M 3 4 0 14.037246
S /home/xilinx/Bitstreams-axi_firewall/MedianBlur-GaussianBlur_pblock_medianblur_0_partial.bit 14.060444
L MedianBlur 0 14.392942
ARR 1 5 14.489113
CrS MedianBlur GaussianBlur gaussianblur_0 14.489147
CrL M 1 5 1 14.489214
S /home/xilinx/Bitstreams-axi_firewall/MedianBlur-MedianBlur_pblock_gaussianblur_0_partial.bit 14.500699
L MedianBlur 1 14.804718
ARR 1 6 14.817075
EQ 1 6
ARR 4 7 14.835026
R 0 14.835370
EQ 3 4
EV 4 7 0 14.835575
CrS MedianBlur MedianBlur medianblur_0 14.835595
CrL G 4 7 0 14.835632
S /home/xilinx/Bitstreams-axi_firewall/GaussianBlur-MedianBlur_pblock_medianblur_0_partial.bit 14.840738
L GaussianBlur 0 15.169691
F 1 15.475464
DQ 1 6
CrS MedianBlur GaussianBlur gaussianblur_0 15.475502
CrL G 1 6 1 15.475572
S /home/xilinx/Bitstreams-axi_firewall/GaussianBlur-GaussianBlur_pblock_gaussianblur_0_partial.bit 15.500420
L GaussianBlur 1 15.809205
F 0 16.353659
DQ 3 4
CrS GaussianBlur MedianBlur medianblur_0 16.353705
CrL M 3 4 0 16.353778
S /home/xilinx/Bitstreams-axi_firewall/MedianBlur-GaussianBlur_pblock_medianblur_0_partial.bit 16.380410
L MedianBlur 0 16.709408
ARR 2 8 16.953796
R 1 16.954113
EQ 1 6
EV 6 8 1 16.954311
CrL G 2 8 1 16.954343
L GaussianBlur 1 16.969857
ARR 0 9 16.986101
EQ 0 9
F 0 17.380670
DQ 0 9
CrL M 0 9 0 17.380747
L MedianBlur 0 17.409848
ARR 2 10 18.075229
R 0 18.075561
EQ 0 9
EV 9 10 0 18.075758
CrL M 2 10 0 18.075789
L MedianBlur 0 18.079868
F 1 18.148060
DQ 0 9
CrS MedianBlur GaussianBlur gaussianblur_0 18.148095
CrL M 0 9 1 18.148158
S /home/xilinx/Bitstreams-axi_firewall/MedianBlur-MedianBlur_pblock_gaussianblur_0_partial.bit 18.150380
L MedianBlur 1 18.458907
ARR 2 11 18.471451
R 1 18.471723
EQ 0 9
EV 9 11 1 18.471920
CrL M 2 11 1 18.471951
L MedianBlur 1 18.529848
ARR 1 12 18.566759
EQ 1 12
F 0 18.752604
DQ 0 9
CrL M 0 9 0 18.752672
L MedianBlur 0 18.759869
ARR 3 13 19.640875
R 0 19.641194
EQ 0 9
EV 9 13 0 19.641385
CrL M 3 13 0 19.641416
L MedianBlur 0 19.669883
ARR 4 14 19.705702
R 0 19.705981
EQ 3 13
EV 13 14 0 19.706165
CrL M 4 14 0 19.706195
L MedianBlur 0 19.709862
ARR 4 15 19.729786
R 1 19.730095
EQ 2 11
EV 11 15 1 19.730282
CrL M 4 15 1 19.730311
L MedianBlur 1 19.769878
F 1 21.128890
DQ 0 9
CrL M 0 9 1 21.128975
L MedianBlur 1 21.129053
F 0 21.745704
DQ 1 6
CrS GaussianBlur MedianBlur medianblur_0 21.745745
CrL G 1 6 0 21.745815
S /home/xilinx/Bitstreams-axi_firewall/GaussianBlur-MedianBlur_pblock_medianblur_0_partial.bit 21.746350
L GaussianBlur 0 22.098411
F 1 22.255459
DQ 1 12
CrL M 1 12 1 22.255537
L MedianBlur 1 22.279881
ARR 3 16 23.146486
R 0 23.146821
EQ 1 6
EV 6 16 0 23.147015
CrS MedianBlur MedianBlur medianblur_0 23.147036
CrL M 3 16 0 23.147074
S /home/xilinx/Bitstreams-axi_firewall/MedianBlur-MedianBlur_pblock_medianblur_0_partial.bit 23.150486
L MedianBlur 0 23.482330
F 1 23.622802
DQ 1 6
CrS MedianBlur GaussianBlur gaussianblur_0 23.622840
CrL G 1 6 1 23.622914
S /home/xilinx/Bitstreams-axi_firewall/MedianBlur-GaussianBlur_pblock_gaussianblur_0_partial.bit 23.623386
L GaussianBlur 1 23.953983
F 0 24.154700
DQ 2 11
CrL M 2 11 0 24.154779
L MedianBlur 0 24.169851
ARR 0 17 24.866097
EQ 0 17
ARR 2 18 24.875184
R 1 24.875503
EQ 1 6
EV 6 18 1 24.875694
CrS MedianBlur MedianBlur gaussianblur_0 24.875714
CrL M 2 18 1 24.875752
S /home/xilinx/Bitstreams-axi_firewall/MedianBlur-MedianBlur_pblock_gaussianblur_0_partial.bit 24.900393
L MedianBlur 1 25.198636
F 0 25.209848
DQ 0 17
CrL M 0 17 0 25.210474
L MedianBlur 0 25.249849
F 1 27.233578
DQ 1 6
CrS MedianBlur GaussianBlur gaussianblur_0 27.233626
CrL G 1 6 1 27.233700
S /home/xilinx/Bitstreams-axi_firewall/MedianBlur-GaussianBlur_pblock_gaussianblur_0_partial.bit 27.260431
L GaussianBlur 1 27.580547
F 0 27.590077
DQ 3 13
CrL M 3 13 0 27.590154
L MedianBlur 0 27.609888
F 1 28.758825
F 0 29.582249
ARR 1 19 30.658235
CrL M 1 19 0 30.658322
L MedianBlur 0 30.689848
ARR 4 20 30.696868
CrS MedianBlur GaussianBlur gaussianblur_0 30.696898
CrL M 4 20 1 30.696961
S /home/xilinx/Bitstreams-axi_firewall/MedianBlur-MedianBlur_pblock_gaussianblur_0_partial.bit 30.710481
L MedianBlur 1 31.040850
ARR 0 21 32.131630
EQ 0 21
F 0 32.720158
DQ 0 21
CrL M 0 21 0 32.720234
L MedianBlur 0 32.769846
F 1 33.071701
ARR 3 22 33.183050
CrL M 3 22 1 33.183112
L MedianBlur 1 33.183485
F 0 34.124598
F 1 34.533106
ARR 0 23 35.235980
CrL M 0 23 0 35.236054
L MedianBlur 0 35.259860
ARR 4 24 35.332897
CrS MedianBlur GaussianBlur gaussianblur_0 35.332927
CrL G 4 24 1 35.332993
S /home/xilinx/Bitstreams-axi_firewall/MedianBlur-GaussianBlur_pblock_gaussianblur_0_partial.bit 35.333532
L GaussianBlur 1 35.638830
ARR 4 25 35.735930
R 0 35.736236
EQ 0 23
EV 23 25 0 35.736430
CrL M 4 25 0 35.736460
L MedianBlur 0 35.759902
ARR 2 26 35.820695
EQ 2 26
F 1 36.817137
DQ 0 23
CrS MedianBlur GaussianBlur gaussianblur_0 36.817184
CrL M 0 23 1 36.817256
S /home/xilinx/Bitstreams-axi_firewall/MedianBlur-MedianBlur_pblock_gaussianblur_0_partial.bit 36.840431
L MedianBlur 1 37.137818
ARR 3 27 37.146065
R 1 37.146335
EQ 0 23
EV 23 27 1 37.146531
CrL M 3 27 1 37.146563
ARR 3 28 37.157107
EQ 3 28
L MedianBlur 1 37.169858
F 0 37.780461
DQ 0 23
CrL M 0 23 0 37.780549
L MedianBlur 0 37.799851
ARR 4 29 38.183481
R 0 38.183822
EQ 0 23
EV 23 29 0 38.184017
CrS MedianBlur MedianBlur medianblur_0 38.184038
CrL G 4 29 0 38.184075
S /home/xilinx/Bitstreams-axi_firewall/GaussianBlur-MedianBlur_pblock_medianblur_0_partial.bit 38.200398
L GaussianBlur 0 38.533835
F 1 38.540082
DQ 0 23
CrL M 0 23 1 38.540159
L MedianBlur 1 38.540236
F 1 39.490158
DQ 2 26
CrS MedianBlur GaussianBlur gaussianblur_0 39.490206
CrL G 2 26 1 39.490275
S /home/xilinx/Bitstreams-axi_firewall/GaussianBlur-GaussianBlur_pblock_gaussianblur_0_partial.bit 39.510419
L GaussianBlur 1 39.822067
F 0 39.829975
DQ 3 28
CrS GaussianBlur MedianBlur medianblur_0 39.830018
CrL M 3 28 0 39.830101
S /home/xilinx/Bitstreams-axi_firewall/MedianBlur-GaussianBlur_pblock_medianblur_0_partial.bit 39.831100
L MedianBlur 0 40.163945
F 1 41.000002
F 0 41.503063
END 41.503089
