ARR 2 0 4.016138
CrS GaussianBlur  medianblur_0 4.016194
CrL M 2 0 0 4.016281
S /home/xilinx/Bitstreams-axi_firewall/MedianBlur-GaussianBlur_pblock_medianblur_0_partial.bit 4.040534
L MedianBlur 0 4.363447
F 0 5.030230
ARR 0 1 5.429076
CrL M 0 1 0 5.429157
L MedianBlur 0 5.449848
F 0 7.450180
ARR 4 2 7.452951
CrS GaussianBlur  medianblur_0 7.452982
CrL G 4 2 0 7.453044
S /home/xilinx/Bitstreams-axi_firewall/GaussianBlur-GaussianBlur_pblock_medianblur_0_partial.bit 7.480418
L GaussianBlur 0 7.821358
ARR 2 3 7.882884
EQ 2 3
ARR 3 4 8.922236
EQ 3 4
ARR 1 5 8.978147
EQ 1 5
ARR 1 6 8.982778
EQ 1 6
ARR 4 7 8.994062
EQ 4 7
F 0 8.995077
DQ 1 5
CrS GaussianBlur  medianblur_0 8.995108
CrL M 1 5 0 8.995164
S /home/xilinx/Bitstreams-axi_firewall/MedianBlur-GaussianBlur_pblock_medianblur_0_partial.bit 9.020398
L MedianBlur 0 9.370180
F 0 10.036955
DQ 1 6
CrS GaussianBlur  medianblur_0 10.036998
CrL G 1 6 0 10.037076
S /home/xilinx/Bitstreams-axi_firewall/GaussianBlur-GaussianBlur_pblock_medianblur_0_partial.bit 10.037570
L GaussianBlur 0 10.402577
ARR 2 8 10.766202
R 0 10.766536
EQ 1 6
EV 6 8 0 10.766745
CrL G 2 8 0 10.766776
ARR 0 9 10.786724
EQ 0 9
L GaussianBlur 0 10.789864
ARR 2 10 11.805423
EQ 2 10
ARR 2 11 11.858477
EQ 2 11
ARR 1 12 11.917805
EQ 1 12
F 0 11.963611
DQ 0 9
CrS GaussianBlur  medianblur_0 11.963648
CrL M 0 9 0 11.963716
S /home/xilinx/Bitstreams-axi_firewall/MedianBlur-GaussianBlur_pblock_medianblur_0_partial.bit 11.964262
L MedianBlur 0 12.295726
ARR 3 13 13.263360
R 0 13.263705
EQ 0 9
EV 9 13 0 13.263903
CrL M 3 13 0 13.263935
L MedianBlur 0 13.299896
ARR 4 14 13.304214
R 0 13.304546
EQ 3 13
EV 13 14 0 13.304745
CrL M 4 14 0 13.304777
ARR 4 15 13.319595
EQ 4 15
L MedianBlur 0 13.339849
F 0 15.339973
DQ 0 9
CrL M 0 9 0 15.340065
L MedianBlur 0 15.340111
ARR 3 16 15.346203
R 0 15.346529
EQ 0 9
EV 9 16 0 15.346718
CrL M 3 16 0 15.346748
L MedianBlur 0 15.379880
ARR 0 17 15.433283
EQ 0 17
ARR 2 18 15.439041
EQ 2 18
F 0 16.046755
DQ 0 9
CrL M 0 9 0 16.046820
L MedianBlur 0 16.059843
F 0 17.086291
DQ 0 17
CrL M 0 17 0 17.086381
L MedianBlur 0 17.129863
ARR 1 19 18.509262
R 0 18.509608
EQ 0 17
EV 17 19 0 18.509802
CrL M 1 19 0 18.509878
L MedianBlur 0 18.529857
ARR 4 20 18.534049
R 0 18.534340
EQ 1 19
EV 19 20 0 18.534527
CrL M 4 20 0 18.534558
L MedianBlur 0 18.569846
ARR 0 21 19.554282
EQ 0 21
ARR 3 22 19.648747
EQ 3 22
F 0 20.569842
DQ 0 17
CrL M 0 17 0 20.569912
L MedianBlur 0 20.569958
ARR 0 23 20.706519
EQ 0 23
ARR 4 24 20.767110
R 0 20.767430
EQ 0 17
EV 17 24 0 20.767617
CrS MedianBlur  medianblur_0 20.767636
CrL G 4 24 0 20.767673
S /home/xilinx/Bitstreams-axi_firewall/GaussianBlur-GaussianBlur_pblock_medianblur_0_partial.bit 20.770420
L GaussianBlur 0 21.105164
ARR 4 25 21.170582
EQ 4 25
ARR 2 26 21.223325
EQ 2 26
ARR 3 27 21.287510
EQ 3 27
ARR 3 28 21.294165
EQ 3 28
ARR 4 29 21.372867
EQ 4 29
F 0 22.278923
DQ 0 21
CrS GaussianBlur  medianblur_0 22.278969
CrL M 0 21 0 22.279042
S /home/xilinx/Bitstreams-axi_firewall/MedianBlur-GaussianBlur_pblock_medianblur_0_partial.bit 22.279574
L MedianBlur 0 22.623228
F 0 23.956683
DQ 0 23
CrL M 0 23 0 23.956778
L MedianBlur 0 23.979844
F 0 25.313415
DQ 0 17
CrL M 0 17 0 25.313506
L MedianBlur 0 25.329847
F 0 25.753023
DQ 1 6
CrS GaussianBlur  medianblur_0 25.753058
CrL G 1 6 0 25.753120
S /home/xilinx/Bitstreams-axi_firewall/GaussianBlur-GaussianBlur_pblock_medianblur_0_partial.bit 25.770417
L GaussianBlur 0 26.105752
F 0 27.279503
DQ 1 12
CrS GaussianBlur  medianblur_0 27.279553
CrL M 1 12 0 27.279630
S /home/xilinx/Bitstreams-axi_firewall/MedianBlur-GaussianBlur_pblock_medianblur_0_partial.bit 27.300422
L MedianBlur 0 27.625376
F 0 28.958848
DQ 1 19
CrL M 1 19 0 28.958932
L MedianBlur 0 28.958977
F 0 30.954873
DQ 2 3
CrS GaussianBlur  medianblur_0 30.954921
CrL G 2 3 0 30.954994
S /home/xilinx/Bitstreams-axi_firewall/GaussianBlur-GaussianBlur_pblock_medianblur_0_partial.bit 30.960488
L GaussianBlur 0 31.310543
F 0 32.484247
DQ 2 10
CrS GaussianBlur  medianblur_0 32.484290
CrL M 2 10 0 32.484363
S /home/xilinx/Bitstreams-axi_firewall/MedianBlur-GaussianBlur_pblock_medianblur_0_partial.bit 32.510405
L MedianBlur 0 32.841652
F 0 33.508482
DQ 2 11
CrL M 2 11 0 33.508574
L MedianBlur 0 33.549843
F 0 35.550026
DQ 2 18
CrL M 2 18 0 35.550117
L MedianBlur 0 35.589843
F 0 37.589779
DQ 2 26
CrS GaussianBlur  medianblur_0 37.589851
CrL G 2 26 0 37.589934
S /home/xilinx/Bitstreams-axi_firewall/GaussianBlur-GaussianBlur_pblock_medianblur_0_partial.bit 37.590476
L GaussianBlur 0 37.908145
F 0 39.081842
DQ 3 4
CrS GaussianBlur  medianblur_0 39.081885
CrL M 3 4 0 39.081955
S /home/xilinx/Bitstreams-axi_firewall/MedianBlur-GaussianBlur_pblock_medianblur_0_partial.bit 39.100404
L MedianBlur 0 39.427818
F 0 40.094603
DQ 3 13
CrL M 3 13 0 40.094689
L MedianBlur 0 40.119846
F 0 42.115375
DQ 3 22
CrL M 3 22 0 42.115464
L MedianBlur 0 42.129857
F 0 43.463422
DQ 3 27
CrL M 3 27 0 43.463517
L MedianBlur 0 43.489845
F 0 44.823329
DQ 3 28
CrL M 3 28 0 44.823404
L MedianBlur 0 44.859840
F 0 46.193447
DQ 4 7
CrS GaussianBlur  medianblur_0 46.193495
CrL G 4 7 0 46.193568
S /home/xilinx/Bitstreams-axi_firewall/GaussianBlur-GaussianBlur_pblock_medianblur_0_partial.bit 46.200506
L GaussianBlur 0 46.532643
F 0 47.706402
DQ 4 15
CrS GaussianBlur  medianblur_0 47.706454
CrL M 4 15 0 47.706531
S /home/xilinx/Bitstreams-axi_firewall/MedianBlur-GaussianBlur_pblock_medianblur_0_partial.bit 47.720494
L MedianBlur 0 48.060793
F 0 49.394129
DQ 4 25
CrL M 4 25 0 49.394221
L MedianBlur 0 49.419845
F 0 51.420046
DQ 4 29
CrS GaussianBlur  medianblur_0 51.420094
CrL G 4 29 0 51.420182
S /home/xilinx/Bitstreams-axi_firewall/GaussianBlur-GaussianBlur_pblock_medianblur_0_partial.bit 51.420737
L GaussianBlur 0 51.754531
F 0 52.928277
END 52.928311
