ARR 2 0 4.016128
CrS GaussianBlur GaussianBlur medianblur_0 4.016177
CrL M 2 0 0 4.016255
S /home/xilinx/Bitstreams-axi_firewall/MedianBlur-GaussianBlur_pblock_medianblur_0_partial.bit 4.040520
L MedianBlur 0 4.359429
F 0 5.026245
ARR 0 1 5.425511
CrL M 0 1 0 5.425577
L MedianBlur 0 5.469847
ARR 4 2 7.449939
CrL G 4 2 1 7.450017
F 0 7.469928
L GaussianBlur 1 7.499840
ARR 2 3 7.503290
CrS GaussianBlur MedianBlur medianblur_0 7.503315
CrL G 2 3 0 7.503369
S /home/xilinx/Bitstreams-axi_firewall/GaussianBlur-GaussianBlur_pblock_medianblur_0_partial.bit 7.510456
L GaussianBlur 0 7.845228
F 1 8.685806
ARR 3 4 8.888491
CrS MedianBlur GaussianBlur gaussianblur_0 8.888525
CrL M 3 4 1 8.888588
S /home/xilinx/Bitstreams-axi_firewall/GaussianBlur-MedianBlur_pblock_gaussianblur_0_partial.bit 8.910664
L MedianBlur 1 9.218773
F 0 9.219927
ARR 1 5 9.276365
CrS GaussianBlur MedianBlur medianblur_0 9.276398
CrL M 1 5 0 9.276457
S /home/xilinx/Bitstreams-axi_firewall/MedianBlur-MedianBlur_pblock_medianblur_0_partial.bit 9.280452
L MedianBlur 0 9.606973
ARR 1 6 9.614431
EQ 1 6
ARR 4 7 9.625738
R 0 9.626062
EQ 1 5
EV 5 7 0 9.626262
CrS MedianBlur MedianBlur medianblur_0 9.626279
CrL G 4 7 0 9.626315
S /home/xilinx/Bitstreams-axi_firewall/GaussianBlur-MedianBlur_pblock_medianblur_0_partial.bit 9.640377
L GaussianBlur 0 9.981756
F 1 9.989841
DQ 1 6
CrS MedianBlur GaussianBlur gaussianblur_0 9.989895
CrL G 1 6 1 9.990524
S /home/xilinx/Bitstreams-axi_firewall/GaussianBlur-GaussianBlur_pblock_gaussianblur_0_partial.bit 10.000394
L GaussianBlur 1 10.331408
F 0 11.165248
DQ 1 5
CrS GaussianBlur MedianBlur medianblur_0 11.165288
CrL M 1 5 0 11.165361
S /home/xilinx/Bitstreams-axi_firewall/MedianBlur-GaussianBlur_pblock_medianblur_0_partial.bit 11.190397
L MedianBlur 0 11.519390
F 1 11.529842
ARR 2 8 11.726494
CrL G 2 8 1 11.726569
ARR 0 9 11.746525
EQ 0 9
L GaussianBlur 1 11.759871
F 0 12.189163
DQ 0 9
CrL M 0 9 0 12.189252
L MedianBlur 0 12.189856
ARR 2 10 12.765067
R 0 12.765405
EQ 0 9
EV 9 10 0 12.765595
CrL M 2 10 0 12.765625
L MedianBlur 0 12.789857
ARR 2 11 12.818673
EQ 2 11
ARR 1 12 12.877999
EQ 1 12
F 1 12.938196
DQ 0 9
CrS MedianBlur GaussianBlur gaussianblur_0 12.938231
CrL M 0 9 1 12.938291
S /home/xilinx/Bitstreams-axi_firewall/MedianBlur-MedianBlur_pblock_gaussianblur_0_partial.bit 12.960393
L MedianBlur 1 13.291846
F 0 13.462375
DQ 1 12
CrL M 1 12 0 13.462457
L MedianBlur 0 13.479847
ARR 3 13 14.249004
R 0 14.249344
EQ 1 12
EV 12 13 0 14.249540
CrL M 3 13 0 14.249571
L MedianBlur 0 14.279848
ARR 4 14 14.289848
R 0 14.290135
EQ 3 13
EV 13 14 0 14.290320
CrL M 4 14 0 14.290349
ARR 4 15 14.305202
R 1 14.305480
EQ 0 9
EV 9 15 1 14.305665
CrL M 4 15 1 14.305695
L MedianBlur 0 14.319846
L MedianBlur 1 14.329854
F 1 15.686062
DQ 0 9
CrL M 0 9 1 15.686133
L MedianBlur 1 15.689856
ARR 3 16 16.332844
R 1 16.333196
EQ 0 9
EV 9 16 1 16.333393
CrL M 3 16 1 16.333424
F 0 16.357434
DQ 0 9
CrL M 0 9 0 16.357510
L MedianBlur 1 16.359874
L MedianBlur 0 16.369863
ARR 0 17 16.420161
EQ 0 17
ARR 2 18 16.425918
R 0 16.426218
EQ 0 9
EV 9 18 0 16.426401
CrL M 2 18 0 16.426430
L MedianBlur 0 16.449877
F 1 17.037007
DQ 0 17
CrL M 0 17 1 17.037074
L MedianBlur 1 17.079839
F 0 18.484291
DQ 0 9
CrL M 0 9 0 18.484379
L MedianBlur 0 18.484425
F 0 18.798986
DQ 1 12
CrL M 1 12 0 18.799057
L MedianBlur 0 18.799848
F 1 19.114509
DQ 2 11
CrL M 2 11 1 19.114574
L MedianBlur 1 19.169848
F 0 19.372758
DQ 3 13
CrL M 3 13 0 19.372830
L MedianBlur 0 19.409839
ARR 1 19 19.495996
EQ 1 19
ARR 4 20 19.520163
R 0 19.520489
EQ 3 13
EV 13 20 0 19.520674
CrL M 4 20 0 19.520704
L MedianBlur 0 19.569880
ARR 0 21 20.539952
EQ 0 21
ARR 3 22 20.634425
R 1 20.634759
EQ 2 11
EV 11 22 1 20.634953
CrL M 3 22 1 20.634982
L MedianBlur 1 20.689845
F 0 21.591407
DQ 0 21
CrL M 0 21 0 21.591501
L MedianBlur 0 21.639840
ARR 0 23 21.692827
EQ 0 23
ARR 4 24 21.753421
R 0 21.753749
EQ 0 21
EV 21 24 0 21.753937
CrS MedianBlur MedianBlur medianblur_0 21.753957
CrL G 4 24 0 21.754027
S /home/xilinx/Bitstreams-axi_firewall/GaussianBlur-MedianBlur_pblock_medianblur_0_partial.bit 21.760426
L GaussianBlur 0 22.068726
F 1 22.069881
DQ 0 23
CrL M 0 23 1 22.070506
L MedianBlur 1 22.089867
ARR 4 25 22.131757
R 1 22.132086
EQ 0 23
EV 23 25 1 22.132281
CrL M 4 25 1 22.132312
L MedianBlur 1 22.170502
ARR 2 26 22.185024
EQ 2 26
ARR 3 27 22.249212
EQ 3 27
ARR 3 28 22.255867
EQ 3 28
ARR 4 29 22.334569
EQ 4 29
F 0 23.246919
DQ 0 21
CrS GaussianBlur MedianBlur medianblur_0 23.246959
CrL M 0 21 0 23.247023
S /home/xilinx/Bitstreams-axi_firewall/MedianBlur-MedianBlur_pblock_medianblur_0_partial.bit 23.260438
L MedianBlur 0 23.597961
F 1 24.190050
DQ 0 23
CrL M 0 23 1 24.190144
L MedianBlur 1 24.219844
F 0 24.946837
DQ 1 19
CrL M 1 19 0 24.946909
L MedianBlur 0 24.989839
F 1 25.522285
DQ 2 11
CrL M 2 11 1 25.522352
L MedianBlur 1 25.539843
F 1 26.100729
DQ 2 26
CrS MedianBlur GaussianBlur gaussianblur_0 26.100773
CrL G 2 26 1 26.100851
S /home/xilinx/Bitstreams-axi_firewall/MedianBlur-GaussianBlur_pblock_gaussianblur_0_partial.bit 26.101391
L GaussianBlur 1 26.404520
F 0 27.015193
DQ 3 13
CrL M 3 13 0 27.015283
L MedianBlur 0 27.029846
F 1 27.582832
DQ 3 27
CrS MedianBlur GaussianBlur gaussianblur_0 27.582870
CrL M 3 27 1 27.582934
S /home/xilinx/Bitstreams-axi_firewall/MedianBlur-MedianBlur_pblock_gaussianblur_0_partial.bit 27.610410
L MedianBlur 1 27.926525
F 0 28.927532
DQ 3 28
CrL M 3 28 0 28.927628
L MedianBlur 0 28.989841
F 1 29.271509
DQ 4 29
CrS MedianBlur GaussianBlur gaussianblur_0 29.271549
CrL G 4 29 1 29.271616
S /home/xilinx/Bitstreams-axi_firewall/MedianBlur-GaussianBlur_pblock_gaussianblur_0_partial.bit 29.290425
L GaussianBlur 1 29.633209
F 0 30.331344
F 1 30.809715
END 30.809739
