ARR 2 0 6.059957
CrS GaussianBlur  medianblur_0 6.060005
CrL M 2 0 0 6.060089
S /home/xilinx/Bitstreams-axi_firewall/MedianBlur-GaussianBlur_pblock_medianblur_0_partial.bit 6.070532
L MedianBlur 0 6.379727
F 0 7.046525
ARR 0 1 8.445455
CrL M 0 1 0 8.445534
L MedianBlur 0 8.469842
F 0 10.469921
ARR 4 2 11.504337
CrS GaussianBlur  medianblur_0 11.504369
CrL G 4 2 0 11.504436
S /home/xilinx/Bitstreams-axi_firewall/GaussianBlur-GaussianBlur_pblock_medianblur_0_partial.bit 11.530409
L GaussianBlur 0 11.901171
ARR 2 3 11.994661
EQ 2 3
F 0 13.074914
DQ 2 3
CrL G 2 3 0 13.074987
L GaussianBlur 0 13.119838
ARR 3 4 14.017110
EQ 3 4
ARR 1 5 14.106475
EQ 1 5
ARR 1 6 14.113767
EQ 1 6
ARR 4 7 14.131699
EQ 4 7
F 0 14.293584
DQ 1 5
CrS GaussianBlur  medianblur_0 14.293614
CrL M 1 5 0 14.293674
S /home/xilinx/Bitstreams-axi_firewall/MedianBlur-GaussianBlur_pblock_medianblur_0_partial.bit 14.320407
L MedianBlur 0 14.643106
F 0 15.309941
DQ 1 6
CrS GaussianBlur  medianblur_0 15.309978
CrL G 1 6 0 15.310048
S /home/xilinx/Bitstreams-axi_firewall/GaussianBlur-GaussianBlur_pblock_medianblur_0_partial.bit 15.320467
L GaussianBlur 0 15.626346
ARR 2 8 15.902101
EQ 2 8
ARR 0 9 15.933851
EQ 0 9
F 0 16.800120
DQ 0 9
CrS GaussianBlur  medianblur_0 16.800160
CrL M 0 9 0 16.800231
S /home/xilinx/Bitstreams-axi_firewall/MedianBlur-GaussianBlur_pblock_medianblur_0_partial.bit 16.810493
L MedianBlur 0 17.123733
ARR 2 10 17.352050
EQ 2 10
ARR 2 11 17.436803
EQ 2 11
ARR 1 12 17.531615
EQ 1 12
ARR 3 13 18.605695
EQ 3 13
ARR 4 14 18.670016
EQ 4 14
ARR 4 15 18.693584
EQ 4 15
F 0 19.124185
DQ 1 12
CrL M 1 12 0 19.124266
L MedianBlur 0 19.169174
F 0 20.502681
DQ 2 8
CrS GaussianBlur  medianblur_0 20.502725
CrL G 2 8 0 20.502797
S /home/xilinx/Bitstreams-axi_firewall/GaussianBlur-GaussianBlur_pblock_medianblur_0_partial.bit 20.510510
L GaussianBlur 0 20.832838
F 0 22.006596
DQ 2 10
CrS GaussianBlur  medianblur_0 22.006638
CrL M 2 10 0 22.006712
S /home/xilinx/Bitstreams-axi_firewall/MedianBlur-GaussianBlur_pblock_medianblur_0_partial.bit 22.030416
L MedianBlur 0 22.329724
ARR 3 16 22.416451
EQ 3 16
F 0 22.996563
DQ 2 11
CrL M 2 11 0 22.996635
L MedianBlur 0 23.019844
ARR 0 17 23.455354
EQ 0 17
ARR 2 18 23.464424
EQ 2 18
F 0 25.020084
DQ 0 17
CrL M 0 17 0 25.020169
L MedianBlur 0 25.039842
F 0 27.039939
DQ 2 18
CrL M 2 18 0 27.040018
L MedianBlur 0 27.069841
ARR 1 19 28.555593
EQ 1 19
ARR 4 20 28.594165
EQ 4 20
F 0 29.069834
DQ 1 19
CrL M 1 19 0 29.069900
L MedianBlur 0 29.099849
ARR 0 21 29.684792
EQ 0 21
ARR 3 22 30.736694
EQ 3 22
F 0 31.100006
DQ 0 21
CrL M 0 21 0 31.100075
L MedianBlur 0 31.129838
F 0 32.463259
DQ 3 4
CrL M 3 4 0 32.463341
L MedianBlur 0 32.489839
ARR 0 23 32.789361
EQ 0 23
ARR 4 24 32.886209
EQ 4 24
ARR 4 25 32.983384
EQ 4 25
ARR 2 26 33.067604
EQ 2 26
F 0 33.156601
DQ 0 23
CrL M 0 23 0 33.156658
L MedianBlur 0 33.169839
ARR 3 27 34.071187
EQ 3 27
ARR 3 28 34.081718
EQ 3 28
F 0 34.503397
DQ 2 26
CrS GaussianBlur  medianblur_0 34.503431
CrL G 2 26 0 34.503494
S /home/xilinx/Bitstreams-axi_firewall/GaussianBlur-GaussianBlur_pblock_medianblur_0_partial.bit 34.530479
L GaussianBlur 0 34.845808
ARR 4 29 35.450523
EQ 4 29
F 0 36.019565
DQ 3 13
CrS GaussianBlur  medianblur_0 36.019609
CrL M 3 13 0 36.019684
S /home/xilinx/Bitstreams-axi_firewall/MedianBlur-GaussianBlur_pblock_medianblur_0_partial.bit 36.030486
L MedianBlur 0 36.349202
F 0 38.349144
DQ 3 16
CrL M 3 16 0 38.349227
L MedianBlur 0 38.379841
F 0 39.046645
DQ 3 22
CrL M 3 22 0 39.046713
L MedianBlur 0 39.059842
F 0 40.393277
DQ 3 27
CrL M 3 27 0 40.393361
L MedianBlur 0 40.439843
F 0 41.773277
DQ 3 28
CrL M 3 28 0 41.773341
L MedianBlur 0 41.799848
F 0 43.133404
DQ 4 7
CrS GaussianBlur  medianblur_0 43.133445
CrL G 4 7 0 43.133526
S /home/xilinx/Bitstreams-axi_firewall/GaussianBlur-GaussianBlur_pblock_medianblur_0_partial.bit 43.134068
L GaussianBlur 0 43.448932
F 0 44.622680
DQ 4 14
CrS GaussianBlur  medianblur_0 44.622724
CrL M 4 14 0 44.622797
S /home/xilinx/Bitstreams-axi_firewall/MedianBlur-GaussianBlur_pblock_medianblur_0_partial.bit 44.640416
L MedianBlur 0 44.971200
F 0 46.971352
DQ 4 15
CrL M 4 15 0 46.971510
L MedianBlur 0 46.989842
F 0 48.323202
DQ 4 20
CrL M 4 20 0 48.323286
L MedianBlur 0 48.379842
F 0 50.379979
DQ 4 24
CrS GaussianBlur  medianblur_0 50.380023
CrL G 4 24 0 50.380096
S /home/xilinx/Bitstreams-axi_firewall/GaussianBlur-GaussianBlur_pblock_medianblur_0_partial.bit 50.400448
L GaussianBlur 0 50.714952
F 0 51.888656
DQ 4 25
CrS GaussianBlur  medianblur_0 51.888693
CrL M 4 25 0 51.888770
S /home/xilinx/Bitstreams-axi_firewall/MedianBlur-GaussianBlur_pblock_medianblur_0_partial.bit 51.889280
L MedianBlur 0 52.195632
F 0 54.195860
DQ 4 29
CrS GaussianBlur  medianblur_0 54.195904
CrL G 4 29 0 54.195987
S /home/xilinx/Bitstreams-axi_firewall/GaussianBlur-GaussianBlur_pblock_medianblur_0_partial.bit 54.196501
L GaussianBlur 0 54.540818
F 0 55.714528
END 55.714556
