ARR 2 0 0.082815
CrS GaussianBlur  medianblur_0 0.082860
CrL M 2 0 0 0.082938
S /home/xilinx/Bitstreams-axi_firewall/MedianBlur-GaussianBlur_pblock_medianblur_0_partial.bit 0.090645
L MedianBlur 0 0.431625
ARR 0 1 0.472974
EQ 0 1
ARR 4 2 0.517886
EQ 4 2
ARR 2 3 0.528701
EQ 2 3
ARR 3 4 0.556550
EQ 3 4
ARR 1 5 0.567906
EQ 1 5
ARR 1 6 0.569004
EQ 1 6
ARR 4 7 0.571433
EQ 4 7
ARR 2 8 0.595847
EQ 2 8
ARR 0 9 0.599997
EQ 0 9
ARR 2 10 0.623709
EQ 2 10
ARR 2 11 0.634483
EQ 2 11
ARR 1 12 0.646514
EQ 1 12
ARR 3 13 0.668332
EQ 3 13
ARR 4 14 0.676554
EQ 4 14
ARR 4 15 0.679689
EQ 4 15
ARR 3 16 0.725132
EQ 3 16
ARR 0 17 0.742623
EQ 0 17
ARR 2 18 0.743958
EQ 2 18
ARR 1 19 0.817832
EQ 1 19
ARR 4 20 0.822867
EQ 4 20
ARR 0 21 0.846788
EQ 0 21
ARR 3 22 0.865839
EQ 3 22
ARR 0 23 0.897506
EQ 0 23
ARR 4 24 0.909810
EQ 4 24
ARR 4 25 0.922138
EQ 4 25
ARR 2 26 0.932863
EQ 2 26
ARR 3 27 0.945882
EQ 3 27
ARR 3 28 0.947407
EQ 3 28
ARR 4 29 0.963318
EQ 4 29
F 0 1.098597
DQ 0 1
CrL M 0 1 0 1.098656
L MedianBlur 0 1.099837
F 0 3.099945
DQ 0 9
CrL M 0 9 0 3.100023
L MedianBlur 0 3.119833
F 0 5.120182
DQ 0 17
CrL M 0 17 0 5.120262
L MedianBlur 0 5.149833
F 0 7.149940
DQ 0 21
CrL M 0 21 0 7.150016
L MedianBlur 0 7.189859
F 0 8.523226
DQ 0 23
CrL M 0 23 0 8.523292
L MedianBlur 0 8.549831
F 0 9.883394
DQ 1 5
CrL M 1 5 0 9.883472
L MedianBlur 0 9.929842
F 0 10.596588
DQ 1 6
CrS GaussianBlur  medianblur_0 10.596620
CrL G 1 6 0 10.596683
S /home/xilinx/Bitstreams-axi_firewall/GaussianBlur-GaussianBlur_pblock_medianblur_0_partial.bit 10.610488
L GaussianBlur 0 10.962696
F 0 12.136396
DQ 1 12
CrS GaussianBlur  medianblur_0 12.136433
CrL M 1 12 0 12.136505
S /home/xilinx/Bitstreams-axi_firewall/MedianBlur-GaussianBlur_pblock_medianblur_0_partial.bit 12.170375
L MedianBlur 0 12.490993
F 0 13.824510
DQ 1 19
CrL M 1 19 0 13.824598
L MedianBlur 0 13.859831
F 0 15.859975
DQ 2 3
CrS GaussianBlur  medianblur_0 15.860018
CrL G 2 3 0 15.860102
S /home/xilinx/Bitstreams-axi_firewall/GaussianBlur-GaussianBlur_pblock_medianblur_0_partial.bit 15.860644
L GaussianBlur 0 16.159496
F 0 17.333251
DQ 2 8
CrL G 2 8 0 17.333338
L GaussianBlur 0 17.359832
F 0 18.533525
DQ 2 10
CrS GaussianBlur  medianblur_0 18.533557
CrL M 2 10 0 18.533619
S /home/xilinx/Bitstreams-axi_firewall/MedianBlur-GaussianBlur_pblock_medianblur_0_partial.bit 18.560393
L MedianBlur 0 18.859406
F 0 19.526243
DQ 2 11
CrL M 2 11 0 19.526326
L MedianBlur 0 19.569829
F 0 21.570101
DQ 2 18
CrL M 2 18 0 21.570188
L MedianBlur 0 21.579850
F 0 23.579789
DQ 2 26
CrS GaussianBlur  medianblur_0 23.579846
CrL G 2 26 0 23.579931
S /home/xilinx/Bitstreams-axi_firewall/GaussianBlur-GaussianBlur_pblock_medianblur_0_partial.bit 23.580470
L GaussianBlur 0 23.888818
F 0 25.062572
DQ 3 4
CrS GaussianBlur  medianblur_0 25.062616
CrL M 3 4 0 25.062693
S /home/xilinx/Bitstreams-axi_firewall/MedianBlur-GaussianBlur_pblock_medianblur_0_partial.bit 25.070491
L MedianBlur 0 25.385283
F 0 26.052045
DQ 3 13
CrL M 3 13 0 26.052121
L MedianBlur 0 26.089830
F 0 28.089824
DQ 3 16
CrL M 3 16 0 28.089907
L MedianBlur 0 28.129848
F 0 28.796748
DQ 3 22
CrL M 3 22 0 28.796835
L MedianBlur 0 28.829843
F 0 30.163270
DQ 3 27
CrL M 3 27 0 30.163338
L MedianBlur 0 30.199857
F 0 31.533407
DQ 3 28
CrL M 3 28 0 31.533496
L MedianBlur 0 31.559831
F 0 32.893481
DQ 4 2
CrS GaussianBlur  medianblur_0 32.893525
CrL G 4 2 0 32.893597
S /home/xilinx/Bitstreams-axi_firewall/GaussianBlur-GaussianBlur_pblock_medianblur_0_partial.bit 32.930457
L GaussianBlur 0 33.250650
F 0 34.424377
DQ 4 7
CrL G 4 7 0 34.424462
L GaussianBlur 0 34.439837
F 0 35.613561
DQ 4 14
CrS GaussianBlur  medianblur_0 35.613603
CrL M 4 14 0 35.613677
S /home/xilinx/Bitstreams-axi_firewall/MedianBlur-GaussianBlur_pblock_medianblur_0_partial.bit 35.620481
L MedianBlur 0 35.935721
F 0 37.935888
DQ 4 15
CrL M 4 15 0 37.935976
L MedianBlur 0 37.939849
F 0 39.273216
DQ 4 20
CrL M 4 20 0 39.273298
L MedianBlur 0 39.309835
F 0 41.309888
DQ 4 24
CrS GaussianBlur  medianblur_0 41.309930
CrL G 4 24 0 41.310003
S /home/xilinx/Bitstreams-axi_firewall/GaussianBlur-GaussianBlur_pblock_medianblur_0_partial.bit 41.340427
L GaussianBlur 0 41.682694
F 0 42.856429
DQ 4 25
CrS GaussianBlur  medianblur_0 42.856472
CrL M 4 25 0 42.856548
S /home/xilinx/Bitstreams-axi_firewall/MedianBlur-GaussianBlur_pblock_medianblur_0_partial.bit 42.860395
L MedianBlur 0 43.191554
F 0 45.191746
DQ 4 29
CrS GaussianBlur  medianblur_0 45.191790
CrL G 4 29 0 45.191864
S /home/xilinx/Bitstreams-axi_firewall/GaussianBlur-GaussianBlur_pblock_medianblur_0_partial.bit 45.200487
L GaussianBlur 0 45.498795
F 0 46.672501
END 46.672529
