ARR 2 0 0.082827
CrS GaussianBlur  medianblur_0 0.082873
CrL M 2 0 0 0.082959
S /home/xilinx/Bitstreams-axi_firewall/MedianBlur-GaussianBlur_pblock_medianblur_0_partial.bit 0.090857
L MedianBlur 0 0.431900
ARR 0 1 0.472980
EQ 0 1
ARR 4 2 0.517886
EQ 4 2
ARR 2 3 0.528698
EQ 2 3
ARR 3 4 0.556552
EQ 3 4
ARR 1 5 0.567916
EQ 1 5
ARR 1 6 0.569023
EQ 1 6
ARR 4 7 0.571455
EQ 4 7
ARR 2 8 0.595872
EQ 2 8
ARR 0 9 0.600024
EQ 0 9
ARR 2 10 0.623737
EQ 2 10
ARR 2 11 0.634514
EQ 2 11
ARR 1 12 0.646549
EQ 1 12
ARR 3 13 0.668365
EQ 3 13
ARR 4 14 0.676588
EQ 4 14
ARR 4 15 0.679726
EQ 4 15
ARR 3 16 0.725157
EQ 3 16
ARR 0 17 0.742619
EQ 0 17
ARR 2 18 0.743948
EQ 2 18
ARR 1 19 0.817803
EQ 1 19
ARR 4 20 0.822809
EQ 4 20
ARR 0 21 0.846720
EQ 0 21
ARR 3 22 0.865766
EQ 3 22
ARR 0 23 0.897430
EQ 0 23
ARR 4 24 0.909715
EQ 4 24
ARR 4 25 0.922044
EQ 4 25
ARR 2 26 0.932756
EQ 2 26
ARR 3 27 0.945755
EQ 3 27
ARR 3 28 0.947257
EQ 3 28
ARR 4 29 0.963159
EQ 4 29
F 0 1.098746
DQ 0 1
CrL M 0 1 0 1.098803
L MedianBlur 0 1.129832
F 0 3.129918
DQ 0 9
CrL M 0 9 0 3.129996
L MedianBlur 0 3.179835
F 0 5.180074
DQ 0 17
CrL M 0 17 0 5.180148
L MedianBlur 0 5.219833
F 0 7.219927
DQ 0 21
CrL M 0 21 0 7.220006
L MedianBlur 0 7.239839
F 0 8.573296
DQ 0 23
CrL M 0 23 0 8.573374
L MedianBlur 0 8.609835
F 0 9.943381
DQ 1 5
CrL M 1 5 0 9.943445
L MedianBlur 0 9.969865
F 0 10.636627
DQ 1 6
CrS GaussianBlur  medianblur_0 10.636670
CrL G 1 6 0 10.636743
S /home/xilinx/Bitstreams-axi_firewall/GaussianBlur-GaussianBlur_pblock_medianblur_0_partial.bit 10.640433
L GaussianBlur 0 10.963791
F 0 12.137535
DQ 1 12
CrS GaussianBlur  medianblur_0 12.137577
CrL M 1 12 0 12.137666
S /home/xilinx/Bitstreams-axi_firewall/MedianBlur-GaussianBlur_pblock_medianblur_0_partial.bit 12.138179
L MedianBlur 0 12.452149
F 0 13.785613
DQ 1 19
CrL M 1 19 0 13.785690
L MedianBlur 0 13.819862
F 0 15.820002
DQ 2 3
CrS GaussianBlur  medianblur_0 15.820044
CrL G 2 3 0 15.820116
S /home/xilinx/Bitstreams-axi_firewall/GaussianBlur-GaussianBlur_pblock_medianblur_0_partial.bit 15.850409
L GaussianBlur 0 16.171014
F 0 17.344719
DQ 2 8
CrL G 2 8 0 17.344797
L GaussianBlur 0 17.409832
F 0 18.583570
DQ 2 10
CrS GaussianBlur  medianblur_0 18.583612
CrL M 2 10 0 18.583690
S /home/xilinx/Bitstreams-axi_firewall/MedianBlur-GaussianBlur_pblock_medianblur_0_partial.bit 18.610401
L MedianBlur 0 18.918469
F 0 19.585248
DQ 2 11
CrL M 2 11 0 19.585323
L MedianBlur 0 19.619832
F 0 21.620046
DQ 2 18
CrL M 2 18 0 21.620132
L MedianBlur 0 21.679840
F 0 23.679750
DQ 2 26
CrS GaussianBlur  medianblur_0 23.679794
CrL G 2 26 0 23.679903
S /home/xilinx/Bitstreams-axi_firewall/GaussianBlur-GaussianBlur_pblock_medianblur_0_partial.bit 23.680450
L GaussianBlur 0 24.014497
F 0 25.188242
DQ 3 4
CrS GaussianBlur  medianblur_0 25.188283
CrL M 3 4 0 25.188356
S /home/xilinx/Bitstreams-axi_firewall/MedianBlur-GaussianBlur_pblock_medianblur_0_partial.bit 25.220394
L MedianBlur 0 25.509464
F 0 26.176311
DQ 3 13
CrL M 3 13 0 26.176397
L MedianBlur 0 26.209834
F 0 28.209829
DQ 3 16
CrL M 3 16 0 28.209911
L MedianBlur 0 28.239834
F 0 28.906623
DQ 3 22
CrL M 3 22 0 28.906690
L MedianBlur 0 28.919833
F 0 30.253327
DQ 3 27
CrL M 3 27 0 30.253414
L MedianBlur 0 30.289841
F 0 31.623301
DQ 3 28
CrL M 3 28 0 31.623368
L MedianBlur 0 31.649842
F 0 32.983439
DQ 4 2
CrS GaussianBlur  medianblur_0 32.983481
CrL G 4 2 0 32.983553
S /home/xilinx/Bitstreams-axi_firewall/GaussianBlur-GaussianBlur_pblock_medianblur_0_partial.bit 33.000442
L GaussianBlur 0 33.325003
F 0 34.498765
DQ 4 7
CrL G 4 7 0 34.498859
L GaussianBlur 0 34.509846
F 0 35.683541
DQ 4 14
CrS GaussianBlur  medianblur_0 35.683573
CrL M 4 14 0 35.683639
S /home/xilinx/Bitstreams-axi_firewall/MedianBlur-GaussianBlur_pblock_medianblur_0_partial.bit 35.720399
L MedianBlur 0 36.025377
F 0 38.025473
DQ 4 15
CrL M 4 15 0 38.025558
L MedianBlur 0 38.049835
F 0 39.383173
DQ 4 20
CrL M 4 20 0 39.383253
L MedianBlur 0 39.409835
F 0 41.409997
DQ 4 24
CrS GaussianBlur  medianblur_0 41.410040
CrL G 4 24 0 41.410115
S /home/xilinx/Bitstreams-axi_firewall/GaussianBlur-GaussianBlur_pblock_medianblur_0_partial.bit 41.440424
L GaussianBlur 0 41.763850
F 0 42.937595
DQ 4 25
CrS GaussianBlur  medianblur_0 42.937639
CrL M 4 25 0 42.937716
S /home/xilinx/Bitstreams-axi_firewall/MedianBlur-GaussianBlur_pblock_medianblur_0_partial.bit 42.970403
L MedianBlur 0 43.290698
F 0 45.290897
DQ 4 29
CrS GaussianBlur  medianblur_0 45.290938
CrL G 4 29 0 45.291014
S /home/xilinx/Bitstreams-axi_firewall/GaussianBlur-GaussianBlur_pblock_medianblur_0_partial.bit 45.320389
L GaussianBlur 0 45.652447
F 0 46.826197
END 46.826231
