ARR 2 0 6.059902
CrS GaussianBlur GaussianBlur medianblur_0 6.059954
CrL M 2 0 0 6.060040
S /home/xilinx/Bitstreams-axi_firewall/MedianBlur-GaussianBlur_pblock_medianblur_0_partial.bit 6.090220
L MedianBlur 0 6.392148
F 0 7.058917
ARR 0 1 8.465430
CrL M 0 1 0 8.465509
L MedianBlur 0 8.489775
F 0 10.489877
ARR 4 2 11.524297
CrS GaussianBlur GaussianBlur medianblur_0 11.524335
CrL G 4 2 0 11.524409
S /home/xilinx/Bitstreams-axi_firewall/GaussianBlur-GaussianBlur_pblock_medianblur_0_partial.bit 11.540360
L GaussianBlur 0 11.839293
ARR 2 3 11.924612
CrL G 2 3 1 11.924682
L GaussianBlur 1 11.929806
F 0 13.025427
F 1 13.115919
ARR 3 4 13.947064
CrS GaussianBlur GaussianBlur medianblur_0 13.947093
CrL M 3 4 0 13.947158
S /home/xilinx/Bitstreams-axi_firewall/MedianBlur-GaussianBlur_pblock_medianblur_0_partial.bit 13.960392
L MedianBlur 0 14.249506
ARR 1 5 14.338773
CrS MedianBlur GaussianBlur gaussianblur_0 14.338809
CrL M 1 5 1 14.338885
S /home/xilinx/Bitstreams-axi_firewall/MedianBlur-MedianBlur_pblock_gaussianblur_0_partial.bit 14.350670
L MedianBlur 1 14.653099
ARR 1 6 14.666982
EQ 1 6
ARR 4 7 14.684930
EQ 4 7
F 0 14.922704
DQ 1 6
CrS GaussianBlur MedianBlur medianblur_0 14.922737
CrL G 1 6 0 14.922799
S /home/xilinx/Bitstreams-axi_firewall/GaussianBlur-MedianBlur_pblock_medianblur_0_partial.bit 14.940357
L GaussianBlur 0 15.254115
F 1 15.325610
DQ 4 7
CrS MedianBlur GaussianBlur gaussianblur_0 15.325643
CrL G 4 7 1 15.325715
S /home/xilinx/Bitstreams-axi_firewall/GaussianBlur-GaussianBlur_pblock_gaussianblur_0_partial.bit 15.340355
L GaussianBlur 1 15.639339
ARR 2 8 16.424831
EQ 2 8
F 0 16.442350
DQ 2 8
CrL G 2 8 0 16.442419
ARR 0 9 16.456822
EQ 0 9
L GaussianBlur 0 16.459785
F 1 16.826912
DQ 0 9
CrS MedianBlur GaussianBlur gaussianblur_0 16.826941
CrL M 0 9 1 16.826999
S /home/xilinx/Bitstreams-axi_firewall/GaussianBlur-MedianBlur_pblock_gaussianblur_0_partial.bit 16.850356
L MedianBlur 1 17.156885
F 0 17.636904
ARR 2 10 17.875470
CrS GaussianBlur MedianBlur medianblur_0 17.875503
CrL M 2 10 0 17.875572
S /home/xilinx/Bitstreams-axi_firewall/MedianBlur-MedianBlur_pblock_medianblur_0_partial.bit 17.880410
L MedianBlur 0 18.201211
ARR 2 11 18.294459
EQ 2 11
ARR 1 12 18.389297
EQ 1 12
F 0 18.878222
DQ 1 12
CrL M 1 12 0 18.878295
L MedianBlur 0 18.919773
F 1 19.175597
DQ 2 11
CrL M 2 11 1 19.175656
L MedianBlur 1 19.179790
ARR 3 13 19.463044
EQ 3 13
ARR 4 14 19.527339
EQ 4 14
ARR 4 15 19.550896
EQ 4 15
F 0 20.275219
DQ 3 13
CrL M 3 13 0 20.275304
L MedianBlur 0 20.319777
F 1 21.214572
DQ 4 14
CrL M 4 14 1 21.214640
L MedianBlur 1 21.229812
F 0 22.354794
DQ 4 15
CrL M 4 15 0 22.354876
L MedianBlur 0 22.389807
ARR 3 16 22.613873
EQ 3 16
F 1 23.261330
DQ 3 16
CrL M 3 16 1 23.261399
L MedianBlur 1 23.319774
ARR 0 17 23.652668
EQ 0 17
ARR 2 18 23.661746
EQ 2 18
F 0 23.745179
DQ 0 17
CrL M 0 17 0 23.745239
L MedianBlur 0 23.789773
F 1 23.998221
DQ 2 18
CrL M 2 18 1 23.998282
L MedianBlur 1 24.039774
F 0 25.820241
F 1 26.069923
ARR 1 19 28.754427
CrL M 1 19 0 28.754509
L MedianBlur 0 28.789776
ARR 4 20 28.793054
CrL M 4 20 1 28.793112
L MedianBlur 1 28.839781
ARR 0 21 29.883986
EQ 0 21
F 0 30.822170
DQ 0 21
CrL M 0 21 0 30.822254
L MedianBlur 0 30.859775
F 1 30.875502
ARR 3 22 30.935314
CrL M 3 22 1 30.935373
L MedianBlur 1 30.959775
F 0 32.215865
F 1 32.314337
ARR 0 23 32.988198
CrL M 0 23 0 32.988263
L MedianBlur 0 32.989835
ARR 4 24 33.085103
CrS MedianBlur GaussianBlur gaussianblur_0 33.085129
CrL G 4 24 1 33.085188
S /home/xilinx/Bitstreams-axi_firewall/MedianBlur-GaussianBlur_pblock_gaussianblur_0_partial.bit 33.090443
L GaussianBlur 1 33.410078
ARR 4 25 33.516924
EQ 4 25
ARR 2 26 33.601167
EQ 2 26
F 0 34.330949
DQ 2 26
CrS GaussianBlur MedianBlur medianblur_0 34.330992
CrL G 2 26 0 34.331064
S /home/xilinx/Bitstreams-axi_firewall/GaussianBlur-GaussianBlur_pblock_medianblur_0_partial.bit 34.350404
L GaussianBlur 0 34.664826
F 1 34.669910
DQ 4 25
CrS MedianBlur GaussianBlur gaussianblur_0 34.669942
CrL M 4 25 1 34.670018
S /home/xilinx/Bitstreams-axi_firewall/GaussianBlur-MedianBlur_pblock_gaussianblur_0_partial.bit 34.670495
L MedianBlur 1 35.000246
ARR 3 27 35.273284
EQ 3 27
ARR 3 28 35.283811
EQ 3 28
F 0 35.842754
DQ 3 27
CrS GaussianBlur MedianBlur medianblur_0 35.842788
CrL M 3 27 0 35.842850
S /home/xilinx/Bitstreams-axi_firewall/MedianBlur-MedianBlur_pblock_medianblur_0_partial.bit 35.870326
L MedianBlur 0 36.184924
ARR 4 29 36.652251
EQ 4 29
F 1 37.019720
DQ 3 28
CrL M 3 28 1 37.019825
L MedianBlur 1 37.049785
F 0 37.535931
DQ 4 29
CrS GaussianBlur MedianBlur medianblur_0 37.535964
CrL G 4 29 0 37.536034
S /home/xilinx/Bitstreams-axi_firewall/GaussianBlur-MedianBlur_pblock_medianblur_0_partial.bit 37.536559
L GaussianBlur 0 37.883239
F 1 38.396894
F 0 39.059014
END 39.059041
