ARR 2 0 6.059912
CrS GaussianBlur  medianblur_0 6.059961
CrL M 2 0 0 6.060042
S /home/xilinx/Bitstreams-axi_firewall/MedianBlur-GaussianBlur_pblock_medianblur_0_partial.bit 6.090456
L MedianBlur 0 6.430356
F 0 7.097123
ARR 0 1 8.505433
CrL M 0 1 0 8.505514
L MedianBlur 0 8.569801
F 0 10.569871
ARR 4 2 11.564270
CrS GaussianBlur  medianblur_0 11.564304
CrL G 4 2 0 11.564379
S /home/xilinx/Bitstreams-axi_firewall/GaussianBlur-GaussianBlur_pblock_medianblur_0_partial.bit 11.564912
L GaussianBlur 0 11.931034
ARR 2 3 12.024606
EQ 2 3
F 0 13.104808
DQ 2 3
CrL G 2 3 0 13.104895
L GaussianBlur 0 13.139802
ARR 3 4 14.047057
EQ 3 4
ARR 1 5 14.136398
EQ 1 5
ARR 1 6 14.143672
EQ 1 6
ARR 4 7 14.161598
EQ 4 7
F 0 14.313540
DQ 1 5
CrS GaussianBlur  medianblur_0 14.313577
CrL M 1 5 0 14.313645
S /home/xilinx/Bitstreams-axi_firewall/MedianBlur-GaussianBlur_pblock_medianblur_0_partial.bit 14.340399
L MedianBlur 0 14.649412
F 0 15.316183
DQ 1 6
CrS GaussianBlur  medianblur_0 15.316219
CrL G 1 6 0 15.316291
S /home/xilinx/Bitstreams-axi_firewall/GaussianBlur-GaussianBlur_pblock_medianblur_0_partial.bit 15.330416
L GaussianBlur 0 15.642933
ARR 2 8 15.918865
EQ 2 8
ARR 0 9 15.950606
EQ 0 9
F 0 16.816715
DQ 0 9
CrS GaussianBlur  medianblur_0 16.816758
CrL M 0 9 0 16.816833
S /home/xilinx/Bitstreams-axi_firewall/MedianBlur-GaussianBlur_pblock_medianblur_0_partial.bit 16.840382
L MedianBlur 0 17.162638
ARR 2 10 17.385011
EQ 2 10
ARR 2 11 17.469794
EQ 2 11
ARR 1 12 17.564612
EQ 1 12
ARR 3 13 18.638693
EQ 3 13
ARR 4 14 18.703014
EQ 4 14
ARR 4 15 18.726582
EQ 4 15
F 0 19.162982
DQ 1 12
CrL M 1 12 0 19.163042
L MedianBlur 0 19.199801
F 0 20.533348
DQ 2 8
CrS GaussianBlur  medianblur_0 20.533390
CrL G 2 8 0 20.533463
S /home/xilinx/Bitstreams-axi_firewall/GaussianBlur-GaussianBlur_pblock_medianblur_0_partial.bit 20.550394
L GaussianBlur 0 20.892609
F 0 22.066320
DQ 2 10
CrS GaussianBlur  medianblur_0 22.066357
CrL M 2 10 0 22.066435
S /home/xilinx/Bitstreams-axi_firewall/MedianBlur-GaussianBlur_pblock_medianblur_0_partial.bit 22.066934
L MedianBlur 0 22.403105
ARR 3 16 22.491742
EQ 3 16
F 0 23.069909
DQ 2 11
CrL M 2 11 0 23.069981
L MedianBlur 0 23.109812
ARR 0 17 23.530648
EQ 0 17
ARR 2 18 23.539720
EQ 2 18
F 0 25.110167
DQ 0 17
CrL M 0 17 0 25.110255
L MedianBlur 0 25.169808
F 0 27.169942
DQ 2 18
CrL M 2 18 0 27.170027
L MedianBlur 0 27.209843
ARR 1 19 28.629895
EQ 1 19
ARR 4 20 28.668465
EQ 4 20
F 0 29.209910
DQ 1 19
CrL M 1 19 0 29.209986
L MedianBlur 0 29.229805
ARR 0 21 29.759066
EQ 0 21
ARR 3 22 30.810972
EQ 3 22
F 0 31.230031
DQ 0 21
CrL M 0 21 0 31.230097
L MedianBlur 0 31.269801
F 0 32.603249
DQ 3 4
CrL M 3 4 0 32.603333
L MedianBlur 0 32.659800
ARR 0 23 32.863563
EQ 0 23
ARR 4 24 32.960409
EQ 4 24
ARR 4 25 33.057583
EQ 4 25
ARR 2 26 33.141801
EQ 2 26
F 0 33.326531
DQ 0 23
CrL M 0 23 0 33.326589
L MedianBlur 0 33.379798
ARR 3 27 34.145275
EQ 3 27
ARR 3 28 34.155780
EQ 3 28
F 0 34.713281
DQ 2 26
CrS GaussianBlur  medianblur_0 34.713321
CrL G 2 26 0 34.713390
S /home/xilinx/Bitstreams-axi_firewall/GaussianBlur-GaussianBlur_pblock_medianblur_0_partial.bit 34.730412
L GaussianBlur 0 35.054691
ARR 4 29 35.528565
EQ 4 29
F 0 36.228414
DQ 3 13
CrS GaussianBlur  medianblur_0 36.228455
CrL M 3 13 0 36.228523
S /home/xilinx/Bitstreams-axi_firewall/MedianBlur-GaussianBlur_pblock_medianblur_0_partial.bit 36.260353
L MedianBlur 0 36.572098
F 0 38.572073
DQ 3 16
CrL M 3 16 0 38.572160
L MedianBlur 0 38.609814
F 0 39.276644
DQ 3 22
CrL M 3 22 0 39.276711
L MedianBlur 0 39.289803
F 0 40.623312
DQ 3 27
CrL M 3 27 0 40.623400
L MedianBlur 0 40.649804
F 0 41.983277
DQ 3 28
CrL M 3 28 0 41.983345
L MedianBlur 0 42.019801
F 0 43.353388
DQ 4 7
CrS GaussianBlur  medianblur_0 43.353429
CrL G 4 7 0 43.353501
S /home/xilinx/Bitstreams-axi_firewall/GaussianBlur-GaussianBlur_pblock_medianblur_0_partial.bit 43.370397
L GaussianBlur 0 43.694828
F 0 44.868575
DQ 4 14
CrS GaussianBlur  medianblur_0 44.868619
CrL M 4 14 0 44.868695
S /home/xilinx/Bitstreams-axi_firewall/MedianBlur-GaussianBlur_pblock_medianblur_0_partial.bit 44.870368
L MedianBlur 0 45.201118
F 0 47.201324
DQ 4 15
CrL M 4 15 0 47.201482
L MedianBlur 0 47.259832
F 0 48.593203
DQ 4 20
CrL M 4 20 0 48.593288
L MedianBlur 0 48.609819
F 0 50.609975
DQ 4 24
CrS GaussianBlur  medianblur_0 50.610018
CrL G 4 24 0 50.610093
S /home/xilinx/Bitstreams-axi_firewall/GaussianBlur-GaussianBlur_pblock_medianblur_0_partial.bit 50.620534
L GaussianBlur 0 50.935673
F 0 52.109375
DQ 4 25
CrS GaussianBlur  medianblur_0 52.109413
CrL M 4 25 0 52.109484
S /home/xilinx/Bitstreams-axi_firewall/MedianBlur-GaussianBlur_pblock_medianblur_0_partial.bit 52.130363
L MedianBlur 0 52.454801
F 0 54.454984
DQ 4 29
CrS GaussianBlur  medianblur_0 54.455026
CrL G 4 29 0 54.455115
S /home/xilinx/Bitstreams-axi_firewall/GaussianBlur-GaussianBlur_pblock_medianblur_0_partial.bit 54.455626
L GaussianBlur 0 54.769378
F 0 55.943086
END 55.943111
