ARR 2 0 0.082830
CrS GaussianBlur  medianblur_0 0.082873
CrL M 2 0 0 0.082959
S /home/xilinx/Bitstreams-axi_firewall/MedianBlur-GaussianBlur_pblock_medianblur_0_partial.bit 0.083543
L MedianBlur 0 0.396069
ARR 0 1 0.432912
EQ 0 1
ARR 4 2 0.477818
EQ 4 2
ARR 2 3 0.488626
EQ 2 3
ARR 3 4 0.516472
EQ 3 4
ARR 1 5 0.527822
EQ 1 5
ARR 1 6 0.528920
EQ 1 6
ARR 4 7 0.531346
EQ 4 7
ARR 2 8 0.555761
EQ 2 8
ARR 0 9 0.559912
EQ 0 9
ARR 2 10 0.583625
EQ 2 10
ARR 2 11 0.594398
EQ 2 11
ARR 1 12 0.606436
EQ 1 12
ARR 3 13 0.628264
EQ 3 13
ARR 4 14 0.636491
EQ 4 14
ARR 4 15 0.639627
EQ 4 15
ARR 3 16 0.685058
EQ 3 16
ARR 0 17 0.702519
EQ 0 17
ARR 2 18 0.703844
EQ 2 18
ARR 1 19 0.777697
EQ 1 19
ARR 4 20 0.782702
EQ 4 20
ARR 0 21 0.806614
EQ 0 21
ARR 3 22 0.825659
EQ 3 22
ARR 0 23 0.857321
EQ 0 23
ARR 4 24 0.869604
EQ 4 24
ARR 4 25 0.881930
EQ 4 25
ARR 2 26 0.892642
EQ 2 26
ARR 3 27 0.905642
EQ 3 27
ARR 3 28 0.907146
EQ 3 28
ARR 4 29 0.923052
EQ 4 29
F 0 1.062976
DQ 0 1
CrL M 0 1 0 1.063048
L MedianBlur 0 1.089761
F 0 3.089754
DQ 0 9
CrL M 0 9 0 3.089830
L MedianBlur 0 3.129784
F 0 5.130080
DQ 0 17
CrL M 0 17 0 5.130159
L MedianBlur 0 5.159764
F 0 7.159916
DQ 0 21
CrL M 0 21 0 7.159994
L MedianBlur 0 7.189761
F 0 8.523166
DQ 0 23
CrL M 0 23 0 8.523228
L MedianBlur 0 8.549766
F 0 9.883330
DQ 1 5
CrL M 1 5 0 9.883407
L MedianBlur 0 9.939760
F 0 10.606544
DQ 1 6
CrS GaussianBlur  medianblur_0 10.606576
CrL G 1 6 0 10.606639
S /home/xilinx/Bitstreams-axi_firewall/GaussianBlur-GaussianBlur_pblock_medianblur_0_partial.bit 10.620414
L GaussianBlur 0 10.950216
F 0 12.123960
DQ 1 12
CrS GaussianBlur  medianblur_0 12.124004
CrL M 1 12 0 12.124079
S /home/xilinx/Bitstreams-axi_firewall/MedianBlur-GaussianBlur_pblock_medianblur_0_partial.bit 12.130416
L MedianBlur 0 12.441993
F 0 13.775471
DQ 1 19
CrL M 1 19 0 13.775555
L MedianBlur 0 13.789763
F 0 15.789981
DQ 2 3
CrS GaussianBlur  medianblur_0 15.790026
CrL G 2 3 0 15.790099
S /home/xilinx/Bitstreams-axi_firewall/GaussianBlur-GaussianBlur_pblock_medianblur_0_partial.bit 15.800442
L GaussianBlur 0 16.121350
F 0 17.295089
DQ 2 8
CrL G 2 8 0 17.295174
L GaussianBlur 0 17.329760
F 0 18.503453
DQ 2 10
CrS GaussianBlur  medianblur_0 18.503485
CrL M 2 10 0 18.503550
S /home/xilinx/Bitstreams-axi_firewall/MedianBlur-GaussianBlur_pblock_medianblur_0_partial.bit 18.530318
L MedianBlur 0 18.818669
F 0 19.485554
DQ 2 11
CrL M 2 11 0 19.485641
L MedianBlur 0 19.509761
F 0 21.509978
DQ 2 18
CrL M 2 18 0 21.510064
L MedianBlur 0 21.539760
F 0 23.539704
DQ 2 26
CrS GaussianBlur  medianblur_0 23.539766
CrL G 2 26 0 23.539853
S /home/xilinx/Bitstreams-axi_firewall/GaussianBlur-GaussianBlur_pblock_medianblur_0_partial.bit 23.540402
L GaussianBlur 0 23.838830
F 0 25.012531
DQ 3 4
CrS GaussianBlur  medianblur_0 25.012566
CrL M 3 4 0 25.012638
S /home/xilinx/Bitstreams-axi_firewall/MedianBlur-GaussianBlur_pblock_medianblur_0_partial.bit 25.040404
L MedianBlur 0 25.343636
F 0 26.010445
DQ 3 13
CrL M 3 13 0 26.010526
L MedianBlur 0 26.049768
F 0 28.049746
DQ 3 16
CrL M 3 16 0 28.049832
L MedianBlur 0 28.059774
F 0 28.726575
DQ 3 22
CrL M 3 22 0 28.726640
L MedianBlur 0 28.749768
F 0 30.083262
DQ 3 27
CrL M 3 27 0 30.083349
L MedianBlur 0 30.109760
F 0 31.443330
DQ 3 28
CrL M 3 28 0 31.443420
L MedianBlur 0 31.479758
F 0 32.813298
DQ 4 2
CrS GaussianBlur  medianblur_0 32.813331
CrL G 4 2 0 32.813396
S /home/xilinx/Bitstreams-axi_firewall/GaussianBlur-GaussianBlur_pblock_medianblur_0_partial.bit 32.840343
L GaussianBlur 0 33.162675
F 0 34.336375
DQ 4 7
CrL G 4 7 0 34.336455
L GaussianBlur 0 34.399755
F 0 35.573498
DQ 4 14
CrS GaussianBlur  medianblur_0 35.573542
CrL M 4 14 0 35.573615
S /home/xilinx/Bitstreams-axi_firewall/MedianBlur-GaussianBlur_pblock_medianblur_0_partial.bit 35.600326
L MedianBlur 0 35.910737
F 0 37.910933
DQ 4 15
CrL M 4 15 0 37.911020
L MedianBlur 0 37.949801
F 0 39.283235
DQ 4 20
CrL M 4 20 0 39.283317
L MedianBlur 0 39.319760
F 0 41.319933
DQ 4 24
CrS GaussianBlur  medianblur_0 41.319976
CrL G 4 24 0 41.320052
S /home/xilinx/Bitstreams-axi_firewall/GaussianBlur-GaussianBlur_pblock_medianblur_0_partial.bit 41.340352
L GaussianBlur 0 41.655617
F 0 42.829316
DQ 4 25
CrS GaussianBlur  medianblur_0 42.829352
CrL M 4 25 0 42.829423
S /home/xilinx/Bitstreams-axi_firewall/MedianBlur-GaussianBlur_pblock_medianblur_0_partial.bit 42.860306
L MedianBlur 0 43.167205
F 0 45.167366
DQ 4 29
CrS GaussianBlur  medianblur_0 45.167409
CrL G 4 29 0 45.167484
S /home/xilinx/Bitstreams-axi_firewall/GaussianBlur-GaussianBlur_pblock_medianblur_0_partial.bit 45.190332
L GaussianBlur 0 45.501186
F 0 46.674891
END 46.674916
