ARR 2 0 0.082836
CrS GaussianBlur  medianblur_0 0.082884
CrL M 2 0 0 0.082968
S /home/xilinx/Bitstreams-axi_firewall/MedianBlur-GaussianBlur_pblock_medianblur_0_partial.bit 0.090660
L MedianBlur 0 0.420797
ARR 0 1 0.453920
EQ 0 1
ARR 4 2 0.498827
R 0 0.499159
EQ 2 0
EV 0 2 0 0.499358
CrS MedianBlur  medianblur_0 0.499376
CrL G 4 2 0 0.499410
S /home/xilinx/Bitstreams-axi_firewall/GaussianBlur-GaussianBlur_pblock_medianblur_0_partial.bit 0.510402
L GaussianBlur 0 0.822350
ARR 2 3 0.833080
EQ 2 3
ARR 3 4 0.860941
EQ 3 4
ARR 1 5 0.872303
EQ 1 5
ARR 1 6 0.873408
EQ 1 6
ARR 4 7 0.875841
EQ 4 7
ARR 2 8 0.900256
EQ 2 8
ARR 0 9 0.904412
EQ 0 9
ARR 2 10 0.928121
EQ 2 10
ARR 2 11 0.938897
EQ 2 11
ARR 1 12 0.950932
EQ 1 12
ARR 3 13 0.972752
EQ 3 13
ARR 4 14 0.980977
EQ 4 14
ARR 4 15 0.984126
EQ 4 15
ARR 3 16 1.029559
EQ 3 16
ARR 0 17 1.047023
EQ 0 17
ARR 2 18 1.048350
EQ 2 18
ARR 1 19 1.122210
EQ 1 19
ARR 4 20 1.127220
EQ 4 20
ARR 0 21 1.151131
EQ 0 21
ARR 3 22 1.170659
EQ 3 22
ARR 0 23 1.202352
EQ 0 23
ARR 4 24 1.214650
EQ 4 24
ARR 4 25 1.226984
EQ 4 25
ARR 2 26 1.237696
EQ 2 26
ARR 3 27 1.250715
EQ 3 27
ARR 3 28 1.252252
EQ 3 28
ARR 4 29 1.268165
EQ 4 29
F 0 1.996126
DQ 0 1
CrS GaussianBlur  medianblur_0 1.996160
CrL M 0 1 0 1.996222
S /home/xilinx/Bitstreams-axi_firewall/MedianBlur-GaussianBlur_pblock_medianblur_0_partial.bit 2.020403
L MedianBlur 0 2.334987
F 0 4.335030
DQ 0 9
CrL M 0 9 0 4.335118
L MedianBlur 0 4.379844
F 0 6.380182
DQ 0 17
CrL M 0 17 0 6.380267
L MedianBlur 0 6.409844
F 0 8.409838
DQ 0 21
CrL M 0 21 0 8.409926
L MedianBlur 0 8.439853
F 0 9.773244
DQ 0 23
CrL M 0 23 0 9.773325
L MedianBlur 0 9.819837
F 0 11.153326
DQ 1 5
CrL M 1 5 0 11.153398
L MedianBlur 0 11.179853
F 0 11.846647
DQ 1 6
CrS GaussianBlur  medianblur_0 11.846692
CrL G 1 6 0 11.846764
S /home/xilinx/Bitstreams-axi_firewall/GaussianBlur-GaussianBlur_pblock_medianblur_0_partial.bit 11.870442
L GaussianBlur 0 12.202049
F 0 13.375786
DQ 1 12
CrS GaussianBlur  medianblur_0 13.375833
CrL M 1 12 0 13.375909
S /home/xilinx/Bitstreams-axi_firewall/MedianBlur-GaussianBlur_pblock_medianblur_0_partial.bit 13.410437
L MedianBlur 0 13.740222
F 0 15.073697
DQ 1 19
CrL M 1 19 0 15.073782
L MedianBlur 0 15.109868
F 0 17.110091
DQ 2 0
CrL M 2 0 0 17.110182
L MedianBlur 0 17.110229
F 0 17.698890
DQ 2 3
CrS GaussianBlur  medianblur_0 17.698938
CrL G 2 3 0 17.699007
S /home/xilinx/Bitstreams-axi_firewall/GaussianBlur-GaussianBlur_pblock_medianblur_0_partial.bit 17.720425
L GaussianBlur 0 18.042733
F 0 19.216460
DQ 2 8
CrL G 2 8 0 19.216554
L GaussianBlur 0 19.289841
F 0 20.463571
DQ 2 10
CrS GaussianBlur  medianblur_0 20.463621
CrL M 2 10 0 20.463736
S /home/xilinx/Bitstreams-axi_firewall/MedianBlur-GaussianBlur_pblock_medianblur_0_partial.bit 20.470522
L MedianBlur 0 20.791062
F 0 21.457910
DQ 2 11
CrL M 2 11 0 21.458002
L MedianBlur 0 21.469843
F 0 23.470069
DQ 2 18
CrL M 2 18 0 23.470160
L MedianBlur 0 23.499840
F 0 25.499839
DQ 2 26
CrS GaussianBlur  medianblur_0 25.499890
CrL G 2 26 0 25.499965
S /home/xilinx/Bitstreams-axi_firewall/GaussianBlur-GaussianBlur_pblock_medianblur_0_partial.bit 25.530412
L GaussianBlur 0 25.828763
F 0 27.002472
DQ 3 4
CrS GaussianBlur  medianblur_0 27.002515
CrL M 3 4 0 27.002587
S /home/xilinx/Bitstreams-axi_firewall/MedianBlur-GaussianBlur_pblock_medianblur_0_partial.bit 27.030381
L MedianBlur 0 27.354137
F 0 28.020925
DQ 3 13
CrL M 3 13 0 28.021008
L MedianBlur 0 28.049845
F 0 30.049802
DQ 3 16
CrL M 3 16 0 30.049930
L MedianBlur 0 30.079841
F 0 30.746669
DQ 3 22
CrL M 3 22 0 30.746754
L MedianBlur 0 30.799837
F 0 32.133252
DQ 3 27
CrL M 3 27 0 32.133343
L MedianBlur 0 32.169843
F 0 33.503351
DQ 3 28
CrL M 3 28 0 33.503436
L MedianBlur 0 33.529839
F 0 34.863415
DQ 4 7
CrS GaussianBlur  medianblur_0 34.863457
CrL G 4 7 0 34.863525
S /home/xilinx/Bitstreams-axi_firewall/GaussianBlur-GaussianBlur_pblock_medianblur_0_partial.bit 34.890418
L GaussianBlur 0 35.231475
F 0 36.405197
DQ 4 14
CrS GaussianBlur  medianblur_0 36.405246
CrL M 4 14 0 36.405319
S /home/xilinx/Bitstreams-axi_firewall/MedianBlur-GaussianBlur_pblock_medianblur_0_partial.bit 36.420414
L MedianBlur 0 36.719411
F 0 38.719592
DQ 4 15
CrL M 4 15 0 38.719684
L MedianBlur 0 38.739856
F 0 40.073241
DQ 4 20
CrL M 4 20 0 40.073329
L MedianBlur 0 40.119838
F 0 42.119946
DQ 4 24
CrS GaussianBlur  medianblur_0 42.119996
CrL G 4 24 0 42.120071
S /home/xilinx/Bitstreams-axi_firewall/GaussianBlur-GaussianBlur_pblock_medianblur_0_partial.bit 42.130520
L GaussianBlur 0 42.443612
F 0 43.617353
DQ 4 25
CrS GaussianBlur  medianblur_0 43.617403
CrL M 4 25 0 43.617492
S /home/xilinx/Bitstreams-axi_firewall/MedianBlur-GaussianBlur_pblock_medianblur_0_partial.bit 43.618010
L MedianBlur 0 43.919401
F 0 45.919642
DQ 4 29
CrS GaussianBlur  medianblur_0 45.919691
CrL G 4 29 0 45.919766
S /home/xilinx/Bitstreams-axi_firewall/GaussianBlur-GaussianBlur_pblock_medianblur_0_partial.bit 45.940426
L GaussianBlur 0 46.253685
F 0 47.427436
END 47.427468
