ARR 2 0 0.082909
CrS GaussianBlur  medianblur_0 0.082958
CrL M 2 0 0 0.083033
S /home/xilinx/Bitstreams-axi_firewall/MedianBlur-GaussianBlur_pblock_medianblur_0_partial.bit 0.100483
L MedianBlur 0 0.432908
ARR 0 1 0.466033
EQ 0 1
ARR 4 2 0.510943
R 0 0.511269
EQ 2 0
EV 0 2 0 0.511464
CrS MedianBlur  medianblur_0 0.511481
CrL G 4 2 0 0.511517
S /home/xilinx/Bitstreams-axi_firewall/GaussianBlur-GaussianBlur_pblock_medianblur_0_partial.bit 0.512002
L GaussianBlur 0 0.827297
ARR 2 3 0.840510
EQ 2 3
ARR 3 4 0.868378
EQ 3 4
ARR 1 5 0.879761
EQ 1 5
ARR 1 6 0.880870
EQ 1 6
ARR 4 7 0.883306
EQ 4 7
ARR 2 8 0.907722
EQ 2 8
ARR 0 9 0.911876
EQ 0 9
ARR 2 10 0.935587
EQ 2 10
ARR 2 11 0.946358
EQ 2 11
ARR 1 12 0.958393
EQ 1 12
ARR 3 13 0.980208
EQ 3 13
ARR 4 14 0.988436
EQ 4 14
ARR 4 15 0.991569
EQ 4 15
ARR 3 16 1.037002
EQ 3 16
ARR 0 17 1.054464
EQ 0 17
ARR 2 18 1.055790
EQ 2 18
ARR 1 19 1.129643
EQ 1 19
ARR 4 20 1.134652
EQ 4 20
ARR 0 21 1.158568
EQ 0 21
ARR 3 22 1.177626
EQ 3 22
ARR 0 23 1.209296
EQ 0 23
ARR 4 24 1.221586
EQ 4 24
ARR 4 25 1.233916
EQ 4 25
ARR 2 26 1.244626
EQ 2 26
ARR 3 27 1.257624
EQ 3 27
ARR 3 28 1.259127
EQ 3 28
ARR 4 29 1.275029
EQ 4 29
F 0 2.001091
DQ 0 1
CrS GaussianBlur  medianblur_0 2.001133
CrL M 0 1 0 2.001202
S /home/xilinx/Bitstreams-axi_firewall/MedianBlur-GaussianBlur_pblock_medianblur_0_partial.bit 2.010423
L MedianBlur 0 2.298710
F 0 4.298771
DQ 0 9
CrL M 0 9 0 4.298855
L MedianBlur 0 4.339770
F 0 6.340091
DQ 0 17
CrL M 0 17 0 6.340175
L MedianBlur 0 6.359777
F 0 8.359864
DQ 0 21
CrL M 0 21 0 8.359947
L MedianBlur 0 8.399772
F 0 9.733195
DQ 0 23
CrL M 0 23 0 9.733280
L MedianBlur 0 9.739793
F 0 11.073673
DQ 1 5
CrL M 1 5 0 11.073771
L MedianBlur 0 11.109772
F 0 11.776609
DQ 1 6
CrS GaussianBlur  medianblur_0 11.776657
CrL G 1 6 0 11.776731
S /home/xilinx/Bitstreams-axi_firewall/GaussianBlur-GaussianBlur_pblock_medianblur_0_partial.bit 11.790456
L GaussianBlur 0 12.110140
F 0 13.283843
DQ 1 12
CrS GaussianBlur  medianblur_0 13.283885
CrL M 1 12 0 13.283956
S /home/xilinx/Bitstreams-axi_firewall/MedianBlur-GaussianBlur_pblock_medianblur_0_partial.bit 13.320343
L MedianBlur 0 13.624312
F 0 14.957840
DQ 1 19
CrL M 1 19 0 14.957930
L MedianBlur 0 14.989786
F 0 16.990039
DQ 2 0
CrL M 2 0 0 16.990132
L MedianBlur 0 16.990180
F 0 17.578733
DQ 2 3
CrS GaussianBlur  medianblur_0 17.578773
CrL G 2 3 0 17.578836
S /home/xilinx/Bitstreams-axi_firewall/GaussianBlur-GaussianBlur_pblock_medianblur_0_partial.bit 17.590449
L GaussianBlur 0 17.905174
F 0 19.078873
DQ 2 8
CrL G 2 8 0 19.078959
L GaussianBlur 0 19.119800
F 0 20.293523
DQ 2 10
CrS GaussianBlur  medianblur_0 20.293569
CrL M 2 10 0 20.293674
S /home/xilinx/Bitstreams-axi_firewall/MedianBlur-GaussianBlur_pblock_medianblur_0_partial.bit 20.320333
L MedianBlur 0 20.632810
F 0 21.299610
DQ 2 11
CrL M 2 11 0 21.299693
L MedianBlur 0 21.319774
F 0 23.320071
DQ 2 18
CrL M 2 18 0 23.320161
L MedianBlur 0 23.349774
F 0 25.349730
DQ 2 26
CrS GaussianBlur  medianblur_0 25.349799
CrL G 2 26 0 25.349871
S /home/xilinx/Bitstreams-axi_firewall/GaussianBlur-GaussianBlur_pblock_medianblur_0_partial.bit 25.360430
L GaussianBlur 0 25.659359
F 0 26.833080
DQ 3 4
CrS GaussianBlur  medianblur_0 26.833129
CrL M 3 4 0 26.833203
S /home/xilinx/Bitstreams-axi_firewall/MedianBlur-GaussianBlur_pblock_medianblur_0_partial.bit 26.850342
L MedianBlur 0 27.164834
F 0 27.831663
DQ 3 13
CrL M 3 13 0 27.831754
L MedianBlur 0 27.869771
F 0 29.869775
DQ 3 16
CrL M 3 16 0 29.869867
L MedianBlur 0 29.909771
F 0 30.576689
DQ 3 22
CrL M 3 22 0 30.576780
L MedianBlur 0 30.619820
F 0 31.953275
DQ 3 27
CrL M 3 27 0 31.953365
L MedianBlur 0 31.989781
F 0 33.323200
DQ 3 28
CrL M 3 28 0 33.323274
L MedianBlur 0 33.339775
F 0 34.673416
DQ 4 7
CrS GaussianBlur  medianblur_0 34.673465
CrL G 4 7 0 34.673540
S /home/xilinx/Bitstreams-axi_firewall/GaussianBlur-GaussianBlur_pblock_medianblur_0_partial.bit 34.680377
L GaussianBlur 0 35.024936
F 0 36.198681
DQ 4 14
CrS GaussianBlur  medianblur_0 36.198732
CrL M 4 14 0 36.198808
S /home/xilinx/Bitstreams-axi_firewall/MedianBlur-GaussianBlur_pblock_medianblur_0_partial.bit 36.220394
L MedianBlur 0 36.523729
F 0 38.523881
DQ 4 15
CrL M 4 15 0 38.523973
L MedianBlur 0 38.549776
F 0 39.883155
DQ 4 20
CrL M 4 20 0 39.883243
L MedianBlur 0 39.919771
F 0 41.919864
DQ 4 24
CrS GaussianBlur  medianblur_0 41.919915
CrL G 4 24 0 41.919992
S /home/xilinx/Bitstreams-axi_firewall/GaussianBlur-GaussianBlur_pblock_medianblur_0_partial.bit 41.940380
L GaussianBlur 0 42.261638
F 0 43.435347
DQ 4 25
CrS GaussianBlur  medianblur_0 43.435392
CrL M 4 25 0 43.435465
S /home/xilinx/Bitstreams-axi_firewall/MedianBlur-GaussianBlur_pblock_medianblur_0_partial.bit 43.440388
L MedianBlur 0 43.763202
F 0 45.763402
DQ 4 29
CrS GaussianBlur  medianblur_0 45.763453
CrL G 4 29 0 45.763542
S /home/xilinx/Bitstreams-axi_firewall/GaussianBlur-GaussianBlur_pblock_medianblur_0_partial.bit 45.764065
L GaussianBlur 0 46.090822
F 0 47.264523
END 47.264549
