ARR 2 0 6.059942
CrS GaussianBlur  medianblur_0 6.059992
CrL M 2 0 0 6.060078
S /home/xilinx/Bitstreams-axi_firewall/MedianBlur-GaussianBlur_pblock_medianblur_0_partial.bit 6.080500
L MedianBlur 0 6.411091
F 0 7.077862
ARR 0 1 8.485451
CrL M 0 1 0 8.485529
L MedianBlur 0 8.509833
F 0 10.509911
ARR 4 2 11.544318
CrS GaussianBlur  medianblur_0 11.544361
CrL G 4 2 0 11.544439
S /home/xilinx/Bitstreams-axi_firewall/GaussianBlur-GaussianBlur_pblock_medianblur_0_partial.bit 11.550519
L GaussianBlur 0 11.857621
ARR 2 3 11.942423
EQ 2 3
F 0 13.031350
DQ 2 3
CrL G 2 3 0 13.031423
L GaussianBlur 0 13.059824
ARR 3 4 13.964844
EQ 3 4
ARR 1 5 14.054204
EQ 1 5
ARR 1 6 14.061481
EQ 1 6
ARR 4 7 14.079411
EQ 4 7
F 0 14.233554
DQ 1 5
CrS GaussianBlur  medianblur_0 14.233584
CrL M 1 5 0 14.233649
S /home/xilinx/Bitstreams-axi_firewall/MedianBlur-GaussianBlur_pblock_medianblur_0_partial.bit 14.234180
L MedianBlur 0 14.554316
F 0 15.221219
DQ 1 6
CrS GaussianBlur  medianblur_0 15.221262
CrL G 1 6 0 15.221338
S /home/xilinx/Bitstreams-axi_firewall/GaussianBlur-GaussianBlur_pblock_medianblur_0_partial.bit 15.250396
L GaussianBlur 0 15.570168
ARR 2 8 15.853014
EQ 2 8
ARR 0 9 15.884752
EQ 0 9
F 0 16.743913
DQ 0 9
CrS GaussianBlur  medianblur_0 16.743952
CrL M 0 9 0 16.744031
S /home/xilinx/Bitstreams-axi_firewall/MedianBlur-GaussianBlur_pblock_medianblur_0_partial.bit 16.744562
L MedianBlur 0 17.070726
ARR 2 10 17.299929
EQ 2 10
ARR 2 11 17.384691
EQ 2 11
ARR 1 12 17.479508
EQ 1 12
ARR 3 13 18.553578
EQ 3 13
ARR 4 14 18.617877
EQ 4 14
ARR 4 15 18.641436
EQ 4 15
F 0 19.071098
DQ 1 12
CrL M 1 12 0 19.071160
L MedianBlur 0 19.099852
F 0 20.433365
DQ 2 8
CrS GaussianBlur  medianblur_0 20.433409
CrL G 2 8 0 20.433481
S /home/xilinx/Bitstreams-axi_firewall/GaussianBlur-GaussianBlur_pblock_medianblur_0_partial.bit 20.460406
L GaussianBlur 0 20.775026
F 0 21.948791
DQ 2 10
CrS GaussianBlur  medianblur_0 21.948834
CrL M 2 10 0 21.948908
S /home/xilinx/Bitstreams-axi_firewall/MedianBlur-GaussianBlur_pblock_medianblur_0_partial.bit 21.970397
L MedianBlur 0 22.285498
ARR 3 16 22.382237
EQ 3 16
F 0 22.952337
DQ 2 11
CrL M 2 11 0 22.952416
L MedianBlur 0 22.989822
ARR 0 17 23.421175
EQ 0 17
ARR 2 18 23.430271
EQ 2 18
F 0 24.990097
DQ 0 17
CrL M 0 17 0 24.990162
L MedianBlur 0 25.029824
F 0 27.029952
DQ 2 18
CrL M 2 18 0 27.030036
L MedianBlur 0 27.079823
ARR 1 19 28.519918
EQ 1 19
ARR 4 20 28.558488
EQ 4 20
F 0 29.079818
DQ 1 19
CrL M 1 19 0 29.079883
L MedianBlur 0 29.129827
ARR 0 21 29.649103
EQ 0 21
ARR 3 22 30.701016
EQ 3 22
F 0 31.130009
DQ 0 21
CrL M 0 21 0 31.130085
L MedianBlur 0 31.159825
F 0 32.493427
DQ 3 4
CrL M 3 4 0 32.493510
L MedianBlur 0 32.519829
ARR 0 23 32.753610
EQ 0 23
ARR 4 24 32.850456
EQ 4 24
ARR 4 25 32.947643
EQ 4 25
ARR 2 26 33.031875
EQ 2 26
F 0 33.186744
DQ 0 23
CrL M 0 23 0 33.186825
L MedianBlur 0 33.239823
ARR 3 27 34.035433
EQ 3 27
ARR 3 28 34.045945
EQ 3 28
F 0 34.573390
DQ 2 26
CrS GaussianBlur  medianblur_0 34.573421
CrL G 2 26 0 34.573483
S /home/xilinx/Bitstreams-axi_firewall/GaussianBlur-GaussianBlur_pblock_medianblur_0_partial.bit 34.590435
L GaussianBlur 0 34.894677
ARR 4 29 35.398716
EQ 4 29
F 0 36.068417
DQ 3 13
CrS GaussianBlur  medianblur_0 36.068455
CrL M 3 13 0 36.068522
S /home/xilinx/Bitstreams-axi_firewall/MedianBlur-GaussianBlur_pblock_medianblur_0_partial.bit 36.090386
L MedianBlur 0 36.388821
F 0 38.388781
DQ 3 16
CrL M 3 16 0 38.388866
L MedianBlur 0 38.419829
F 0 39.086694
DQ 3 22
CrL M 3 22 0 39.086770
L MedianBlur 0 39.109850
F 0 40.443323
DQ 3 27
CrL M 3 27 0 40.443405
L MedianBlur 0 40.499824
F 0 41.833376
DQ 3 28
CrL M 3 28 0 41.833467
L MedianBlur 0 41.879822
F 0 43.213612
DQ 4 7
CrS GaussianBlur  medianblur_0 43.213657
CrL G 4 7 0 43.213750
S /home/xilinx/Bitstreams-axi_firewall/GaussianBlur-GaussianBlur_pblock_medianblur_0_partial.bit 43.214286
L GaussianBlur 0 43.522185
F 0 44.695885
DQ 4 14
CrS GaussianBlur  medianblur_0 44.695922
CrL M 4 14 0 44.695995
S /home/xilinx/Bitstreams-axi_firewall/MedianBlur-GaussianBlur_pblock_medianblur_0_partial.bit 44.720384
L MedianBlur 0 45.019409
F 0 47.019603
DQ 4 15
CrL M 4 15 0 47.019760
L MedianBlur 0 47.049856
F 0 48.383262
DQ 4 20
CrL M 4 20 0 48.383348
L MedianBlur 0 48.419825
F 0 50.419904
DQ 4 24
CrS GaussianBlur  medianblur_0 50.419946
CrL G 4 24 0 50.420019
S /home/xilinx/Bitstreams-axi_firewall/GaussianBlur-GaussianBlur_pblock_medianblur_0_partial.bit 50.450440
L GaussianBlur 0 50.763017
F 0 51.936765
DQ 4 25
CrS GaussianBlur  medianblur_0 51.936811
CrL M 4 25 0 51.936887
S /home/xilinx/Bitstreams-axi_firewall/MedianBlur-GaussianBlur_pblock_medianblur_0_partial.bit 51.950477
L MedianBlur 0 52.239209
F 0 54.239536
DQ 4 29
CrS GaussianBlur  medianblur_0 54.239581
CrL G 4 29 0 54.239657
S /home/xilinx/Bitstreams-axi_firewall/GaussianBlur-GaussianBlur_pblock_medianblur_0_partial.bit 54.270392
L GaussianBlur 0 54.600178
F 0 55.773922
END 55.773954
