ARR 2 0 6.059958
CrS GaussianBlur  medianblur_0 6.060009
CrL M 2 0 0 6.060090
S /home/xilinx/Bitstreams-axi_firewall/MedianBlur-GaussianBlur_pblock_medianblur_0_partial.bit 6.080542
L MedianBlur 0 6.404327
F 0 7.071109
ARR 0 1 8.469932
CrL M 0 1 0 8.470007
L MedianBlur 0 8.499835
F 0 10.499918
ARR 4 2 11.528795
CrS GaussianBlur  medianblur_0 11.528828
CrL G 4 2 0 11.528895
S /home/xilinx/Bitstreams-axi_firewall/GaussianBlur-GaussianBlur_pblock_medianblur_0_partial.bit 11.540513
L GaussianBlur 0 11.859460
ARR 2 3 11.944258
EQ 2 3
F 0 13.033183
DQ 2 3
CrL G 2 3 0 13.033257
L GaussianBlur 0 13.049836
ARR 3 4 13.966686
EQ 3 4
ARR 1 5 14.056054
EQ 1 5
ARR 1 6 14.063332
EQ 1 6
ARR 4 7 14.081261
EQ 4 7
F 0 14.223574
DQ 1 5
CrS GaussianBlur  medianblur_0 14.223604
CrL M 1 5 0 14.223664
S /home/xilinx/Bitstreams-axi_firewall/MedianBlur-GaussianBlur_pblock_medianblur_0_partial.bit 14.230433
L MedianBlur 0 14.549421
F 0 15.216178
DQ 1 6
CrS GaussianBlur  medianblur_0 15.216214
CrL G 1 6 0 15.216290
S /home/xilinx/Bitstreams-axi_firewall/GaussianBlur-GaussianBlur_pblock_medianblur_0_partial.bit 15.216788
L GaussianBlur 0 15.548537
ARR 2 8 15.833721
EQ 2 8
ARR 0 9 15.865475
EQ 0 9
F 0 16.722293
DQ 0 9
CrS GaussianBlur  medianblur_0 16.722327
CrL M 0 9 0 16.722391
S /home/xilinx/Bitstreams-axi_firewall/MedianBlur-GaussianBlur_pblock_medianblur_0_partial.bit 16.730461
L MedianBlur 0 17.065117
ARR 2 10 17.301523
EQ 2 10
ARR 2 11 17.386274
EQ 2 11
ARR 1 12 17.481090
EQ 1 12
ARR 3 13 18.555172
EQ 3 13
ARR 4 14 18.619495
EQ 4 14
ARR 4 15 18.643060
EQ 4 15
F 0 19.065491
DQ 1 12
CrL M 1 12 0 19.065551
L MedianBlur 0 19.119830
F 0 20.453379
DQ 2 8
CrS GaussianBlur  medianblur_0 20.453419
CrL G 2 8 0 20.453490
S /home/xilinx/Bitstreams-axi_firewall/GaussianBlur-GaussianBlur_pblock_medianblur_0_partial.bit 20.470415
L GaussianBlur 0 20.810321
F 0 21.984081
DQ 2 10
CrS GaussianBlur  medianblur_0 21.984125
CrL M 2 10 0 21.984213
S /home/xilinx/Bitstreams-axi_firewall/MedianBlur-GaussianBlur_pblock_medianblur_0_partial.bit 21.984730
L MedianBlur 0 22.313895
ARR 3 16 22.398201
EQ 3 16
F 0 22.980704
DQ 2 11
CrL M 2 11 0 22.980777
L MedianBlur 0 23.029832
ARR 0 17 23.437097
EQ 0 17
ARR 2 18 23.446161
EQ 2 18
F 0 25.030118
DQ 0 17
CrL M 0 17 0 25.030199
L MedianBlur 0 25.069864
F 0 27.070012
DQ 2 18
CrL M 2 18 0 27.070095
L MedianBlur 0 27.129832
ARR 1 19 28.537275
EQ 1 19
ARR 4 20 28.575844
EQ 4 20
F 0 29.129760
DQ 1 19
CrL M 1 19 0 29.129845
L MedianBlur 0 29.179839
ARR 0 21 29.666420
EQ 0 21
ARR 3 22 30.718322
EQ 3 22
F 0 31.180043
DQ 0 21
CrL M 0 21 0 31.180112
L MedianBlur 0 31.229831
F 0 32.563292
DQ 3 4
CrL M 3 4 0 32.563375
L MedianBlur 0 32.569852
ARR 0 23 32.770859
EQ 0 23
ARR 4 24 32.867698
EQ 4 24
ARR 4 25 32.964871
EQ 4 25
ARR 2 26 33.049087
EQ 2 26
F 0 33.236650
DQ 0 23
CrL M 0 23 0 33.236708
L MedianBlur 0 33.249832
ARR 3 27 34.052571
EQ 3 27
ARR 3 28 34.063108
EQ 3 28
F 0 34.583384
DQ 2 26
CrS GaussianBlur  medianblur_0 34.583417
CrL G 2 26 0 34.583480
S /home/xilinx/Bitstreams-axi_firewall/GaussianBlur-GaussianBlur_pblock_medianblur_0_partial.bit 34.590483
L GaussianBlur 0 34.912369
ARR 4 29 35.425864
EQ 4 29
F 0 36.086121
DQ 3 13
CrS GaussianBlur  medianblur_0 36.086163
CrL M 3 13 0 36.086236
S /home/xilinx/Bitstreams-axi_firewall/MedianBlur-GaussianBlur_pblock_medianblur_0_partial.bit 36.110412
L MedianBlur 0 36.432680
F 0 38.432988
DQ 3 16
CrL M 3 16 0 38.433078
L MedianBlur 0 38.459866
F 0 39.126685
DQ 3 22
CrL M 3 22 0 39.126753
L MedianBlur 0 39.139836
F 0 40.473283
DQ 3 27
CrL M 3 27 0 40.473365
L MedianBlur 0 40.499836
F 0 41.833435
DQ 3 28
CrL M 3 28 0 41.833524
L MedianBlur 0 41.899833
F 0 43.233384
DQ 4 7
CrS GaussianBlur  medianblur_0 43.233415
CrL G 4 7 0 43.233478
S /home/xilinx/Bitstreams-axi_firewall/GaussianBlur-GaussianBlur_pblock_medianblur_0_partial.bit 43.260416
L GaussianBlur 0 43.584395
F 0 44.758126
DQ 4 14
CrS GaussianBlur  medianblur_0 44.758170
CrL M 4 14 0 44.758245
S /home/xilinx/Bitstreams-axi_firewall/MedianBlur-GaussianBlur_pblock_medianblur_0_partial.bit 44.780423
L MedianBlur 0 45.089442
F 0 47.089610
DQ 4 15
CrL M 4 15 0 47.089761
L MedianBlur 0 47.129833
F 0 48.463190
DQ 4 20
CrL M 4 20 0 48.463271
L MedianBlur 0 48.479852
F 0 50.479953
DQ 4 24
CrS GaussianBlur  medianblur_0 50.479996
CrL G 4 24 0 50.480072
S /home/xilinx/Bitstreams-axi_firewall/GaussianBlur-GaussianBlur_pblock_medianblur_0_partial.bit 50.500428
L GaussianBlur 0 50.809453
F 0 51.983190
DQ 4 25
CrS GaussianBlur  medianblur_0 51.983232
CrL M 4 25 0 51.983307
S /home/xilinx/Bitstreams-axi_firewall/MedianBlur-GaussianBlur_pblock_medianblur_0_partial.bit 52.010394
L MedianBlur 0 52.308837
F 0 54.309022
DQ 4 29
CrS GaussianBlur  medianblur_0 54.309067
CrL G 4 29 0 54.309143
S /home/xilinx/Bitstreams-axi_firewall/GaussianBlur-GaussianBlur_pblock_medianblur_0_partial.bit 54.330408
L GaussianBlur 0 54.661026
F 0 55.834774
END 55.834805
