ARR 2 0 0.082831
CrS GaussianBlur GaussianBlur medianblur_0 0.082873
CrL M 2 0 0 0.082955
S /home/xilinx/Bitstreams-axi_firewall/MedianBlur-GaussianBlur_pblock_medianblur_0_partial.bit 0.110441
L MedianBlur 0 0.414671
ARR 0 1 0.452937
CrS MedianBlur GaussianBlur gaussianblur_0 0.452963
CrL M 0 1 1 0.453030
S /home/xilinx/Bitstreams-axi_firewall/MedianBlur-MedianBlur_pblock_gaussianblur_0_partial.bit 0.480583
L MedianBlur 1 0.801002
ARR 4 2 0.845823
EQ 4 2
ARR 2 3 0.856637
EQ 2 3
ARR 3 4 0.884494
EQ 3 4
ARR 1 5 0.895850
EQ 1 5
ARR 1 6 0.896954
EQ 1 6
ARR 4 7 0.899389
EQ 4 7
ARR 2 8 0.923805
EQ 2 8
ARR 0 9 0.927964
EQ 0 9
ARR 2 10 0.951679
EQ 2 10
ARR 2 11 0.962458
EQ 2 11
ARR 1 12 0.974504
EQ 1 12
ARR 3 13 0.996330
EQ 3 13
ARR 4 14 1.004553
EQ 4 14
ARR 4 15 1.007689
EQ 4 15
ARR 3 16 1.053119
EQ 3 16
ARR 0 17 1.070575
EQ 0 17
ARR 2 18 1.071898
EQ 2 18
F 0 1.087763
DQ 0 9
CrL M 0 9 0 1.087815
L MedianBlur 0 1.099792
ARR 1 19 1.145964
EQ 1 19
ARR 4 20 1.150968
EQ 4 20
ARR 0 21 1.174878
EQ 0 21
ARR 3 22 1.193927
EQ 3 22
ARR 0 23 1.225590
EQ 0 23
ARR 4 24 1.237876
EQ 4 24
ARR 4 25 1.250200
EQ 4 25
ARR 2 26 1.260909
EQ 2 26
ARR 3 27 1.273908
EQ 3 27
ARR 3 28 1.275407
EQ 3 28
ARR 4 29 1.291308
EQ 4 29
F 1 2.834903
DQ 0 17
CrL M 0 17 1 2.834981
L MedianBlur 1 2.889818
F 0 3.130986
DQ 0 21
CrL M 0 21 0 3.131043
L MedianBlur 0 3.149818
F 0 4.504991
DQ 0 23
CrL M 0 23 0 4.505071
L MedianBlur 0 4.529789
F 1 4.915085
DQ 1 5
CrL M 1 5 1 4.915145
L MedianBlur 1 4.939789
F 1 5.619285
DQ 1 6
CrS MedianBlur GaussianBlur gaussianblur_0 5.619319
CrL G 1 6 1 5.619400
S /home/xilinx/Bitstreams-axi_firewall/MedianBlur-GaussianBlur_pblock_gaussianblur_0_partial.bit 5.620062
L GaussianBlur 1 5.933409
F 0 5.939863
DQ 1 12
CrL M 1 12 0 5.939931
L MedianBlur 0 5.959813
F 1 7.111676
DQ 1 19
CrS MedianBlur GaussianBlur gaussianblur_0 7.111707
CrL M 1 19 1 7.111771
S /home/xilinx/Bitstreams-axi_firewall/MedianBlur-MedianBlur_pblock_gaussianblur_0_partial.bit 7.130346
L MedianBlur 1 7.442516
F 0 7.449882
DQ 2 3
CrS GaussianBlur MedianBlur medianblur_0 7.449910
CrL G 2 3 0 7.449980
S /home/xilinx/Bitstreams-axi_firewall/GaussianBlur-MedianBlur_pblock_medianblur_0_partial.bit 7.450465
L GaussianBlur 0 7.764208
F 0 8.942543
DQ 2 8
CrL G 2 8 0 8.942621
L GaussianBlur 0 8.969793
F 1 9.455368
DQ 2 10
CrL M 2 10 1 9.455442
L MedianBlur 1 9.480384
F 0 10.148085
DQ 2 11
CrS GaussianBlur MedianBlur medianblur_0 10.148120
CrL M 2 11 0 10.148188
S /home/xilinx/Bitstreams-axi_firewall/MedianBlur-MedianBlur_pblock_medianblur_0_partial.bit 10.170397
L MedianBlur 0 10.474087
F 1 10.479902
DQ 2 18
CrL M 2 18 1 10.479974
L MedianBlur 1 10.499804
F 0 12.510574
DQ 2 26
CrS GaussianBlur MedianBlur medianblur_0 12.510619
CrL G 2 26 0 12.510695
S /home/xilinx/Bitstreams-axi_firewall/GaussianBlur-MedianBlur_pblock_medianblur_0_partial.bit 12.540362
L GaussianBlur 0 12.863455
F 1 12.863533
DQ 3 4
CrL M 3 4 1 12.863604
L MedianBlur 1 12.889801
F 1 13.561189
DQ 3 13
CrL M 3 13 1 13.561276
L MedianBlur 1 13.599788
F 0 14.041634
DQ 3 16
CrS GaussianBlur MedianBlur medianblur_0 14.041667
CrL M 3 16 0 14.041733
S /home/xilinx/Bitstreams-axi_firewall/MedianBlur-MedianBlur_pblock_medianblur_0_partial.bit 14.050427
L MedianBlur 0 14.373647
F 0 15.048195
DQ 3 22
CrL M 3 22 0 15.048273
L MedianBlur 0 15.089788
F 1 15.611085
DQ 3 27
CrL M 3 27 1 15.611172
L MedianBlur 1 15.629825
F 0 16.439482
DQ 3 28
CrL M 3 28 0 16.439551
L MedianBlur 0 16.489787
F 1 16.984351
DQ 4 2
CrS MedianBlur GaussianBlur gaussianblur_0 16.984381
CrL G 4 2 1 16.984448
S /home/xilinx/Bitstreams-axi_firewall/MedianBlur-GaussianBlur_pblock_gaussianblur_0_partial.bit 16.984991
L GaussianBlur 1 17.302778
F 0 17.837472
DQ 4 7
CrS GaussianBlur MedianBlur medianblur_0 17.837512
CrL G 4 7 0 17.837587
S /home/xilinx/Bitstreams-axi_firewall/GaussianBlur-GaussianBlur_pblock_medianblur_0_partial.bit 17.840367
L GaussianBlur 0 18.163404
F 1 18.479901
DQ 4 14
CrS MedianBlur GaussianBlur gaussianblur_0 18.479938
CrL M 4 14 1 18.480009
S /home/xilinx/Bitstreams-axi_firewall/GaussianBlur-MedianBlur_pblock_gaussianblur_0_partial.bit 18.490441
L MedianBlur 1 18.804244
F 0 19.340456
DQ 4 15
CrS GaussianBlur MedianBlur medianblur_0 19.340495
CrL M 4 15 0 19.340567
S /home/xilinx/Bitstreams-axi_firewall/MedianBlur-MedianBlur_pblock_medianblur_0_partial.bit 19.360377
L MedianBlur 0 19.678396
F 1 20.827501
DQ 4 20
CrL M 4 20 1 20.827579
L MedianBlur 1 20.879788
F 0 21.034569
DQ 4 24
CrS GaussianBlur MedianBlur medianblur_0 21.034599
CrL G 4 24 0 21.034669
S /home/xilinx/Bitstreams-axi_firewall/GaussianBlur-MedianBlur_pblock_medianblur_0_partial.bit 21.035182
L GaussianBlur 0 21.374636
F 0 22.553067
DQ 4 25
CrS GaussianBlur MedianBlur medianblur_0 22.553111
CrL M 4 25 0 22.553184
S /home/xilinx/Bitstreams-axi_firewall/MedianBlur-MedianBlur_pblock_medianblur_0_partial.bit 22.570369
L MedianBlur 0 22.902378
F 1 22.909901
DQ 4 29
CrS MedianBlur GaussianBlur gaussianblur_0 22.909933
CrL G 4 29 1 22.910002
S /home/xilinx/Bitstreams-axi_firewall/MedianBlur-GaussianBlur_pblock_gaussianblur_0_partial.bit 22.930353
L GaussianBlur 1 23.229293
F 1 24.407737
F 0 24.912091
END 24.912117
